%!PS-Adobe-3.0 EPSF-3.0 
%%BoundingBox: 0 0 204 172
%%Pages: 0
%%Creator: LibreOffice 6.4
%%Title: none
%%CreationDate: none
%%LanguageLevel: 2
%%EndComments
%%BeginProlog
%%BeginResource: procset SDRes-Prolog 1.0 0
/b4_inc_state save def
/dict_count countdictstack def
/op_count count 1 sub def
userdict begin
0 setgray 0 setlinecap 1 setlinewidth 0 setlinejoin 10 setmiterlimit[] 0 setdash newpath
/languagelevel where {pop languagelevel 1 ne {false setstrokeadjust false setoverprint} if} if
/bdef {bind def} bind def
/c {setrgbcolor} bdef
/l {neg lineto} bdef
/rl {neg rlineto} bdef
/lc {setlinecap} bdef
/lj {setlinejoin} bdef
/lw {setlinewidth} bdef
/ml {setmiterlimit} bdef
/ld {setdash} bdef
/m {neg moveto} bdef
/ct {6 2 roll neg 6 2 roll neg 6 2 roll neg curveto} bdef
/r {rotate} bdef
/t {neg translate} bdef
/s {scale} bdef
/sw {show} bdef
/gs {gsave} bdef
/gr {grestore} bdef
/f {findfont dup length dict begin
{1 index /FID ne {def} {pop pop} ifelse} forall /Encoding ISOLatin1Encoding def
currentdict end /NFont exch definefont pop /NFont findfont} bdef
/p {closepath} bdef
/sf {scalefont setfont} bdef
/ef {eofill}bdef
/pc {closepath stroke}bdef
/ps {stroke}bdef
/pum {matrix currentmatrix}bdef
/pom {setmatrix}bdef
/bs {/aString exch def /nXOfs exch def /nWidth exch def currentpoint nXOfs 0 rmoveto pum nWidth aString stringwidth pop div 1 scale aString show pom moveto} bdef
%%EndResource
%%EndProlog
%%BeginSetup
%%EndSetup
%%Page: 1 1
%%BeginPageSetup
%%EndPageSetup
pum
0.02833 0.02841 s 
0 -6053 t
/tm matrix currentmatrix def
tm setmatrix
-3600 -2972 t 
1 1 s 
gs
36 lw 1 lj 1.000 0.222 0.222 c 5999 4419 m  6068 4419 l  ps
6112 4419 m  6181 4419 l  ps
6226 4419 m  6295 4419 l  ps
6339 4419 m  6408 4419 l  ps
6453 4419 m  6522 4419 l  ps
6566 4419 m  6635 4419 l  ps
6679 4419 m  6748 4419 l  ps
6793 4419 m  6862 4419 l  ps
6906 4419 m  6975 4419 l  ps
7020 4419 m  7089 4419 l  ps
7133 4419 m  7202 4419 l  ps
7246 4419 m  7299 4419 l  ps
gr
gs
36 lw 1 lj 1.000 0.222 0.222 c 5999 7378 m  6068 7378 l  ps
6112 7378 m  6181 7378 l  ps
6226 7378 m  6295 7378 l  ps
6339 7378 m  6408 7378 l  ps
6453 7378 m  6522 7378 l  ps
6566 7378 m  6635 7378 l  ps
6679 7378 m  6748 7378 l  ps
6793 7378 m  6862 7378 l  ps
6906 7378 m  6975 7378 l  ps
7020 7378 m  7089 7378 l  ps
7133 7378 m  7202 7378 l  ps
7246 7378 m  7299 7378 l  ps
gr
gs
1.000 0.222 0.222 c 6599 4399 m  5998 4999 l  5998 4399 l  6599 4399 l 
6599 4399 l  p ef
gr
gs
1.000 0.222 0.222 c 4799 7398 m  3600 7398 l  3600 4399 l  5999 4399 l 
5999 7398 l  4799 7398 l  p ef
gr
gs
52.98756 lw 1 lj 0.003 0.003 0.003 c 5999 4998 m  5999 8997 l  ps
gr
gs
52.98756 lw 1 lj 0.003 0.003 0.003 c 6199 4998 m  6199 8997 l  ps
gr
gs
52.98756 lw 1 lj 0.003 0.003 0.003 c 8198 2999 m  8198 6997 l  ps
gr
gs
52.98756 lw 1 lj 0.003 0.003 0.003 c 6199 8997 m  8198 6997 l  ps
gr
gs
52.98756 lw 1 lj 0.003 0.003 0.003 c 6199 4998 m  8198 2999 l  ps
gr
gs
52.98756 lw 1 lj 0.003 0.003 0.003 c 5999 4998 m  7998 2999 l  ps
gr
gs
52.98756 lw 1 lj 0.003 0.003 0.003 c 5999 8997 m  6199 8997 l  ps
gr
gs
52.98756 lw 1 lj 0.003 0.003 0.003 c 5999 4998 m  6199 4998 l  ps
gr
gs
52.98756 lw 1 lj 0.003 0.003 0.003 c 7998 2999 m  8198 2999 l  ps
gr
gs
1.000 0.222 0.222 c 7700 5899 m  7700 6162 7681 6421 7646 6649 ct 7611 6877 7561 7066 7500 7198 ct 
7439 7330 7370 7399 7300 7399 ct 7229 7399 7160 7330 7099 7198 ct 7038 7066 6988 6877 6953 6649 ct 
6918 6421 6899 6162 6899 5899 ct 6899 5635 6918 5376 6953 5148 ct 6988 4920 7038 4731 7099 4599 ct 
7160 4468 7229 4399 7300 4399 ct 7370 4399 7439 4468 7500 4599 ct 7561 4731 7611 4920 7646 5148 ct 
7681 5376 7700 5635 7700 5898 ct 7700 5899 l  p ef
gr
gs
52.98756 lw 1 lj 0.003 0.003 0.003 c 7699 5899 m  7699 6161 7680 6420 7645 6648 ct 
7610 6876 7560 7065 7499 7197 ct 7438 7329 7369 7398 7299 7398 ct 7228 7398 7160 7329 7099 7197 ct 
7038 7065 6988 6876 6953 6648 ct 6918 6420 6899 6161 6899 5899 ct 6899 5635 6918 5376 6953 5148 ct 
6988 4920 7038 4731 7099 4599 ct 7160 4467 7228 4398 7299 4398 ct 7369 4398 7438 4467 7499 4599 ct 
7560 4731 7610 4920 7645 5148 ct 7680 5376 7699 5635 7699 5898 ct 7699 5899 l 
pc
gr
gs
1.000 0.222 0.222 c 7548 5598 m  7548 5739 7536 5877 7515 5999 ct 7493 6120 7461 6221 7423 6292 ct 
7385 6362 7342 6399 7298 6399 ct 7254 6399 7211 6362 7173 6292 ct 7135 6221 7103 6120 7081 5999 ct 
7060 5877 7048 5739 7048 5598 ct 7048 5458 7060 5320 7081 5198 ct 7103 5077 7135 4976 7173 4905 ct 
7211 4835 7254 4798 7298 4798 ct 7342 4798 7385 4835 7423 4905 ct 7461 4976 7493 5077 7515 5198 ct 
7536 5320 7548 5458 7548 5598 ct 7548 5598 l  p ef
gr
gs
52.98756 lw 1 lj 0.554 0.160 0.121 c 7547 5598 m  7547 5739 7535 5877 7514 5999 ct 
7492 6119 7460 6220 7422 6291 ct 7384 6361 7341 6398 7297 6398 ct 7253 6398 7210 6361 7173 6291 ct 
7135 6220 7103 6119 7081 5999 ct 7060 5877 7048 5739 7048 5598 ct 7048 5458 7060 5320 7081 5198 ct 
7103 5077 7135 4976 7173 4905 ct 7210 4835 7253 4798 7297 4798 ct 7341 4798 7384 4835 7422 4905 ct 
7460 4976 7492 5077 7514 5198 ct 7535 5320 7547 5458 7547 5598 ct 7547 5598 l 
pc
gr
gs
52.98756 lw 1 lj 0.003 0.003 0.003 c 9298 5498 m  9298 5898 l  ps
gr
gs
52.98756 lw 1 lj 0.003 0.003 0.003 c 9498 5298 m  9498 5698 l  ps
gr
gs
52.98756 lw 1 lj 0.003 0.003 0.003 c 9298 5498 m  9498 5298 l  ps
gr
gs
52.98756 lw 1 lj 0.003 0.003 0.003 c 9298 5898 m  9498 5698 l  ps
gr
gs
36 lw 1 lj 0.554 0.160 0.121 c 7399 5598 m  8742 5598 l  ps
gr
gs
0.554 0.160 0.121 c 8999 5598 m  8718 5422 l  8718 5774 l  8999 5598 l 
p ef
gr
gs
36 lw 1 lj 0.554 0.160 0.121 c 7390 5298 m  8343 5377 l  ps
gr
gs
0.554 0.160 0.121 c 8599 5398 m  8334 5199 l  8305 5550 l  8599 5398 l 
p ef
gr
gs
36 lw 1 lj 0.554 0.160 0.121 c 7390 5925 m  8343 5825 l  ps
gr
gs
0.554 0.160 0.121 c 8599 5798 m  8301 5652 l  8338 6002 l  8599 5798 l 
p ef
gr
gs
36 lw 1 lj 0.554 0.160 0.121 c 7382 6225 m  7958 6014 l  ps
gr
gs
0.554 0.160 0.121 c 8199 5925 m  7875 5857 l  7996 6187 l  8199 5925 l 
p ef
gr
gs
36 lw 1 lj 0.554 0.160 0.121 c 7374 4958 m  7950 5169 l  ps
gr
gs
0.554 0.160 0.121 c 8191 5258 m  7988 4996 l  7867 5326 l  8191 5258 l 
p ef
gr
gs
29 lw 1 lj 0.003 0.003 0.003 c 7399 4798 m  7451 4817 l  ps
7484 4829 m  7536 4848 l  ps
7569 4861 m  7621 4880 l  ps
7654 4892 m  7706 4911 l  ps
7740 4923 m  7791 4943 l  ps
7825 4955 m  7876 4974 l  ps
7910 4986 m  7962 5005 l  ps
7995 5018 m  8047 5037 l  ps
8080 5049 m  8132 5068 l  ps
8165 5080 m  8217 5099 l  ps
8250 5112 m  8302 5131 l  ps
8335 5143 m  8387 5162 l  ps
8421 5174 m  8472 5193 l  ps
8506 5206 m  8557 5225 l  ps
8591 5237 m  8643 5256 l  ps
8676 5268 m  8728 5288 l  ps
8761 5300 m  8813 5319 l  ps
8846 5331 m  8898 5350 l  ps
8931 5363 m  8983 5382 l  ps
9016 5394 m  9068 5413 l  ps
9102 5425 m  9153 5444 l  ps
9187 5457 m  9238 5476 l  ps
9272 5488 m  9299 5498 l  ps
gr
gs
29 lw 1 lj 0.003 0.003 0.003 c 7399 6398 m  7451 6379 l  ps
7484 6367 m  7536 6348 l  ps
7569 6335 m  7621 6316 l  ps
7654 6304 m  7706 6285 l  ps
7740 6273 m  7791 6253 l  ps
7825 6241 m  7876 6222 l  ps
7910 6210 m  7962 6191 l  ps
7995 6178 m  8047 6159 l  ps
8080 6147 m  8132 6128 l  ps
8165 6116 m  8217 6097 l  ps
8250 6084 m  8302 6065 l  ps
8335 6053 m  8387 6034 l  ps
8421 6022 m  8472 6003 l  ps
8506 5990 m  8557 5971 l  ps
8591 5959 m  8643 5940 l  ps
8676 5928 m  8728 5908 l  ps
8761 5896 m  8813 5877 l  ps
8846 5865 m  8898 5846 l  ps
8931 5833 m  8983 5814 l  ps
9016 5802 m  9068 5783 l  ps
9102 5771 m  9153 5752 l  ps
9187 5739 m  9238 5720 l  ps
9272 5708 m  9299 5698 l  ps
gr
pum
9049 6353 t
0.003 0.003 0.003 c 20 -1 m  20 -71 l  20 -74 20 -76 20 -77 ct 20 -78 20 -78 21 -79 ct 
22 -80 23 -80 24 -80 ct 27 -80 28 -79 29 -77 ct 29 -53 37 -35 50 -22 ct 64 -10 83 -3 106 -3 ct 
120 -3 132 -8 140 -18 ct 149 -28 154 -40 154 -54 ct 154 -66 150 -77 143 -86 ct 
140 -90 136 -93 132 -96 ct 128 -99 125 -100 123 -101 ct 120 -102 117 -103 113 -104 ct 
83 -111 68 -115 66 -116 ct 52 -120 41 -129 32 -141 ct 24 -153 20 -166 20 -180 ct 
20 -199 26 -215 40 -229 ct 53 -242 69 -249 89 -249 ct 98 -249 107 -247 115 -244 ct 
123 -241 129 -238 132 -236 ct 136 -233 140 -229 145 -224 ct 157 -244 l  159 -247 161 -249 163 -249 ct 
165 -249 166 -248 166 -247 ct 166 -246 167 -244 167 -240 ct 167 -169 l  167 -167 167 -165 166 -164 ct 
166 -163 166 -162 165 -162 ct 164 -161 163 -161 162 -161 ct 160 -161 158 -162 158 -165 ct 
151 -214 128 -239 89 -239 ct 76 -239 64 -234 56 -225 ct 47 -216 42 -205 42 -193 ct 
42 -182 46 -173 52 -164 ct 59 -156 67 -150 78 -148 ct 123 -137 l  138 -133 151 -125 161 -112 ct 
171 -98 176 -83 176 -66 ct 176 -46 170 -28 157 -14 ct 143 1 127 8 107 8 ct 92 8 79 5 68 1 ct 
56 -4 48 -10 42 -17 ct 37 -9 33 -3 30 1 ct 29 3 l  27 6 25 8 24 8 ct 22 8 21 7 20 6 ct 
20 5 20 3 20 -1 ct p ef
205 -78 m  205 -100 212 -119 226 -134 ct 240 -150 258 -158 278 -158 ct 299 -158 315 -151 325 -138 ct 
336 -125 341 -108 341 -89 ct 341 -85 341 -83 340 -83 ct 339 -82 337 -82 333 -82 ct 
234 -82 l  234 -58 238 -40 245 -29 ct 255 -13 268 -5 285 -5 ct 287 -5 290 -5 292 -6 ct 
295 -6 299 -7 305 -9 ct 310 -11 316 -15 321 -20 ct 326 -26 329 -33 332 -41 ct 333 -45 335 -46 337 -46 ct 
340 -46 341 -45 341 -42 ct 341 -40 340 -37 338 -32 ct 336 -27 333 -22 328 -17 ct 
324 -11 318 -6 310 -2 ct 301 2 292 4 283 4 ct 262 4 244 -4 228 -20 ct 213 -35 205 -55 205 -78 ct 
p
235 -89 m  318 -89 l  318 -94 318 -99 317 -105 ct 316 -110 314 -117 312 -124 ct 
310 -132 305 -138 300 -143 ct 294 -148 287 -150 278 -150 ct 275 -150 271 -150 266 -148 ct 
262 -146 258 -143 253 -140 ct 248 -136 244 -129 240 -121 ct 237 -112 235 -101 235 -89 ct 
p ef
362 0 m  362 -11 l  375 -11 382 -12 385 -13 ct 388 -15 390 -19 390 -27 ct 390 -121 l 
390 -130 388 -136 385 -138 ct 382 -140 375 -141 362 -141 ct 362 -152 l  412 -156 l 
412 -119 l  423 -144 441 -156 464 -156 ct 482 -156 494 -152 501 -143 ct 507 -137 510 -131 511 -124 ct 
512 -118 512 -106 512 -89 ct 512 -22 l  513 -17 515 -14 518 -13 ct 522 -11 529 -11 540 -11 ct 
540 0 l  516 -1 503 -1 500 -1 ct 498 -1 485 -1 460 0 ct 460 -11 l  473 -11 481 -12 484 -13 ct 
486 -15 488 -19 488 -27 ct 488 -109 l  488 -121 486 -131 482 -138 ct 479 -145 472 -148 462 -148 ct 
450 -148 439 -143 429 -133 ct 419 -123 414 -109 414 -92 ct 414 -27 l  414 -19 416 -15 419 -13 ct 
422 -12 429 -11 442 -11 ct 442 0 l  418 -1 405 -1 402 -1 ct 400 -1 387 -1 362 0 ct 
p ef
558 -5 m  558 -51 l  558 -54 558 -56 558 -56 ct 558 -57 558 -58 559 -59 ct 560 -60 561 -60 562 -60 ct 
564 -60 565 -60 566 -59 ct 566 -58 567 -57 567 -54 ct 571 -38 576 -25 584 -17 ct 
592 -8 602 -4 616 -4 ct 629 -4 639 -7 646 -13 ct 653 -19 656 -26 656 -36 ct 656 -53 644 -64 619 -68 ct 
605 -71 595 -74 589 -76 ct 584 -77 578 -80 573 -85 ct 563 -93 558 -103 558 -115 ct 
558 -126 562 -137 571 -145 ct 580 -154 594 -158 614 -158 ct 627 -158 638 -155 647 -148 ct 
650 -150 652 -152 653 -154 ct 656 -157 659 -158 660 -158 ct 662 -158 663 -158 664 -156 ct 
664 -155 664 -153 664 -150 ct 664 -114 l  664 -111 664 -110 664 -109 ct 664 -108 664 -107 663 -106 ct 
662 -106 661 -106 660 -106 ct 657 -106 656 -107 655 -109 ct 654 -137 640 -151 614 -151 ct 
600 -151 590 -149 584 -143 ct 578 -138 575 -132 575 -125 ct 575 -121 576 -117 577 -114 ct 
579 -111 581 -109 584 -107 ct 586 -105 590 -103 595 -102 ct 599 -100 603 -99 606 -98 ct 
608 -98 613 -97 618 -96 ct 637 -92 650 -86 658 -79 ct 668 -69 673 -58 673 -45 ct 
673 -31 668 -20 659 -10 ct 650 -1 635 4 616 4 ct 601 4 588 -1 577 -11 ct 576 -10 575 -9 574 -7 ct 
573 -6 572 -5 572 -5 ct 571 -4 571 -4 571 -4 ct 571 -4 571 -3 570 -3 ct 566 2 563 4 562 4 ct 
560 4 559 3 558 2 ct 558 1 558 -1 558 -5 ct p ef
719 -19 m  704 -34 696 -53 696 -76 ct 696 -98 703 -117 719 -134 ct 734 -150 752 -158 774 -158 ct 
796 -158 814 -150 829 -134 ct 845 -118 852 -98 852 -76 ct 852 -53 845 -35 829 -19 ct 
814 -4 795 4 774 4 ct 753 4 735 -4 719 -19 ct p
725 -78 m  725 -56 728 -39 734 -29 ct 743 -13 757 -5 774 -5 ct 783 -5 791 -7 798 -12 ct 
806 -17 811 -23 815 -31 ct 820 -41 823 -57 823 -78 ct 823 -101 820 -117 814 -127 ct 
805 -143 791 -150 774 -150 ct 766 -150 759 -148 751 -144 ct 744 -140 738 -134 734 -127 ct 
728 -116 725 -100 725 -78 ct p ef
874 0 m  874 -11 l  886 -11 894 -12 897 -13 ct 900 -15 901 -19 901 -27 ct 901 -121 l 
901 -130 900 -136 897 -138 ct 894 -140 886 -141 874 -141 ct 874 -152 l  923 -156 l 
923 -117 l  926 -127 931 -136 938 -144 ct 946 -152 955 -156 966 -156 ct 974 -156 980 -154 985 -150 ct 
990 -145 992 -140 992 -134 ct 992 -129 991 -125 988 -123 ct 985 -120 981 -119 977 -119 ct 
973 -119 969 -120 967 -123 ct 964 -126 962 -129 962 -134 ct 962 -137 963 -139 964 -142 ct 
965 -144 967 -145 968 -146 ct 969 -147 970 -148 970 -148 ct 970 -148 968 -148 966 -148 ct 
953 -148 943 -142 936 -129 ct 928 -116 925 -100 925 -82 ct 925 -28 l  925 -21 926 -16 929 -14 ct 
932 -12 939 -11 952 -11 ct 959 -11 l  959 0 l  950 -1 935 -1 914 -1 ct 911 -1 908 -1 903 -1 ct 
899 -1 894 -1 888 0 ct 882 0 877 0 874 0 ct p ef
pom
pum
10449 5949 t
22 -4 m  22 -7 23 -9 24 -10 ct 26 -11 28 -11 32 -11 ct 43 -11 51 -12 54 -14 ct 
57 -15 59 -19 61 -26 ct 108 -217 l  109 -221 110 -223 110 -224 ct 110 -227 108 -228 105 -229 ct 
102 -230 96 -230 89 -230 ct 87 -230 85 -230 84 -230 ct 83 -230 82 -231 81 -231 ct 
80 -232 80 -233 80 -234 ct 80 -237 80 -239 82 -240 ct 83 -241 86 -241 89 -241 ct 
199 -241 l  222 -241 240 -233 253 -217 ct 267 -201 274 -180 274 -155 ct 274 -129 267 -104 254 -80 ct 
241 -56 224 -36 204 -22 ct 183 -7 161 0 139 0 ct 31 0 l  29 0 27 0 26 0 ct 25 0 24 -1 23 -1 ct 
23 -2 22 -3 22 -4 ct p
87 -19 m  86 -17 86 -15 86 -14 ct 86 -14 86 -13 86 -12 ct 87 -12 88 -12 89 -11 ct 
91 -11 94 -11 97 -11 ct 133 -11 l  160 -11 184 -23 204 -46 ct 217 -61 227 -82 234 -107 ct 
241 -133 244 -153 244 -168 ct 244 -189 239 -205 228 -215 ct 217 -225 204 -230 188 -230 ct 
154 -230 l  147 -230 143 -230 141 -228 ct 139 -227 138 -223 136 -217 ct 88 -22 l 
88 -22 87 -21 87 -19 ct p ef
pom
gs
34.99178 lw 1 lj 10298 4398 m  10298 7397 l  ps
gr
gs
34.99178 lw 1 lj 10198 7397 m  10398 7397 l  ps
gr
gs
34.99178 lw 1 lj 10198 4398 m  10398 4398 l  ps
gr
pum
8149 8682 t
22 0 m  22 -2 26 -8 34 -19 ct 41 -30 50 -40 59 -49 ct 116 -106 l  119 -109 124 -114 131 -122 ct 
124 -122 118 -124 110 -127 ct 100 -131 93 -133 89 -133 ct 82 -133 77 -132 72 -128 ct 
67 -125 64 -121 62 -117 ct 62 -115 61 -113 60 -113 ct 60 -112 58 -112 56 -112 ct 
53 -112 51 -113 51 -116 ct 51 -122 55 -130 63 -140 ct 71 -151 81 -156 92 -156 ct 
100 -156 107 -151 114 -142 ct 120 -134 125 -130 130 -130 ct 134 -130 137 -131 140 -134 ct 
143 -136 147 -142 152 -151 ct 153 -154 154 -155 155 -155 ct 155 -156 157 -156 159 -156 ct 
162 -156 164 -155 164 -152 ct 164 -151 162 -148 159 -143 ct 156 -137 151 -131 145 -123 ct 
139 -115 132 -108 126 -102 ct 75 -52 l  70 -47 63 -39 55 -30 ct 56 -30 58 -30 61 -30 ct 
67 -30 74 -28 83 -24 ct 92 -21 98 -19 103 -19 ct 111 -19 118 -21 126 -27 ct 133 -33 138 -40 142 -48 ct 
142 -51 143 -52 143 -53 ct 144 -54 145 -54 148 -54 ct 151 -54 153 -53 153 -50 ct 
153 -47 151 -41 147 -33 ct 143 -25 137 -16 128 -8 ct 119 0 110 4 100 4 ct 96 4 93 3 90 2 ct 
87 0 85 -1 84 -3 ct 82 -5 80 -7 78 -10 ct 74 -15 71 -18 69 -20 ct 67 -22 64 -23 61 -23 ct 
58 -23 55 -22 52 -20 ct 49 -19 46 -17 43 -13 ct 40 -10 38 -8 38 -7 ct 37 -5 35 -3 33 1 ct 
32 3 30 4 27 4 ct 24 4 22 3 22 0 ct p ef
pom
gs
34.99178 lw 1 lj 7289 8397 m  9198 8397 l  ps
gr
gs
34.99178 lw 1 lj 9189 8497 m  9189 8297 l  ps
gr
gs
34.99178 lw 1 lj 7289 8497 m  7289 8297 l  ps
gr
0 6053 t 
pom
count op_count sub {pop} repeat countdictstack dict_count sub {end} repeat b4_inc_state restore
%%PageTrailer
%%Trailer
%%EOF
