%!PS-Adobe-3.0 EPSF-3.0 
%%BoundingBox: 0 0 335 246
%%Pages: 0
%%Creator: LibreOffice 6.4
%%Title: none
%%CreationDate: none
%%LanguageLevel: 2
%%EndComments
%%BeginProlog
%%BeginResource: procset SDRes-Prolog 1.0 0
/b4_inc_state save def
/dict_count countdictstack def
/op_count count 1 sub def
userdict begin
0 setgray 0 setlinecap 1 setlinewidth 0 setlinejoin 10 setmiterlimit[] 0 setdash newpath
/languagelevel where {pop languagelevel 1 ne {false setstrokeadjust false setoverprint} if} if
/bdef {bind def} bind def
/c {setrgbcolor} bdef
/l {neg lineto} bdef
/rl {neg rlineto} bdef
/lc {setlinecap} bdef
/lj {setlinejoin} bdef
/lw {setlinewidth} bdef
/ml {setmiterlimit} bdef
/ld {setdash} bdef
/m {neg moveto} bdef
/ct {6 2 roll neg 6 2 roll neg 6 2 roll neg curveto} bdef
/r {rotate} bdef
/t {neg translate} bdef
/s {scale} bdef
/sw {show} bdef
/gs {gsave} bdef
/gr {grestore} bdef
/f {findfont dup length dict begin
{1 index /FID ne {def} {pop pop} ifelse} forall /Encoding ISOLatin1Encoding def
currentdict end /NFont exch definefont pop /NFont findfont} bdef
/p {closepath} bdef
/sf {scalefont setfont} bdef
/ef {eofill}bdef
/pc {closepath stroke}bdef
/ps {stroke}bdef
/pum {matrix currentmatrix}bdef
/pom {setmatrix}bdef
/bs {/aString exch def /nXOfs exch def /nWidth exch def currentpoint nXOfs 0 rmoveto pum nWidth aString stringwidth pop div 1 scale aString show pom moveto} bdef
%%EndResource
%%EndProlog
%%BeginSetup
%%EndSetup
%%Page: 1 1
%%BeginPageSetup
%%EndPageSetup
pum
0.02836 0.02835 s 
0 -8677 t
/tm matrix currentmatrix def
tm setmatrix
-7205 -3980 t 
1 1 s 
gs
34.993 lw 1 lj 0.601 0.601 0.601 c 7557 7610 m  9198 5398 l  ps
gr
gs
34.993 lw 1 lj 0.601 0.601 0.601 c 9617 7610 m  7998 5398 l  ps
gr
gs
34.993 lw 1 lj 0.601 0.601 0.601 c 8548 12520 m  7598 11672 l  ps
gr
gs
34.993 lw 1 lj 0.601 0.601 0.601 c 8626 12520 m  9598 11673 l  ps
gr
gs
34.993 lw 1 lj 0.601 0.601 0.601 c 9617 11697 m  9617 7610 l  ps
gr
gs
34.993 lw 1 lj 0.601 0.601 0.601 c 7557 11697 m  7557 7610 l  ps
gr
gs
1.000 1.000 1.000 c 8588 10453 m  7242 10453 l  7242 10069 l  9932 10069 l 
9932 10453 l  8588 10453 l  p ef
gr
gs
34.993 lw 1 lj 0.003 0.003 0.003 c 8587 10452 m  7241 10452 l  7241 10068 l 
9932 10068 l  9932 10452 l  8587 10452 l  pc
gr
pum
8031 10382 t
0.003 0.003 0.003 c 20 -1 m  20 -71 l  20 -74 20 -76 20 -77 ct 20 -78 20 -78 21 -79 ct 
22 -80 23 -80 24 -80 ct 27 -80 28 -79 29 -77 ct 29 -53 37 -35 50 -22 ct 64 -10 83 -3 106 -3 ct 
120 -3 132 -8 140 -18 ct 149 -28 154 -40 154 -54 ct 154 -66 150 -77 143 -86 ct 
140 -90 136 -93 132 -96 ct 128 -99 125 -100 123 -101 ct 120 -102 117 -103 113 -104 ct 
83 -111 68 -115 66 -116 ct 52 -120 41 -129 32 -141 ct 24 -153 20 -166 20 -180 ct 
20 -199 26 -215 40 -229 ct 53 -242 69 -249 89 -249 ct 98 -249 107 -247 115 -244 ct 
123 -241 129 -238 132 -236 ct 136 -233 140 -229 145 -224 ct 157 -244 l  159 -247 161 -249 163 -249 ct 
165 -249 166 -248 166 -247 ct 166 -246 167 -244 167 -240 ct 167 -169 l  167 -167 167 -165 166 -164 ct 
166 -163 166 -162 165 -162 ct 164 -161 163 -161 162 -161 ct 160 -161 158 -162 158 -165 ct 
151 -214 128 -239 89 -239 ct 76 -239 64 -234 56 -225 ct 47 -216 42 -205 42 -193 ct 
42 -182 46 -173 52 -164 ct 59 -156 67 -150 78 -148 ct 123 -137 l  138 -133 151 -125 161 -112 ct 
171 -98 176 -83 176 -66 ct 176 -46 170 -28 157 -14 ct 143 1 127 8 107 8 ct 92 8 79 5 68 1 ct 
56 -4 48 -10 42 -17 ct 37 -9 33 -3 30 1 ct 29 3 l  27 6 25 8 24 8 ct 22 8 21 7 20 6 ct 
20 5 20 3 20 -1 ct p ef
210 -34 m  210 -54 222 -69 245 -79 ct 259 -86 281 -90 310 -92 ct 310 -105 l 
310 -120 306 -131 299 -139 ct 291 -146 282 -150 273 -150 ct 255 -150 243 -145 235 -134 ct 
242 -134 246 -132 249 -128 ct 251 -125 253 -121 253 -118 ct 253 -113 251 -109 248 -106 ct 
245 -103 241 -102 236 -102 ct 232 -102 228 -103 225 -106 ct 222 -109 220 -113 220 -118 ct 
220 -130 225 -139 236 -147 ct 246 -154 259 -158 273 -158 ct 293 -158 309 -152 322 -139 ct 
326 -135 329 -130 331 -125 ct 333 -120 334 -115 334 -112 ct 334 -109 334 -104 334 -97 ct 
334 -26 l  334 -25 335 -23 335 -21 ct 336 -19 337 -16 339 -13 ct 341 -10 344 -9 347 -9 ct 
356 -9 360 -16 360 -31 ct 360 -51 l  369 -51 l  369 -31 l  369 -19 366 -10 359 -5 ct 
353 0 346 2 340 2 ct 332 2 326 -1 321 -7 ct 316 -12 313 -19 313 -27 ct 309 -18 303 -11 295 -5 ct 
287 1 277 4 266 4 ct 258 4 250 3 242 1 ct 234 -1 226 -5 220 -11 ct 213 -17 210 -25 210 -34 ct 
p
237 -34 m  237 -25 240 -18 246 -12 ct 253 -7 260 -4 269 -4 ct 279 -4 288 -8 297 -15 ct 
306 -23 310 -34 310 -49 ct 310 -85 l  284 -84 265 -78 254 -68 ct 243 -57 237 -46 237 -34 ct 
p ef
384 0 m  384 -11 l  397 -11 404 -12 407 -13 ct 410 -15 412 -19 412 -27 ct 412 -121 l 
412 -130 410 -136 407 -138 ct 404 -140 397 -141 384 -141 ct 384 -152 l  434 -156 l 
434 -119 l  445 -144 463 -156 486 -156 ct 514 -156 529 -144 533 -121 ct 537 -130 543 -138 552 -145 ct 
560 -152 571 -156 584 -156 ct 602 -156 614 -152 622 -143 ct 627 -137 630 -131 631 -124 ct 
632 -118 632 -106 632 -89 ct 632 -22 l  633 -17 635 -14 638 -13 ct 642 -11 649 -11 660 -11 ct 
660 0 l  636 -1 623 -1 620 -1 ct 619 -1 605 -1 581 0 ct 581 -11 l  593 -11 601 -12 604 -13 ct 
607 -15 608 -19 608 -27 ct 608 -109 l  608 -121 606 -131 603 -138 ct 599 -145 592 -148 582 -148 ct 
570 -148 559 -143 549 -133 ct 539 -123 534 -109 534 -92 ct 534 -27 l  534 -19 536 -15 539 -13 ct 
542 -12 549 -11 562 -11 ct 562 0 l  538 -1 525 -1 522 -1 ct 520 -1 507 -1 482 0 ct 
482 -11 l  495 -11 503 -12 506 -13 ct 508 -15 510 -19 510 -27 ct 510 -109 l 
510 -121 508 -131 504 -138 ct 501 -145 494 -148 484 -148 ct 472 -148 461 -143 451 -133 ct 
441 -123 436 -109 436 -92 ct 436 -27 l  436 -19 438 -15 441 -13 ct 444 -12 451 -11 464 -11 ct 
464 0 l  440 -1 427 -1 424 -1 ct 422 -1 409 -1 384 0 ct p ef
675 58 m  687 58 695 57 698 55 ct 701 54 702 49 702 42 ct 702 -124 l  702 -131 701 -136 698 -138 ct 
695 -140 687 -141 675 -141 ct 675 -152 l  726 -156 l  726 -133 l  740 -148 756 -156 775 -156 ct 
795 -156 812 -148 827 -133 ct 842 -117 849 -98 849 -76 ct 849 -54 841 -35 826 -19 ct 
810 -4 792 4 770 4 ct 758 4 749 1 741 -5 ct 733 -11 728 -16 727 -21 ct 727 -18 l 
727 42 l  727 49 728 54 731 55 ct 734 57 742 58 754 58 ct 754 68 l  730 68 716 67 714 67 ct 
712 67 699 68 675 68 ct p
727 -40 m  727 -37 727 -34 727 -33 ct 728 -32 729 -29 732 -25 ct 741 -11 753 -4 769 -4 ct 
782 -4 794 -11 804 -25 ct 814 -38 820 -56 820 -76 ct 820 -96 815 -113 806 -127 ct 
796 -140 785 -147 772 -147 ct 763 -147 755 -145 747 -140 ct 739 -135 732 -128 727 -119 ct 
p ef
871 0 m  871 -11 l  883 -11 891 -12 894 -13 ct 897 -15 898 -19 898 -27 ct 898 -210 l 
898 -219 897 -225 894 -227 ct 891 -229 883 -230 871 -230 ct 871 -241 l  921 -245 l 
921 -27 l  921 -19 923 -15 926 -13 ct 929 -12 937 -11 949 -11 ct 949 0 l  946 0 942 0 936 0 ct 
930 -1 925 -1 920 -1 ct 916 -1 912 -1 910 -1 ct 907 -1 894 -1 871 0 ct p ef
967 -78 m  967 -100 974 -119 988 -134 ct 1002 -150 1020 -158 1040 -158 ct 1061 -158 1077 -151 1087 -138 ct 
1098 -125 1103 -108 1103 -89 ct 1103 -85 1103 -83 1102 -83 ct 1101 -82 1099 -82 1095 -82 ct 
996 -82 l  996 -58 1000 -40 1007 -29 ct 1017 -13 1030 -5 1047 -5 ct 1049 -5 1052 -5 1054 -6 ct 
1057 -6 1061 -7 1067 -9 ct 1072 -11 1078 -15 1083 -20 ct 1088 -26 1091 -33 1094 -41 ct 
1095 -45 1097 -46 1099 -46 ct 1102 -46 1103 -45 1103 -42 ct 1103 -40 1102 -37 1100 -32 ct 
1098 -27 1095 -22 1090 -17 ct 1086 -11 1080 -6 1072 -2 ct 1063 2 1054 4 1045 4 ct 
1024 4 1006 -4 990 -20 ct 975 -35 967 -55 967 -78 ct p
997 -89 m  1080 -89 l  1080 -94 1080 -99 1079 -105 ct 1078 -110 1076 -117 1074 -124 ct 
1072 -132 1067 -138 1062 -143 ct 1056 -148 1049 -150 1040 -150 ct 1037 -150 1033 -150 1028 -148 ct 
1024 -146 1020 -143 1015 -140 ct 1010 -136 1006 -129 1002 -121 ct 999 -112 997 -101 997 -89 ct 
p ef
pom
gs
0.871 0.902 0.937 c 8588 7803 m  8139 7803 7695 7737 7268 7610 ct 7694 7482 8139 7417 8588 7417 ct 
9036 7417 9480 7483 9907 7610 ct 9480 7737 9036 7803 8588 7803 ct p ef
gr
gs
34.993 lw 1 lj 8587 7803 m  8138 7803 7694 7737 7267 7610 ct 7693 7482 8138 7417 8587 7417 ct 
9036 7417 9480 7483 9907 7610 ct 9480 7737 9036 7803 8587 7803 ct pc
gr
pum
8233 7731 t
12 0 m  12 -11 l  20 -11 l  33 -11 41 -12 44 -14 ct 47 -16 48 -21 48 -28 ct 
48 -214 l  48 -220 47 -225 44 -227 ct 41 -229 33 -230 20 -230 ct 12 -230 l  12 -241 l 
20 -240 38 -240 65 -240 ct 96 -240 116 -240 125 -241 ct 125 -230 l  113 -230 l 
102 -230 94 -229 89 -228 ct 84 -227 81 -225 81 -223 ct 80 -221 79 -218 79 -213 ct 
79 -25 l  79 -19 80 -15 82 -13 ct 84 -12 89 -11 97 -11 ct 126 -11 l  138 -11 148 -13 157 -16 ct 
165 -20 172 -24 176 -28 ct 181 -33 185 -39 188 -48 ct 191 -56 193 -63 194 -68 ct 
195 -74 196 -81 197 -91 ct 205 -91 l  196 0 l  p ef
230 -78 m  230 -100 237 -119 251 -134 ct 265 -150 283 -158 303 -158 ct 324 -158 340 -151 350 -138 ct 
361 -125 366 -108 366 -89 ct 366 -85 366 -83 365 -83 ct 364 -82 362 -82 358 -82 ct 
259 -82 l  259 -58 263 -40 270 -29 ct 280 -13 293 -5 310 -5 ct 312 -5 315 -5 317 -6 ct 
320 -6 324 -7 330 -9 ct 335 -11 341 -15 346 -20 ct 351 -26 354 -33 357 -41 ct 358 -45 360 -46 362 -46 ct 
365 -46 366 -45 366 -42 ct 366 -40 365 -37 363 -32 ct 361 -27 358 -22 353 -17 ct 
349 -11 343 -6 335 -2 ct 326 2 317 4 308 4 ct 287 4 269 -4 253 -20 ct 238 -35 230 -55 230 -78 ct 
p
260 -89 m  343 -89 l  343 -94 343 -99 342 -105 ct 341 -110 339 -117 337 -124 ct 
335 -132 330 -138 325 -143 ct 319 -148 312 -150 303 -150 ct 300 -150 296 -150 291 -148 ct 
287 -146 283 -143 278 -140 ct 273 -136 269 -129 265 -121 ct 262 -112 260 -101 260 -89 ct 
p ef
388 0 m  388 -11 l  401 -11 408 -12 411 -13 ct 414 -15 416 -19 416 -27 ct 416 -121 l 
416 -130 414 -136 411 -138 ct 408 -140 401 -141 388 -141 ct 388 -152 l  438 -156 l 
438 -119 l  449 -144 467 -156 490 -156 ct 508 -156 520 -152 527 -143 ct 533 -137 536 -131 537 -124 ct 
538 -118 538 -106 538 -89 ct 538 -22 l  539 -17 541 -14 544 -13 ct 548 -11 555 -11 566 -11 ct 
566 0 l  542 -1 529 -1 526 -1 ct 524 -1 511 -1 486 0 ct 486 -11 l  499 -11 507 -12 510 -13 ct 
512 -15 514 -19 514 -27 ct 514 -109 l  514 -121 512 -131 508 -138 ct 505 -145 498 -148 488 -148 ct 
476 -148 465 -143 455 -133 ct 445 -123 440 -109 440 -92 ct 440 -27 l  440 -19 442 -15 445 -13 ct 
448 -12 455 -11 468 -11 ct 468 0 l  444 -1 431 -1 428 -1 ct 426 -1 413 -1 388 0 ct 
p ef
584 -5 m  584 -51 l  584 -54 584 -56 584 -56 ct 584 -57 584 -58 585 -59 ct 586 -60 587 -60 588 -60 ct 
590 -60 591 -60 592 -59 ct 592 -58 593 -57 593 -54 ct 597 -38 602 -25 610 -17 ct 
618 -8 628 -4 642 -4 ct 655 -4 665 -7 672 -13 ct 679 -19 682 -26 682 -36 ct 682 -53 670 -64 645 -68 ct 
631 -71 621 -74 615 -76 ct 610 -77 604 -80 599 -85 ct 589 -93 584 -103 584 -115 ct 
584 -126 588 -137 597 -145 ct 606 -154 620 -158 640 -158 ct 653 -158 664 -155 673 -148 ct 
676 -150 678 -152 679 -154 ct 682 -157 685 -158 686 -158 ct 688 -158 689 -158 690 -156 ct 
690 -155 690 -153 690 -150 ct 690 -114 l  690 -111 690 -110 690 -109 ct 690 -108 690 -107 689 -106 ct 
688 -106 687 -106 686 -106 ct 683 -106 682 -107 681 -109 ct 680 -137 666 -151 640 -151 ct 
626 -151 616 -149 610 -143 ct 604 -138 601 -132 601 -125 ct 601 -121 602 -117 603 -114 ct 
605 -111 607 -109 610 -107 ct 612 -105 616 -103 621 -102 ct 625 -100 629 -99 632 -98 ct 
634 -98 639 -97 644 -96 ct 663 -92 676 -86 684 -79 ct 694 -69 699 -58 699 -45 ct 
699 -31 694 -20 685 -10 ct 676 -1 661 4 642 4 ct 627 4 614 -1 603 -11 ct 602 -10 601 -9 600 -7 ct 
599 -6 598 -5 598 -5 ct 597 -4 597 -4 597 -4 ct 597 -4 597 -3 596 -3 ct 592 2 589 4 588 4 ct 
586 4 585 3 584 2 ct 584 1 584 -1 584 -5 ct p ef
pom
gs
0.871 0.902 0.937 c 7259 11243 m  7261 11242 7262 11241 7264 11241 ct 7692 11113 8138 11047 8589 11047 ct 
9039 11047 9486 11113 9914 11241 ct 9916 11241 9917 11242 9918 11243 ct 9920 11244 9922 11245 9923 11247 ct 
9933 11247 l  9936 11247 9940 11248 9943 11250 ct 9946 11251 9949 11254 9950 11257 ct 
9952 11260 9953 11264 9953 11267 ct 9953 11652 l  9953 11655 9952 11659 9950 11662 ct 
9949 11665 9946 11667 9943 11669 ct 9940 11671 9936 11672 9933 11672 ct 7243 11672 l 
7240 11672 7236 11671 7233 11669 ct 7230 11667 7228 11665 7226 11662 ct 7224 11659 7223 11655 7223 11652 ct 
7223 11267 l  7223 11264 7224 11260 7226 11257 ct 7228 11254 7230 11251 7233 11250 ct 
7236 11248 7240 11247 7243 11247 ct 7254 11247 l  7255 11245 7257 11244 7259 11243 ct 
p ef
gr
gs
34.993 lw 1 lj 7258 11243 m  7260 11242 7261 11241 7263 11241 ct 7691 11113 8137 11047 8588 11047 ct 
9039 11047 9486 11113 9914 11241 ct 9916 11241 9917 11242 9918 11243 ct 9920 11244 9922 11245 9923 11247 ct 
9933 11247 l  9936 11247 9940 11248 9943 11250 ct 9946 11251 9949 11254 9950 11257 ct 
9952 11260 9953 11264 9953 11267 ct 9953 11652 l  9953 11655 9952 11659 9950 11662 ct 
9949 11665 9946 11667 9943 11669 ct 9940 11671 9936 11672 9933 11672 ct 7242 11672 l 
7239 11672 7235 11671 7232 11669 ct 7229 11667 7227 11665 7225 11662 ct 7223 11659 7222 11655 7222 11652 ct 
7222 11267 l  7222 11264 7223 11260 7225 11257 ct 7227 11254 7229 11251 7232 11250 ct 
7235 11248 7239 11247 7242 11247 ct 7253 11247 l  7254 11245 7256 11244 7258 11243 ct 
pc
gr
pum
7361 11482 t
9 0 m  9 -9 l  26 -9 36 -15 41 -28 ct 99 -196 l  100 -199 101 -200 101 -201 ct 
102 -202 104 -202 106 -202 ct 107 -202 108 -202 108 -202 ct 109 -201 110 -201 110 -200 ct 
111 -200 111 -199 111 -199 ct 111 -198 112 -198 112 -196 ct 173 -20 l  175 -15 177 -12 180 -11 ct 
183 -9 189 -9 197 -9 ct 202 -9 l  202 0 l  190 -1 178 -1 165 -1 ct 145 -1 131 -1 125 0 ct 
125 -9 l  140 -9 148 -12 148 -17 ct 148 -18 148 -19 147 -21 ct 132 -64 l  63 -64 l 
50 -27 l  49 -27 49 -25 49 -23 ct 49 -19 51 -16 55 -13 ct 58 -10 63 -9 70 -9 ct 
70 0 l  52 -1 41 -1 38 -1 ct 32 -1 22 -1 9 0 ct p
66 -73 m  129 -73 l  97 -165 l  p ef
230 -16 m  219 -28 213 -43 213 -61 ct 213 -79 218 -94 230 -107 ct 242 -120 256 -126 274 -126 ct 
285 -126 295 -124 304 -118 ct 313 -113 317 -105 317 -96 ct 317 -92 316 -89 313 -86 ct 
311 -84 308 -83 304 -83 ct 300 -83 297 -84 295 -87 ct 292 -89 291 -92 291 -96 ct 
291 -98 291 -99 292 -101 ct 292 -102 294 -104 296 -106 ct 298 -108 301 -109 304 -109 ct 
297 -116 287 -119 274 -119 ct 264 -119 256 -115 248 -106 ct 240 -97 236 -82 236 -61 ct 
236 -51 237 -41 240 -34 ct 243 -26 246 -20 250 -16 ct 255 -12 259 -9 263 -7 ct 
267 -5 272 -4 276 -4 ct 294 -4 306 -14 313 -34 ct 313 -35 314 -36 316 -36 ct 319 -36 320 -35 320 -34 ct 
320 -33 320 -31 319 -29 ct 318 -26 317 -23 314 -19 ct 312 -16 309 -12 306 -9 ct 
303 -6 298 -3 293 0 ct 287 2 280 3 273 3 ct 257 3 242 -3 230 -16 ct p ef
331 0 m  331 -9 l  341 -9 347 -9 349 -11 ct 352 -12 353 -15 353 -21 ct 353 -168 l 
353 -175 352 -179 349 -181 ct 347 -183 341 -184 331 -184 ct 331 -193 l  372 -196 l 
372 -98 l  372 -98 l  375 -104 380 -111 387 -116 ct 393 -122 402 -125 413 -125 ct 
427 -125 436 -121 442 -114 ct 446 -110 449 -105 450 -99 ct 450 -94 451 -85 451 -71 ct 
451 -17 l  451 -13 453 -11 456 -10 ct 459 -9 464 -9 473 -9 ct 473 0 l  454 -1 443 -1 441 -1 ct 
440 -1 429 -1 409 0 ct 409 -9 l  419 -9 426 -9 428 -11 ct 430 -12 431 -15 431 -21 ct 
431 -87 l  431 -97 430 -104 427 -110 ct 424 -116 419 -118 411 -118 ct 401 -118 392 -114 384 -106 ct 
376 -98 372 -87 372 -73 ct 372 -21 l  372 -15 374 -12 376 -11 ct 378 -9 385 -9 394 -9 ct 
394 0 l  375 -1 365 -1 363 -1 ct 361 -1 351 -1 331 0 ct p ef
486 0 m  486 -9 l  496 -9 502 -9 504 -11 ct 507 -12 508 -15 508 -21 ct 508 -97 l 
508 -104 507 -108 504 -110 ct 502 -112 496 -113 486 -113 ct 486 -122 l  525 -125 l 
525 -94 l  528 -102 532 -109 538 -115 ct 543 -121 551 -125 560 -125 ct 566 -125 571 -123 575 -120 ct 
579 -116 581 -112 581 -107 ct 581 -103 579 -100 577 -98 ct 574 -96 572 -95 569 -95 ct 
565 -95 562 -96 560 -98 ct 558 -100 556 -103 556 -107 ct 556 -109 557 -111 558 -113 ct 
559 -115 560 -116 561 -117 ct 562 -118 562 -118 563 -118 ct 563 -118 561 -118 560 -118 ct 
549 -118 541 -113 535 -103 ct 529 -93 527 -80 527 -65 ct 527 -22 l  527 -17 528 -13 530 -11 ct 
532 -10 538 -9 548 -9 ct 554 -9 l  554 0 l  546 -1 534 -1 518 -1 ct 516 -1 513 -1 509 -1 ct 
506 -1 502 0 497 0 ct 492 0 489 0 486 0 ct p ef
615 -15 m  602 -27 596 -42 596 -60 ct 596 -78 602 -94 614 -107 ct 626 -120 641 -126 659 -126 ct 
676 -126 690 -120 702 -107 ct 715 -94 721 -78 721 -60 ct 721 -43 715 -28 702 -15 ct 
690 -3 675 3 658 3 ct 641 3 627 -3 615 -15 ct p
619 -63 m  619 -44 622 -31 626 -23 ct 634 -10 644 -4 659 -4 ct 665 -4 672 -6 678 -10 ct 
684 -13 688 -18 691 -25 ct 695 -33 697 -46 697 -63 ct 697 -81 695 -94 690 -102 ct 
683 -114 672 -120 658 -120 ct 652 -120 646 -119 640 -115 ct 634 -112 630 -107 626 -101 ct 
622 -93 619 -80 619 -63 ct p ef
741 0 m  741 -9 l  751 -9 757 -9 759 -11 ct 762 -12 763 -15 763 -21 ct 763 -97 l 
763 -104 762 -108 759 -110 ct 757 -112 751 -113 741 -113 ct 741 -122 l  781 -125 l 
781 -95 l  790 -115 804 -125 823 -125 ct 845 -125 857 -115 860 -97 ct 863 -104 868 -111 875 -116 ct 
882 -122 890 -125 901 -125 ct 915 -125 925 -121 931 -114 ct 935 -110 937 -105 938 -99 ct 
939 -94 939 -85 939 -71 ct 939 -17 l  939 -13 941 -11 944 -10 ct 947 -9 953 -9 961 -9 ct 
961 0 l  942 -1 932 -1 930 -1 ct 928 -1 918 -1 898 0 ct 898 -9 l  908 -9 914 -9 916 -11 ct 
919 -12 920 -15 920 -21 ct 920 -87 l  920 -97 918 -104 915 -110 ct 913 -116 907 -118 899 -118 ct 
889 -118 880 -114 873 -106 ct 865 -98 861 -87 861 -73 ct 861 -21 l  861 -15 862 -12 864 -11 ct 
867 -9 873 -9 883 -9 ct 883 0 l  864 -1 853 -1 851 -1 ct 850 -1 839 -1 819 0 ct 
819 -9 l  829 -9 836 -9 838 -11 ct 840 -12 841 -15 841 -21 ct 841 -87 l  841 -97 840 -104 837 -110 ct 
834 -116 829 -118 821 -118 ct 811 -118 802 -114 794 -106 ct 786 -98 782 -87 782 -73 ct 
782 -21 l  782 -15 784 -12 786 -11 ct 788 -9 795 -9 804 -9 ct 804 0 l  785 -1 775 -1 773 -1 ct 
771 -1 761 -1 741 0 ct p ef
981 -27 m  981 -43 990 -55 1009 -63 ct 1020 -69 1038 -72 1061 -74 ct 1061 -84 l 
1061 -96 1058 -105 1052 -111 ct 1046 -117 1039 -120 1031 -120 ct 1017 -120 1007 -116 1001 -107 ct 
1006 -107 1010 -105 1012 -103 ct 1014 -100 1015 -97 1015 -94 ct 1015 -90 1014 -87 1011 -85 ct 
1009 -82 1006 -81 1002 -81 ct 998 -81 995 -82 993 -85 ct 990 -87 989 -90 989 -94 ct 
989 -104 993 -111 1001 -117 ct 1010 -123 1020 -126 1032 -126 ct 1047 -126 1060 -121 1070 -111 ct 
1073 -108 1076 -104 1077 -100 ct 1079 -96 1080 -92 1080 -90 ct 1080 -87 1080 -83 1080 -78 ct 
1080 -21 l  1080 -20 1081 -19 1081 -17 ct 1081 -15 1082 -13 1084 -11 ct 1086 -8 1088 -7 1091 -7 ct 
1098 -7 1101 -13 1101 -25 ct 1101 -41 l  1108 -41 l  1108 -25 l  1108 -15 1105 -8 1100 -4 ct 
1095 0 1090 2 1085 2 ct 1079 2 1074 -1 1070 -5 ct 1066 -10 1063 -15 1063 -21 ct 
1060 -14 1055 -8 1049 -4 ct 1042 1 1035 3 1026 3 ct 1019 3 1013 2 1006 1 ct 1000 -1 994 -4 989 -9 ct 
983 -14 981 -20 981 -27 ct p
1003 -27 m  1003 -20 1005 -14 1010 -10 ct 1015 -5 1021 -3 1028 -3 ct 1036 -3 1043 -6 1050 -12 ct 
1057 -18 1061 -27 1061 -39 ct 1061 -68 l  1040 -67 1025 -62 1016 -54 ct 1007 -46 1003 -37 1003 -27 ct 
p ef
1118 -113 m  1118 -119 l  1127 -119 1134 -123 1140 -129 ct 1146 -135 1150 -142 1151 -149 ct 
1153 -157 1155 -165 1155 -173 ct 1162 -173 l  1162 -122 l  1202 -122 l  1202 -113 l 
1162 -113 l  1162 -34 l  1162 -14 1168 -4 1181 -4 ct 1186 -4 1191 -7 1194 -12 ct 
1198 -18 1200 -26 1200 -36 ct 1200 -51 l  1207 -51 l  1207 -35 l  1207 -25 1204 -16 1200 -8 ct 
1195 -1 1188 3 1179 3 ct 1175 3 1172 3 1169 2 ct 1165 1 1161 -1 1157 -3 ct 1153 -5 1149 -9 1146 -15 ct 
1144 -20 1142 -27 1142 -35 ct 1142 -113 l  p ef
1232 0 m  1232 -9 l  1242 -9 1248 -9 1251 -11 ct 1253 -12 1254 -15 1254 -21 ct 
1254 -97 l  1254 -104 1253 -109 1251 -110 ct 1248 -112 1243 -113 1233 -113 ct 
1233 -122 l  1273 -125 l  1273 -21 l  1273 -16 1274 -12 1276 -11 ct 1278 -9 1283 -9 1293 -9 ct 
1293 0 l  1273 -1 1264 -1 1263 -1 ct 1261 -1 1250 -1 1232 0 ct p
1244 -174 m  1244 -177 1246 -181 1249 -184 ct 1251 -187 1255 -189 1259 -189 ct 
1263 -189 1267 -187 1270 -184 ct 1273 -182 1274 -178 1274 -174 ct 1274 -169 1273 -166 1270 -163 ct 
1267 -160 1263 -159 1259 -159 ct 1255 -159 1251 -160 1248 -163 ct 1246 -166 1244 -170 1244 -174 ct 
p ef
1331 -16 m  1320 -28 1314 -43 1314 -61 ct 1314 -79 1319 -94 1331 -107 ct 1343 -120 1357 -126 1375 -126 ct 
1386 -126 1396 -124 1405 -118 ct 1414 -113 1418 -105 1418 -96 ct 1418 -92 1417 -89 1414 -86 ct 
1412 -84 1409 -83 1405 -83 ct 1401 -83 1398 -84 1396 -87 ct 1393 -89 1392 -92 1392 -96 ct 
1392 -98 1392 -99 1393 -101 ct 1393 -102 1395 -104 1397 -106 ct 1399 -108 1402 -109 1405 -109 ct 
1398 -116 1388 -119 1375 -119 ct 1365 -119 1357 -115 1349 -106 ct 1341 -97 1337 -82 1337 -61 ct 
1337 -51 1338 -41 1341 -34 ct 1344 -26 1347 -20 1351 -16 ct 1356 -12 1360 -9 1364 -7 ct 
1368 -5 1373 -4 1377 -4 ct 1395 -4 1407 -14 1414 -34 ct 1414 -35 1415 -36 1417 -36 ct 
1420 -36 1421 -35 1421 -34 ct 1421 -33 1421 -31 1420 -29 ct 1419 -26 1418 -23 1415 -19 ct 
1413 -16 1410 -12 1407 -9 ct 1404 -6 1399 -3 1394 0 ct 1388 2 1381 3 1374 3 ct 
1358 3 1343 -3 1331 -16 ct p ef
1534 -61 m  1534 -78 1540 -94 1552 -106 ct 1565 -118 1580 -125 1596 -125 ct 
1611 -125 1623 -119 1632 -107 ct 1632 -168 l  1632 -175 1631 -179 1628 -181 ct 
1626 -183 1620 -184 1610 -184 ct 1610 -193 l  1651 -196 l  1651 -25 l  1651 -18 1652 -13 1654 -11 ct 
1657 -10 1663 -9 1673 -9 ct 1673 0 l  1631 3 l  1631 -16 l  1621 -3 1609 3 1593 3 ct 
1577 3 1563 -3 1551 -16 ct 1540 -28 1534 -43 1534 -61 ct p
1557 -60 m  1557 -43 1560 -30 1565 -21 ct 1573 -9 1583 -3 1595 -3 ct 1609 -3 1620 -10 1628 -23 ct 
1630 -26 1631 -30 1631 -33 ct 1631 -91 l  1631 -95 1630 -98 1628 -102 ct 1620 -113 1610 -118 1598 -118 ct 
1584 -118 1574 -112 1566 -100 ct 1560 -91 1557 -78 1557 -60 ct p ef
1708 -15 m  1695 -27 1689 -42 1689 -60 ct 1689 -78 1695 -94 1707 -107 ct 1719 -120 1734 -126 1752 -126 ct 
1769 -126 1783 -120 1795 -107 ct 1808 -94 1814 -78 1814 -60 ct 1814 -43 1808 -28 1795 -15 ct 
1783 -3 1768 3 1751 3 ct 1734 3 1720 -3 1708 -15 ct p
1712 -63 m  1712 -44 1715 -31 1719 -23 ct 1727 -10 1737 -4 1752 -4 ct 1758 -4 1765 -6 1771 -10 ct 
1777 -13 1781 -18 1784 -25 ct 1788 -33 1790 -46 1790 -63 ct 1790 -81 1788 -94 1783 -102 ct 
1776 -114 1765 -120 1751 -120 ct 1745 -120 1739 -119 1733 -115 ct 1727 -112 1723 -107 1719 -101 ct 
1715 -93 1712 -80 1712 -63 ct p ef
1834 -113 m  1834 -122 l  1875 -125 l  1875 -31 l  1875 -27 1876 -23 1876 -20 ct 
1876 -18 1877 -15 1879 -12 ct 1880 -9 1883 -7 1886 -5 ct 1890 -4 1895 -3 1900 -3 ct 
1910 -3 1919 -7 1925 -16 ct 1931 -24 1934 -34 1934 -47 ct 1934 -97 l  1934 -104 1933 -108 1931 -110 ct 
1928 -112 1922 -113 1912 -113 ct 1912 -122 l  1954 -125 l  1954 -25 l  1954 -18 1955 -13 1958 -11 ct 
1960 -10 1966 -9 1976 -9 ct 1976 0 l  1935 3 l  1935 -22 l  1927 -5 1915 3 1899 3 ct 
1891 3 1884 2 1878 0 ct 1872 -2 1868 -4 1865 -7 ct 1863 -10 1860 -14 1859 -19 ct 
1857 -24 1856 -28 1856 -31 ct 1856 -34 1856 -39 1856 -45 ct 1856 -87 l  1856 -100 1855 -107 1853 -109 ct 
1851 -112 1845 -113 1834 -113 ct p ef
1989 -184 m  1989 -193 l  2030 -196 l  2030 -106 l  2040 -119 2053 -125 2068 -125 ct 
2084 -125 2098 -118 2110 -106 ct 2122 -94 2128 -79 2128 -61 ct 2128 -43 2122 -28 2109 -16 ct 
2097 -3 2082 3 2065 3 ct 2049 3 2037 -4 2028 -17 ct 2022 -6 2018 0 2018 0 ct 2011 0 l 
2011 -168 l  2011 -175 2010 -179 2007 -181 ct 2005 -183 1999 -184 1989 -184 ct 
p
2030 -32 m  2030 -28 2032 -24 2034 -20 ct 2042 -9 2052 -3 2064 -3 ct 2077 -3 2088 -9 2096 -21 ct 
2102 -30 2105 -44 2105 -61 ct 2105 -79 2102 -92 2096 -100 ct 2089 -112 2079 -118 2067 -118 ct 
2053 -118 2042 -112 2033 -100 ct 2031 -97 2030 -94 2030 -90 ct p ef
2147 0 m  2147 -9 l  2157 -9 2163 -9 2166 -11 ct 2168 -12 2169 -15 2169 -21 ct 
2169 -168 l  2169 -175 2168 -179 2166 -181 ct 2163 -183 2157 -184 2147 -184 ct 
2147 -193 l  2188 -196 l  2188 -21 l  2188 -15 2189 -12 2191 -11 ct 2194 -9 2200 -9 2210 -9 ct 
2210 0 l  2208 0 2204 0 2199 0 ct 2195 0 2190 -1 2187 -1 ct 2183 -1 2181 -1 2179 -1 ct 
2176 -1 2166 -1 2147 0 ct p ef
2226 -62 m  2226 -80 2232 -95 2243 -107 ct 2254 -120 2268 -126 2285 -126 ct 
2301 -126 2314 -121 2322 -110 ct 2331 -100 2335 -86 2335 -71 ct 2335 -68 2335 -67 2334 -66 ct 
2333 -65 2331 -65 2328 -65 ct 2249 -65 l  2249 -46 2252 -32 2258 -23 ct 2266 -10 2276 -4 2290 -4 ct 
2292 -4 2294 -4 2296 -5 ct 2298 -5 2301 -6 2306 -7 ct 2310 -9 2314 -12 2318 -16 ct 
2322 -21 2325 -26 2328 -33 ct 2328 -36 2329 -37 2331 -37 ct 2334 -37 2335 -36 2335 -34 ct 
2335 -32 2334 -29 2332 -26 ct 2331 -22 2328 -18 2325 -13 ct 2321 -9 2316 -5 2310 -2 ct 
2303 1 2296 3 2288 3 ct 2271 3 2257 -3 2245 -16 ct 2232 -28 2226 -44 2226 -62 ct 
p
2250 -71 m  2316 -71 l  2316 -75 2316 -79 2315 -84 ct 2315 -88 2313 -93 2311 -99 ct 
2310 -106 2306 -110 2302 -114 ct 2297 -118 2291 -120 2285 -120 ct 2282 -120 2278 -119 2275 -118 ct 
2272 -117 2268 -115 2264 -112 ct 2260 -108 2257 -103 2254 -96 ct 2252 -89 2250 -81 2250 -71 ct 
p ef
2350 -113 m  2350 -119 l  2359 -119 2366 -123 2372 -129 ct 2378 -135 2382 -142 2383 -149 ct 
2385 -157 2387 -165 2387 -173 ct 2394 -173 l  2394 -122 l  2434 -122 l  2434 -113 l 
2394 -113 l  2394 -34 l  2394 -14 2400 -4 2413 -4 ct 2418 -4 2423 -7 2426 -12 ct 
2430 -18 2432 -26 2432 -36 ct 2432 -51 l  2439 -51 l  2439 -35 l  2439 -25 2436 -16 2432 -8 ct 
2427 -1 2420 3 2411 3 ct 2407 3 2404 3 2401 2 ct 2397 1 2393 -1 2389 -3 ct 2385 -5 2381 -9 2378 -15 ct 
2376 -20 2374 -27 2374 -35 ct 2374 -113 l  p ef
pom
gs
8628 12558 m  8628 12565 8626 12572 8623 12577 ct 8619 12583 8614 12588 8608 12592 ct 
8602 12595 8595 12597 8589 12597 ct 8582 12597 8575 12595 8569 12592 ct 8563 12588 8558 12583 8554 12577 ct 
8551 12572 8549 12565 8549 12558 ct 8549 12551 8551 12544 8554 12538 ct 8558 12533 8563 12528 8569 12524 ct 
8575 12521 8582 12519 8589 12519 ct 8595 12519 8602 12521 8608 12524 ct 8614 12528 8619 12533 8623 12538 ct 
8626 12544 8628 12551 8628 12558 ct 8628 12558 l  p ef
gr
gs
1.000 1.000 1.000 c 8588 5535 m  7819 5535 l  7819 3998 l  9355 3998 l 
9355 5535 l  8588 5535 l  p ef
gr
gs
34.993 lw 1 lj 8587 5534 m  7818 5534 l  7818 3998 l  9355 3998 l  9355 5534 l 
8587 5534 l  pc
gr
pum
8200 4887 t
20 -121 m  20 -156 32 -187 56 -211 ct 80 -236 109 -249 143 -249 ct 153 -249 163 -247 172 -243 ct 
181 -239 188 -236 192 -233 ct 196 -229 201 -225 208 -219 ct 225 -245 l  227 -247 229 -249 231 -249 ct 
233 -249 234 -248 234 -247 ct 235 -246 235 -244 235 -240 ct 235 -157 l  235 -153 235 -151 234 -150 ct 
234 -149 232 -148 229 -148 ct 227 -148 225 -149 225 -149 ct 224 -150 224 -152 223 -154 ct 
220 -180 211 -200 197 -215 ct 183 -230 166 -238 146 -238 ct 141 -238 135 -237 129 -236 ct 
122 -235 115 -232 106 -227 ct 97 -222 89 -216 82 -208 ct 75 -200 69 -188 64 -173 ct 
59 -158 56 -140 56 -120 ct 56 -101 59 -83 64 -68 ct 69 -53 75 -41 82 -33 ct 89 -25 97 -19 106 -14 ct 
115 -9 122 -6 129 -5 ct 135 -4 141 -3 147 -3 ct 167 -3 185 -10 201 -25 ct 216 -39 225 -58 226 -83 ct 
226 -84 226 -85 226 -85 ct 226 -86 226 -86 227 -87 ct 227 -87 227 -88 228 -88 ct 
228 -88 229 -88 230 -88 ct 233 -88 235 -86 235 -82 ct 235 -60 226 -39 209 -20 ct 
192 -2 170 8 143 8 ct 109 8 80 -5 56 -29 ct 32 -54 20 -85 20 -121 ct p ef
274 -121 m  274 -156 286 -187 310 -211 ct 334 -236 363 -249 397 -249 ct 407 -249 417 -247 426 -243 ct 
435 -239 442 -236 446 -233 ct 450 -229 455 -225 462 -219 ct 479 -245 l  481 -247 483 -249 485 -249 ct 
487 -249 488 -248 488 -247 ct 489 -246 489 -244 489 -240 ct 489 -157 l  489 -153 489 -151 488 -150 ct 
488 -149 486 -148 483 -148 ct 481 -148 479 -149 479 -149 ct 478 -150 478 -152 477 -154 ct 
474 -180 465 -200 451 -215 ct 437 -230 420 -238 400 -238 ct 395 -238 389 -237 383 -236 ct 
376 -235 369 -232 360 -227 ct 351 -222 343 -216 336 -208 ct 329 -200 323 -188 318 -173 ct 
313 -158 310 -140 310 -120 ct 310 -101 313 -83 318 -68 ct 323 -53 329 -41 336 -33 ct 
343 -25 351 -19 360 -14 ct 369 -9 376 -6 383 -5 ct 389 -4 395 -3 401 -3 ct 421 -3 439 -10 455 -25 ct 
470 -39 479 -58 480 -83 ct 480 -84 480 -85 480 -85 ct 480 -86 480 -86 481 -87 ct 
481 -87 481 -88 482 -88 ct 482 -88 483 -88 484 -88 ct 487 -88 489 -86 489 -82 ct 
489 -60 480 -39 463 -20 ct 446 -2 424 8 397 8 ct 363 8 334 -5 310 -29 ct 286 -54 274 -85 274 -121 ct 
p ef
520 0 m  520 -11 l  529 -11 l  542 -11 549 -12 552 -14 ct 555 -16 557 -21 557 -28 ct 
557 -214 l  557 -220 555 -225 552 -227 ct 549 -229 542 -230 529 -230 ct 520 -230 l 
520 -241 l  650 -241 l  680 -241 705 -229 726 -205 ct 747 -181 758 -152 758 -119 ct 
758 -86 747 -58 726 -35 ct 705 -12 679 0 650 0 ct p
587 -25 m  587 -19 588 -15 590 -13 ct 591 -12 596 -11 604 -11 ct 640 -11 l  656 -11 669 -14 679 -20 ct 
690 -27 697 -34 703 -41 ct 716 -59 722 -84 722 -119 ct 722 -154 716 -181 704 -197 ct 
688 -219 667 -230 640 -230 ct 604 -230 l  596 -230 591 -229 590 -228 ct 588 -226 587 -222 587 -216 ct 
p ef
pom
gs
34.993 lw 1 lj 10893 5535 m  10893 10068 l  ps
gr
gs
34.993 lw 1 lj 10586 7610 m  11201 7610 l  ps
gr
pum
10413 7029 t
12 -141 m  12 -152 l  40 -152 l  40 -193 l  40 -210 45 -224 56 -234 ct 68 -244 80 -249 94 -249 ct 
103 -249 111 -246 117 -241 ct 123 -237 126 -231 126 -224 ct 126 -220 125 -216 122 -213 ct 
119 -210 115 -209 110 -209 ct 106 -209 102 -210 99 -213 ct 97 -216 95 -220 95 -224 ct 
95 -231 99 -236 106 -239 ct 102 -240 98 -241 94 -241 ct 86 -241 78 -237 72 -228 ct 
65 -219 62 -208 62 -193 ct 62 -152 l  103 -152 l  103 -141 l  63 -141 l  63 -28 l 
63 -21 64 -16 67 -14 ct 70 -12 77 -11 90 -11 ct 97 -11 l  97 0 l  88 -1 73 -1 52 -1 ct 
49 -1 46 -1 41 -1 ct 37 -1 32 -1 26 0 ct 20 0 15 0 12 0 ct 12 -11 l  24 -11 32 -12 35 -13 ct 
38 -15 40 -19 40 -27 ct 40 -141 l  p ef
pom
gs
34.993 lw 1 lj 10586 9422 m  11201 9422 l  ps
gr
gs
34.993 lw 1 lj 10586 10068 m  11201 10068 l  ps
gr
gs
34.993 lw 1 lj 10586 5535 m  11201 5535 l  ps
gr
pum
11181 8431 t
10 58 m  22 58 30 57 33 55 ct 36 54 37 49 37 42 ct 37 -124 l  37 -131 36 -136 33 -138 ct 
30 -140 22 -141 10 -141 ct 10 -152 l  61 -156 l  61 -133 l  75 -148 91 -156 110 -156 ct 
130 -156 147 -148 162 -133 ct 177 -117 184 -98 184 -76 ct 184 -54 176 -35 161 -19 ct 
145 -4 127 4 105 4 ct 93 4 84 1 76 -5 ct 68 -11 63 -16 62 -21 ct 62 -18 l  62 42 l 
62 49 63 54 66 55 ct 69 57 77 58 89 58 ct 89 68 l  65 68 51 67 49 67 ct 47 67 34 68 10 68 ct 
p
62 -40 m  62 -37 62 -34 62 -33 ct 63 -32 64 -29 67 -25 ct 76 -11 88 -4 104 -4 ct 
117 -4 129 -11 139 -25 ct 149 -38 155 -56 155 -76 ct 155 -96 150 -113 141 -127 ct 
131 -140 120 -147 107 -147 ct 98 -147 90 -145 82 -140 ct 74 -135 67 -128 62 -119 ct 
p ef
pom
pum
11181 9839 t
10 -5 m  10 -7 11 -9 13 -11 ct 112 -144 l  71 -144 l  53 -144 40 -141 34 -134 ct 
28 -127 25 -114 24 -95 ct 15 -95 l  19 -152 l  132 -152 l  134 -152 136 -152 137 -152 ct 
138 -152 139 -151 140 -151 ct 140 -150 141 -149 141 -148 ct 141 -146 140 -144 138 -142 ct 
40 -9 l  81 -9 l  101 -9 114 -13 120 -21 ct 127 -29 131 -44 133 -66 ct 142 -66 l 
136 0 l  19 0 l  15 0 13 0 12 -1 ct 10 -1 10 -3 10 -5 ct p ef
pom
pum
11181 6395 t
12 -76 m  12 -98 20 -117 35 -133 ct 51 -148 69 -156 90 -156 ct 99 -156 107 -154 114 -150 ct 
121 -145 126 -141 129 -137 ct 133 -133 135 -128 137 -124 ct 151 -156 l  158 -156 l 
158 42 l  158 49 160 54 163 55 ct 166 57 174 58 186 58 ct 186 68 l  161 68 148 67 146 67 ct 
144 67 131 68 107 68 ct 107 58 l  119 58 127 57 130 55 ct 133 54 134 49 134 42 ct 
134 -22 l  121 -5 106 4 87 4 ct 67 4 49 -4 34 -20 ct 19 -35 12 -54 12 -76 ct p
41 -76 m  41 -56 46 -39 55 -25 ct 65 -11 76 -4 89 -4 ct 101 -4 112 -9 121 -18 ct 
130 -29 135 -39 135 -48 ct 135 -98 l  135 -109 131 -120 123 -131 ct 115 -142 105 -147 92 -147 ct 
79 -147 67 -140 57 -127 ct 46 -113 41 -96 41 -76 ct p ef
pom
gs
34.993 lw 1 lj 10201 6204 m  10201 7610 l  ps
gr
gs
34.993 lw 1 lj 9971 7610 m  10432 7610 l  ps
gr
gs
34.993 lw 1 lj 9971 6204 m  10432 6204 l  ps
gr
gs
36 lw 1 lj 9617 9423 m  9232 9423 l  ps
9057 9423 m  8673 9423 l  ps
8498 9423 m  8113 9423 l  ps
7938 9423 m  7558 9423 l  ps
gr
pum
7661 8753 t
20 -120 m  20 -156 31 -186 54 -211 ct 77 -236 105 -249 137 -249 ct 169 -249 197 -236 220 -211 ct 
243 -186 255 -155 255 -120 ct 255 -84 243 -54 220 -29 ct 197 -5 169 8 137 8 ct 
105 8 78 -5 55 -29 ct 31 -54 20 -84 20 -120 ct p
56 -125 m  56 -103 59 -83 64 -67 ct 69 -50 76 -37 84 -28 ct 93 -19 101 -12 110 -8 ct 
119 -4 128 -1 137 -1 ct 146 -1 155 -4 164 -8 ct 173 -12 181 -19 190 -28 ct 198 -36 205 -49 210 -66 ct 
216 -83 218 -102 218 -125 ct 218 -142 216 -157 213 -171 ct 209 -185 204 -196 199 -205 ct 
193 -213 186 -220 179 -225 ct 171 -231 164 -235 157 -237 ct 150 -239 144 -240 137 -240 ct 
129 -240 120 -238 112 -235 ct 103 -231 94 -225 86 -217 ct 77 -209 70 -197 64 -181 ct 
59 -165 56 -146 56 -125 ct p ef
281 -230 m  281 -241 l  332 -245 l  332 -133 l  345 -148 361 -156 380 -156 ct 
400 -156 418 -148 433 -133 ct 448 -117 455 -98 455 -76 ct 455 -54 447 -35 432 -19 ct 
416 -4 398 4 376 4 ct 357 4 341 -5 330 -22 ct 322 -8 317 0 317 0 ct 308 0 l  308 -210 l 
308 -219 307 -225 304 -227 ct 301 -229 293 -230 281 -230 ct p
333 -40 m  333 -35 334 -30 338 -25 ct 347 -11 359 -4 375 -4 ct 391 -4 405 -11 415 -26 ct 
422 -38 426 -54 426 -77 ct 426 -98 422 -115 415 -126 ct 406 -141 394 -148 378 -148 ct 
361 -148 347 -141 337 -126 ct 334 -122 333 -118 333 -113 ct p ef
478 -5 m  478 -51 l  478 -54 478 -56 478 -56 ct 478 -57 478 -58 479 -59 ct 480 -60 481 -60 482 -60 ct 
484 -60 485 -60 486 -59 ct 486 -58 487 -57 487 -54 ct 491 -38 496 -25 504 -17 ct 
512 -8 522 -4 536 -4 ct 549 -4 559 -7 566 -13 ct 573 -19 576 -26 576 -36 ct 576 -53 564 -64 539 -68 ct 
525 -71 515 -74 509 -76 ct 504 -77 498 -80 493 -85 ct 483 -93 478 -103 478 -115 ct 
478 -126 482 -137 491 -145 ct 500 -154 514 -158 534 -158 ct 547 -158 558 -155 567 -148 ct 
570 -150 572 -152 573 -154 ct 576 -157 579 -158 580 -158 ct 582 -158 583 -158 584 -156 ct 
584 -155 584 -153 584 -150 ct 584 -114 l  584 -111 584 -110 584 -109 ct 584 -108 584 -107 583 -106 ct 
582 -106 581 -106 580 -106 ct 577 -106 576 -107 575 -109 ct 574 -137 560 -151 534 -151 ct 
520 -151 510 -149 504 -143 ct 498 -138 495 -132 495 -125 ct 495 -121 496 -117 497 -114 ct 
499 -111 501 -109 504 -107 ct 506 -105 510 -103 515 -102 ct 519 -100 523 -99 526 -98 ct 
528 -98 533 -97 538 -96 ct 557 -92 570 -86 578 -79 ct 588 -69 593 -58 593 -45 ct 
593 -31 588 -20 579 -10 ct 570 -1 555 4 536 4 ct 521 4 508 -1 497 -11 ct 496 -10 495 -9 494 -7 ct 
493 -6 492 -5 492 -5 ct 491 -4 491 -4 491 -4 ct 491 -4 491 -3 490 -3 ct 486 2 483 4 482 4 ct 
480 4 479 3 478 2 ct 478 1 478 -1 478 -5 ct p ef
615 -78 m  615 -100 622 -119 636 -134 ct 650 -150 668 -158 688 -158 ct 709 -158 725 -151 735 -138 ct 
746 -125 751 -108 751 -89 ct 751 -85 751 -83 750 -83 ct 749 -82 747 -82 743 -82 ct 
644 -82 l  644 -58 648 -40 655 -29 ct 665 -13 678 -5 695 -5 ct 697 -5 700 -5 702 -6 ct 
705 -6 709 -7 715 -9 ct 720 -11 726 -15 731 -20 ct 736 -26 739 -33 742 -41 ct 743 -45 745 -46 747 -46 ct 
750 -46 751 -45 751 -42 ct 751 -40 750 -37 748 -32 ct 746 -27 743 -22 738 -17 ct 
734 -11 728 -6 720 -2 ct 711 2 702 4 693 4 ct 672 4 654 -4 638 -20 ct 623 -35 615 -55 615 -78 ct 
p
645 -89 m  728 -89 l  728 -94 728 -99 727 -105 ct 726 -110 724 -117 722 -124 ct 
720 -132 715 -138 710 -143 ct 704 -148 697 -150 688 -150 ct 685 -150 681 -150 676 -148 ct 
672 -146 668 -143 663 -140 ct 658 -136 654 -129 650 -121 ct 647 -112 645 -101 645 -89 ct 
p ef
772 0 m  772 -11 l  784 -11 792 -12 795 -13 ct 798 -15 799 -19 799 -27 ct 799 -121 l 
799 -130 798 -136 795 -138 ct 792 -140 784 -141 772 -141 ct 772 -152 l  821 -156 l 
821 -117 l  824 -127 829 -136 836 -144 ct 844 -152 853 -156 864 -156 ct 872 -156 878 -154 883 -150 ct 
888 -145 890 -140 890 -134 ct 890 -129 889 -125 886 -123 ct 883 -120 879 -119 875 -119 ct 
871 -119 867 -120 865 -123 ct 862 -126 860 -129 860 -134 ct 860 -137 861 -139 862 -142 ct 
863 -144 865 -145 866 -146 ct 867 -147 868 -148 868 -148 ct 868 -148 866 -148 864 -148 ct 
851 -148 841 -142 834 -129 ct 826 -116 823 -100 823 -82 ct 823 -28 l  823 -21 824 -16 827 -14 ct 
830 -12 837 -11 850 -11 ct 857 -11 l  857 0 l  848 -1 833 -1 812 -1 ct 809 -1 806 -1 801 -1 ct 
797 -1 792 -1 786 0 ct 780 0 775 0 772 0 ct p ef
904 -141 m  904 -152 l  914 -151 926 -151 938 -151 ct 942 -151 955 -151 976 -152 ct 
976 -141 l  963 -141 956 -138 956 -132 ct 956 -131 957 -129 958 -126 ct 998 -28 l 
1034 -118 l  1035 -122 1036 -124 1036 -126 ct 1036 -130 1035 -133 1032 -136 ct 
1029 -139 1025 -141 1019 -141 ct 1019 -152 l  1031 -151 1041 -151 1050 -151 ct 
1059 -151 1068 -151 1076 -152 ct 1076 -141 l  1069 -141 1063 -140 1058 -136 ct 
1053 -133 1050 -130 1049 -128 ct 1047 -125 1045 -122 1044 -118 ct 998 -3 l  996 2 993 4 990 4 ct 
988 4 987 3 986 3 ct 985 2 984 0 983 -3 ct 932 -128 l  930 -134 927 -138 924 -139 ct 
921 -140 914 -141 904 -141 ct p ef
1086 -34 m  1086 -54 1098 -69 1121 -79 ct 1135 -86 1157 -90 1186 -92 ct 1186 -105 l 
1186 -120 1182 -131 1175 -139 ct 1167 -146 1158 -150 1149 -150 ct 1131 -150 1119 -145 1111 -134 ct 
1118 -134 1122 -132 1125 -128 ct 1127 -125 1129 -121 1129 -118 ct 1129 -113 1127 -109 1124 -106 ct 
1121 -103 1117 -102 1112 -102 ct 1108 -102 1104 -103 1101 -106 ct 1098 -109 1096 -113 1096 -118 ct 
1096 -130 1101 -139 1112 -147 ct 1122 -154 1135 -158 1149 -158 ct 1169 -158 1185 -152 1198 -139 ct 
1202 -135 1205 -130 1207 -125 ct 1209 -120 1210 -115 1210 -112 ct 1210 -109 1210 -104 1210 -97 ct 
1210 -26 l  1210 -25 1211 -23 1211 -21 ct 1212 -19 1213 -16 1215 -13 ct 1217 -10 1220 -9 1223 -9 ct 
1232 -9 1236 -16 1236 -31 ct 1236 -51 l  1245 -51 l  1245 -31 l  1245 -19 1242 -10 1235 -5 ct 
1229 0 1222 2 1216 2 ct 1208 2 1202 -1 1197 -7 ct 1192 -12 1189 -19 1189 -27 ct 
1185 -18 1179 -11 1171 -5 ct 1163 1 1153 4 1142 4 ct 1134 4 1126 3 1118 1 ct 1110 -1 1102 -5 1096 -11 ct 
1089 -17 1086 -25 1086 -34 ct p
1113 -34 m  1113 -25 1116 -18 1122 -12 ct 1129 -7 1136 -4 1145 -4 ct 1155 -4 1164 -8 1173 -15 ct 
1182 -23 1186 -34 1186 -49 ct 1186 -85 l  1160 -84 1141 -78 1130 -68 ct 1119 -57 1113 -46 1113 -34 ct 
p ef
1256 -141 m  1256 -149 l  1267 -149 1276 -153 1283 -161 ct 1290 -169 1295 -177 1297 -187 ct 
1300 -196 1301 -206 1301 -217 ct 1310 -217 l  1310 -152 l  1361 -152 l  1361 -141 l 
1310 -141 l  1310 -43 l  1310 -18 1318 -5 1334 -5 ct 1341 -5 1346 -8 1351 -15 ct 
1355 -22 1357 -32 1357 -44 ct 1357 -64 l  1366 -64 l  1366 -44 l  1366 -31 1363 -20 1357 -10 ct 
1351 -1 1343 4 1331 4 ct 1327 4 1323 3 1319 2 ct 1314 1 1309 -1 1304 -4 ct 1299 -6 1294 -11 1291 -18 ct 
1287 -25 1286 -34 1286 -44 ct 1286 -141 l  p ef
1396 0 m  1396 -11 l  1408 -11 1416 -12 1419 -13 ct 1422 -15 1423 -19 1423 -27 ct 
1423 -122 l  1423 -130 1422 -136 1419 -138 ct 1416 -140 1409 -141 1397 -141 ct 
1397 -152 l  1446 -156 l  1446 -26 l  1446 -19 1448 -15 1450 -13 ct 1453 -12 1460 -11 1471 -11 ct 
1471 0 l  1447 -1 1435 -1 1434 -1 ct 1431 -1 1418 -1 1396 0 ct p
1410 -217 m  1410 -222 1412 -226 1416 -230 ct 1420 -234 1424 -236 1429 -236 ct 
1434 -236 1439 -234 1442 -231 ct 1446 -227 1448 -223 1448 -217 ct 1448 -212 1446 -208 1442 -204 ct 
1439 -201 1434 -199 1429 -199 ct 1424 -199 1419 -201 1416 -204 ct 1412 -208 1410 -213 1410 -217 ct 
p ef
1515 -19 m  1500 -34 1492 -53 1492 -76 ct 1492 -98 1499 -117 1515 -134 ct 1530 -150 1548 -158 1570 -158 ct 
1592 -158 1610 -150 1625 -134 ct 1641 -118 1648 -98 1648 -76 ct 1648 -53 1641 -35 1625 -19 ct 
1610 -4 1591 4 1570 4 ct 1549 4 1531 -4 1515 -19 ct p
1521 -78 m  1521 -56 1524 -39 1530 -29 ct 1539 -13 1553 -5 1570 -5 ct 1579 -5 1587 -7 1594 -12 ct 
1602 -17 1607 -23 1611 -31 ct 1616 -41 1619 -57 1619 -78 ct 1619 -101 1616 -117 1610 -127 ct 
1601 -143 1587 -150 1570 -150 ct 1562 -150 1555 -148 1547 -144 ct 1540 -140 1534 -134 1530 -127 ct 
1524 -116 1521 -100 1521 -78 ct p ef
1670 0 m  1670 -11 l  1683 -11 1690 -12 1693 -13 ct 1696 -15 1698 -19 1698 -27 ct 
1698 -121 l  1698 -130 1696 -136 1693 -138 ct 1690 -140 1683 -141 1670 -141 ct 
1670 -152 l  1720 -156 l  1720 -119 l  1731 -144 1749 -156 1772 -156 ct 1790 -156 1802 -152 1809 -143 ct 
1815 -137 1818 -131 1819 -124 ct 1820 -118 1820 -106 1820 -89 ct 1820 -22 l 
1821 -17 1823 -14 1826 -13 ct 1830 -11 1837 -11 1848 -11 ct 1848 0 l  1824 -1 1811 -1 1808 -1 ct 
1806 -1 1793 -1 1768 0 ct 1768 -11 l  1781 -11 1789 -12 1792 -13 ct 1794 -15 1796 -19 1796 -27 ct 
1796 -109 l  1796 -121 1794 -131 1790 -138 ct 1787 -145 1780 -148 1770 -148 ct 
1758 -148 1747 -143 1737 -133 ct 1727 -123 1722 -109 1722 -92 ct 1722 -27 l 
1722 -19 1724 -15 1727 -13 ct 1730 -12 1737 -11 1750 -11 ct 1750 0 l  1726 -1 1713 -1 1710 -1 ct 
1708 -1 1695 -1 1670 0 ct p ef
pom
pum
8178 9172 t
10 58 m  22 58 30 57 33 55 ct 36 54 37 49 37 42 ct 37 -124 l  37 -131 36 -136 33 -138 ct 
30 -140 22 -141 10 -141 ct 10 -152 l  61 -156 l  61 -133 l  75 -148 91 -156 110 -156 ct 
130 -156 147 -148 162 -133 ct 177 -117 184 -98 184 -76 ct 184 -54 176 -35 161 -19 ct 
145 -4 127 4 105 4 ct 93 4 84 1 76 -5 ct 68 -11 63 -16 62 -21 ct 62 -18 l  62 42 l 
62 49 63 54 66 55 ct 69 57 77 58 89 58 ct 89 68 l  65 68 51 67 49 67 ct 47 67 34 68 10 68 ct 
p
62 -40 m  62 -37 62 -34 62 -33 ct 63 -32 64 -29 67 -25 ct 76 -11 88 -4 104 -4 ct 
117 -4 129 -11 139 -25 ct 149 -38 155 -56 155 -76 ct 155 -96 150 -113 141 -127 ct 
131 -140 120 -147 107 -147 ct 98 -147 90 -145 82 -140 ct 74 -135 67 -128 62 -119 ct 
p ef
207 0 m  207 -11 l  219 -11 227 -12 230 -13 ct 233 -15 234 -19 234 -27 ct 234 -210 l 
234 -219 233 -225 230 -227 ct 227 -229 219 -230 207 -230 ct 207 -241 l  257 -245 l 
257 -27 l  257 -19 259 -15 262 -13 ct 265 -12 273 -11 285 -11 ct 285 0 l  282 0 278 0 272 0 ct 
266 -1 261 -1 256 -1 ct 252 -1 248 -1 246 -1 ct 243 -1 230 -1 207 0 ct p ef
307 -34 m  307 -54 319 -69 342 -79 ct 356 -86 378 -90 407 -92 ct 407 -105 l 
407 -120 403 -131 396 -139 ct 388 -146 379 -150 370 -150 ct 352 -150 340 -145 332 -134 ct 
339 -134 343 -132 346 -128 ct 348 -125 350 -121 350 -118 ct 350 -113 348 -109 345 -106 ct 
342 -103 338 -102 333 -102 ct 329 -102 325 -103 322 -106 ct 319 -109 317 -113 317 -118 ct 
317 -130 322 -139 333 -147 ct 343 -154 356 -158 370 -158 ct 390 -158 406 -152 419 -139 ct 
423 -135 426 -130 428 -125 ct 430 -120 431 -115 431 -112 ct 431 -109 431 -104 431 -97 ct 
431 -26 l  431 -25 432 -23 432 -21 ct 433 -19 434 -16 436 -13 ct 438 -10 441 -9 444 -9 ct 
453 -9 457 -16 457 -31 ct 457 -51 l  466 -51 l  466 -31 l  466 -19 463 -10 456 -5 ct 
450 0 443 2 437 2 ct 429 2 423 -1 418 -7 ct 413 -12 410 -19 410 -27 ct 406 -18 400 -11 392 -5 ct 
384 1 374 4 363 4 ct 355 4 347 3 339 1 ct 331 -1 323 -5 317 -11 ct 310 -17 307 -25 307 -34 ct 
p
334 -34 m  334 -25 337 -18 343 -12 ct 350 -7 357 -4 366 -4 ct 376 -4 385 -8 394 -15 ct 
403 -23 407 -34 407 -49 ct 407 -85 l  381 -84 362 -78 351 -68 ct 340 -57 334 -46 334 -34 ct 
p ef
481 0 m  481 -11 l  494 -11 501 -12 504 -13 ct 507 -15 509 -19 509 -27 ct 509 -121 l 
509 -130 507 -136 504 -138 ct 501 -140 494 -141 481 -141 ct 481 -152 l  531 -156 l 
531 -119 l  542 -144 560 -156 583 -156 ct 601 -156 613 -152 620 -143 ct 626 -137 629 -131 630 -124 ct 
631 -118 631 -106 631 -89 ct 631 -22 l  632 -17 634 -14 637 -13 ct 641 -11 648 -11 659 -11 ct 
659 0 l  635 -1 622 -1 619 -1 ct 617 -1 604 -1 579 0 ct 579 -11 l  592 -11 600 -12 603 -13 ct 
605 -15 607 -19 607 -27 ct 607 -109 l  607 -121 605 -131 601 -138 ct 598 -145 591 -148 581 -148 ct 
569 -148 558 -143 548 -133 ct 538 -123 533 -109 533 -92 ct 533 -27 l  533 -19 535 -15 538 -13 ct 
541 -12 548 -11 561 -11 ct 561 0 l  537 -1 524 -1 521 -1 ct 519 -1 506 -1 481 0 ct 
p ef
675 -78 m  675 -100 682 -119 696 -134 ct 710 -150 728 -158 748 -158 ct 769 -158 785 -151 795 -138 ct 
806 -125 811 -108 811 -89 ct 811 -85 811 -83 810 -83 ct 809 -82 807 -82 803 -82 ct 
704 -82 l  704 -58 708 -40 715 -29 ct 725 -13 738 -5 755 -5 ct 757 -5 760 -5 762 -6 ct 
765 -6 769 -7 775 -9 ct 780 -11 786 -15 791 -20 ct 796 -26 799 -33 802 -41 ct 803 -45 805 -46 807 -46 ct 
810 -46 811 -45 811 -42 ct 811 -40 810 -37 808 -32 ct 806 -27 803 -22 798 -17 ct 
794 -11 788 -6 780 -2 ct 771 2 762 4 753 4 ct 732 4 714 -4 698 -20 ct 683 -35 675 -55 675 -78 ct 
p
705 -89 m  788 -89 l  788 -94 788 -99 787 -105 ct 786 -110 784 -117 782 -124 ct 
780 -132 775 -138 770 -143 ct 764 -148 757 -150 748 -150 ct 745 -150 741 -150 736 -148 ct 
732 -146 728 -143 723 -140 ct 718 -136 714 -129 710 -121 ct 707 -112 705 -101 705 -89 ct 
p ef
pom
gs
0.503 0.503 0.503 c 15856 12638 m  12857 12638 l  12857 4140 l  18856 4140 l 
18856 12638 l  15856 12638 l  p ef
gr
gs
34.993 lw 1 lj 0.503 0.503 0.503 c 15856 12638 m  12856 12638 l  12856 4140 l 
18855 4140 l  18855 12638 l  15856 12638 l  pc
gr
gs
1.000 1.000 1.000 c 15997 12497 m  12998 12497 l  12998 3999 l  18997 3999 l 
18997 12497 l  15997 12497 l  p ef
gr
gs
34.993 lw 1 lj 15997 12497 m  12997 12497 l  12997 3999 l  18996 3999 l 
18996 12497 l  15997 12497 l  pc
gr
gs
34.993 lw 1 lj 0.800 0.800 0.800 c 14616 8021 m  13216 5495 l  ps
gr
gs
34.993 lw 1 lj 0.800 0.800 0.800 c 17397 8021 m  18796 5495 l  ps
gr
gs
34.993 lw 1 lj 0.800 0.800 0.800 c 17389 8021 m  15397 4427 l  ps
gr
gs
34.993 lw 1 lj 0.800 0.800 0.800 c 14616 8021 m  16597 4447 l  ps
gr
gs
34.993 lw 1 lj 0.601 0.601 0.601 c 14616 11997 m  14616 5198 l  ps
gr
gs
34.993 lw 1 lj 0.601 0.601 0.601 c 17397 11997 m  17397 5198 l  ps
gr
gs
1.000 1.000 1.000 c 15997 8998 m  13998 8998 l  13998 7998 l  17997 7998 l 
17997 8998 l  15997 8998 l  p ef
gr
gs
34.993 lw 1 lj 15997 8997 m  13997 8997 l  13997 7998 l  17996 7998 l 
17996 8997 l  15997 8997 l  pc
gr
pum
14265 8619 t
20 -1 m  20 -71 l  20 -74 20 -76 20 -77 ct 20 -78 20 -78 21 -79 ct 22 -80 23 -80 24 -80 ct 
27 -80 28 -79 29 -77 ct 29 -53 37 -35 50 -22 ct 64 -10 83 -3 106 -3 ct 120 -3 132 -8 140 -18 ct 
149 -28 154 -40 154 -54 ct 154 -66 150 -77 143 -86 ct 140 -90 136 -93 132 -96 ct 
128 -99 125 -100 123 -101 ct 120 -102 117 -103 113 -104 ct 83 -111 68 -115 66 -116 ct 
52 -120 41 -129 32 -141 ct 24 -153 20 -166 20 -180 ct 20 -199 26 -215 40 -229 ct 
53 -242 69 -249 89 -249 ct 98 -249 107 -247 115 -244 ct 123 -241 129 -238 132 -236 ct 
136 -233 140 -229 145 -224 ct 157 -244 l  159 -247 161 -249 163 -249 ct 165 -249 166 -248 166 -247 ct 
166 -246 167 -244 167 -240 ct 167 -169 l  167 -167 167 -165 166 -164 ct 166 -163 166 -162 165 -162 ct 
164 -161 163 -161 162 -161 ct 160 -161 158 -162 158 -165 ct 151 -214 128 -239 89 -239 ct 
76 -239 64 -234 56 -225 ct 47 -216 42 -205 42 -193 ct 42 -182 46 -173 52 -164 ct 
59 -156 67 -150 78 -148 ct 123 -137 l  138 -133 151 -125 161 -112 ct 171 -98 176 -83 176 -66 ct 
176 -46 170 -28 157 -14 ct 143 1 127 8 107 8 ct 92 8 79 5 68 1 ct 56 -4 48 -10 42 -17 ct 
37 -9 33 -3 30 1 ct 29 3 l  27 6 25 8 24 8 ct 22 8 21 7 20 6 ct 20 5 20 3 20 -1 ct 
p ef
210 -34 m  210 -54 222 -69 245 -79 ct 259 -86 281 -90 310 -92 ct 310 -105 l 
310 -120 306 -131 299 -139 ct 291 -146 282 -150 273 -150 ct 255 -150 243 -145 235 -134 ct 
242 -134 246 -132 249 -128 ct 251 -125 253 -121 253 -118 ct 253 -113 251 -109 248 -106 ct 
245 -103 241 -102 236 -102 ct 232 -102 228 -103 225 -106 ct 222 -109 220 -113 220 -118 ct 
220 -130 225 -139 236 -147 ct 246 -154 259 -158 273 -158 ct 293 -158 309 -152 322 -139 ct 
326 -135 329 -130 331 -125 ct 333 -120 334 -115 334 -112 ct 334 -109 334 -104 334 -97 ct 
334 -26 l  334 -25 335 -23 335 -21 ct 336 -19 337 -16 339 -13 ct 341 -10 344 -9 347 -9 ct 
356 -9 360 -16 360 -31 ct 360 -51 l  369 -51 l  369 -31 l  369 -19 366 -10 359 -5 ct 
353 0 346 2 340 2 ct 332 2 326 -1 321 -7 ct 316 -12 313 -19 313 -27 ct 309 -18 303 -11 295 -5 ct 
287 1 277 4 266 4 ct 258 4 250 3 242 1 ct 234 -1 226 -5 220 -11 ct 213 -17 210 -25 210 -34 ct 
p
237 -34 m  237 -25 240 -18 246 -12 ct 253 -7 260 -4 269 -4 ct 279 -4 288 -8 297 -15 ct 
306 -23 310 -34 310 -49 ct 310 -85 l  284 -84 265 -78 254 -68 ct 243 -57 237 -46 237 -34 ct 
p ef
384 0 m  384 -11 l  397 -11 404 -12 407 -13 ct 410 -15 412 -19 412 -27 ct 412 -121 l 
412 -130 410 -136 407 -138 ct 404 -140 397 -141 384 -141 ct 384 -152 l  434 -156 l 
434 -119 l  445 -144 463 -156 486 -156 ct 514 -156 529 -144 533 -121 ct 537 -130 543 -138 552 -145 ct 
560 -152 571 -156 584 -156 ct 602 -156 614 -152 622 -143 ct 627 -137 630 -131 631 -124 ct 
632 -118 632 -106 632 -89 ct 632 -22 l  633 -17 635 -14 638 -13 ct 642 -11 649 -11 660 -11 ct 
660 0 l  636 -1 623 -1 620 -1 ct 619 -1 605 -1 581 0 ct 581 -11 l  593 -11 601 -12 604 -13 ct 
607 -15 608 -19 608 -27 ct 608 -109 l  608 -121 606 -131 603 -138 ct 599 -145 592 -148 582 -148 ct 
570 -148 559 -143 549 -133 ct 539 -123 534 -109 534 -92 ct 534 -27 l  534 -19 536 -15 539 -13 ct 
542 -12 549 -11 562 -11 ct 562 0 l  538 -1 525 -1 522 -1 ct 520 -1 507 -1 482 0 ct 
482 -11 l  495 -11 503 -12 506 -13 ct 508 -15 510 -19 510 -27 ct 510 -109 l 
510 -121 508 -131 504 -138 ct 501 -145 494 -148 484 -148 ct 472 -148 461 -143 451 -133 ct 
441 -123 436 -109 436 -92 ct 436 -27 l  436 -19 438 -15 441 -13 ct 444 -12 451 -11 464 -11 ct 
464 0 l  440 -1 427 -1 424 -1 ct 422 -1 409 -1 384 0 ct p ef
675 58 m  687 58 695 57 698 55 ct 701 54 702 49 702 42 ct 702 -124 l  702 -131 701 -136 698 -138 ct 
695 -140 687 -141 675 -141 ct 675 -152 l  726 -156 l  726 -133 l  740 -148 756 -156 775 -156 ct 
795 -156 812 -148 827 -133 ct 842 -117 849 -98 849 -76 ct 849 -54 841 -35 826 -19 ct 
810 -4 792 4 770 4 ct 758 4 749 1 741 -5 ct 733 -11 728 -16 727 -21 ct 727 -18 l 
727 42 l  727 49 728 54 731 55 ct 734 57 742 58 754 58 ct 754 68 l  730 68 716 67 714 67 ct 
712 67 699 68 675 68 ct p
727 -40 m  727 -37 727 -34 727 -33 ct 728 -32 729 -29 732 -25 ct 741 -11 753 -4 769 -4 ct 
782 -4 794 -11 804 -25 ct 814 -38 820 -56 820 -76 ct 820 -96 815 -113 806 -127 ct 
796 -140 785 -147 772 -147 ct 763 -147 755 -145 747 -140 ct 739 -135 732 -128 727 -119 ct 
p ef
871 0 m  871 -11 l  883 -11 891 -12 894 -13 ct 897 -15 898 -19 898 -27 ct 898 -210 l 
898 -219 897 -225 894 -227 ct 891 -229 883 -230 871 -230 ct 871 -241 l  921 -245 l 
921 -27 l  921 -19 923 -15 926 -13 ct 929 -12 937 -11 949 -11 ct 949 0 l  946 0 942 0 936 0 ct 
930 -1 925 -1 920 -1 ct 916 -1 912 -1 910 -1 ct 907 -1 894 -1 871 0 ct p ef
967 -78 m  967 -100 974 -119 988 -134 ct 1002 -150 1020 -158 1040 -158 ct 1061 -158 1077 -151 1087 -138 ct 
1098 -125 1103 -108 1103 -89 ct 1103 -85 1103 -83 1102 -83 ct 1101 -82 1099 -82 1095 -82 ct 
996 -82 l  996 -58 1000 -40 1007 -29 ct 1017 -13 1030 -5 1047 -5 ct 1049 -5 1052 -5 1054 -6 ct 
1057 -6 1061 -7 1067 -9 ct 1072 -11 1078 -15 1083 -20 ct 1088 -26 1091 -33 1094 -41 ct 
1095 -45 1097 -46 1099 -46 ct 1102 -46 1103 -45 1103 -42 ct 1103 -40 1102 -37 1100 -32 ct 
1098 -27 1095 -22 1090 -17 ct 1086 -11 1080 -6 1072 -2 ct 1063 2 1054 4 1045 4 ct 
1024 4 1006 -4 990 -20 ct 975 -35 967 -55 967 -78 ct p
997 -89 m  1080 -89 l  1080 -94 1080 -99 1079 -105 ct 1078 -110 1076 -117 1074 -124 ct 
1072 -132 1067 -138 1062 -143 ct 1056 -148 1049 -150 1040 -150 ct 1037 -150 1033 -150 1028 -148 ct 
1024 -146 1020 -143 1015 -140 ct 1010 -136 1006 -129 1002 -121 ct 999 -112 997 -101 997 -89 ct 
p ef
pom
gs
36 lw 1 lj 15997 11997 m  15997 8755 l  ps
gr
gs
15997 8498 m  15821 8779 l  16173 8779 l  15997 8498 l  p ef
gr
gs
0 lw 1 lj [ 26.95 26.95 ] 0 ld
15997 4998 m  15997 8507 l  ps
gr
gs
34.993 lw 1 lj 15397 7436 m  15397 7343 16267 7236 16597 7436 ct ps
gr
pum
15664 10478 t
26 -5 m  26 -7 27 -9 27 -10 ct 79 -218 l  79 -218 80 -219 80 -221 ct 80 -223 80 -224 80 -224 ct 
80 -226 80 -227 80 -227 ct 79 -228 78 -229 75 -229 ct 72 -230 68 -230 63 -230 ct 
57 -230 54 -231 54 -234 ct 54 -236 55 -238 56 -239 ct 56 -240 57 -241 58 -241 ct 
59 -241 61 -241 62 -241 ct 97 -244 l  99 -245 101 -245 103 -245 ct 106 -245 108 -244 108 -241 ct 
108 -240 108 -238 107 -236 ct 71 -92 l  77 -95 82 -98 87 -103 ct 91 -107 99 -115 109 -127 ct 
126 -146 141 -156 155 -156 ct 162 -156 168 -154 172 -149 ct 175 -145 177 -140 177 -135 ct 
177 -129 175 -124 172 -120 ct 168 -117 164 -115 160 -115 ct 155 -115 152 -116 150 -119 ct 
148 -121 147 -124 147 -126 ct 147 -128 147 -130 148 -132 ct 149 -134 150 -136 153 -139 ct 
156 -142 159 -143 164 -144 ct 161 -147 158 -148 154 -148 ct 149 -148 143 -146 137 -142 ct 
131 -139 126 -135 122 -131 ct 119 -127 113 -121 104 -111 ct 95 -100 86 -92 79 -88 ct 
111 -83 126 -71 126 -51 ct 126 -48 126 -44 125 -39 ct 123 -29 122 -23 122 -19 ct 
122 -9 125 -4 132 -4 ct 136 -4 139 -5 142 -8 ct 145 -10 148 -14 150 -19 ct 152 -23 153 -28 155 -31 ct 
156 -35 157 -40 159 -46 ct 160 -50 161 -52 161 -53 ct 162 -54 163 -54 166 -54 ct 
169 -54 171 -53 171 -50 ct 171 -50 170 -48 169 -44 ct 168 -40 167 -35 165 -29 ct 
163 -23 160 -18 158 -14 ct 151 -2 142 4 131 4 ct 123 4 116 1 110 -5 ct 104 -10 101 -19 101 -30 ct 
101 -34 102 -38 103 -42 ct 103 -46 104 -49 104 -51 ct 104 -58 102 -63 97 -67 ct 
93 -72 88 -75 83 -77 ct 79 -79 74 -80 68 -81 ct 50 -9 l  48 0 44 4 36 4 ct 33 4 31 3 29 1 ct 
27 -1 26 -3 26 -5 ct p ef
pom
pum
15825 10594 t
24 -30 m  24 -40 26 -52 30 -67 ct 34 -82 38 -94 43 -104 ct 49 -115 55 -123 63 -128 ct 
71 -134 78 -137 86 -137 ct 91 -137 96 -136 99 -134 ct 103 -132 106 -129 107 -127 ct 
109 -124 111 -121 112 -117 ct 113 -114 113 -111 113 -109 ct 114 -106 114 -104 114 -102 ct 
114 -93 112 -82 109 -69 ct 106 -55 102 -43 98 -34 ct 92 -20 84 -10 76 -4 ct 68 2 60 5 51 5 ct 
47 5 43 4 40 2 ct 37 1 34 -1 32 -3 ct 30 -6 29 -8 27 -10 ct 26 -13 25 -16 25 -19 ct 
25 -22 24 -24 24 -26 ct 24 -27 24 -29 24 -30 ct p
37 -20 m  37 -13 39 -8 42 -5 ct 45 -2 48 0 52 0 ct 58 0 62 -2 67 -6 ct 72 -10 75 -15 78 -20 ct 
82 -30 87 -46 93 -68 ct 98 -90 101 -105 101 -113 ct 101 -119 100 -124 97 -127 ct 
94 -130 90 -132 85 -132 ct 81 -132 77 -130 72 -127 ct 67 -124 63 -119 60 -112 ct 
56 -104 51 -89 46 -67 ct 40 -44 37 -28 37 -20 ct p ef
pom
gs
36 lw 1 lj 15992 8513 m  17564 5678 l  ps
gr
gs
17689 5453 m  17399 5613 l  17707 5784 l  17689 5453 l  p ef
gr
pum
16272 7117 t
211 -134 m  202 -92 188 -59 167 -34 ct 146 -9 122 4 95 4 ct 68 4 49 -9 38 -34 ct 
27 -59 25 -93 34 -134 ct 41 -176 56 -209 77 -234 ct 98 -260 122 -272 149 -272 ct 
175 -272 195 -260 206 -234 ct 217 -210 219 -176 211 -134 ct p
172 -125 m  69 -125 l  62 -88 61 -61 66 -42 ct 70 -21 81 -11 98 -11 ct 115 -11 130 -21 142 -42 ct 
154 -60 163 -88 172 -125 ct p
179 -227 m  174 -248 163 -259 146 -258 ct 129 -258 114 -248 102 -227 ct 90 -208 80 -180 72 -143 ct 
175 -143 l  181 -180 183 -208 179 -227 ct p ef
pom
gs
36 lw 1 lj 15990 8522 m  14419 5687 l  ps
gr
gs
14294 5462 m  14276 5793 l  14584 5622 l  14294 5462 l  p ef
gr
pum
15407 7117 t
338 -134 m  329 -92 315 -59 294 -34 ct 273 -9 249 4 222 4 ct 195 4 176 -9 165 -34 ct 
154 -59 152 -93 161 -134 ct 168 -176 183 -209 204 -234 ct 225 -260 249 -272 276 -272 ct 
302 -272 322 -260 333 -234 ct 344 -210 346 -176 338 -134 ct p
299 -125 m  196 -125 l  189 -88 188 -61 193 -42 ct 197 -21 208 -11 225 -11 ct 
242 -11 257 -21 269 -42 ct 281 -60 290 -88 299 -125 ct p
306 -227 m  301 -248 290 -259 273 -258 ct 256 -258 241 -248 229 -227 ct 217 -208 207 -180 199 -143 ct 
302 -143 l  308 -180 310 -208 306 -227 ct p ef
30 -71 m  31 -79 33 -84 36 -85 ct 37 -86 39 -86 41 -86 ct 111 -86 l  116 -86 119 -84 119 -81 ct 
119 -80 119 -79 119 -78 ct 118 -76 118 -74 117 -72 ct 116 -69 115 -68 114 -67 ct 
113 -66 111 -66 109 -66 ct 38 -66 l  33 -66 30 -68 30 -71 ct p ef
pom
gs
13143 4809 m 14687 4809 l 14687 5328 l 13143 5328 l 13143 4809 l eoclip newpath
pum
13255 5101 t
24 -225 m  24 -244 l  168 -244 l  158 -270 l  252 -234 l  158 -199 l  168 -225 l 
p ef
pom
pum
13233 5191 t
26 -5 m  26 -7 27 -9 27 -10 ct 79 -217 l  79 -217 79 -218 79 -220 ct 80 -221 80 -222 80 -223 ct 
80 -224 80 -225 79 -226 ct 79 -227 77 -227 75 -228 ct 72 -229 68 -229 62 -229 ct 
57 -229 54 -230 54 -233 ct 54 -235 54 -236 55 -237 ct 56 -239 57 -239 58 -239 ct 
59 -240 60 -240 62 -240 ct 97 -243 l  98 -243 100 -244 102 -244 ct 106 -244 107 -242 107 -239 ct 
107 -238 107 -237 106 -235 ct 71 -92 l  77 -94 82 -98 86 -102 ct 91 -106 98 -114 108 -126 ct 
125 -146 140 -155 154 -155 ct 161 -155 167 -153 171 -149 ct 174 -144 176 -139 176 -134 ct 
176 -128 174 -123 171 -120 ct 167 -116 163 -114 159 -114 ct 154 -114 151 -116 149 -118 ct 
147 -120 146 -123 146 -126 ct 146 -127 147 -129 147 -131 ct 148 -133 149 -135 152 -138 ct 
155 -141 158 -143 163 -143 ct 160 -146 157 -147 153 -147 ct 148 -147 142 -145 136 -142 ct 
130 -138 125 -134 122 -130 ct 118 -126 112 -120 104 -111 ct 94 -99 86 -92 79 -87 ct 
110 -83 126 -71 126 -51 ct 126 -48 125 -44 124 -39 ct 122 -29 121 -23 121 -19 ct 
121 -9 124 -4 131 -4 ct 135 -4 138 -5 141 -8 ct 144 -10 147 -14 149 -18 ct 151 -23 153 -27 154 -31 ct 
155 -35 157 -40 158 -46 ct 159 -49 160 -52 160 -52 ct 161 -53 163 -54 165 -54 ct 
168 -54 170 -53 170 -50 ct 170 -49 169 -47 168 -44 ct 168 -40 166 -35 164 -29 ct 
162 -23 160 -18 157 -14 ct 150 -2 141 4 130 4 ct 122 4 116 1 110 -5 ct 104 -10 101 -19 101 -30 ct 
101 -34 101 -38 102 -42 ct 103 -45 103 -48 103 -51 ct 103 -57 101 -63 97 -67 ct 
92 -71 88 -75 83 -77 ct 78 -78 73 -80 68 -80 ct 50 -9 l  48 0 43 4 36 4 ct 33 4 31 3 29 1 ct 
27 -1 26 -3 26 -5 ct p ef
pom
pum
13435 5281 t
16 -18 m  16 -22 17 -26 19 -28 ct 21 -30 24 -31 27 -31 ct 29 -31 31 -30 32 -29 ct 
33 -28 34 -26 34 -24 ct 34 -24 34 -23 33 -22 ct 33 -20 32 -19 31 -17 ct 29 -15 26 -14 23 -14 ct 
26 -6 32 -2 43 -2 ct 47 -2 51 -3 54 -4 ct 58 -5 60 -7 62 -9 ct 64 -10 66 -12 67 -15 ct 
68 -17 69 -19 70 -21 ct 70 -23 71 -24 71 -26 ct 71 -28 70 -31 69 -33 ct 68 -35 67 -36 64 -37 ct 
62 -38 61 -39 59 -40 ct 57 -40 55 -41 52 -41 ct 50 -42 49 -42 47 -42 ct 46 -43 45 -43 43 -44 ct 
40 -45 39 -47 37 -48 ct 36 -49 35 -51 34 -54 ct 33 -56 32 -59 32 -62 ct 32 -69 35 -76 41 -83 ct 
46 -89 55 -93 66 -93 ct 72 -93 78 -91 82 -88 ct 86 -84 88 -80 88 -75 ct 88 -71 87 -68 85 -66 ct 
83 -64 81 -63 79 -63 ct 77 -63 75 -64 74 -65 ct 73 -66 73 -68 73 -69 ct 73 -71 73 -73 75 -74 ct 
76 -76 78 -77 81 -78 ct 79 -85 74 -88 65 -88 ct 58 -88 53 -86 49 -81 ct 46 -77 44 -73 44 -69 ct 
44 -66 45 -64 47 -62 ct 48 -60 50 -59 51 -59 ct 53 -58 55 -57 58 -57 ct 60 -56 62 -56 64 -55 ct 
65 -55 67 -54 70 -53 ct 73 -52 75 -50 76 -49 ct 78 -47 79 -45 81 -42 ct 82 -40 83 -36 83 -33 ct 
83 -31 82 -28 81 -26 ct 81 -23 79 -20 78 -16 ct 76 -13 73 -10 71 -7 ct 68 -5 64 -2 59 0 ct 
54 1 49 2 43 2 ct 35 2 29 0 24 -3 ct 19 -7 16 -12 16 -18 ct p ef
pom
pum
13548 5191 t
38 -50 m  38 -72 l  241 -72 l  241 -50 l  p
38 -136 m  38 -158 l  241 -158 l  241 -136 l  p ef
pom
pum
13817 5191 t
38 -93 m  38 -110 l  241 -110 l  241 -93 l  p ef
pom
pum
14065 5191 t
61 75 m  61 -278 l  78 -278 l  78 75 l  p ef
pom
pum
14177 5101 t
24 -225 m  24 -244 l  168 -244 l  158 -270 l  252 -234 l  158 -199 l  168 -225 l 
p ef
pom
pum
14177 5191 t
26 -5 m  26 -7 27 -9 27 -10 ct 79 -217 l  79 -217 79 -218 79 -220 ct 80 -221 80 -222 80 -223 ct 
80 -224 80 -225 79 -226 ct 79 -227 77 -227 75 -228 ct 72 -229 68 -229 62 -229 ct 
57 -229 54 -230 54 -233 ct 54 -235 54 -236 55 -237 ct 56 -239 57 -239 58 -239 ct 
59 -240 60 -240 62 -240 ct 97 -243 l  98 -243 100 -244 102 -244 ct 106 -244 107 -242 107 -239 ct 
107 -238 107 -237 106 -235 ct 71 -92 l  77 -94 82 -98 86 -102 ct 91 -106 98 -114 108 -126 ct 
125 -146 140 -155 154 -155 ct 161 -155 167 -153 171 -149 ct 174 -144 176 -139 176 -134 ct 
176 -128 174 -123 171 -120 ct 167 -116 163 -114 159 -114 ct 154 -114 151 -116 149 -118 ct 
147 -120 146 -123 146 -126 ct 146 -127 147 -129 147 -131 ct 148 -133 149 -135 152 -138 ct 
155 -141 158 -143 163 -143 ct 160 -146 157 -147 153 -147 ct 148 -147 142 -145 136 -142 ct 
130 -138 125 -134 122 -130 ct 118 -126 112 -120 104 -111 ct 94 -99 86 -92 79 -87 ct 
110 -83 126 -71 126 -51 ct 126 -48 125 -44 124 -39 ct 122 -29 121 -23 121 -19 ct 
121 -9 124 -4 131 -4 ct 135 -4 138 -5 141 -8 ct 144 -10 147 -14 149 -18 ct 151 -23 153 -27 154 -31 ct 
155 -35 157 -40 158 -46 ct 159 -49 160 -52 160 -52 ct 161 -53 163 -54 165 -54 ct 
168 -54 170 -53 170 -50 ct 170 -49 169 -47 168 -44 ct 168 -40 166 -35 164 -29 ct 
162 -23 160 -18 157 -14 ct 150 -2 141 4 130 4 ct 122 4 116 1 110 -5 ct 104 -10 101 -19 101 -30 ct 
101 -34 101 -38 102 -42 ct 103 -45 103 -48 103 -51 ct 103 -57 101 -63 97 -67 ct 
92 -71 88 -75 83 -77 ct 78 -78 73 -80 68 -80 ct 50 -9 l  48 0 43 4 36 4 ct 33 4 31 3 29 1 ct 
27 -1 26 -3 26 -5 ct p ef
pom
pum
14379 5281 t
16 -18 m  16 -22 17 -26 19 -28 ct 21 -30 24 -31 27 -31 ct 29 -31 31 -30 32 -29 ct 
33 -28 34 -26 34 -24 ct 34 -24 34 -23 33 -22 ct 33 -20 32 -19 31 -17 ct 29 -15 26 -14 23 -14 ct 
26 -6 32 -2 43 -2 ct 47 -2 51 -3 54 -4 ct 58 -5 60 -7 62 -9 ct 64 -10 66 -12 67 -15 ct 
68 -17 69 -19 70 -21 ct 70 -23 71 -24 71 -26 ct 71 -28 70 -31 69 -33 ct 68 -35 67 -36 64 -37 ct 
62 -38 61 -39 59 -40 ct 57 -40 55 -41 52 -41 ct 50 -42 49 -42 47 -42 ct 46 -43 45 -43 43 -44 ct 
40 -45 39 -47 37 -48 ct 36 -49 35 -51 34 -54 ct 33 -56 32 -59 32 -62 ct 32 -69 35 -76 41 -83 ct 
46 -89 55 -93 66 -93 ct 72 -93 78 -91 82 -88 ct 86 -84 88 -80 88 -75 ct 88 -71 87 -68 85 -66 ct 
83 -64 81 -63 79 -63 ct 77 -63 75 -64 74 -65 ct 73 -66 73 -68 73 -69 ct 73 -71 73 -73 75 -74 ct 
76 -76 78 -77 81 -78 ct 79 -85 74 -88 65 -88 ct 58 -88 53 -86 49 -81 ct 46 -77 44 -73 44 -69 ct 
44 -66 45 -64 47 -62 ct 48 -60 50 -59 51 -59 ct 53 -58 55 -57 58 -57 ct 60 -56 62 -56 64 -55 ct 
65 -55 67 -54 70 -53 ct 73 -52 75 -50 76 -49 ct 78 -47 79 -45 81 -42 ct 82 -40 83 -36 83 -33 ct 
83 -31 82 -28 81 -26 ct 81 -23 79 -20 78 -16 ct 76 -13 73 -10 71 -7 ct 68 -5 64 -2 59 0 ct 
54 1 49 2 43 2 ct 35 2 29 0 24 -3 ct 19 -7 16 -12 16 -18 ct p ef
pom
pum
14447 5191 t
61 75 m  61 -278 l  78 -278 l  78 75 l  p ef
pom
gr
gs
17442 4809 m 18717 4809 l 18717 5328 l 17442 5328 l 17442 4809 l eoclip newpath
pum
17554 5101 t
24 -225 m  24 -244 l  168 -244 l  158 -270 l  252 -234 l  158 -199 l  168 -225 l 
p ef
pom
pum
17532 5191 t
26 -5 m  26 -7 27 -9 27 -10 ct 79 -217 l  79 -217 79 -218 79 -220 ct 80 -221 80 -222 80 -223 ct 
80 -224 80 -225 79 -226 ct 79 -227 77 -227 75 -228 ct 72 -229 68 -229 62 -229 ct 
57 -229 54 -230 54 -233 ct 54 -235 54 -236 55 -237 ct 56 -239 57 -239 58 -239 ct 
59 -240 60 -240 62 -240 ct 97 -243 l  98 -243 100 -244 102 -244 ct 106 -244 107 -242 107 -239 ct 
107 -238 107 -237 106 -235 ct 71 -92 l  77 -94 82 -98 86 -102 ct 91 -106 98 -114 108 -126 ct 
125 -146 140 -155 154 -155 ct 161 -155 167 -153 171 -149 ct 174 -144 176 -139 176 -134 ct 
176 -128 174 -123 171 -120 ct 167 -116 163 -114 159 -114 ct 154 -114 151 -116 149 -118 ct 
147 -120 146 -123 146 -126 ct 146 -127 147 -129 147 -131 ct 148 -133 149 -135 152 -138 ct 
155 -141 158 -143 163 -143 ct 160 -146 157 -147 153 -147 ct 148 -147 142 -145 136 -142 ct 
130 -138 125 -134 122 -130 ct 118 -126 112 -120 104 -111 ct 94 -99 86 -92 79 -87 ct 
110 -83 126 -71 126 -51 ct 126 -48 125 -44 124 -39 ct 122 -29 121 -23 121 -19 ct 
121 -9 124 -4 131 -4 ct 135 -4 138 -5 141 -8 ct 144 -10 147 -14 149 -18 ct 151 -23 153 -27 154 -31 ct 
155 -35 157 -40 158 -46 ct 159 -49 160 -52 160 -52 ct 161 -53 163 -54 165 -54 ct 
168 -54 170 -53 170 -50 ct 170 -49 169 -47 168 -44 ct 168 -40 166 -35 164 -29 ct 
162 -23 160 -18 157 -14 ct 150 -2 141 4 130 4 ct 122 4 116 1 110 -5 ct 104 -10 101 -19 101 -30 ct 
101 -34 101 -38 102 -42 ct 103 -45 103 -48 103 -51 ct 103 -57 101 -63 97 -67 ct 
92 -71 88 -75 83 -77 ct 78 -78 73 -80 68 -80 ct 50 -9 l  48 0 43 4 36 4 ct 33 4 31 3 29 1 ct 
27 -1 26 -3 26 -5 ct p ef
pom
pum
17734 5281 t
16 -18 m  16 -22 17 -26 19 -28 ct 21 -30 24 -31 27 -31 ct 29 -31 31 -30 32 -29 ct 
33 -28 34 -26 34 -24 ct 34 -24 34 -23 33 -22 ct 33 -20 32 -19 31 -17 ct 29 -15 26 -14 23 -14 ct 
26 -6 32 -2 43 -2 ct 47 -2 51 -3 54 -4 ct 58 -5 60 -7 62 -9 ct 64 -10 66 -12 67 -15 ct 
68 -17 69 -19 70 -21 ct 70 -23 71 -24 71 -26 ct 71 -28 70 -31 69 -33 ct 68 -35 67 -36 64 -37 ct 
62 -38 61 -39 59 -40 ct 57 -40 55 -41 52 -41 ct 50 -42 49 -42 47 -42 ct 46 -43 45 -43 43 -44 ct 
40 -45 39 -47 37 -48 ct 36 -49 35 -51 34 -54 ct 33 -56 32 -59 32 -62 ct 32 -69 35 -76 41 -83 ct 
46 -89 55 -93 66 -93 ct 72 -93 78 -91 82 -88 ct 86 -84 88 -80 88 -75 ct 88 -71 87 -68 85 -66 ct 
83 -64 81 -63 79 -63 ct 77 -63 75 -64 74 -65 ct 73 -66 73 -68 73 -69 ct 73 -71 73 -73 75 -74 ct 
76 -76 78 -77 81 -78 ct 79 -85 74 -88 65 -88 ct 58 -88 53 -86 49 -81 ct 46 -77 44 -73 44 -69 ct 
44 -66 45 -64 47 -62 ct 48 -60 50 -59 51 -59 ct 53 -58 55 -57 58 -57 ct 60 -56 62 -56 64 -55 ct 
65 -55 67 -54 70 -53 ct 73 -52 75 -50 76 -49 ct 78 -47 79 -45 81 -42 ct 82 -40 83 -36 83 -33 ct 
83 -31 82 -28 81 -26 ct 81 -23 79 -20 78 -16 ct 76 -13 73 -10 71 -7 ct 68 -5 64 -2 59 0 ct 
54 1 49 2 43 2 ct 35 2 29 0 24 -3 ct 19 -7 16 -12 16 -18 ct p ef
pom
pum
17847 5191 t
38 -50 m  38 -72 l  241 -72 l  241 -50 l  p
38 -136 m  38 -158 l  241 -158 l  241 -136 l  p ef
pom
pum
18094 5191 t
61 75 m  61 -278 l  78 -278 l  78 75 l  p ef
pom
pum
18206 5101 t
24 -225 m  24 -244 l  168 -244 l  158 -270 l  252 -234 l  158 -199 l  168 -225 l 
p ef
pom
pum
18206 5191 t
26 -5 m  26 -7 27 -9 27 -10 ct 79 -217 l  79 -217 79 -218 79 -220 ct 80 -221 80 -222 80 -223 ct 
80 -224 80 -225 79 -226 ct 79 -227 77 -227 75 -228 ct 72 -229 68 -229 62 -229 ct 
57 -229 54 -230 54 -233 ct 54 -235 54 -236 55 -237 ct 56 -239 57 -239 58 -239 ct 
59 -240 60 -240 62 -240 ct 97 -243 l  98 -243 100 -244 102 -244 ct 106 -244 107 -242 107 -239 ct 
107 -238 107 -237 106 -235 ct 71 -92 l  77 -94 82 -98 86 -102 ct 91 -106 98 -114 108 -126 ct 
125 -146 140 -155 154 -155 ct 161 -155 167 -153 171 -149 ct 174 -144 176 -139 176 -134 ct 
176 -128 174 -123 171 -120 ct 167 -116 163 -114 159 -114 ct 154 -114 151 -116 149 -118 ct 
147 -120 146 -123 146 -126 ct 146 -127 147 -129 147 -131 ct 148 -133 149 -135 152 -138 ct 
155 -141 158 -143 163 -143 ct 160 -146 157 -147 153 -147 ct 148 -147 142 -145 136 -142 ct 
130 -138 125 -134 122 -130 ct 118 -126 112 -120 104 -111 ct 94 -99 86 -92 79 -87 ct 
110 -83 126 -71 126 -51 ct 126 -48 125 -44 124 -39 ct 122 -29 121 -23 121 -19 ct 
121 -9 124 -4 131 -4 ct 135 -4 138 -5 141 -8 ct 144 -10 147 -14 149 -18 ct 151 -23 153 -27 154 -31 ct 
155 -35 157 -40 158 -46 ct 159 -49 160 -52 160 -52 ct 161 -53 163 -54 165 -54 ct 
168 -54 170 -53 170 -50 ct 170 -49 169 -47 168 -44 ct 168 -40 166 -35 164 -29 ct 
162 -23 160 -18 157 -14 ct 150 -2 141 4 130 4 ct 122 4 116 1 110 -5 ct 104 -10 101 -19 101 -30 ct 
101 -34 101 -38 102 -42 ct 103 -45 103 -48 103 -51 ct 103 -57 101 -63 97 -67 ct 
92 -71 88 -75 83 -77 ct 78 -78 73 -80 68 -80 ct 50 -9 l  48 0 43 4 36 4 ct 33 4 31 3 29 1 ct 
27 -1 26 -3 26 -5 ct p ef
pom
pum
18409 5281 t
16 -18 m  16 -22 17 -26 19 -28 ct 21 -30 24 -31 27 -31 ct 29 -31 31 -30 32 -29 ct 
33 -28 34 -26 34 -24 ct 34 -24 34 -23 33 -22 ct 33 -20 32 -19 31 -17 ct 29 -15 26 -14 23 -14 ct 
26 -6 32 -2 43 -2 ct 47 -2 51 -3 54 -4 ct 58 -5 60 -7 62 -9 ct 64 -10 66 -12 67 -15 ct 
68 -17 69 -19 70 -21 ct 70 -23 71 -24 71 -26 ct 71 -28 70 -31 69 -33 ct 68 -35 67 -36 64 -37 ct 
62 -38 61 -39 59 -40 ct 57 -40 55 -41 52 -41 ct 50 -42 49 -42 47 -42 ct 46 -43 45 -43 43 -44 ct 
40 -45 39 -47 37 -48 ct 36 -49 35 -51 34 -54 ct 33 -56 32 -59 32 -62 ct 32 -69 35 -76 41 -83 ct 
46 -89 55 -93 66 -93 ct 72 -93 78 -91 82 -88 ct 86 -84 88 -80 88 -75 ct 88 -71 87 -68 85 -66 ct 
83 -64 81 -63 79 -63 ct 77 -63 75 -64 74 -65 ct 73 -66 73 -68 73 -69 ct 73 -71 73 -73 75 -74 ct 
76 -76 78 -77 81 -78 ct 79 -85 74 -88 65 -88 ct 58 -88 53 -86 49 -81 ct 46 -77 44 -73 44 -69 ct 
44 -66 45 -64 47 -62 ct 48 -60 50 -59 51 -59 ct 53 -58 55 -57 58 -57 ct 60 -56 62 -56 64 -55 ct 
65 -55 67 -54 70 -53 ct 73 -52 75 -50 76 -49 ct 78 -47 79 -45 81 -42 ct 82 -40 83 -36 83 -33 ct 
83 -31 82 -28 81 -26 ct 81 -23 79 -20 78 -16 ct 76 -13 73 -10 71 -7 ct 68 -5 64 -2 59 0 ct 
54 1 49 2 43 2 ct 35 2 29 0 24 -3 ct 19 -7 16 -12 16 -18 ct p ef
pom
pum
18476 5191 t
61 75 m  61 -278 l  78 -278 l  78 75 l  p ef
pom
gr
gs
1.000 0.003 0.003 c 8549 6219 m  7548 6168 l  7548 6269 l  8549 6219 l  p ef
gr
0 8677 t 
pom
count op_count sub {pop} repeat countdictstack dict_count sub {end} repeat b4_inc_state restore
%%PageTrailer
%%Trailer
%%EOF
