%!PS-Adobe-3.0 EPSF-3.0 
%%BoundingBox: 0 0 134 305
%%Pages: 0
%%Creator: LibreOffice 6.4
%%Title: none
%%CreationDate: none
%%LanguageLevel: 2
%%EndComments
%%BeginProlog
%%BeginResource: procset SDRes-Prolog 1.0 0
/b4_inc_state save def
/dict_count countdictstack def
/op_count count 1 sub def
userdict begin
0 setgray 0 setlinecap 1 setlinewidth 0 setlinejoin 10 setmiterlimit[] 0 setdash newpath
/languagelevel where {pop languagelevel 1 ne {false setstrokeadjust false setoverprint} if} if
/bdef {bind def} bind def
/c {setrgbcolor} bdef
/l {neg lineto} bdef
/rl {neg rlineto} bdef
/lc {setlinecap} bdef
/lj {setlinejoin} bdef
/lw {setlinewidth} bdef
/ml {setmiterlimit} bdef
/ld {setdash} bdef
/m {neg moveto} bdef
/ct {6 2 roll neg 6 2 roll neg 6 2 roll neg curveto} bdef
/r {rotate} bdef
/t {neg translate} bdef
/s {scale} bdef
/sw {show} bdef
/gs {gsave} bdef
/gr {grestore} bdef
/f {findfont dup length dict begin
{1 index /FID ne {def} {pop pop} ifelse} forall /Encoding ISOLatin1Encoding def
currentdict end /NFont exch definefont pop /NFont findfont} bdef
/p {closepath} bdef
/sf {scalefont setfont} bdef
/ef {eofill}bdef
/pc {closepath stroke}bdef
/ps {stroke}bdef
/pum {matrix currentmatrix}bdef
/pom {setmatrix}bdef
/bs {/aString exch def /nXOfs exch def /nWidth exch def currentpoint nXOfs 0 rmoveto pum nWidth aString stringwidth pop div 1 scale aString show pom moveto} bdef
%%EndResource
%%EndProlog
%%BeginSetup
%%EndSetup
%%Page: 1 1
%%BeginPageSetup
%%EndPageSetup
pum
0.02835 0.02834 s 
0 -10761 t
/tm matrix currentmatrix def
tm setmatrix
-6074 -8927 t 
1 1 s 
gs
1.000 0.238 0.238 c 8868 8938 m  9336 12381 l  7336 12381 l  7804 8938 l 
8868 8938 l  p ef
gr
gs
1.000 0.238 0.238 c 8336 19595 m  7335 17428 l  9336 17428 l  8336 19595 l 
p ef
gr
gs
1.000 0.238 0.238 c 8336 17429 m  7336 17429 l  7336 12380 l  9336 12380 l 
9336 17429 l  8336 17429 l  p ef
gr
gs
0.449 0.625 0.812 c 8336 17398 m  6307 17398 l  6307 16578 l  10365 16578 l 
10365 17398 l  8336 17398 l  p ef
gr
pum
6817 17109 t
0.003 0.003 0.003 c 11 0 m  11 -11 l  32 -11 45 -19 51 -35 ct 124 -246 l  125 -249 126 -250 127 -251 ct 
128 -252 130 -253 132 -253 ct 134 -253 135 -253 136 -252 ct 137 -252 137 -252 138 -251 ct 
138 -250 139 -249 139 -249 ct 139 -248 140 -247 140 -246 ct 217 -25 l  219 -19 221 -15 225 -14 ct 
229 -12 236 -11 247 -11 ct 253 -11 l  253 0 l  238 -1 223 -1 207 -1 ct 181 -1 164 -1 156 0 ct 
156 -11 l  176 -11 185 -14 185 -22 ct 185 -22 185 -24 184 -26 ct 166 -80 l  78 -80 l 
62 -34 l  62 -33 61 -32 61 -29 ct 61 -24 64 -20 68 -16 ct 73 -13 79 -11 88 -11 ct 
88 0 l  65 -1 52 -1 47 -1 ct 40 -1 28 -1 11 0 ct p
82 -91 m  162 -91 l  122 -206 l  p ef
288 -19 m  273 -35 266 -54 266 -76 ct 266 -99 273 -118 288 -134 ct 303 -150 321 -158 343 -158 ct 
357 -158 370 -155 380 -148 ct 391 -141 397 -132 397 -120 ct 397 -115 395 -111 392 -108 ct 
389 -105 385 -104 380 -104 ct 375 -104 371 -105 369 -108 ct 366 -111 364 -115 364 -120 ct 
364 -122 364 -124 365 -126 ct 366 -128 368 -130 370 -133 ct 373 -135 376 -136 381 -136 ct 
372 -145 360 -149 343 -149 ct 331 -149 320 -144 310 -132 ct 300 -121 295 -103 295 -77 ct 
295 -64 297 -52 300 -42 ct 304 -32 308 -25 313 -20 ct 319 -15 324 -11 329 -8 ct 
335 -6 340 -5 345 -5 ct 368 -5 384 -17 391 -42 ct 392 -44 394 -46 396 -46 ct 399 -46 400 -44 400 -42 ct 
400 -41 400 -39 399 -36 ct 398 -33 396 -29 393 -24 ct 391 -20 387 -15 383 -11 ct 
379 -7 373 -3 366 -1 ct 359 2 351 4 342 4 ct 321 4 303 -4 288 -19 ct p ef
413 0 m  413 -11 l  426 -11 433 -12 436 -13 ct 439 -15 441 -19 441 -27 ct 441 -210 l 
441 -219 439 -225 436 -227 ct 433 -229 426 -230 413 -230 ct 413 -241 l  464 -245 l 
464 -122 l  464 -122 l  468 -131 474 -138 483 -145 ct 491 -152 502 -156 515 -156 ct 
533 -156 545 -152 552 -143 ct 558 -137 561 -131 562 -124 ct 563 -118 563 -106 563 -89 ct 
563 -22 l  564 -17 566 -14 569 -13 ct 573 -11 580 -11 591 -11 ct 591 0 l  567 -1 554 -1 551 -1 ct 
549 -1 536 -1 511 0 ct 511 -11 l  524 -11 532 -12 535 -13 ct 537 -15 539 -19 539 -27 ct 
539 -109 l  539 -121 537 -131 533 -138 ct 530 -145 523 -148 513 -148 ct 501 -148 490 -143 480 -133 ct 
470 -123 465 -109 465 -92 ct 465 -27 l  465 -19 467 -15 470 -13 ct 473 -12 480 -11 493 -11 ct 
493 0 l  469 -1 456 -1 453 -1 ct 451 -1 438 -1 413 0 ct p ef
607 0 m  607 -11 l  619 -11 627 -12 630 -13 ct 633 -15 634 -19 634 -27 ct 634 -121 l 
634 -130 633 -136 630 -138 ct 627 -140 619 -141 607 -141 ct 607 -152 l  656 -156 l 
656 -117 l  659 -127 664 -136 671 -144 ct 679 -152 688 -156 699 -156 ct 707 -156 713 -154 718 -150 ct 
723 -145 725 -140 725 -134 ct 725 -129 724 -125 721 -123 ct 718 -120 714 -119 710 -119 ct 
706 -119 702 -120 700 -123 ct 697 -126 695 -129 695 -134 ct 695 -137 696 -139 697 -142 ct 
698 -144 700 -145 701 -146 ct 702 -147 703 -148 703 -148 ct 703 -148 701 -148 699 -148 ct 
686 -148 676 -142 669 -129 ct 661 -116 658 -100 658 -82 ct 658 -28 l  658 -21 659 -16 662 -14 ct 
665 -12 672 -11 685 -11 ct 692 -11 l  692 0 l  683 -1 668 -1 647 -1 ct 644 -1 641 -1 636 -1 ct 
632 -1 627 -1 621 0 ct 615 0 610 0 607 0 ct p ef
765 -19 m  750 -34 742 -53 742 -76 ct 742 -98 749 -117 765 -134 ct 780 -150 798 -158 820 -158 ct 
842 -158 860 -150 875 -134 ct 891 -118 898 -98 898 -76 ct 898 -53 891 -35 875 -19 ct 
860 -4 841 4 820 4 ct 799 4 781 -4 765 -19 ct p
771 -78 m  771 -56 774 -39 780 -29 ct 789 -13 803 -5 820 -5 ct 829 -5 837 -7 844 -12 ct 
852 -17 857 -23 861 -31 ct 866 -41 869 -57 869 -78 ct 869 -101 866 -117 860 -127 ct 
851 -143 837 -150 820 -150 ct 812 -150 805 -148 797 -144 ct 790 -140 784 -134 780 -127 ct 
774 -116 771 -100 771 -78 ct p ef
921 0 m  921 -11 l  934 -11 941 -12 944 -13 ct 947 -15 949 -19 949 -27 ct 949 -121 l 
949 -130 947 -136 944 -138 ct 941 -140 934 -141 921 -141 ct 921 -152 l  971 -156 l 
971 -119 l  982 -144 1000 -156 1023 -156 ct 1051 -156 1066 -144 1070 -121 ct 
1074 -130 1080 -138 1089 -145 ct 1097 -152 1108 -156 1121 -156 ct 1139 -156 1151 -152 1159 -143 ct 
1164 -137 1167 -131 1168 -124 ct 1169 -118 1169 -106 1169 -89 ct 1169 -22 l 
1170 -17 1172 -14 1175 -13 ct 1179 -11 1186 -11 1197 -11 ct 1197 0 l  1173 -1 1160 -1 1157 -1 ct 
1156 -1 1142 -1 1118 0 ct 1118 -11 l  1130 -11 1138 -12 1141 -13 ct 1144 -15 1145 -19 1145 -27 ct 
1145 -109 l  1145 -121 1143 -131 1140 -138 ct 1136 -145 1129 -148 1119 -148 ct 
1107 -148 1096 -143 1086 -133 ct 1076 -123 1071 -109 1071 -92 ct 1071 -27 l 
1071 -19 1073 -15 1076 -13 ct 1079 -12 1086 -11 1099 -11 ct 1099 0 l  1075 -1 1062 -1 1059 -1 ct 
1057 -1 1044 -1 1019 0 ct 1019 -11 l  1032 -11 1040 -12 1043 -13 ct 1045 -15 1047 -19 1047 -27 ct 
1047 -109 l  1047 -121 1045 -131 1041 -138 ct 1038 -145 1031 -148 1021 -148 ct 
1009 -148 998 -143 988 -133 ct 978 -123 973 -109 973 -92 ct 973 -27 l  973 -19 975 -15 978 -13 ct 
981 -12 988 -11 1001 -11 ct 1001 0 l  977 -1 964 -1 961 -1 ct 959 -1 946 -1 921 0 ct 
p ef
1217 -34 m  1217 -54 1229 -69 1252 -79 ct 1266 -86 1288 -90 1317 -92 ct 1317 -105 l 
1317 -120 1313 -131 1306 -139 ct 1298 -146 1289 -150 1280 -150 ct 1262 -150 1250 -145 1242 -134 ct 
1249 -134 1253 -132 1256 -128 ct 1258 -125 1260 -121 1260 -118 ct 1260 -113 1258 -109 1255 -106 ct 
1252 -103 1248 -102 1243 -102 ct 1239 -102 1235 -103 1232 -106 ct 1229 -109 1227 -113 1227 -118 ct 
1227 -130 1232 -139 1243 -147 ct 1253 -154 1266 -158 1280 -158 ct 1300 -158 1316 -152 1329 -139 ct 
1333 -135 1336 -130 1338 -125 ct 1340 -120 1341 -115 1341 -112 ct 1341 -109 1341 -104 1341 -97 ct 
1341 -26 l  1341 -25 1342 -23 1342 -21 ct 1343 -19 1344 -16 1346 -13 ct 1348 -10 1351 -9 1354 -9 ct 
1363 -9 1367 -16 1367 -31 ct 1367 -51 l  1376 -51 l  1376 -31 l  1376 -19 1373 -10 1366 -5 ct 
1360 0 1353 2 1347 2 ct 1339 2 1333 -1 1328 -7 ct 1323 -12 1320 -19 1320 -27 ct 
1316 -18 1310 -11 1302 -5 ct 1294 1 1284 4 1273 4 ct 1265 4 1257 3 1249 1 ct 1241 -1 1233 -5 1227 -11 ct 
1220 -17 1217 -25 1217 -34 ct p
1244 -34 m  1244 -25 1247 -18 1253 -12 ct 1260 -7 1267 -4 1276 -4 ct 1286 -4 1295 -8 1304 -15 ct 
1313 -23 1317 -34 1317 -49 ct 1317 -85 l  1291 -84 1272 -78 1261 -68 ct 1250 -57 1244 -46 1244 -34 ct 
p ef
1387 -141 m  1387 -149 l  1398 -149 1407 -153 1414 -161 ct 1421 -169 1426 -177 1428 -187 ct 
1431 -196 1432 -206 1432 -217 ct 1441 -217 l  1441 -152 l  1492 -152 l  1492 -141 l 
1441 -141 l  1441 -43 l  1441 -18 1449 -5 1465 -5 ct 1472 -5 1477 -8 1482 -15 ct 
1486 -22 1488 -32 1488 -44 ct 1488 -64 l  1497 -64 l  1497 -44 l  1497 -31 1494 -20 1488 -10 ct 
1482 -1 1474 4 1462 4 ct 1458 4 1454 3 1450 2 ct 1445 1 1440 -1 1435 -4 ct 1430 -6 1425 -11 1422 -18 ct 
1418 -25 1417 -34 1417 -44 ct 1417 -141 l  p ef
1528 0 m  1528 -11 l  1540 -11 1548 -12 1551 -13 ct 1554 -15 1555 -19 1555 -27 ct 
1555 -122 l  1555 -130 1554 -136 1551 -138 ct 1548 -140 1541 -141 1529 -141 ct 
1529 -152 l  1578 -156 l  1578 -26 l  1578 -19 1580 -15 1582 -13 ct 1585 -12 1592 -11 1603 -11 ct 
1603 0 l  1579 -1 1567 -1 1566 -1 ct 1563 -1 1550 -1 1528 0 ct p
1542 -217 m  1542 -222 1544 -226 1548 -230 ct 1552 -234 1556 -236 1561 -236 ct 
1566 -236 1571 -234 1574 -231 ct 1578 -227 1580 -223 1580 -217 ct 1580 -212 1578 -208 1574 -204 ct 
1571 -201 1566 -199 1561 -199 ct 1556 -199 1551 -201 1548 -204 ct 1544 -208 1542 -213 1542 -217 ct 
p ef
1647 -19 m  1632 -35 1625 -54 1625 -76 ct 1625 -99 1632 -118 1647 -134 ct 1662 -150 1680 -158 1702 -158 ct 
1716 -158 1729 -155 1739 -148 ct 1750 -141 1756 -132 1756 -120 ct 1756 -115 1754 -111 1751 -108 ct 
1748 -105 1744 -104 1739 -104 ct 1734 -104 1730 -105 1728 -108 ct 1725 -111 1723 -115 1723 -120 ct 
1723 -122 1723 -124 1724 -126 ct 1725 -128 1727 -130 1729 -133 ct 1732 -135 1735 -136 1740 -136 ct 
1731 -145 1719 -149 1702 -149 ct 1690 -149 1679 -144 1669 -132 ct 1659 -121 1654 -103 1654 -77 ct 
1654 -64 1656 -52 1659 -42 ct 1663 -32 1667 -25 1672 -20 ct 1678 -15 1683 -11 1688 -8 ct 
1694 -6 1699 -5 1704 -5 ct 1727 -5 1743 -17 1750 -42 ct 1751 -44 1753 -46 1755 -46 ct 
1758 -46 1759 -44 1759 -42 ct 1759 -41 1759 -39 1758 -36 ct 1757 -33 1755 -29 1752 -24 ct 
1750 -20 1746 -15 1742 -11 ct 1738 -7 1732 -3 1725 -1 ct 1718 2 1710 4 1701 4 ct 
1680 4 1662 -4 1647 -19 ct p ef
1900 -76 m  1900 -98 1908 -117 1923 -133 ct 1939 -148 1958 -156 1979 -156 ct 
1997 -156 2011 -149 2023 -134 ct 2023 -210 l  2023 -219 2022 -225 2019 -227 ct 
2016 -229 2008 -230 1996 -230 ct 1996 -241 l  2046 -245 l  2046 -31 l  2046 -22 2048 -17 2051 -14 ct 
2054 -12 2062 -11 2074 -11 ct 2074 0 l  2022 4 l  2022 -19 l  2010 -4 1994 4 1975 4 ct 
1955 4 1937 -4 1922 -19 ct 1907 -35 1900 -54 1900 -76 ct p
1929 -76 m  1929 -54 1933 -37 1940 -26 ct 1949 -11 1961 -4 1977 -4 ct 1994 -4 2008 -12 2018 -29 ct 
2021 -33 2022 -37 2022 -42 ct 2022 -114 l  2022 -119 2021 -123 2018 -127 ct 
2009 -141 1996 -148 1980 -148 ct 1964 -148 1950 -141 1940 -126 ct 1933 -114 1929 -98 1929 -76 ct 
p ef
2116 -19 m  2101 -34 2093 -53 2093 -76 ct 2093 -98 2100 -117 2116 -134 ct 2131 -150 2149 -158 2171 -158 ct 
2193 -158 2211 -150 2226 -134 ct 2242 -118 2249 -98 2249 -76 ct 2249 -53 2242 -35 2226 -19 ct 
2211 -4 2192 4 2171 4 ct 2150 4 2132 -4 2116 -19 ct p
2122 -78 m  2122 -56 2125 -39 2131 -29 ct 2140 -13 2154 -5 2171 -5 ct 2180 -5 2188 -7 2195 -12 ct 
2203 -17 2208 -23 2212 -31 ct 2217 -41 2220 -57 2220 -78 ct 2220 -101 2217 -117 2211 -127 ct 
2202 -143 2188 -150 2171 -150 ct 2163 -150 2156 -148 2148 -144 ct 2141 -140 2135 -134 2131 -127 ct 
2125 -116 2122 -100 2122 -78 ct p ef
2272 -141 m  2272 -152 l  2324 -156 l  2324 -39 l  2324 -33 2324 -29 2325 -25 ct 
2325 -22 2327 -19 2328 -15 ct 2330 -11 2333 -8 2338 -7 ct 2342 -5 2348 -4 2355 -4 ct 
2368 -4 2378 -9 2386 -20 ct 2394 -30 2398 -43 2398 -59 ct 2398 -121 l  2398 -130 2396 -136 2393 -138 ct 
2390 -140 2383 -141 2370 -141 ct 2370 -152 l  2422 -156 l  2422 -31 l  2422 -22 2424 -17 2427 -14 ct 
2430 -12 2438 -11 2450 -11 ct 2450 0 l  2399 4 l  2399 -28 l  2389 -7 2374 4 2353 4 ct 
2343 4 2334 3 2327 0 ct 2320 -3 2315 -6 2311 -9 ct 2308 -12 2305 -17 2303 -23 ct 
2301 -30 2300 -35 2300 -39 ct 2300 -43 2300 -48 2300 -56 ct 2300 -109 l  2300 -125 2299 -134 2296 -137 ct 
2294 -140 2286 -141 2272 -141 ct p ef
2464 -230 m  2464 -241 l  2515 -245 l  2515 -133 l  2528 -148 2544 -156 2563 -156 ct 
2583 -156 2601 -148 2616 -133 ct 2631 -117 2638 -98 2638 -76 ct 2638 -54 2630 -35 2615 -19 ct 
2599 -4 2581 4 2559 4 ct 2540 4 2524 -5 2513 -22 ct 2505 -8 2500 0 2500 0 ct 2491 0 l 
2491 -210 l  2491 -219 2490 -225 2487 -227 ct 2484 -229 2476 -230 2464 -230 ct 
p
2516 -40 m  2516 -35 2517 -30 2521 -25 ct 2530 -11 2542 -4 2558 -4 ct 2574 -4 2588 -11 2598 -26 ct 
2605 -38 2609 -54 2609 -77 ct 2609 -98 2605 -115 2598 -126 ct 2589 -141 2577 -148 2561 -148 ct 
2544 -148 2530 -141 2520 -126 ct 2517 -122 2516 -118 2516 -113 ct p ef
2661 0 m  2661 -11 l  2673 -11 2681 -12 2684 -13 ct 2687 -15 2688 -19 2688 -27 ct 
2688 -210 l  2688 -219 2687 -225 2684 -227 ct 2681 -229 2673 -230 2661 -230 ct 
2661 -241 l  2711 -245 l  2711 -27 l  2711 -19 2713 -15 2716 -13 ct 2719 -12 2727 -11 2739 -11 ct 
2739 0 l  2736 0 2732 0 2726 0 ct 2720 -1 2715 -1 2710 -1 ct 2706 -1 2702 -1 2700 -1 ct 
2697 -1 2684 -1 2661 0 ct p ef
2756 -78 m  2756 -100 2763 -119 2777 -134 ct 2791 -150 2809 -158 2829 -158 ct 
2850 -158 2866 -151 2876 -138 ct 2887 -125 2892 -108 2892 -89 ct 2892 -85 2892 -83 2891 -83 ct 
2890 -82 2888 -82 2884 -82 ct 2785 -82 l  2785 -58 2789 -40 2796 -29 ct 2806 -13 2819 -5 2836 -5 ct 
2838 -5 2841 -5 2843 -6 ct 2846 -6 2850 -7 2856 -9 ct 2861 -11 2867 -15 2872 -20 ct 
2877 -26 2880 -33 2883 -41 ct 2884 -45 2886 -46 2888 -46 ct 2891 -46 2892 -45 2892 -42 ct 
2892 -40 2891 -37 2889 -32 ct 2887 -27 2884 -22 2879 -17 ct 2875 -11 2869 -6 2861 -2 ct 
2852 2 2843 4 2834 4 ct 2813 4 2795 -4 2779 -20 ct 2764 -35 2756 -55 2756 -78 ct 
p
2786 -89 m  2869 -89 l  2869 -94 2869 -99 2868 -105 ct 2867 -110 2865 -117 2863 -124 ct 
2861 -132 2856 -138 2851 -143 ct 2845 -148 2838 -150 2829 -150 ct 2826 -150 2822 -150 2817 -148 ct 
2813 -146 2809 -143 2804 -140 ct 2799 -136 2795 -129 2791 -121 ct 2788 -112 2786 -101 2786 -89 ct 
p ef
2910 -141 m  2910 -149 l  2921 -149 2930 -153 2937 -161 ct 2944 -169 2949 -177 2951 -187 ct 
2954 -196 2955 -206 2955 -217 ct 2964 -217 l  2964 -152 l  3015 -152 l  3015 -141 l 
2964 -141 l  2964 -43 l  2964 -18 2972 -5 2988 -5 ct 2995 -5 3000 -8 3005 -15 ct 
3009 -22 3011 -32 3011 -44 ct 3011 -64 l  3020 -64 l  3020 -44 l  3020 -31 3017 -20 3011 -10 ct 
3005 -1 2997 4 2985 4 ct 2981 4 2977 3 2973 2 ct 2968 1 2963 -1 2958 -4 ct 2953 -6 2948 -11 2945 -18 ct 
2941 -25 2940 -34 2940 -44 ct 2940 -141 l  p ef
pom
gs
0.449 0.625 0.812 c 8335 13121 m  6306 13121 l  6306 12305 l  10364 12305 l 
10364 13121 l  8335 13121 l  p ef
gr
pum
7111 12834 t
20 -121 m  20 -156 32 -187 56 -211 ct 80 -236 109 -249 143 -249 ct 153 -249 163 -247 172 -243 ct 
181 -239 188 -236 192 -233 ct 196 -229 201 -225 208 -219 ct 225 -245 l  227 -247 229 -249 231 -249 ct 
233 -249 234 -248 234 -247 ct 235 -246 235 -244 235 -240 ct 235 -157 l  235 -153 235 -151 234 -150 ct 
234 -149 232 -148 229 -148 ct 227 -148 225 -149 225 -149 ct 224 -150 224 -152 223 -154 ct 
220 -180 211 -200 197 -215 ct 183 -230 166 -238 146 -238 ct 141 -238 135 -237 129 -236 ct 
122 -235 115 -232 106 -227 ct 97 -222 89 -216 82 -208 ct 75 -200 69 -188 64 -173 ct 
59 -158 56 -140 56 -120 ct 56 -101 59 -83 64 -68 ct 69 -53 75 -41 82 -33 ct 89 -25 97 -19 106 -14 ct 
115 -9 122 -6 129 -5 ct 135 -4 141 -3 147 -3 ct 167 -3 185 -10 201 -25 ct 216 -39 225 -58 226 -83 ct 
226 -84 226 -85 226 -85 ct 226 -86 226 -86 227 -87 ct 227 -87 227 -88 228 -88 ct 
228 -88 229 -88 230 -88 ct 233 -88 235 -86 235 -82 ct 235 -60 226 -39 209 -20 ct 
192 -2 170 8 143 8 ct 109 8 80 -5 56 -29 ct 32 -54 20 -85 20 -121 ct p ef
287 -19 m  272 -34 264 -53 264 -76 ct 264 -98 271 -117 287 -134 ct 302 -150 320 -158 342 -158 ct 
364 -158 382 -150 397 -134 ct 413 -118 420 -98 420 -76 ct 420 -53 413 -35 397 -19 ct 
382 -4 363 4 342 4 ct 321 4 303 -4 287 -19 ct p
293 -78 m  293 -56 296 -39 302 -29 ct 311 -13 325 -5 342 -5 ct 351 -5 359 -7 366 -12 ct 
374 -17 379 -23 383 -31 ct 388 -41 391 -57 391 -78 ct 391 -101 388 -117 382 -127 ct 
373 -143 359 -150 342 -150 ct 334 -150 327 -148 319 -144 ct 312 -140 306 -134 302 -127 ct 
296 -116 293 -100 293 -78 ct p ef
443 0 m  443 -11 l  456 -11 463 -12 466 -13 ct 469 -15 471 -19 471 -27 ct 471 -121 l 
471 -130 469 -136 466 -138 ct 463 -140 456 -141 443 -141 ct 443 -152 l  493 -156 l 
493 -119 l  504 -144 522 -156 545 -156 ct 563 -156 575 -152 582 -143 ct 588 -137 591 -131 592 -124 ct 
593 -118 593 -106 593 -89 ct 593 -22 l  594 -17 596 -14 599 -13 ct 603 -11 610 -11 621 -11 ct 
621 0 l  597 -1 584 -1 581 -1 ct 579 -1 566 -1 541 0 ct 541 -11 l  554 -11 562 -12 565 -13 ct 
567 -15 569 -19 569 -27 ct 569 -109 l  569 -121 567 -131 563 -138 ct 560 -145 553 -148 543 -148 ct 
531 -148 520 -143 510 -133 ct 500 -123 495 -109 495 -92 ct 495 -27 l  495 -19 497 -15 500 -13 ct 
503 -12 510 -11 523 -11 ct 523 0 l  499 -1 486 -1 483 -1 ct 481 -1 468 -1 443 0 ct 
p ef
625 -141 m  625 -152 l  635 -151 647 -151 659 -151 ct 663 -151 676 -151 697 -152 ct 
697 -141 l  684 -141 677 -138 677 -132 ct 677 -131 678 -129 679 -126 ct 719 -28 l 
755 -118 l  756 -122 757 -124 757 -126 ct 757 -130 756 -133 753 -136 ct 750 -139 746 -141 740 -141 ct 
740 -152 l  752 -151 762 -151 771 -151 ct 780 -151 789 -151 797 -152 ct 797 -141 l 
790 -141 784 -140 779 -136 ct 774 -133 771 -130 770 -128 ct 768 -125 766 -122 765 -118 ct 
719 -3 l  717 2 714 4 711 4 ct 709 4 708 3 707 3 ct 706 2 705 0 704 -3 ct 653 -128 l 
651 -134 648 -138 645 -139 ct 642 -140 635 -141 625 -141 ct p ef
802 -78 m  802 -100 809 -119 823 -134 ct 837 -150 855 -158 875 -158 ct 896 -158 912 -151 922 -138 ct 
933 -125 938 -108 938 -89 ct 938 -85 938 -83 937 -83 ct 936 -82 934 -82 930 -82 ct 
831 -82 l  831 -58 835 -40 842 -29 ct 852 -13 865 -5 882 -5 ct 884 -5 887 -5 889 -6 ct 
892 -6 896 -7 902 -9 ct 907 -11 913 -15 918 -20 ct 923 -26 926 -33 929 -41 ct 930 -45 932 -46 934 -46 ct 
937 -46 938 -45 938 -42 ct 938 -40 937 -37 935 -32 ct 933 -27 930 -22 925 -17 ct 
921 -11 915 -6 907 -2 ct 898 2 889 4 880 4 ct 859 4 841 -4 825 -20 ct 810 -35 802 -55 802 -78 ct 
p
832 -89 m  915 -89 l  915 -94 915 -99 914 -105 ct 913 -110 911 -117 909 -124 ct 
907 -132 902 -138 897 -143 ct 891 -148 884 -150 875 -150 ct 872 -150 868 -150 863 -148 ct 
859 -146 855 -143 850 -140 ct 845 -136 841 -129 837 -121 ct 834 -112 832 -101 832 -89 ct 
p ef
958 0 m  958 -11 l  970 -11 978 -12 981 -13 ct 984 -15 985 -19 985 -27 ct 985 -121 l 
985 -130 984 -136 981 -138 ct 978 -140 970 -141 958 -141 ct 958 -152 l  1007 -156 l 
1007 -117 l  1010 -127 1015 -136 1022 -144 ct 1030 -152 1039 -156 1050 -156 ct 
1058 -156 1064 -154 1069 -150 ct 1074 -145 1076 -140 1076 -134 ct 1076 -129 1075 -125 1072 -123 ct 
1069 -120 1065 -119 1061 -119 ct 1057 -119 1053 -120 1051 -123 ct 1048 -126 1046 -129 1046 -134 ct 
1046 -137 1047 -139 1048 -142 ct 1049 -144 1051 -145 1052 -146 ct 1053 -147 1054 -148 1054 -148 ct 
1054 -148 1052 -148 1050 -148 ct 1037 -148 1027 -142 1020 -129 ct 1012 -116 1009 -100 1009 -82 ct 
1009 -28 l  1009 -21 1010 -16 1013 -14 ct 1016 -12 1023 -11 1036 -11 ct 1043 -11 l 
1043 0 l  1034 -1 1019 -1 998 -1 ct 995 -1 992 -1 987 -1 ct 983 -1 978 -1 972 0 ct 
966 0 961 0 958 0 ct p ef
1094 28 m  1094 20 1097 13 1103 7 ct 1108 0 1116 -5 1126 -7 ct 1116 -14 1111 -24 1111 -39 ct 
1111 -50 1114 -60 1122 -68 ct 1111 -77 1105 -89 1105 -104 ct 1105 -118 1111 -130 1122 -141 ct 
1133 -151 1146 -156 1162 -156 ct 1176 -156 1189 -152 1200 -143 ct 1211 -154 1224 -160 1237 -160 ct 
1243 -160 1248 -158 1251 -154 ct 1254 -150 1255 -147 1255 -143 ct 1255 -139 1254 -136 1252 -135 ct 
1250 -133 1247 -132 1245 -132 ct 1242 -132 1240 -133 1238 -135 ct 1236 -137 1235 -139 1235 -142 ct 
1235 -147 1237 -150 1240 -152 ct 1240 -152 1238 -152 1237 -152 ct 1225 -152 1215 -148 1205 -138 ct 
1215 -129 1220 -118 1220 -104 ct 1220 -90 1214 -78 1203 -68 ct 1192 -58 1178 -53 1162 -53 ct 
1149 -53 1138 -56 1127 -64 ct 1123 -59 1121 -53 1121 -47 ct 1121 -41 1123 -36 1127 -31 ct 
1130 -27 1135 -24 1140 -23 ct 1142 -23 1151 -23 1167 -23 ct 1176 -23 1183 -23 1188 -23 ct 
1194 -22 1200 -21 1207 -20 ct 1215 -18 1221 -16 1227 -13 ct 1243 -5 1250 9 1250 27 ct 
1250 41 1243 52 1227 60 ct 1212 68 1193 73 1172 73 ct 1150 73 1132 68 1117 60 ct 
1101 51 1094 41 1094 28 ct p
1112 28 m  1112 38 1118 46 1129 53 ct 1141 61 1155 65 1172 65 ct 1189 65 1203 61 1215 54 ct 
1226 46 1232 38 1232 28 ct 1232 21 1230 15 1226 11 ct 1222 6 1216 3 1208 1 ct 1199 -1 1192 -2 1187 -2 ct 
1181 -2 1173 -2 1162 -2 ct 1141 -2 l  1133 -2 1126 1 1121 7 ct 1115 13 1112 20 1112 28 ct 
p
1132 -104 m  1132 -75 1142 -61 1162 -61 ct 1173 -61 1181 -65 1187 -75 ct 1191 -81 1193 -91 1193 -104 ct 
1193 -133 1183 -148 1162 -148 ct 1152 -148 1144 -143 1137 -134 ct 1134 -127 1132 -118 1132 -104 ct 
p ef
1272 -78 m  1272 -100 1279 -119 1293 -134 ct 1307 -150 1325 -158 1345 -158 ct 
1366 -158 1382 -151 1392 -138 ct 1403 -125 1408 -108 1408 -89 ct 1408 -85 1408 -83 1407 -83 ct 
1406 -82 1404 -82 1400 -82 ct 1301 -82 l  1301 -58 1305 -40 1312 -29 ct 1322 -13 1335 -5 1352 -5 ct 
1354 -5 1357 -5 1359 -6 ct 1362 -6 1366 -7 1372 -9 ct 1377 -11 1383 -15 1388 -20 ct 
1393 -26 1396 -33 1399 -41 ct 1400 -45 1402 -46 1404 -46 ct 1407 -46 1408 -45 1408 -42 ct 
1408 -40 1407 -37 1405 -32 ct 1403 -27 1400 -22 1395 -17 ct 1391 -11 1385 -6 1377 -2 ct 
1368 2 1359 4 1350 4 ct 1329 4 1311 -4 1295 -20 ct 1280 -35 1272 -55 1272 -78 ct 
p
1302 -89 m  1385 -89 l  1385 -94 1385 -99 1384 -105 ct 1383 -110 1381 -117 1379 -124 ct 
1377 -132 1372 -138 1367 -143 ct 1361 -148 1354 -150 1345 -150 ct 1342 -150 1338 -150 1333 -148 ct 
1329 -146 1325 -143 1320 -140 ct 1315 -136 1311 -129 1307 -121 ct 1304 -112 1302 -101 1302 -89 ct 
p ef
1429 0 m  1429 -11 l  1442 -11 1449 -12 1452 -13 ct 1455 -15 1457 -19 1457 -27 ct 
1457 -121 l  1457 -130 1455 -136 1452 -138 ct 1449 -140 1442 -141 1429 -141 ct 
1429 -152 l  1479 -156 l  1479 -119 l  1490 -144 1508 -156 1531 -156 ct 1549 -156 1561 -152 1568 -143 ct 
1574 -137 1577 -131 1578 -124 ct 1579 -118 1579 -106 1579 -89 ct 1579 -22 l 
1580 -17 1582 -14 1585 -13 ct 1589 -11 1596 -11 1607 -11 ct 1607 0 l  1583 -1 1570 -1 1567 -1 ct 
1565 -1 1552 -1 1527 0 ct 1527 -11 l  1540 -11 1548 -12 1551 -13 ct 1553 -15 1555 -19 1555 -27 ct 
1555 -109 l  1555 -121 1553 -131 1549 -138 ct 1546 -145 1539 -148 1529 -148 ct 
1517 -148 1506 -143 1496 -133 ct 1486 -123 1481 -109 1481 -92 ct 1481 -27 l 
1481 -19 1483 -15 1486 -13 ct 1489 -12 1496 -11 1509 -11 ct 1509 0 l  1485 -1 1472 -1 1469 -1 ct 
1467 -1 1454 -1 1429 0 ct p ef
1611 -141 m  1611 -149 l  1622 -149 1631 -153 1638 -161 ct 1645 -169 1650 -177 1652 -187 ct 
1655 -196 1656 -206 1656 -217 ct 1665 -217 l  1665 -152 l  1716 -152 l  1716 -141 l 
1665 -141 l  1665 -43 l  1665 -18 1673 -5 1689 -5 ct 1696 -5 1701 -8 1706 -15 ct 
1710 -22 1712 -32 1712 -44 ct 1712 -64 l  1721 -64 l  1721 -44 l  1721 -31 1718 -20 1712 -10 ct 
1706 -1 1698 4 1686 4 ct 1682 4 1678 3 1674 2 ct 1669 1 1664 -1 1659 -4 ct 1654 -6 1649 -11 1646 -18 ct 
1642 -25 1641 -34 1641 -44 ct 1641 -141 l  p ef
1870 0 m  1870 -11 l  1882 -11 1890 -12 1893 -13 ct 1896 -15 1897 -19 1897 -27 ct 
1897 -210 l  1897 -219 1896 -225 1893 -227 ct 1890 -229 1882 -230 1870 -230 ct 
1870 -241 l  1920 -245 l  1920 -27 l  1920 -19 1922 -15 1925 -13 ct 1928 -12 1936 -11 1948 -11 ct 
1948 0 l  1945 0 1941 0 1935 0 ct 1929 -1 1924 -1 1919 -1 ct 1915 -1 1911 -1 1909 -1 ct 
1906 -1 1893 -1 1870 0 ct p ef
1966 -78 m  1966 -100 1973 -119 1987 -134 ct 2001 -150 2019 -158 2039 -158 ct 
2060 -158 2076 -151 2086 -138 ct 2097 -125 2102 -108 2102 -89 ct 2102 -85 2102 -83 2101 -83 ct 
2100 -82 2098 -82 2094 -82 ct 1995 -82 l  1995 -58 1999 -40 2006 -29 ct 2016 -13 2029 -5 2046 -5 ct 
2048 -5 2051 -5 2053 -6 ct 2056 -6 2060 -7 2066 -9 ct 2071 -11 2077 -15 2082 -20 ct 
2087 -26 2090 -33 2093 -41 ct 2094 -45 2096 -46 2098 -46 ct 2101 -46 2102 -45 2102 -42 ct 
2102 -40 2101 -37 2099 -32 ct 2097 -27 2094 -22 2089 -17 ct 2085 -11 2079 -6 2071 -2 ct 
2062 2 2053 4 2044 4 ct 2023 4 2005 -4 1989 -20 ct 1974 -35 1966 -55 1966 -78 ct 
p
1996 -89 m  2079 -89 l  2079 -94 2079 -99 2078 -105 ct 2077 -110 2075 -117 2073 -124 ct 
2071 -132 2066 -138 2061 -143 ct 2055 -148 2048 -150 2039 -150 ct 2036 -150 2032 -150 2027 -148 ct 
2023 -146 2019 -143 2014 -140 ct 2009 -136 2005 -129 2001 -121 ct 1998 -112 1996 -101 1996 -89 ct 
p ef
2123 0 m  2123 -11 l  2136 -11 2143 -12 2146 -13 ct 2149 -15 2151 -19 2151 -27 ct 
2151 -121 l  2151 -130 2149 -136 2146 -138 ct 2143 -140 2136 -141 2123 -141 ct 
2123 -152 l  2173 -156 l  2173 -119 l  2184 -144 2202 -156 2225 -156 ct 2243 -156 2255 -152 2262 -143 ct 
2268 -137 2271 -131 2272 -124 ct 2273 -118 2273 -106 2273 -89 ct 2273 -22 l 
2274 -17 2276 -14 2279 -13 ct 2283 -11 2290 -11 2301 -11 ct 2301 0 l  2277 -1 2264 -1 2261 -1 ct 
2259 -1 2246 -1 2221 0 ct 2221 -11 l  2234 -11 2242 -12 2245 -13 ct 2247 -15 2249 -19 2249 -27 ct 
2249 -109 l  2249 -121 2247 -131 2243 -138 ct 2240 -145 2233 -148 2223 -148 ct 
2211 -148 2200 -143 2190 -133 ct 2180 -123 2175 -109 2175 -92 ct 2175 -27 l 
2175 -19 2177 -15 2180 -13 ct 2183 -12 2190 -11 2203 -11 ct 2203 0 l  2179 -1 2166 -1 2163 -1 ct 
2161 -1 2148 -1 2123 0 ct p ef
2319 -5 m  2319 -51 l  2319 -54 2319 -56 2319 -56 ct 2319 -57 2319 -58 2320 -59 ct 
2321 -60 2322 -60 2323 -60 ct 2325 -60 2326 -60 2327 -59 ct 2327 -58 2328 -57 2328 -54 ct 
2332 -38 2337 -25 2345 -17 ct 2353 -8 2363 -4 2377 -4 ct 2390 -4 2400 -7 2407 -13 ct 
2414 -19 2417 -26 2417 -36 ct 2417 -53 2405 -64 2380 -68 ct 2366 -71 2356 -74 2350 -76 ct 
2345 -77 2339 -80 2334 -85 ct 2324 -93 2319 -103 2319 -115 ct 2319 -126 2323 -137 2332 -145 ct 
2341 -154 2355 -158 2375 -158 ct 2388 -158 2399 -155 2408 -148 ct 2411 -150 2413 -152 2414 -154 ct 
2417 -157 2420 -158 2421 -158 ct 2423 -158 2424 -158 2425 -156 ct 2425 -155 2425 -153 2425 -150 ct 
2425 -114 l  2425 -111 2425 -110 2425 -109 ct 2425 -108 2425 -107 2424 -106 ct 
2423 -106 2422 -106 2421 -106 ct 2418 -106 2417 -107 2416 -109 ct 2415 -137 2401 -151 2375 -151 ct 
2361 -151 2351 -149 2345 -143 ct 2339 -138 2336 -132 2336 -125 ct 2336 -121 2337 -117 2338 -114 ct 
2340 -111 2342 -109 2345 -107 ct 2347 -105 2351 -103 2356 -102 ct 2360 -100 2364 -99 2367 -98 ct 
2369 -98 2374 -97 2379 -96 ct 2398 -92 2411 -86 2419 -79 ct 2429 -69 2434 -58 2434 -45 ct 
2434 -31 2429 -20 2420 -10 ct 2411 -1 2396 4 2377 4 ct 2362 4 2349 -1 2338 -11 ct 
2337 -10 2336 -9 2335 -7 ct 2334 -6 2333 -5 2333 -5 ct 2332 -4 2332 -4 2332 -4 ct 
2332 -4 2332 -3 2331 -3 ct 2327 2 2324 4 2323 4 ct 2321 4 2320 3 2319 2 ct 2319 1 2319 -1 2319 -5 ct 
p ef
pom
gs
0.800 0.800 0.800 c 8331 10953 m  7116 10953 l  7116 8927 l  9546 8927 l 
9546 10953 l  8331 10953 l  p ef
gr
pum
7336 10061 t
20 -121 m  20 -156 32 -187 56 -211 ct 80 -236 109 -249 143 -249 ct 153 -249 163 -247 172 -243 ct 
181 -239 188 -236 192 -233 ct 196 -229 201 -225 208 -219 ct 225 -245 l  227 -247 229 -249 231 -249 ct 
233 -249 234 -248 234 -247 ct 235 -246 235 -244 235 -240 ct 235 -157 l  235 -153 235 -151 234 -150 ct 
234 -149 232 -148 229 -148 ct 227 -148 225 -149 225 -149 ct 224 -150 224 -152 223 -154 ct 
220 -180 211 -200 197 -215 ct 183 -230 166 -238 146 -238 ct 141 -238 135 -237 129 -236 ct 
122 -235 115 -232 106 -227 ct 97 -222 89 -216 82 -208 ct 75 -200 69 -188 64 -173 ct 
59 -158 56 -140 56 -120 ct 56 -101 59 -83 64 -68 ct 69 -53 75 -41 82 -33 ct 89 -25 97 -19 106 -14 ct 
115 -9 122 -6 129 -5 ct 135 -4 141 -3 147 -3 ct 167 -3 185 -10 201 -25 ct 216 -39 225 -58 226 -83 ct 
226 -84 226 -85 226 -85 ct 226 -86 226 -86 227 -87 ct 227 -87 227 -88 228 -88 ct 
228 -88 229 -88 230 -88 ct 233 -88 235 -86 235 -82 ct 235 -60 226 -39 209 -20 ct 
192 -2 170 8 143 8 ct 109 8 80 -5 56 -29 ct 32 -54 20 -85 20 -121 ct p ef
274 -121 m  274 -156 286 -187 310 -211 ct 334 -236 363 -249 397 -249 ct 407 -249 417 -247 426 -243 ct 
435 -239 442 -236 446 -233 ct 450 -229 455 -225 462 -219 ct 479 -245 l  481 -247 483 -249 485 -249 ct 
487 -249 488 -248 488 -247 ct 489 -246 489 -244 489 -240 ct 489 -157 l  489 -153 489 -151 488 -150 ct 
488 -149 486 -148 483 -148 ct 481 -148 479 -149 479 -149 ct 478 -150 478 -152 477 -154 ct 
474 -180 465 -200 451 -215 ct 437 -230 420 -238 400 -238 ct 395 -238 389 -237 383 -236 ct 
376 -235 369 -232 360 -227 ct 351 -222 343 -216 336 -208 ct 329 -200 323 -188 318 -173 ct 
313 -158 310 -140 310 -120 ct 310 -101 313 -83 318 -68 ct 323 -53 329 -41 336 -33 ct 
343 -25 351 -19 360 -14 ct 369 -9 376 -6 383 -5 ct 389 -4 395 -3 401 -3 ct 421 -3 439 -10 455 -25 ct 
470 -39 479 -58 480 -83 ct 480 -84 480 -85 480 -85 ct 480 -86 480 -86 481 -87 ct 
481 -87 481 -88 482 -88 ct 482 -88 483 -88 484 -88 ct 487 -88 489 -86 489 -82 ct 
489 -60 480 -39 463 -20 ct 446 -2 424 8 397 8 ct 363 8 334 -5 310 -29 ct 286 -54 274 -85 274 -121 ct 
p ef
520 0 m  520 -11 l  529 -11 l  542 -11 549 -12 552 -14 ct 555 -16 557 -21 557 -28 ct 
557 -214 l  557 -220 555 -225 552 -227 ct 549 -229 542 -230 529 -230 ct 520 -230 l 
520 -241 l  650 -241 l  680 -241 705 -229 726 -205 ct 747 -181 758 -152 758 -119 ct 
758 -86 747 -58 726 -35 ct 705 -12 679 0 650 0 ct p
587 -25 m  587 -19 588 -15 590 -13 ct 591 -12 596 -11 604 -11 ct 640 -11 l  656 -11 669 -14 679 -20 ct 
690 -27 697 -34 703 -41 ct 716 -59 722 -84 722 -119 ct 722 -154 716 -181 704 -197 ct 
688 -219 667 -230 640 -230 ct 604 -230 l  596 -230 591 -229 590 -228 ct 588 -226 587 -222 587 -216 ct 
p ef
927 -19 m  912 -35 905 -54 905 -76 ct 905 -99 912 -118 927 -134 ct 942 -150 960 -158 982 -158 ct 
996 -158 1009 -155 1019 -148 ct 1030 -141 1036 -132 1036 -120 ct 1036 -115 1034 -111 1031 -108 ct 
1028 -105 1024 -104 1019 -104 ct 1014 -104 1010 -105 1008 -108 ct 1005 -111 1003 -115 1003 -120 ct 
1003 -122 1003 -124 1004 -126 ct 1005 -128 1007 -130 1009 -133 ct 1012 -135 1015 -136 1020 -136 ct 
1011 -145 999 -149 982 -149 ct 970 -149 959 -144 949 -132 ct 939 -121 934 -103 934 -77 ct 
934 -64 936 -52 939 -42 ct 943 -32 947 -25 952 -20 ct 958 -15 963 -11 968 -8 ct 
974 -6 979 -5 984 -5 ct 1007 -5 1023 -17 1030 -42 ct 1031 -44 1033 -46 1035 -46 ct 
1038 -46 1039 -44 1039 -42 ct 1039 -41 1039 -39 1038 -36 ct 1037 -33 1035 -29 1032 -24 ct 
1030 -20 1026 -15 1022 -11 ct 1018 -7 1012 -3 1005 -1 ct 998 2 990 4 981 4 ct 960 4 942 -4 927 -19 ct 
p ef
1065 -34 m  1065 -54 1077 -69 1100 -79 ct 1114 -86 1136 -90 1165 -92 ct 1165 -105 l 
1165 -120 1161 -131 1154 -139 ct 1146 -146 1137 -150 1128 -150 ct 1110 -150 1098 -145 1090 -134 ct 
1097 -134 1101 -132 1104 -128 ct 1106 -125 1108 -121 1108 -118 ct 1108 -113 1106 -109 1103 -106 ct 
1100 -103 1096 -102 1091 -102 ct 1087 -102 1083 -103 1080 -106 ct 1077 -109 1075 -113 1075 -118 ct 
1075 -130 1080 -139 1091 -147 ct 1101 -154 1114 -158 1128 -158 ct 1148 -158 1164 -152 1177 -139 ct 
1181 -135 1184 -130 1186 -125 ct 1188 -120 1189 -115 1189 -112 ct 1189 -109 1189 -104 1189 -97 ct 
1189 -26 l  1189 -25 1190 -23 1190 -21 ct 1191 -19 1192 -16 1194 -13 ct 1196 -10 1199 -9 1202 -9 ct 
1211 -9 1215 -16 1215 -31 ct 1215 -51 l  1224 -51 l  1224 -31 l  1224 -19 1221 -10 1214 -5 ct 
1208 0 1201 2 1195 2 ct 1187 2 1181 -1 1176 -7 ct 1171 -12 1168 -19 1168 -27 ct 
1164 -18 1158 -11 1150 -5 ct 1142 1 1132 4 1121 4 ct 1113 4 1105 3 1097 1 ct 1089 -1 1081 -5 1075 -11 ct 
1068 -17 1065 -25 1065 -34 ct p
1092 -34 m  1092 -25 1095 -18 1101 -12 ct 1108 -7 1115 -4 1124 -4 ct 1134 -4 1143 -8 1152 -15 ct 
1161 -23 1165 -34 1165 -49 ct 1165 -85 l  1139 -84 1120 -78 1109 -68 ct 1098 -57 1092 -46 1092 -34 ct 
p ef
1239 0 m  1239 -11 l  1252 -11 1259 -12 1262 -13 ct 1265 -15 1267 -19 1267 -27 ct 
1267 -121 l  1267 -130 1265 -136 1262 -138 ct 1259 -140 1252 -141 1239 -141 ct 
1239 -152 l  1289 -156 l  1289 -119 l  1300 -144 1318 -156 1341 -156 ct 1369 -156 1384 -144 1388 -121 ct 
1392 -130 1398 -138 1407 -145 ct 1415 -152 1426 -156 1439 -156 ct 1457 -156 1469 -152 1477 -143 ct 
1482 -137 1485 -131 1486 -124 ct 1487 -118 1487 -106 1487 -89 ct 1487 -22 l 
1488 -17 1490 -14 1493 -13 ct 1497 -11 1504 -11 1515 -11 ct 1515 0 l  1491 -1 1478 -1 1475 -1 ct 
1474 -1 1460 -1 1436 0 ct 1436 -11 l  1448 -11 1456 -12 1459 -13 ct 1462 -15 1463 -19 1463 -27 ct 
1463 -109 l  1463 -121 1461 -131 1458 -138 ct 1454 -145 1447 -148 1437 -148 ct 
1425 -148 1414 -143 1404 -133 ct 1394 -123 1389 -109 1389 -92 ct 1389 -27 l 
1389 -19 1391 -15 1394 -13 ct 1397 -12 1404 -11 1417 -11 ct 1417 0 l  1393 -1 1380 -1 1377 -1 ct 
1375 -1 1362 -1 1337 0 ct 1337 -11 l  1350 -11 1358 -12 1361 -13 ct 1363 -15 1365 -19 1365 -27 ct 
1365 -109 l  1365 -121 1363 -131 1359 -138 ct 1356 -145 1349 -148 1339 -148 ct 
1327 -148 1316 -143 1306 -133 ct 1296 -123 1291 -109 1291 -92 ct 1291 -27 l 
1291 -19 1293 -15 1296 -13 ct 1299 -12 1306 -11 1319 -11 ct 1319 0 l  1295 -1 1282 -1 1279 -1 ct 
1277 -1 1264 -1 1239 0 ct p ef
1530 -78 m  1530 -100 1537 -119 1551 -134 ct 1565 -150 1583 -158 1603 -158 ct 
1624 -158 1640 -151 1650 -138 ct 1661 -125 1666 -108 1666 -89 ct 1666 -85 1666 -83 1665 -83 ct 
1664 -82 1662 -82 1658 -82 ct 1559 -82 l  1559 -58 1563 -40 1570 -29 ct 1580 -13 1593 -5 1610 -5 ct 
1612 -5 1615 -5 1617 -6 ct 1620 -6 1624 -7 1630 -9 ct 1635 -11 1641 -15 1646 -20 ct 
1651 -26 1654 -33 1657 -41 ct 1658 -45 1660 -46 1662 -46 ct 1665 -46 1666 -45 1666 -42 ct 
1666 -40 1665 -37 1663 -32 ct 1661 -27 1658 -22 1653 -17 ct 1649 -11 1643 -6 1635 -2 ct 
1626 2 1617 4 1608 4 ct 1587 4 1569 -4 1553 -20 ct 1538 -35 1530 -55 1530 -78 ct 
p
1560 -89 m  1643 -89 l  1643 -94 1643 -99 1642 -105 ct 1641 -110 1639 -117 1637 -124 ct 
1635 -132 1630 -138 1625 -143 ct 1619 -148 1612 -150 1603 -150 ct 1600 -150 1596 -150 1591 -148 ct 
1587 -146 1583 -143 1578 -140 ct 1573 -136 1569 -129 1565 -121 ct 1562 -112 1560 -101 1560 -89 ct 
p ef
1686 0 m  1686 -11 l  1698 -11 1706 -12 1709 -13 ct 1712 -15 1713 -19 1713 -27 ct 
1713 -121 l  1713 -130 1712 -136 1709 -138 ct 1706 -140 1698 -141 1686 -141 ct 
1686 -152 l  1735 -156 l  1735 -117 l  1738 -127 1743 -136 1750 -144 ct 1758 -152 1767 -156 1778 -156 ct 
1786 -156 1792 -154 1797 -150 ct 1802 -145 1804 -140 1804 -134 ct 1804 -129 1803 -125 1800 -123 ct 
1797 -120 1793 -119 1789 -119 ct 1785 -119 1781 -120 1779 -123 ct 1776 -126 1774 -129 1774 -134 ct 
1774 -137 1775 -139 1776 -142 ct 1777 -144 1779 -145 1780 -146 ct 1781 -147 1782 -148 1782 -148 ct 
1782 -148 1780 -148 1778 -148 ct 1765 -148 1755 -142 1748 -129 ct 1740 -116 1737 -100 1737 -82 ct 
1737 -28 l  1737 -21 1738 -16 1741 -14 ct 1744 -12 1751 -11 1764 -11 ct 1771 -11 l 
1771 0 l  1762 -1 1747 -1 1726 -1 ct 1723 -1 1720 -1 1715 -1 ct 1711 -1 1706 -1 1700 0 ct 
1694 0 1689 0 1686 0 ct p ef
1827 -34 m  1827 -54 1839 -69 1862 -79 ct 1876 -86 1898 -90 1927 -92 ct 1927 -105 l 
1927 -120 1923 -131 1916 -139 ct 1908 -146 1899 -150 1890 -150 ct 1872 -150 1860 -145 1852 -134 ct 
1859 -134 1863 -132 1866 -128 ct 1868 -125 1870 -121 1870 -118 ct 1870 -113 1868 -109 1865 -106 ct 
1862 -103 1858 -102 1853 -102 ct 1849 -102 1845 -103 1842 -106 ct 1839 -109 1837 -113 1837 -118 ct 
1837 -130 1842 -139 1853 -147 ct 1863 -154 1876 -158 1890 -158 ct 1910 -158 1926 -152 1939 -139 ct 
1943 -135 1946 -130 1948 -125 ct 1950 -120 1951 -115 1951 -112 ct 1951 -109 1951 -104 1951 -97 ct 
1951 -26 l  1951 -25 1952 -23 1952 -21 ct 1953 -19 1954 -16 1956 -13 ct 1958 -10 1961 -9 1964 -9 ct 
1973 -9 1977 -16 1977 -31 ct 1977 -51 l  1986 -51 l  1986 -31 l  1986 -19 1983 -10 1976 -5 ct 
1970 0 1963 2 1957 2 ct 1949 2 1943 -1 1938 -7 ct 1933 -12 1930 -19 1930 -27 ct 
1926 -18 1920 -11 1912 -5 ct 1904 1 1894 4 1883 4 ct 1875 4 1867 3 1859 1 ct 1851 -1 1843 -5 1837 -11 ct 
1830 -17 1827 -25 1827 -34 ct p
1854 -34 m  1854 -25 1857 -18 1863 -12 ct 1870 -7 1877 -4 1886 -4 ct 1896 -4 1905 -8 1914 -15 ct 
1923 -23 1927 -34 1927 -49 ct 1927 -85 l  1901 -84 1882 -78 1871 -68 ct 1860 -57 1854 -46 1854 -34 ct 
p ef
pom
gs
0.832 0.656 0.378 c 8323 15873 m  6074 15873 l  6074 13937 l  10573 13937 l 
10573 15873 l  8323 15873 l  p ef
gr
pum
6752 15026 t
13 -160 m  19 -239 l  235 -239 l  242 -160 l  233 -160 l  232 -170 231 -179 230 -185 ct 
230 -191 228 -197 226 -202 ct 224 -208 222 -213 219 -215 ct 217 -218 213 -221 209 -223 ct 
204 -225 199 -227 192 -227 ct 186 -228 179 -228 169 -228 ct 159 -228 152 -228 149 -227 ct 
146 -227 145 -225 144 -223 ct 143 -221 143 -218 143 -214 ct 143 -28 l  143 -23 143 -20 144 -18 ct 
145 -16 148 -14 154 -13 ct 159 -12 168 -11 180 -11 ct 194 -11 l  194 0 l  185 -1 162 -1 127 -1 ct 
92 -1 70 -1 60 0 ct 60 -11 l  74 -11 l  86 -11 95 -12 101 -13 ct 106 -14 109 -16 110 -18 ct 
111 -20 112 -23 112 -28 ct 112 -214 l  112 -217 111 -220 111 -221 ct 111 -222 110 -224 109 -225 ct 
108 -226 106 -227 104 -227 ct 102 -228 95 -228 85 -228 ct 76 -228 68 -228 62 -227 ct 
56 -227 51 -225 46 -223 ct 41 -221 38 -218 35 -215 ct 33 -213 30 -208 28 -202 ct 
26 -197 25 -191 24 -185 ct 23 -179 22 -170 22 -160 ct p ef
265 0 m  265 -11 l  278 -11 285 -12 288 -13 ct 291 -15 293 -19 293 -27 ct 293 -210 l 
293 -219 291 -225 288 -227 ct 285 -229 278 -230 265 -230 ct 265 -241 l  316 -245 l 
316 -122 l  316 -122 l  320 -131 326 -138 335 -145 ct 343 -152 354 -156 367 -156 ct 
385 -156 397 -152 404 -143 ct 410 -137 413 -131 414 -124 ct 415 -118 415 -106 415 -89 ct 
415 -22 l  416 -17 418 -14 421 -13 ct 425 -11 432 -11 443 -11 ct 443 0 l  419 -1 406 -1 403 -1 ct 
401 -1 388 -1 363 0 ct 363 -11 l  376 -11 384 -12 387 -13 ct 389 -15 391 -19 391 -27 ct 
391 -109 l  391 -121 389 -131 385 -138 ct 382 -145 375 -148 365 -148 ct 353 -148 342 -143 332 -133 ct 
322 -123 317 -109 317 -92 ct 317 -27 l  317 -19 319 -15 322 -13 ct 325 -12 332 -11 345 -11 ct 
345 0 l  321 -1 308 -1 305 -1 ct 303 -1 290 -1 265 0 ct p ef
459 -78 m  459 -100 466 -119 480 -134 ct 494 -150 512 -158 532 -158 ct 553 -158 569 -151 579 -138 ct 
590 -125 595 -108 595 -89 ct 595 -85 595 -83 594 -83 ct 593 -82 591 -82 587 -82 ct 
488 -82 l  488 -58 492 -40 499 -29 ct 509 -13 522 -5 539 -5 ct 541 -5 544 -5 546 -6 ct 
549 -6 553 -7 559 -9 ct 564 -11 570 -15 575 -20 ct 580 -26 583 -33 586 -41 ct 587 -45 589 -46 591 -46 ct 
594 -46 595 -45 595 -42 ct 595 -40 594 -37 592 -32 ct 590 -27 587 -22 582 -17 ct 
578 -11 572 -6 564 -2 ct 555 2 546 4 537 4 ct 516 4 498 -4 482 -20 ct 467 -35 459 -55 459 -78 ct 
p
489 -89 m  572 -89 l  572 -94 572 -99 571 -105 ct 570 -110 568 -117 566 -124 ct 
564 -132 559 -138 554 -143 ct 548 -148 541 -150 532 -150 ct 529 -150 525 -150 520 -148 ct 
516 -146 512 -143 507 -140 ct 502 -136 498 -129 494 -121 ct 491 -112 489 -101 489 -89 ct 
p ef
615 0 m  615 -11 l  627 -11 635 -12 638 -13 ct 641 -15 642 -19 642 -27 ct 642 -121 l 
642 -130 641 -136 638 -138 ct 635 -140 627 -141 615 -141 ct 615 -152 l  664 -156 l 
664 -117 l  667 -127 672 -136 679 -144 ct 687 -152 696 -156 707 -156 ct 715 -156 721 -154 726 -150 ct 
731 -145 733 -140 733 -134 ct 733 -129 732 -125 729 -123 ct 726 -120 722 -119 718 -119 ct 
714 -119 710 -120 708 -123 ct 705 -126 703 -129 703 -134 ct 703 -137 704 -139 705 -142 ct 
706 -144 708 -145 709 -146 ct 710 -147 711 -148 711 -148 ct 711 -148 709 -148 707 -148 ct 
694 -148 684 -142 677 -129 ct 669 -116 666 -100 666 -82 ct 666 -28 l  666 -21 667 -16 670 -14 ct 
673 -12 680 -11 693 -11 ct 700 -11 l  700 0 l  691 -1 676 -1 655 -1 ct 652 -1 649 -1 644 -1 ct 
640 -1 635 -1 629 0 ct 623 0 618 0 615 0 ct p ef
752 0 m  752 -11 l  765 -11 772 -12 775 -13 ct 778 -15 780 -19 780 -27 ct 780 -121 l 
780 -130 778 -136 775 -138 ct 772 -140 765 -141 752 -141 ct 752 -152 l  802 -156 l 
802 -119 l  813 -144 831 -156 854 -156 ct 882 -156 897 -144 901 -121 ct 905 -130 911 -138 920 -145 ct 
928 -152 939 -156 952 -156 ct 970 -156 982 -152 990 -143 ct 995 -137 998 -131 999 -124 ct 
1000 -118 1000 -106 1000 -89 ct 1000 -22 l  1001 -17 1003 -14 1006 -13 ct 1010 -11 1017 -11 1028 -11 ct 
1028 0 l  1004 -1 991 -1 988 -1 ct 987 -1 973 -1 949 0 ct 949 -11 l  961 -11 969 -12 972 -13 ct 
975 -15 976 -19 976 -27 ct 976 -109 l  976 -121 974 -131 971 -138 ct 967 -145 960 -148 950 -148 ct 
938 -148 927 -143 917 -133 ct 907 -123 902 -109 902 -92 ct 902 -27 l  902 -19 904 -15 907 -13 ct 
910 -12 917 -11 930 -11 ct 930 0 l  906 -1 893 -1 890 -1 ct 888 -1 875 -1 850 0 ct 
850 -11 l  863 -11 871 -12 874 -13 ct 876 -15 878 -19 878 -27 ct 878 -109 l 
878 -121 876 -131 872 -138 ct 869 -145 862 -148 852 -148 ct 840 -148 829 -143 819 -133 ct 
809 -123 804 -109 804 -92 ct 804 -27 l  804 -19 806 -15 809 -13 ct 812 -12 819 -11 832 -11 ct 
832 0 l  808 -1 795 -1 792 -1 ct 790 -1 777 -1 752 0 ct p ef
1066 -19 m  1051 -34 1043 -53 1043 -76 ct 1043 -98 1050 -117 1066 -134 ct 1081 -150 1099 -158 1121 -158 ct 
1143 -158 1161 -150 1176 -134 ct 1192 -118 1199 -98 1199 -76 ct 1199 -53 1192 -35 1176 -19 ct 
1161 -4 1142 4 1121 4 ct 1100 4 1082 -4 1066 -19 ct p
1072 -78 m  1072 -56 1075 -39 1081 -29 ct 1090 -13 1104 -5 1121 -5 ct 1130 -5 1138 -7 1145 -12 ct 
1153 -17 1158 -23 1162 -31 ct 1167 -41 1170 -57 1170 -78 ct 1170 -101 1167 -117 1161 -127 ct 
1152 -143 1138 -150 1121 -150 ct 1113 -150 1106 -148 1098 -144 ct 1091 -140 1085 -134 1081 -127 ct 
1075 -116 1072 -100 1072 -78 ct p ef
1231 -76 m  1231 -98 1239 -117 1254 -133 ct 1270 -148 1289 -156 1310 -156 ct 
1328 -156 1342 -149 1354 -134 ct 1354 -210 l  1354 -219 1353 -225 1350 -227 ct 
1347 -229 1339 -230 1327 -230 ct 1327 -241 l  1377 -245 l  1377 -31 l  1377 -22 1379 -17 1382 -14 ct 
1385 -12 1393 -11 1405 -11 ct 1405 0 l  1353 4 l  1353 -19 l  1341 -4 1325 4 1306 4 ct 
1286 4 1268 -4 1253 -19 ct 1238 -35 1231 -54 1231 -76 ct p
1260 -76 m  1260 -54 1264 -37 1271 -26 ct 1280 -11 1292 -4 1308 -4 ct 1325 -4 1339 -12 1349 -29 ct 
1352 -33 1353 -37 1353 -42 ct 1353 -114 l  1353 -119 1352 -123 1349 -127 ct 
1340 -141 1327 -148 1311 -148 ct 1295 -148 1281 -141 1271 -126 ct 1264 -114 1260 -98 1260 -76 ct 
p ef
1426 0 m  1426 -11 l  1438 -11 1446 -12 1449 -13 ct 1452 -15 1453 -19 1453 -27 ct 
1453 -122 l  1453 -130 1452 -136 1449 -138 ct 1446 -140 1439 -141 1427 -141 ct 
1427 -152 l  1476 -156 l  1476 -26 l  1476 -19 1478 -15 1480 -13 ct 1483 -12 1490 -11 1501 -11 ct 
1501 0 l  1477 -1 1465 -1 1464 -1 ct 1461 -1 1448 -1 1426 0 ct p
1440 -217 m  1440 -222 1442 -226 1446 -230 ct 1450 -234 1454 -236 1459 -236 ct 
1464 -236 1469 -234 1472 -231 ct 1476 -227 1478 -223 1478 -217 ct 1478 -212 1476 -208 1472 -204 ct 
1469 -201 1464 -199 1459 -199 ct 1454 -199 1449 -201 1446 -204 ct 1442 -208 1440 -213 1440 -217 ct 
p ef
1521 0 m  1521 -11 l  1523 -11 l  1534 -11 1541 -12 1544 -14 ct 1547 -16 1548 -20 1548 -27 ct 
1548 -141 l  1521 -141 l  1521 -152 l  1548 -152 l  1548 -191 l  1548 -204 1552 -215 1560 -224 ct 
1569 -233 1578 -239 1589 -243 ct 1600 -247 1611 -249 1623 -249 ct 1641 -249 1654 -244 1663 -234 ct 
1675 -244 1687 -249 1701 -249 ct 1711 -249 1719 -246 1724 -241 ct 1730 -236 1733 -230 1733 -224 ct 
1733 -219 1731 -216 1728 -213 ct 1725 -210 1722 -208 1718 -208 ct 1713 -208 1710 -210 1707 -213 ct 
1704 -216 1702 -219 1702 -224 ct 1702 -230 1706 -235 1713 -239 ct 1707 -240 1704 -241 1701 -241 ct 
1693 -241 1686 -237 1679 -228 ct 1672 -220 1669 -208 1669 -191 ct 1669 -152 l 
1710 -152 l  1710 -141 l  1670 -141 l  1670 -28 l  1670 -20 1671 -16 1675 -14 ct 
1678 -12 1686 -11 1700 -11 ct 1704 -11 l  1704 0 l  1689 -1 1673 -1 1658 -1 ct 
1644 -1 1631 -1 1619 0 ct 1619 -11 l  1621 -11 l  1633 -11 1639 -12 1642 -14 ct 
1645 -16 1646 -20 1646 -27 ct 1646 -141 l  1572 -141 l  1572 -27 l  1572 -20 1573 -16 1576 -14 ct 
1578 -12 1585 -11 1596 -11 ct 1599 -11 l  1599 0 l  1586 -1 1572 -1 1559 -1 ct 
1546 -1 1533 -1 1521 0 ct p
1571 -152 m  1646 -152 l  1646 -182 l  1646 -192 1646 -200 1647 -204 ct 1641 -208 1637 -213 1637 -219 ct 
1637 -226 1642 -231 1650 -234 ct 1643 -239 1634 -241 1623 -241 ct 1619 -241 1615 -240 1611 -240 ct 
1607 -239 1602 -237 1597 -235 ct 1592 -232 1588 -229 1584 -226 ct 1580 -222 1577 -217 1574 -211 ct 
1572 -205 1571 -198 1571 -191 ct p ef
1726 -141 m  1726 -152 l  1778 -156 l  1778 -39 l  1778 -33 1778 -29 1779 -25 ct 
1779 -22 1781 -19 1782 -15 ct 1784 -11 1787 -8 1792 -7 ct 1796 -5 1802 -4 1809 -4 ct 
1822 -4 1832 -9 1840 -20 ct 1848 -30 1852 -43 1852 -59 ct 1852 -121 l  1852 -130 1850 -136 1847 -138 ct 
1844 -140 1837 -141 1824 -141 ct 1824 -152 l  1876 -156 l  1876 -31 l  1876 -22 1878 -17 1881 -14 ct 
1884 -12 1892 -11 1904 -11 ct 1904 0 l  1853 4 l  1853 -28 l  1843 -7 1828 4 1807 4 ct 
1797 4 1788 3 1781 0 ct 1774 -3 1769 -6 1765 -9 ct 1762 -12 1759 -17 1757 -23 ct 
1755 -30 1754 -35 1754 -39 ct 1754 -43 1754 -48 1754 -56 ct 1754 -109 l  1754 -125 1753 -134 1750 -137 ct 
1748 -140 1740 -141 1726 -141 ct p ef
1921 -5 m  1921 -51 l  1921 -54 1921 -56 1921 -56 ct 1921 -57 1921 -58 1922 -59 ct 
1923 -60 1924 -60 1925 -60 ct 1927 -60 1928 -60 1929 -59 ct 1929 -58 1930 -57 1930 -54 ct 
1934 -38 1939 -25 1947 -17 ct 1955 -8 1965 -4 1979 -4 ct 1992 -4 2002 -7 2009 -13 ct 
2016 -19 2019 -26 2019 -36 ct 2019 -53 2007 -64 1982 -68 ct 1968 -71 1958 -74 1952 -76 ct 
1947 -77 1941 -80 1936 -85 ct 1926 -93 1921 -103 1921 -115 ct 1921 -126 1925 -137 1934 -145 ct 
1943 -154 1957 -158 1977 -158 ct 1990 -158 2001 -155 2010 -148 ct 2013 -150 2015 -152 2016 -154 ct 
2019 -157 2022 -158 2023 -158 ct 2025 -158 2026 -158 2027 -156 ct 2027 -155 2027 -153 2027 -150 ct 
2027 -114 l  2027 -111 2027 -110 2027 -109 ct 2027 -108 2027 -107 2026 -106 ct 
2025 -106 2024 -106 2023 -106 ct 2020 -106 2019 -107 2018 -109 ct 2017 -137 2003 -151 1977 -151 ct 
1963 -151 1953 -149 1947 -143 ct 1941 -138 1938 -132 1938 -125 ct 1938 -121 1939 -117 1940 -114 ct 
1942 -111 1944 -109 1947 -107 ct 1949 -105 1953 -103 1958 -102 ct 1962 -100 1966 -99 1969 -98 ct 
1971 -98 1976 -97 1981 -96 ct 2000 -92 2013 -86 2021 -79 ct 2031 -69 2036 -58 2036 -45 ct 
2036 -31 2031 -20 2022 -10 ct 2013 -1 1998 4 1979 4 ct 1964 4 1951 -1 1940 -11 ct 
1939 -10 1938 -9 1937 -7 ct 1936 -6 1935 -5 1935 -5 ct 1934 -4 1934 -4 1934 -4 ct 
1934 -4 1934 -3 1933 -3 ct 1929 2 1926 4 1925 4 ct 1923 4 1922 3 1921 2 ct 1921 1 1921 -1 1921 -5 ct 
p ef
2061 0 m  2061 -11 l  2073 -11 2081 -12 2084 -13 ct 2087 -15 2088 -19 2088 -27 ct 
2088 -122 l  2088 -130 2087 -136 2084 -138 ct 2081 -140 2074 -141 2062 -141 ct 
2062 -152 l  2111 -156 l  2111 -26 l  2111 -19 2113 -15 2115 -13 ct 2118 -12 2125 -11 2136 -11 ct 
2136 0 l  2112 -1 2100 -1 2099 -1 ct 2096 -1 2083 -1 2061 0 ct p
2075 -217 m  2075 -222 2077 -226 2081 -230 ct 2085 -234 2089 -236 2094 -236 ct 
2099 -236 2104 -234 2107 -231 ct 2111 -227 2113 -223 2113 -217 ct 2113 -212 2111 -208 2107 -204 ct 
2104 -201 2099 -199 2094 -199 ct 2089 -199 2084 -201 2081 -204 ct 2077 -208 2075 -213 2075 -217 ct 
p ef
2179 -19 m  2164 -34 2156 -53 2156 -76 ct 2156 -98 2163 -117 2179 -134 ct 2194 -150 2212 -158 2234 -158 ct 
2256 -158 2274 -150 2289 -134 ct 2305 -118 2312 -98 2312 -76 ct 2312 -53 2305 -35 2289 -19 ct 
2274 -4 2255 4 2234 4 ct 2213 4 2195 -4 2179 -19 ct p
2185 -78 m  2185 -56 2188 -39 2194 -29 ct 2203 -13 2217 -5 2234 -5 ct 2243 -5 2251 -7 2258 -12 ct 
2266 -17 2271 -23 2275 -31 ct 2280 -41 2283 -57 2283 -78 ct 2283 -101 2280 -117 2274 -127 ct 
2265 -143 2251 -150 2234 -150 ct 2226 -150 2219 -148 2211 -144 ct 2204 -140 2198 -134 2194 -127 ct 
2188 -116 2185 -100 2185 -78 ct p ef
2335 0 m  2335 -11 l  2348 -11 2355 -12 2358 -13 ct 2361 -15 2363 -19 2363 -27 ct 
2363 -121 l  2363 -130 2361 -136 2358 -138 ct 2355 -140 2348 -141 2335 -141 ct 
2335 -152 l  2385 -156 l  2385 -119 l  2396 -144 2414 -156 2437 -156 ct 2455 -156 2467 -152 2474 -143 ct 
2480 -137 2483 -131 2484 -124 ct 2485 -118 2485 -106 2485 -89 ct 2485 -22 l 
2486 -17 2488 -14 2491 -13 ct 2495 -11 2502 -11 2513 -11 ct 2513 0 l  2489 -1 2476 -1 2473 -1 ct 
2471 -1 2458 -1 2433 0 ct 2433 -11 l  2446 -11 2454 -12 2457 -13 ct 2459 -15 2461 -19 2461 -27 ct 
2461 -109 l  2461 -121 2459 -131 2455 -138 ct 2452 -145 2445 -148 2435 -148 ct 
2423 -148 2412 -143 2402 -133 ct 2392 -123 2387 -109 2387 -92 ct 2387 -27 l 
2387 -19 2389 -15 2392 -13 ct 2395 -12 2402 -11 2415 -11 ct 2415 0 l  2391 -1 2378 -1 2375 -1 ct 
2373 -1 2360 -1 2335 0 ct p ef
2670 -19 m  2655 -35 2648 -54 2648 -76 ct 2648 -99 2655 -118 2670 -134 ct 2685 -150 2703 -158 2725 -158 ct 
2739 -158 2752 -155 2762 -148 ct 2773 -141 2779 -132 2779 -120 ct 2779 -115 2777 -111 2774 -108 ct 
2771 -105 2767 -104 2762 -104 ct 2757 -104 2753 -105 2751 -108 ct 2748 -111 2746 -115 2746 -120 ct 
2746 -122 2746 -124 2747 -126 ct 2748 -128 2750 -130 2752 -133 ct 2755 -135 2758 -136 2763 -136 ct 
2754 -145 2742 -149 2725 -149 ct 2713 -149 2702 -144 2692 -132 ct 2682 -121 2677 -103 2677 -77 ct 
2677 -64 2679 -52 2682 -42 ct 2686 -32 2690 -25 2695 -20 ct 2701 -15 2706 -11 2711 -8 ct 
2717 -6 2722 -5 2727 -5 ct 2750 -5 2766 -17 2773 -42 ct 2774 -44 2776 -46 2778 -46 ct 
2781 -46 2782 -44 2782 -42 ct 2782 -41 2782 -39 2781 -36 ct 2780 -33 2778 -29 2775 -24 ct 
2773 -20 2769 -15 2765 -11 ct 2761 -7 2755 -3 2748 -1 ct 2741 2 2733 4 2724 4 ct 
2703 4 2685 -4 2670 -19 ct p ef
2803 -78 m  2803 -100 2810 -119 2824 -134 ct 2838 -150 2856 -158 2876 -158 ct 
2897 -158 2913 -151 2923 -138 ct 2934 -125 2939 -108 2939 -89 ct 2939 -85 2939 -83 2938 -83 ct 
2937 -82 2935 -82 2931 -82 ct 2832 -82 l  2832 -58 2836 -40 2843 -29 ct 2853 -13 2866 -5 2883 -5 ct 
2885 -5 2888 -5 2890 -6 ct 2893 -6 2897 -7 2903 -9 ct 2908 -11 2914 -15 2919 -20 ct 
2924 -26 2927 -33 2930 -41 ct 2931 -45 2933 -46 2935 -46 ct 2938 -46 2939 -45 2939 -42 ct 
2939 -40 2938 -37 2936 -32 ct 2934 -27 2931 -22 2926 -17 ct 2922 -11 2916 -6 2908 -2 ct 
2899 2 2890 4 2881 4 ct 2860 4 2842 -4 2826 -20 ct 2811 -35 2803 -55 2803 -78 ct 
p
2833 -89 m  2916 -89 l  2916 -94 2916 -99 2915 -105 ct 2914 -110 2912 -117 2910 -124 ct 
2908 -132 2903 -138 2898 -143 ct 2892 -148 2885 -150 2876 -150 ct 2873 -150 2869 -150 2864 -148 ct 
2860 -146 2856 -143 2851 -140 ct 2846 -136 2842 -129 2838 -121 ct 2835 -112 2833 -101 2833 -89 ct 
p ef
2962 0 m  2962 -11 l  2974 -11 2982 -12 2985 -13 ct 2988 -15 2989 -19 2989 -27 ct 
2989 -210 l  2989 -219 2988 -225 2985 -227 ct 2982 -229 2974 -230 2962 -230 ct 
2962 -241 l  3012 -245 l  3012 -27 l  3012 -19 3014 -15 3017 -13 ct 3020 -12 3028 -11 3040 -11 ct 
3040 0 l  3037 0 3033 0 3027 0 ct 3021 -1 3016 -1 3011 -1 ct 3007 -1 3003 -1 3001 -1 ct 
2998 -1 2985 -1 2962 0 ct p ef
3059 0 m  3059 -11 l  3071 -11 3079 -12 3082 -13 ct 3085 -15 3086 -19 3086 -27 ct 
3086 -210 l  3086 -219 3085 -225 3082 -227 ct 3079 -229 3071 -230 3059 -230 ct 
3059 -241 l  3109 -245 l  3109 -27 l  3109 -19 3111 -15 3114 -13 ct 3117 -12 3125 -11 3137 -11 ct 
3137 0 l  3134 0 3130 0 3124 0 ct 3118 -1 3113 -1 3108 -1 ct 3104 -1 3100 -1 3098 -1 ct 
3095 -1 3082 -1 3059 0 ct p ef
pom
pum
9448 19053 t
12 0 m  12 -11 l  20 -11 l  33 -11 41 -12 44 -14 ct 47 -16 48 -21 48 -28 ct 
48 -214 l  48 -220 47 -225 44 -227 ct 41 -229 33 -230 20 -230 ct 12 -230 l  12 -241 l 
20 -240 38 -240 65 -240 ct 96 -240 116 -240 125 -241 ct 125 -230 l  113 -230 l 
102 -230 94 -229 89 -228 ct 84 -227 81 -225 81 -223 ct 80 -221 79 -218 79 -213 ct 
79 -25 l  79 -19 80 -15 82 -13 ct 84 -12 89 -11 97 -11 ct 126 -11 l  138 -11 148 -13 157 -16 ct 
165 -20 172 -24 176 -28 ct 181 -33 185 -39 188 -48 ct 191 -56 193 -63 194 -68 ct 
195 -74 196 -81 197 -91 ct 205 -91 l  196 0 l  p ef
232 0 m  232 -11 l  244 -11 252 -12 255 -13 ct 258 -15 259 -19 259 -27 ct 259 -122 l 
259 -130 258 -136 255 -138 ct 252 -140 245 -141 233 -141 ct 233 -152 l  282 -156 l 
282 -26 l  282 -19 284 -15 286 -13 ct 289 -12 296 -11 307 -11 ct 307 0 l  283 -1 271 -1 270 -1 ct 
267 -1 254 -1 232 0 ct p
246 -217 m  246 -222 248 -226 252 -230 ct 256 -234 260 -236 265 -236 ct 270 -236 275 -234 278 -231 ct 
282 -227 284 -223 284 -217 ct 284 -212 282 -208 278 -204 ct 275 -201 270 -199 265 -199 ct 
260 -199 255 -201 252 -204 ct 248 -208 246 -213 246 -217 ct p ef
328 28 m  328 20 331 13 337 7 ct 342 0 350 -5 360 -7 ct 350 -14 345 -24 345 -39 ct 
345 -50 348 -60 356 -68 ct 345 -77 339 -89 339 -104 ct 339 -118 345 -130 356 -141 ct 
367 -151 380 -156 396 -156 ct 410 -156 423 -152 434 -143 ct 445 -154 458 -160 471 -160 ct 
477 -160 482 -158 485 -154 ct 488 -150 489 -147 489 -143 ct 489 -139 488 -136 486 -135 ct 
484 -133 481 -132 479 -132 ct 476 -132 474 -133 472 -135 ct 470 -137 469 -139 469 -142 ct 
469 -147 471 -150 474 -152 ct 474 -152 472 -152 471 -152 ct 459 -152 449 -148 439 -138 ct 
449 -129 454 -118 454 -104 ct 454 -90 448 -78 437 -68 ct 426 -58 412 -53 396 -53 ct 
383 -53 372 -56 361 -64 ct 357 -59 355 -53 355 -47 ct 355 -41 357 -36 361 -31 ct 
364 -27 369 -24 374 -23 ct 376 -23 385 -23 401 -23 ct 410 -23 417 -23 422 -23 ct 
428 -22 434 -21 441 -20 ct 449 -18 455 -16 461 -13 ct 477 -5 484 9 484 27 ct 484 41 477 52 461 60 ct 
446 68 427 73 406 73 ct 384 73 366 68 351 60 ct 335 51 328 41 328 28 ct p
346 28 m  346 38 352 46 363 53 ct 375 61 389 65 406 65 ct 423 65 437 61 449 54 ct 
460 46 466 38 466 28 ct 466 21 464 15 460 11 ct 456 6 450 3 442 1 ct 433 -1 426 -2 421 -2 ct 
415 -2 407 -2 396 -2 ct 375 -2 l  367 -2 360 1 355 7 ct 349 13 346 20 346 28 ct 
p
366 -104 m  366 -75 376 -61 396 -61 ct 407 -61 415 -65 421 -75 ct 425 -81 427 -91 427 -104 ct 
427 -133 417 -148 396 -148 ct 386 -148 378 -143 371 -134 ct 368 -127 366 -118 366 -104 ct 
p ef
506 0 m  506 -11 l  519 -11 526 -12 529 -13 ct 532 -15 534 -19 534 -27 ct 534 -210 l 
534 -219 532 -225 529 -227 ct 526 -229 519 -230 506 -230 ct 506 -241 l  557 -245 l 
557 -122 l  557 -122 l  561 -131 567 -138 576 -145 ct 584 -152 595 -156 608 -156 ct 
626 -156 638 -152 645 -143 ct 651 -137 654 -131 655 -124 ct 656 -118 656 -106 656 -89 ct 
656 -22 l  657 -17 659 -14 662 -13 ct 666 -11 673 -11 684 -11 ct 684 0 l  660 -1 647 -1 644 -1 ct 
642 -1 629 -1 604 0 ct 604 -11 l  617 -11 625 -12 628 -13 ct 630 -15 632 -19 632 -27 ct 
632 -109 l  632 -121 630 -131 626 -138 ct 623 -145 616 -148 606 -148 ct 594 -148 583 -143 573 -133 ct 
563 -123 558 -109 558 -92 ct 558 -27 l  558 -19 560 -15 563 -13 ct 566 -12 573 -11 586 -11 ct 
586 0 l  562 -1 549 -1 546 -1 ct 544 -1 531 -1 506 0 ct p ef
689 -141 m  689 -149 l  700 -149 709 -153 716 -161 ct 723 -169 728 -177 730 -187 ct 
733 -196 734 -206 734 -217 ct 743 -217 l  743 -152 l  794 -152 l  794 -141 l 
743 -141 l  743 -43 l  743 -18 751 -5 767 -5 ct 774 -5 779 -8 784 -15 ct 788 -22 790 -32 790 -44 ct 
790 -64 l  799 -64 l  799 -44 l  799 -31 796 -20 790 -10 ct 784 -1 776 4 764 4 ct 
760 4 756 3 752 2 ct 747 1 742 -1 737 -4 ct 732 -6 727 -11 724 -18 ct 720 -25 719 -34 719 -44 ct 
719 -141 l  p ef
pom
pum
9448 19472 t
12 -5 m  12 -51 l  12 -54 12 -56 12 -56 ct 12 -57 12 -58 13 -59 ct 14 -60 15 -60 16 -60 ct 
18 -60 19 -60 20 -59 ct 20 -58 21 -57 21 -54 ct 25 -38 30 -25 38 -17 ct 46 -8 56 -4 70 -4 ct 
83 -4 93 -7 100 -13 ct 107 -19 110 -26 110 -36 ct 110 -53 98 -64 73 -68 ct 59 -71 49 -74 43 -76 ct 
38 -77 32 -80 27 -85 ct 17 -93 12 -103 12 -115 ct 12 -126 16 -137 25 -145 ct 34 -154 48 -158 68 -158 ct 
81 -158 92 -155 101 -148 ct 104 -150 106 -152 107 -154 ct 110 -157 113 -158 114 -158 ct 
116 -158 117 -158 118 -156 ct 118 -155 118 -153 118 -150 ct 118 -114 l  118 -111 118 -110 118 -109 ct 
118 -108 118 -107 117 -106 ct 116 -106 115 -106 114 -106 ct 111 -106 110 -107 109 -109 ct 
108 -137 94 -151 68 -151 ct 54 -151 44 -149 38 -143 ct 32 -138 29 -132 29 -125 ct 
29 -121 30 -117 31 -114 ct 33 -111 35 -109 38 -107 ct 40 -105 44 -103 49 -102 ct 
53 -100 57 -99 60 -98 ct 62 -98 67 -97 72 -96 ct 91 -92 104 -86 112 -79 ct 122 -69 127 -58 127 -45 ct 
127 -31 122 -20 113 -10 ct 104 -1 89 4 70 4 ct 55 4 42 -1 31 -11 ct 30 -10 29 -9 28 -7 ct 
27 -6 26 -5 26 -5 ct 25 -4 25 -4 25 -4 ct 25 -4 25 -3 24 -3 ct 20 2 17 4 16 4 ct 14 4 13 3 12 2 ct 
12 1 12 -1 12 -5 ct p ef
173 -19 m  158 -34 150 -53 150 -76 ct 150 -98 157 -117 173 -134 ct 188 -150 206 -158 228 -158 ct 
250 -158 268 -150 283 -134 ct 299 -118 306 -98 306 -76 ct 306 -53 299 -35 283 -19 ct 
268 -4 249 4 228 4 ct 207 4 189 -4 173 -19 ct p
179 -78 m  179 -56 182 -39 188 -29 ct 197 -13 211 -5 228 -5 ct 237 -5 245 -7 252 -12 ct 
260 -17 265 -23 269 -31 ct 274 -41 277 -57 277 -78 ct 277 -101 274 -117 268 -127 ct 
259 -143 245 -150 228 -150 ct 220 -150 213 -148 205 -144 ct 198 -140 192 -134 188 -127 ct 
182 -116 179 -100 179 -78 ct p ef
329 -141 m  329 -152 l  381 -156 l  381 -39 l  381 -33 381 -29 382 -25 ct 
382 -22 384 -19 385 -15 ct 387 -11 390 -8 395 -7 ct 399 -5 405 -4 412 -4 ct 425 -4 435 -9 443 -20 ct 
451 -30 455 -43 455 -59 ct 455 -121 l  455 -130 453 -136 450 -138 ct 447 -140 440 -141 427 -141 ct 
427 -152 l  479 -156 l  479 -31 l  479 -22 481 -17 484 -14 ct 487 -12 495 -11 507 -11 ct 
507 0 l  456 4 l  456 -28 l  446 -7 431 4 410 4 ct 400 4 391 3 384 0 ct 377 -3 372 -6 368 -9 ct 
365 -12 362 -17 360 -23 ct 358 -30 357 -35 357 -39 ct 357 -43 357 -48 357 -56 ct 
357 -109 l  357 -125 356 -134 353 -137 ct 351 -140 343 -141 329 -141 ct p ef
522 0 m  522 -11 l  534 -11 542 -12 545 -13 ct 548 -15 549 -19 549 -27 ct 549 -121 l 
549 -130 548 -136 545 -138 ct 542 -140 534 -141 522 -141 ct 522 -152 l  571 -156 l 
571 -117 l  574 -127 579 -136 586 -144 ct 594 -152 603 -156 614 -156 ct 622 -156 628 -154 633 -150 ct 
638 -145 640 -140 640 -134 ct 640 -129 639 -125 636 -123 ct 633 -120 629 -119 625 -119 ct 
621 -119 617 -120 615 -123 ct 612 -126 610 -129 610 -134 ct 610 -137 611 -139 612 -142 ct 
613 -144 615 -145 616 -146 ct 617 -147 618 -148 618 -148 ct 618 -148 616 -148 614 -148 ct 
601 -148 591 -142 584 -129 ct 576 -116 573 -100 573 -82 ct 573 -28 l  573 -21 574 -16 577 -14 ct 
580 -12 587 -11 600 -11 ct 607 -11 l  607 0 l  598 -1 583 -1 562 -1 ct 559 -1 556 -1 551 -1 ct 
547 -1 542 -1 536 0 ct 530 0 525 0 522 0 ct p ef
682 -19 m  667 -35 660 -54 660 -76 ct 660 -99 667 -118 682 -134 ct 697 -150 715 -158 737 -158 ct 
751 -158 764 -155 774 -148 ct 785 -141 791 -132 791 -120 ct 791 -115 789 -111 786 -108 ct 
783 -105 779 -104 774 -104 ct 769 -104 765 -105 763 -108 ct 760 -111 758 -115 758 -120 ct 
758 -122 758 -124 759 -126 ct 760 -128 762 -130 764 -133 ct 767 -135 770 -136 775 -136 ct 
766 -145 754 -149 737 -149 ct 725 -149 714 -144 704 -132 ct 694 -121 689 -103 689 -77 ct 
689 -64 691 -52 694 -42 ct 698 -32 702 -25 707 -20 ct 713 -15 718 -11 723 -8 ct 
729 -6 734 -5 739 -5 ct 762 -5 778 -17 785 -42 ct 786 -44 788 -46 790 -46 ct 793 -46 794 -44 794 -42 ct 
794 -41 794 -39 793 -36 ct 792 -33 790 -29 787 -24 ct 785 -20 781 -15 777 -11 ct 
773 -7 767 -3 760 -1 ct 753 2 745 4 736 4 ct 715 4 697 -4 682 -19 ct p ef
814 -78 m  814 -100 821 -119 835 -134 ct 849 -150 867 -158 887 -158 ct 908 -158 924 -151 934 -138 ct 
945 -125 950 -108 950 -89 ct 950 -85 950 -83 949 -83 ct 948 -82 946 -82 942 -82 ct 
843 -82 l  843 -58 847 -40 854 -29 ct 864 -13 877 -5 894 -5 ct 896 -5 899 -5 901 -6 ct 
904 -6 908 -7 914 -9 ct 919 -11 925 -15 930 -20 ct 935 -26 938 -33 941 -41 ct 942 -45 944 -46 946 -46 ct 
949 -46 950 -45 950 -42 ct 950 -40 949 -37 947 -32 ct 945 -27 942 -22 937 -17 ct 
933 -11 927 -6 919 -2 ct 910 2 901 4 892 4 ct 871 4 853 -4 837 -20 ct 822 -35 814 -55 814 -78 ct 
p
844 -89 m  927 -89 l  927 -94 927 -99 926 -105 ct 925 -110 923 -117 921 -124 ct 
919 -132 914 -138 909 -143 ct 903 -148 896 -150 887 -150 ct 884 -150 880 -150 875 -148 ct 
871 -146 867 -143 862 -140 ct 857 -136 853 -129 849 -121 ct 846 -112 844 -101 844 -89 ct 
p ef
pom
gs
29 lw 1 lj 9398 19196 m  8631 19496 l  ps
gr
gs
8398 19587 m  8714 19647 l  8590 19328 l  8398 19587 l  p ef
gr
0 10761 t 
pom
count op_count sub {pop} repeat countdictstack dict_count sub {end} repeat b4_inc_state restore
%%PageTrailer
%%Trailer
%%EOF
