%!PS-Adobe-3.0 EPSF-3.0 
%%BoundingBox: 0 0 142 147
%%Pages: 0
%%Creator: LibreOffice 6.4
%%Title: none
%%CreationDate: none
%%LanguageLevel: 2
%%EndComments
%%BeginProlog
%%BeginResource: procset SDRes-Prolog 1.0 0
/b4_inc_state save def
/dict_count countdictstack def
/op_count count 1 sub def
userdict begin
0 setgray 0 setlinecap 1 setlinewidth 0 setlinejoin 10 setmiterlimit[] 0 setdash newpath
/languagelevel where {pop languagelevel 1 ne {false setstrokeadjust false setoverprint} if} if
/bdef {bind def} bind def
/c {setrgbcolor} bdef
/l {neg lineto} bdef
/rl {neg rlineto} bdef
/lc {setlinecap} bdef
/lj {setlinejoin} bdef
/lw {setlinewidth} bdef
/ml {setmiterlimit} bdef
/ld {setdash} bdef
/m {neg moveto} bdef
/ct {6 2 roll neg 6 2 roll neg 6 2 roll neg curveto} bdef
/r {rotate} bdef
/t {neg translate} bdef
/s {scale} bdef
/sw {show} bdef
/gs {gsave} bdef
/gr {grestore} bdef
/f {findfont dup length dict begin
{1 index /FID ne {def} {pop pop} ifelse} forall /Encoding ISOLatin1Encoding def
currentdict end /NFont exch definefont pop /NFont findfont} bdef
/p {closepath} bdef
/sf {scalefont setfont} bdef
/ef {eofill}bdef
/pc {closepath stroke}bdef
/ps {stroke}bdef
/pum {matrix currentmatrix}bdef
/pom {setmatrix}bdef
/bs {/aString exch def /nXOfs exch def /nWidth exch def currentpoint nXOfs 0 rmoveto pum nWidth aString stringwidth pop div 1 scale aString show pom moveto} bdef
%%EndResource
%%EndProlog
%%BeginSetup
%%EndSetup
%%Page: 1 1
%%BeginPageSetup
%%EndPageSetup
pum
0.0284 0.02843 s 
0 -5170 t
/tm matrix currentmatrix def
tm setmatrix
-2000 -1440 t 
1 1 s 
gs
4499 5998 m  1999 5998 l  1999 1999 l  6998 1999 l  6998 5998 l  4499 5998 l 
eoclip newpath
gs
2000 2000 m 6999 2000 l 6999 5999 l 2000 5999 l 2000 2000 l eoclip newpath
1.000 0.429 0.429 c 1999 1999 m  7000 1999 l  7000 2035 l  1999 2035 l 
p ef
0.996 0.429 0.433 c 1999 2035 m  7000 2035 l  7000 2071 l  1999 2071 l 
p ef
0.992 0.433 0.437 c 1999 2071 m  7000 2071 l  7000 2107 l  1999 2107 l 
p ef
0.988 0.437 0.441 c 1999 2107 m  7000 2107 l  7000 2143 l  1999 2143 l 
p ef
0.988 0.441 0.445 c 1999 2143 m  7000 2143 l  7000 2179 l  1999 2179 l 
p ef
0.984 0.445 0.449 c 1999 2179 m  7000 2179 l  7000 2215 l  1999 2215 l 
p ef
0.980 0.445 0.453 c 1999 2215 m  7000 2215 l  7000 2251 l  1999 2251 l 
p ef
0.980 0.449 0.457 c 1999 2251 m  7000 2251 l  7000 2287 l  1999 2287 l 
p ef
0.976 0.453 0.460 c 1999 2287 m  7000 2287 l  7000 2323 l  1999 2323 l 
p ef
0.972 0.457 0.464 c 1999 2323 m  7000 2323 l  7000 2359 l  1999 2359 l 
p ef
0.972 0.460 0.468 c 1999 2359 m  7000 2359 l  7000 2395 l  1999 2395 l 
p ef
0.968 0.464 0.472 c 1999 2395 m  7000 2395 l  7000 2431 l  1999 2431 l 
p ef
0.964 0.464 0.476 c 1999 2431 m  7000 2431 l  7000 2467 l  1999 2467 l 
p ef
0.964 0.468 0.480 c 1999 2467 m  7000 2467 l  7000 2503 l  1999 2503 l 
p ef
0.960 0.472 0.484 c 1999 2503 m  7000 2503 l  7000 2539 l  1999 2539 l 
p ef
0.957 0.476 0.488 c 1999 2539 m  7000 2539 l  7000 2575 l  1999 2575 l 
p ef
0.957 0.480 0.492 c 1999 2575 m  7000 2575 l  7000 2611 l  1999 2611 l 
p ef
0.953 0.480 0.496 c 1999 2611 m  7000 2611 l  7000 2647 l  1999 2647 l 
p ef
0.949 0.484 0.500 c 1999 2647 m  7000 2647 l  7000 2684 l  1999 2684 l 
p ef
0.949 0.488 0.503 c 1999 2684 m  7000 2684 l  7000 2720 l  1999 2720 l 
p ef
0.945 0.492 0.507 c 1999 2720 m  7000 2720 l  7000 2756 l  1999 2756 l 
p ef
0.941 0.496 0.511 c 1999 2756 m  7000 2756 l  7000 2792 l  1999 2792 l 
p ef
0.941 0.500 0.515 c 1999 2792 m  7000 2792 l  7000 2828 l  1999 2828 l 
p ef
0.937 0.500 0.519 c 1999 2828 m  7000 2828 l  7000 2864 l  1999 2864 l 
p ef
0.933 0.503 0.523 c 1999 2864 m  7000 2864 l  7000 2900 l  1999 2900 l 
p ef
0.929 0.507 0.527 c 1999 2900 m  7000 2900 l  7000 2936 l  1999 2936 l 
p ef
0.929 0.511 0.531 c 1999 2936 m  7000 2936 l  7000 2972 l  1999 2972 l 
p ef
0.925 0.515 0.535 c 1999 2972 m  7000 2972 l  7000 3008 l  1999 3008 l 
p ef
0.921 0.515 0.539 c 1999 3008 m  7000 3008 l  7000 3044 l  1999 3044 l 
p ef
0.921 0.519 0.542 c 1999 3044 m  7000 3044 l  7000 3080 l  1999 3080 l 
p ef
0.917 0.523 0.546 c 1999 3080 m  7000 3080 l  7000 3116 l  1999 3116 l 
p ef
0.914 0.527 0.550 c 1999 3116 m  7000 3116 l  7000 3152 l  1999 3152 l 
p ef
0.914 0.531 0.554 c 1999 3152 m  7000 3152 l  7000 3188 l  1999 3188 l 
p ef
0.910 0.535 0.558 c 1999 3188 m  7000 3188 l  7000 3224 l  1999 3224 l 
p ef
0.906 0.535 0.562 c 1999 3224 m  7000 3224 l  7000 3260 l  1999 3260 l 
p ef
0.906 0.539 0.566 c 1999 3260 m  7000 3260 l  7000 3296 l  1999 3296 l 
p ef
0.902 0.542 0.570 c 1999 3296 m  7000 3296 l  7000 3333 l  1999 3333 l 
p ef
0.898 0.546 0.574 c 1999 3333 m  7000 3333 l  7000 3369 l  1999 3369 l 
p ef
0.898 0.550 0.578 c 1999 3369 m  7000 3369 l  7000 3405 l  1999 3405 l 
p ef
0.894 0.550 0.582 c 1999 3405 m  7000 3405 l  7000 3441 l  1999 3441 l 
p ef
0.890 0.554 0.585 c 1999 3441 m  7000 3441 l  7000 3477 l  1999 3477 l 
p ef
0.890 0.558 0.589 c 1999 3477 m  7000 3477 l  7000 3513 l  1999 3513 l 
p ef
0.886 0.562 0.593 c 1999 3513 m  7000 3513 l  7000 3549 l  1999 3549 l 
p ef
0.882 0.566 0.597 c 1999 3549 m  7000 3549 l  7000 3585 l  1999 3585 l 
p ef
0.882 0.570 0.601 c 1999 3585 m  7000 3585 l  7000 3621 l  1999 3621 l 
p ef
0.878 0.570 0.605 c 1999 3621 m  7000 3621 l  7000 3657 l  1999 3657 l 
p ef
0.875 0.574 0.609 c 1999 3657 m  7000 3657 l  7000 3693 l  1999 3693 l 
p ef
0.871 0.578 0.613 c 1999 3693 m  7000 3693 l  7000 3729 l  1999 3729 l 
p ef
0.871 0.582 0.617 c 1999 3729 m  7000 3729 l  7000 3765 l  1999 3765 l 
p ef
0.867 0.585 0.621 c 1999 3765 m  7000 3765 l  7000 3801 l  1999 3801 l 
p ef
0.863 0.585 0.625 c 1999 3801 m  7000 3801 l  7000 3837 l  1999 3837 l 
p ef
0.863 0.589 0.628 c 1999 3837 m  7000 3837 l  7000 3873 l  1999 3873 l 
p ef
0.859 0.593 0.632 c 1999 3873 m  7000 3873 l  7000 3909 l  1999 3909 l 
p ef
0.855 0.597 0.636 c 1999 3909 m  7000 3909 l  7000 3945 l  1999 3945 l 
p ef
0.855 0.601 0.640 c 1999 3945 m  7000 3945 l  7000 3981 l  1999 3981 l 
p ef
0.851 0.605 0.644 c 1999 3981 m  7000 3981 l  7000 4018 l  1999 4018 l 
p ef
0.847 0.605 0.648 c 1999 4018 m  7000 4018 l  7000 4054 l  1999 4054 l 
p ef
0.847 0.609 0.652 c 1999 4054 m  7000 4054 l  7000 4090 l  1999 4090 l 
p ef
0.843 0.613 0.656 c 1999 4090 m  7000 4090 l  7000 4126 l  1999 4126 l 
p ef
0.839 0.617 0.660 c 1999 4126 m  7000 4126 l  7000 4162 l  1999 4162 l 
p ef
0.839 0.621 0.664 c 1999 4162 m  7000 4162 l  7000 4198 l  1999 4198 l 
p ef
0.835 0.621 0.667 c 1999 4198 m  7000 4198 l  7000 4234 l  1999 4234 l 
p ef
0.832 0.625 0.671 c 1999 4234 m  7000 4234 l  7000 4270 l  1999 4270 l 
p ef
0.832 0.628 0.675 c 1999 4270 m  7000 4270 l  7000 4306 l  1999 4306 l 
p ef
0.828 0.632 0.679 c 1999 4306 m  7000 4306 l  7000 4342 l  1999 4342 l 
p ef
0.824 0.636 0.683 c 1999 4342 m  7000 4342 l  7000 4378 l  1999 4378 l 
p ef
0.824 0.640 0.687 c 1999 4378 m  7000 4378 l  7000 4414 l  1999 4414 l 
p ef
0.820 0.640 0.691 c 1999 4414 m  7000 4414 l  7000 4450 l  1999 4450 l 
p ef
0.816 0.644 0.695 c 1999 4450 m  7000 4450 l  7000 4486 l  1999 4486 l 
p ef
0.812 0.648 0.699 c 1999 4486 m  7000 4486 l  7000 4522 l  1999 4522 l 
p ef
0.812 0.652 0.703 c 1999 4522 m  7000 4522 l  7000 4558 l  1999 4558 l 
p ef
0.808 0.656 0.707 c 1999 4558 m  7000 4558 l  7000 4594 l  1999 4594 l 
p ef
0.804 0.656 0.710 c 1999 4594 m  7000 4594 l  7000 4630 l  1999 4630 l 
p ef
0.804 0.660 0.714 c 1999 4630 m  7000 4630 l  7000 4667 l  1999 4667 l 
p ef
0.800 0.664 0.718 c 1999 4667 m  7000 4667 l  7000 4703 l  1999 4703 l 
p ef
0.796 0.667 0.722 c 1999 4703 m  7000 4703 l  7000 4739 l  1999 4739 l 
p ef
0.796 0.671 0.726 c 1999 4739 m  7000 4739 l  7000 4775 l  1999 4775 l 
p ef
0.792 0.675 0.730 c 1999 4775 m  7000 4775 l  7000 4811 l  1999 4811 l 
p ef
0.789 0.675 0.734 c 1999 4811 m  7000 4811 l  7000 4847 l  1999 4847 l 
p ef
0.789 0.679 0.738 c 1999 4847 m  7000 4847 l  7000 4883 l  1999 4883 l 
p ef
0.785 0.683 0.742 c 1999 4883 m  7000 4883 l  7000 4919 l  1999 4919 l 
p ef
0.781 0.687 0.746 c 1999 4919 m  7000 4919 l  7000 4955 l  1999 4955 l 
p ef
0.781 0.691 0.750 c 1999 4955 m  7000 4955 l  7000 4991 l  1999 4991 l 
p ef
0.777 0.691 0.753 c 1999 4991 m  7000 4991 l  7000 5027 l  1999 5027 l 
p ef
0.773 0.695 0.757 c 1999 5027 m  7000 5027 l  7000 5063 l  1999 5063 l 
p ef
0.773 0.699 0.761 c 1999 5063 m  7000 5063 l  7000 5099 l  1999 5099 l 
p ef
0.769 0.703 0.765 c 1999 5099 m  7000 5099 l  7000 5135 l  1999 5135 l 
p ef
0.765 0.707 0.769 c 1999 5135 m  7000 5135 l  7000 5171 l  1999 5171 l 
p ef
0.765 0.710 0.773 c 1999 5171 m  7000 5171 l  7000 5207 l  1999 5207 l 
p ef
0.761 0.710 0.777 c 1999 5207 m  7000 5207 l  7000 5243 l  1999 5243 l 
p ef
0.757 0.714 0.781 c 1999 5243 m  7000 5243 l  7000 5279 l  1999 5279 l 
p ef
0.753 0.718 0.785 c 1999 5279 m  7000 5279 l  7000 5315 l  1999 5315 l 
p ef
0.753 0.722 0.789 c 1999 5315 m  7000 5315 l  7000 5352 l  1999 5352 l 
p ef
0.750 0.726 0.792 c 1999 5352 m  7000 5352 l  7000 5388 l  1999 5388 l 
p ef
0.746 0.726 0.796 c 1999 5388 m  7000 5388 l  7000 5424 l  1999 5424 l 
p ef
0.746 0.730 0.800 c 1999 5424 m  7000 5424 l  7000 5460 l  1999 5460 l 
p ef
0.742 0.734 0.804 c 1999 5460 m  7000 5460 l  7000 5496 l  1999 5496 l 
p ef
0.738 0.738 0.808 c 1999 5496 m  7000 5496 l  7000 5532 l  1999 5532 l 
p ef
0.738 0.742 0.812 c 1999 5532 m  7000 5532 l  7000 5568 l  1999 5568 l 
p ef
0.734 0.746 0.816 c 1999 5568 m  7000 5568 l  7000 5604 l  1999 5604 l 
p ef
0.730 0.746 0.820 c 1999 5604 m  7000 5604 l  7000 5640 l  1999 5640 l 
p ef
0.730 0.750 0.824 c 1999 5640 m  7000 5640 l  7000 5676 l  1999 5676 l 
p ef
0.726 0.753 0.828 c 1999 5676 m  7000 5676 l  7000 5712 l  1999 5712 l 
p ef
0.722 0.757 0.832 c 1999 5712 m  7000 5712 l  7000 5748 l  1999 5748 l 
p ef
0.722 0.761 0.835 c 1999 5748 m  7000 5748 l  7000 5784 l  1999 5784 l 
p ef
0.718 0.761 0.839 c 1999 5784 m  7000 5784 l  7000 5820 l  1999 5820 l 
p ef
0.714 0.765 0.843 c 1999 5820 m  7000 5820 l  7000 5856 l  1999 5856 l 
p ef
0.714 0.769 0.847 c 1999 5856 m  7000 5856 l  7000 5892 l  1999 5892 l 
p ef
0.710 0.773 0.851 c 1999 5892 m  7000 5892 l  7000 5928 l  1999 5928 l 
p ef
0.707 0.777 0.855 c 1999 5928 m  7000 5928 l  7000 5964 l  1999 5964 l 
p ef
0.707 0.781 0.863 c 1999 5964 m  7000 5964 l  7000 6001 l  1999 6001 l 
p ef
gr
gr
gs
0.503 0.503 0.503 c 4499 2000 m  2000 2000 l  2000 1500 l  6999 1500 l 
6999 2000 l  4499 2000 l  p ef
gr
gs
0.503 0.503 0.503 c 4499 6499 m  2000 6499 l  2000 5999 l  6999 5999 l 
6999 6499 l  4499 6499 l  p ef
gr
gs
0.210 0.324 0.414 c 4818 5752 m  4818 5769 4813 5786 4805 5802 ct 4796 5817 4783 5830 4768 5839 ct 
4752 5847 4735 5852 4718 5852 ct 4700 5852 4683 5847 4667 5839 ct 4652 5830 4639 5817 4630 5802 ct 
4622 5786 4617 5769 4617 5752 ct 4617 5734 4622 5717 4630 5701 ct 4639 5686 4652 5673 4667 5664 ct 
4683 5656 4700 5651 4718 5651 ct 4735 5651 4752 5656 4768 5664 ct 4783 5673 4796 5686 4805 5701 ct 
4813 5717 4818 5734 4818 5752 ct 4818 5752 l  p ef
gr
gs
0.210 0.324 0.414 c 5819 5853 m  5819 5870 5814 5887 5806 5903 ct 5797 5918 5784 5931 5769 5940 ct 
5753 5948 5736 5953 5719 5953 ct 5701 5953 5684 5948 5668 5940 ct 5653 5931 5640 5918 5631 5903 ct 
5623 5887 5618 5870 5618 5853 ct 5618 5835 5623 5818 5631 5802 ct 5640 5787 5653 5774 5668 5765 ct 
5684 5757 5701 5752 5719 5752 ct 5736 5752 5753 5757 5769 5765 ct 5784 5774 5797 5787 5806 5802 ct 
5814 5818 5819 5835 5819 5853 ct 5819 5853 l  p ef
gr
gs
0.210 0.324 0.414 c 2819 5753 m  2819 5770 2814 5787 2806 5803 ct 2797 5818 2784 5831 2769 5840 ct 
2753 5848 2736 5853 2719 5853 ct 2701 5853 2684 5848 2668 5840 ct 2653 5831 2640 5818 2631 5803 ct 
2623 5787 2618 5770 2618 5753 ct 2618 5735 2623 5718 2631 5702 ct 2640 5687 2653 5674 2668 5665 ct 
2684 5657 2701 5652 2719 5652 ct 2736 5652 2753 5657 2769 5665 ct 2784 5674 2797 5687 2806 5702 ct 
2814 5718 2819 5735 2819 5753 ct 2819 5753 l  p ef
gr
gs
0.210 0.324 0.414 c 3820 5854 m  3820 5871 3815 5888 3807 5904 ct 3798 5919 3785 5932 3770 5941 ct 
3754 5949 3737 5954 3720 5954 ct 3702 5954 3685 5949 3669 5941 ct 3654 5932 3641 5919 3632 5904 ct 
3624 5888 3619 5871 3619 5854 ct 3619 5836 3624 5819 3632 5803 ct 3641 5788 3654 5775 3669 5766 ct 
3685 5758 3702 5753 3720 5753 ct 3737 5753 3754 5758 3770 5766 ct 3785 5775 3798 5788 3807 5803 ct 
3815 5819 3820 5836 3820 5854 ct 3820 5854 l  p ef
gr
gs
0.210 0.324 0.414 c 5119 5753 m  5119 5770 5114 5787 5106 5803 ct 5097 5818 5084 5831 5069 5840 ct 
5053 5848 5036 5853 5019 5853 ct 5001 5853 4984 5848 4968 5840 ct 4953 5831 4940 5818 4931 5803 ct 
4923 5787 4918 5770 4918 5753 ct 4918 5735 4923 5718 4931 5702 ct 4940 5687 4953 5674 4968 5665 ct 
4984 5657 5001 5652 5019 5652 ct 5036 5652 5053 5657 5069 5665 ct 5084 5674 5097 5687 5106 5702 ct 
5114 5718 5119 5735 5119 5753 ct 5119 5753 l  p ef
gr
gs
0.210 0.324 0.414 c 6220 5754 m  6220 5771 6215 5788 6207 5804 ct 6198 5819 6185 5832 6170 5841 ct 
6154 5849 6137 5854 6120 5854 ct 6102 5854 6085 5849 6069 5841 ct 6054 5832 6041 5819 6032 5804 ct 
6024 5788 6019 5771 6019 5754 ct 6019 5736 6024 5719 6032 5703 ct 6041 5688 6054 5675 6069 5666 ct 
6085 5658 6102 5653 6120 5653 ct 6137 5653 6154 5658 6170 5666 ct 6185 5675 6198 5688 6207 5703 ct 
6215 5719 6220 5736 6220 5754 ct 6220 5754 l  p ef
gr
gs
0.210 0.324 0.414 c 3220 5754 m  3220 5771 3215 5788 3207 5804 ct 3198 5819 3185 5832 3170 5841 ct 
3154 5849 3137 5854 3120 5854 ct 3102 5854 3085 5849 3069 5841 ct 3054 5832 3041 5819 3032 5804 ct 
3024 5788 3019 5771 3019 5754 ct 3019 5736 3024 5719 3032 5703 ct 3041 5688 3054 5675 3069 5666 ct 
3085 5658 3102 5653 3120 5653 ct 3137 5653 3154 5658 3170 5666 ct 3185 5675 3198 5688 3207 5703 ct 
3215 5719 3220 5736 3220 5754 ct 3220 5754 l  p ef
gr
gs
0.210 0.324 0.414 c 4221 5755 m  4221 5772 4216 5789 4208 5805 ct 4199 5820 4186 5833 4171 5842 ct 
4155 5850 4138 5855 4121 5855 ct 4103 5855 4086 5850 4070 5842 ct 4055 5833 4042 5820 4033 5805 ct 
4025 5789 4020 5772 4020 5755 ct 4020 5737 4025 5720 4033 5704 ct 4042 5689 4055 5676 4070 5667 ct 
4086 5659 4103 5654 4121 5654 ct 4138 5654 4155 5659 4171 5667 ct 4186 5676 4199 5689 4208 5704 ct 
4216 5720 4221 5737 4221 5755 ct 4221 5755 l  p ef
gr
gs
0.210 0.324 0.414 c 5520 5754 m  5520 5771 5515 5788 5507 5804 ct 5498 5819 5485 5832 5470 5841 ct 
5454 5849 5437 5854 5420 5854 ct 5402 5854 5385 5849 5369 5841 ct 5354 5832 5341 5819 5332 5804 ct 
5324 5788 5319 5771 5319 5754 ct 5319 5736 5324 5719 5332 5703 ct 5341 5688 5354 5675 5369 5666 ct 
5385 5658 5402 5653 5420 5653 ct 5437 5653 5454 5658 5470 5666 ct 5485 5675 5498 5688 5507 5703 ct 
5515 5719 5520 5736 5520 5754 ct 5520 5754 l  p ef
gr
gs
0.210 0.324 0.414 c 3521 5655 m  3521 5672 3516 5689 3508 5705 ct 3499 5720 3486 5733 3471 5742 ct 
3455 5750 3438 5755 3421 5755 ct 3403 5755 3386 5750 3370 5742 ct 3355 5733 3342 5720 3333 5705 ct 
3325 5689 3320 5672 3320 5655 ct 3320 5637 3325 5620 3333 5604 ct 3342 5589 3355 5576 3370 5567 ct 
3386 5559 3403 5554 3421 5554 ct 3438 5554 3455 5559 3471 5567 ct 3486 5576 3499 5589 3508 5604 ct 
3516 5620 3521 5637 3521 5655 ct 3521 5655 l  p ef
gr
gs
0.210 0.324 0.414 c 4519 5853 m  4519 5870 4514 5887 4506 5903 ct 4497 5918 4484 5931 4469 5940 ct 
4453 5948 4436 5953 4418 5953 ct 4401 5953 4384 5948 4368 5940 ct 4353 5931 4340 5918 4331 5903 ct 
4323 5887 4318 5870 4318 5853 ct 4318 5835 4323 5818 4331 5802 ct 4340 5787 4353 5774 4368 5765 ct 
4384 5757 4401 5752 4418 5752 ct 4436 5752 4453 5757 4469 5765 ct 4484 5774 4497 5787 4506 5802 ct 
4514 5818 4519 5835 4519 5853 ct 4519 5853 l  p ef
gr
gs
0.210 0.324 0.414 c 6020 5554 m  6020 5571 6015 5588 6007 5604 ct 5998 5619 5985 5632 5970 5641 ct 
5954 5649 5937 5654 5920 5654 ct 5902 5654 5885 5649 5869 5641 ct 5854 5632 5841 5619 5832 5604 ct 
5824 5588 5819 5571 5819 5554 ct 5819 5536 5824 5519 5832 5503 ct 5841 5488 5854 5475 5869 5466 ct 
5885 5458 5902 5453 5920 5453 ct 5937 5453 5954 5458 5970 5466 ct 5985 5475 5998 5488 6007 5503 ct 
6015 5519 6020 5536 6020 5554 ct 6020 5554 l  p ef
gr
gs
0.210 0.324 0.414 c 6521 5555 m  6521 5572 6516 5589 6508 5605 ct 6499 5620 6486 5633 6471 5642 ct 
6455 5650 6438 5655 6421 5655 ct 6403 5655 6386 5650 6370 5642 ct 6355 5633 6342 5620 6333 5605 ct 
6325 5589 6320 5572 6320 5555 ct 6320 5537 6325 5520 6333 5504 ct 6342 5489 6355 5476 6370 5467 ct 
6386 5459 6403 5454 6421 5454 ct 6438 5454 6455 5459 6471 5467 ct 6486 5476 6499 5489 6508 5504 ct 
6516 5520 6521 5537 6521 5555 ct 6521 5555 l  p ef
gr
gs
0.210 0.324 0.414 c 6522 5856 m  6522 5873 6517 5890 6509 5906 ct 6500 5921 6487 5934 6472 5943 ct 
6456 5951 6439 5956 6422 5956 ct 6404 5956 6387 5951 6371 5943 ct 6356 5934 6343 5921 6334 5906 ct 
6326 5890 6321 5873 6321 5856 ct 6321 5838 6326 5821 6334 5805 ct 6343 5790 6356 5777 6371 5768 ct 
6387 5760 6404 5755 6422 5755 ct 6439 5755 6456 5760 6472 5768 ct 6487 5777 6500 5790 6509 5805 ct 
6517 5821 6522 5838 6522 5856 ct 6522 5856 l  p ef
gr
gs
0.210 0.324 0.414 c 6823 5757 m  6823 5774 6818 5791 6810 5807 ct 6801 5822 6788 5835 6773 5844 ct 
6757 5852 6740 5857 6723 5857 ct 6705 5857 6688 5852 6672 5844 ct 6657 5835 6644 5822 6635 5807 ct 
6627 5791 6622 5774 6622 5757 ct 6622 5739 6627 5722 6635 5706 ct 6644 5691 6657 5678 6672 5669 ct 
6688 5661 6705 5656 6723 5656 ct 6740 5656 6757 5661 6773 5669 ct 6788 5678 6801 5691 6810 5706 ct 
6818 5722 6823 5739 6823 5757 ct 6823 5757 l  p ef
gr
gs
0.210 0.324 0.414 c 6824 5458 m  6824 5475 6819 5492 6811 5508 ct 6802 5523 6789 5536 6774 5545 ct 
6758 5553 6741 5558 6724 5558 ct 6706 5558 6689 5553 6673 5545 ct 6658 5536 6645 5523 6636 5508 ct 
6628 5492 6623 5475 6623 5458 ct 6623 5440 6628 5423 6636 5407 ct 6645 5392 6658 5379 6673 5370 ct 
6689 5362 6706 5357 6724 5357 ct 6741 5357 6758 5362 6774 5370 ct 6789 5379 6802 5392 6811 5407 ct 
6819 5423 6824 5440 6824 5458 ct 6824 5458 l  p ef
gr
gs
0.210 0.324 0.414 c 2326 5859 m  2326 5876 2321 5893 2313 5909 ct 2304 5924 2291 5937 2276 5946 ct 
2260 5954 2243 5959 2226 5959 ct 2208 5959 2191 5954 2175 5946 ct 2160 5937 2147 5924 2138 5909 ct 
2130 5893 2125 5876 2125 5859 ct 2125 5841 2130 5824 2138 5808 ct 2147 5793 2160 5780 2175 5771 ct 
2191 5763 2208 5758 2226 5758 ct 2243 5758 2260 5763 2276 5771 ct 2291 5780 2304 5793 2313 5808 ct 
2321 5824 2326 5841 2326 5859 ct 2326 5859 l  p ef
gr
gs
0.210 0.324 0.414 c 2525 5660 m  2525 5677 2520 5694 2512 5710 ct 2503 5725 2491 5738 2476 5747 ct 
2460 5755 2443 5760 2426 5760 ct 2408 5760 2391 5755 2375 5747 ct 2360 5738 2347 5725 2338 5710 ct 
2330 5694 2325 5677 2325 5660 ct 2325 5642 2330 5625 2338 5609 ct 2347 5594 2360 5581 2375 5572 ct 
2391 5564 2408 5559 2426 5559 ct 2443 5559 2460 5564 2476 5572 ct 2491 5581 2503 5594 2512 5609 ct 
2520 5625 2525 5642 2525 5660 ct 2525 5660 l  p ef
gr
gs
0.210 0.324 0.414 c 2227 5561 m  2227 5578 2222 5595 2214 5611 ct 2205 5626 2192 5639 2177 5648 ct 
2161 5656 2144 5661 2127 5661 ct 2109 5661 2092 5656 2076 5648 ct 2061 5639 2048 5626 2039 5611 ct 
2031 5595 2026 5578 2026 5561 ct 2026 5543 2031 5526 2039 5510 ct 2048 5495 2061 5482 2076 5473 ct 
2092 5465 2109 5460 2127 5460 ct 2144 5460 2161 5465 2177 5473 ct 2192 5482 2205 5495 2214 5510 ct 
2222 5526 2227 5543 2227 5561 ct 2227 5561 l  p ef
gr
gs
0.210 0.324 0.414 c 3027 5562 m  3027 5579 3022 5596 3014 5612 ct 3005 5627 2992 5640 2977 5649 ct 
2961 5657 2944 5662 2927 5662 ct 2909 5662 2892 5657 2876 5649 ct 2861 5640 2848 5627 2839 5612 ct 
2831 5596 2826 5579 2826 5562 ct 2826 5544 2831 5527 2839 5511 ct 2848 5496 2861 5483 2876 5474 ct 
2892 5466 2909 5461 2927 5461 ct 2944 5461 2961 5466 2977 5474 ct 2992 5483 3005 5496 3014 5511 ct 
3022 5527 3027 5544 3027 5562 ct 3027 5562 l  p ef
gr
gs
0.210 0.324 0.414 c 3928 5563 m  3928 5580 3923 5597 3915 5613 ct 3906 5628 3893 5641 3878 5650 ct 
3862 5658 3845 5663 3828 5663 ct 3810 5663 3793 5658 3777 5650 ct 3762 5641 3749 5628 3740 5613 ct 
3732 5597 3727 5580 3727 5563 ct 3727 5545 3732 5528 3740 5512 ct 3749 5497 3762 5484 3777 5475 ct 
3793 5467 3810 5462 3828 5462 ct 3845 5462 3862 5467 3878 5475 ct 3893 5484 3906 5497 3915 5512 ct 
3923 5528 3928 5545 3928 5563 ct 3928 5563 l  p ef
gr
gs
0.210 0.324 0.414 c 4228 5462 m  4228 5480 4223 5497 4215 5513 ct 4206 5528 4193 5541 4178 5550 ct 
4162 5558 4145 5563 4128 5563 ct 4110 5563 4093 5558 4077 5550 ct 4062 5541 4049 5528 4040 5513 ct 
4032 5497 4027 5480 4027 5462 ct 4027 5445 4032 5428 4040 5412 ct 4049 5397 4062 5384 4077 5375 ct 
4093 5367 4110 5362 4128 5362 ct 4145 5362 4162 5367 4178 5375 ct 4193 5384 4206 5397 4215 5412 ct 
4223 5428 4228 5445 4228 5462 ct 4228 5462 l  p ef
gr
gs
0.210 0.324 0.414 c 4629 5563 m  4629 5580 4624 5597 4616 5613 ct 4607 5628 4594 5641 4579 5650 ct 
4563 5658 4546 5663 4529 5663 ct 4511 5663 4494 5658 4478 5650 ct 4463 5641 4450 5628 4441 5613 ct 
4433 5597 4428 5580 4428 5563 ct 4428 5545 4433 5528 4441 5512 ct 4450 5497 4463 5484 4478 5475 ct 
4494 5467 4511 5462 4529 5462 ct 4546 5462 4563 5467 4579 5475 ct 4594 5484 4607 5497 4616 5512 ct 
4624 5528 4629 5545 4629 5563 ct 4629 5563 l  p ef
gr
gs
0.210 0.324 0.414 c 3818 5152 m  3818 5169 3813 5186 3805 5202 ct 3796 5217 3783 5230 3768 5239 ct 
3752 5247 3735 5252 3718 5252 ct 3700 5252 3683 5247 3667 5239 ct 3652 5230 3639 5217 3630 5202 ct 
3622 5186 3617 5169 3617 5152 ct 3617 5134 3622 5117 3630 5101 ct 3639 5086 3652 5073 3667 5064 ct 
3683 5056 3700 5051 3718 5051 ct 3735 5051 3752 5056 3768 5064 ct 3783 5073 3796 5086 3805 5101 ct 
3813 5117 3818 5134 3818 5152 ct 3818 5152 l  p ef
gr
gs
0.210 0.324 0.414 c 5319 5353 m  5319 5370 5314 5387 5306 5403 ct 5297 5418 5284 5431 5269 5440 ct 
5253 5448 5236 5453 5219 5453 ct 5201 5453 5184 5448 5168 5440 ct 5153 5431 5140 5418 5131 5403 ct 
5123 5387 5118 5370 5118 5353 ct 5118 5335 5123 5318 5131 5302 ct 5140 5287 5153 5274 5168 5265 ct 
5184 5257 5201 5252 5219 5252 ct 5236 5252 5253 5257 5269 5265 ct 5284 5274 5297 5287 5306 5302 ct 
5314 5318 5319 5335 5319 5353 ct 5319 5353 l  p ef
gr
gs
0.210 0.324 0.414 c 2420 5253 m  2420 5270 2415 5287 2407 5303 ct 2398 5318 2385 5331 2370 5340 ct 
2354 5348 2337 5353 2319 5353 ct 2302 5353 2285 5348 2269 5340 ct 2254 5331 2241 5318 2232 5303 ct 
2224 5287 2219 5270 2219 5253 ct 2219 5235 2224 5218 2232 5202 ct 2241 5187 2254 5174 2269 5165 ct 
2285 5157 2302 5152 2319 5152 ct 2337 5152 2354 5157 2370 5165 ct 2385 5174 2398 5187 2407 5202 ct 
2415 5218 2420 5235 2420 5253 ct 2420 5253 l  p ef
gr
gs
0.210 0.324 0.414 c 3120 5054 m  3120 5071 3115 5088 3107 5104 ct 3098 5119 3085 5132 3070 5141 ct 
3054 5149 3037 5154 3020 5154 ct 3002 5154 2985 5149 2969 5141 ct 2954 5132 2941 5119 2932 5104 ct 
2924 5088 2919 5071 2919 5054 ct 2919 5036 2924 5019 2932 5003 ct 2941 4988 2954 4975 2969 4966 ct 
2985 4958 3002 4953 3020 4953 ct 3037 4953 3054 4958 3070 4966 ct 3085 4975 3098 4988 3107 5003 ct 
3115 5019 3120 5036 3120 5054 ct 3120 5054 l  p ef
gr
gs
0.210 0.324 0.414 c 4319 5153 m  4319 5170 4314 5187 4306 5203 ct 4297 5218 4284 5231 4269 5240 ct 
4253 5248 4236 5253 4218 5253 ct 4201 5253 4184 5248 4168 5240 ct 4153 5231 4140 5218 4131 5203 ct 
4123 5187 4118 5170 4118 5153 ct 4118 5135 4123 5118 4131 5102 ct 4140 5087 4153 5074 4168 5065 ct 
4184 5057 4201 5052 4218 5052 ct 4236 5052 4253 5057 4269 5065 ct 4284 5074 4297 5087 4306 5102 ct 
4314 5118 4319 5135 4319 5153 ct 4319 5153 l  p ef
gr
gs
0.210 0.324 0.414 c 5720 5154 m  5720 5171 5715 5188 5707 5204 ct 5698 5219 5685 5232 5670 5241 ct 
5654 5249 5637 5254 5620 5254 ct 5602 5254 5585 5249 5569 5241 ct 5554 5232 5541 5219 5532 5204 ct 
5524 5188 5519 5171 5519 5154 ct 5519 5136 5524 5119 5532 5103 ct 5541 5088 5554 5075 5569 5066 ct 
5585 5058 5602 5053 5620 5053 ct 5637 5053 5654 5058 5670 5066 ct 5685 5075 5698 5088 5707 5103 ct 
5715 5119 5720 5136 5720 5154 ct 5720 5154 l  p ef
gr
gs
0.210 0.324 0.414 c 2820 5354 m  2820 5371 2815 5388 2807 5404 ct 2798 5419 2785 5432 2770 5441 ct 
2754 5449 2737 5454 2720 5454 ct 2702 5454 2685 5449 2669 5441 ct 2654 5432 2641 5419 2632 5404 ct 
2624 5388 2619 5371 2619 5354 ct 2619 5336 2624 5319 2632 5303 ct 2641 5288 2654 5275 2669 5266 ct 
2685 5258 2702 5253 2720 5253 ct 2737 5253 2754 5258 2770 5266 ct 2785 5275 2798 5288 2807 5303 ct 
2815 5319 2820 5336 2820 5354 ct 2820 5354 l  p ef
gr
gs
0.210 0.324 0.414 c 3421 5255 m  3421 5272 3416 5289 3408 5305 ct 3399 5320 3386 5333 3371 5342 ct 
3355 5350 3338 5355 3321 5355 ct 3303 5355 3286 5350 3270 5342 ct 3255 5333 3242 5320 3233 5305 ct 
3225 5289 3220 5272 3220 5255 ct 3220 5237 3225 5220 3233 5204 ct 3242 5189 3255 5176 3270 5167 ct 
3286 5159 3303 5154 3321 5154 ct 3338 5154 3355 5159 3371 5167 ct 3386 5176 3399 5189 3408 5204 ct 
3416 5220 3421 5237 3421 5255 ct 3421 5255 l  p ef
gr
gs
0.210 0.324 0.414 c 4717 4452 m  4717 4469 4712 4486 4704 4502 ct 4695 4517 4682 4530 4667 4539 ct 
4651 4547 4634 4552 4617 4552 ct 4599 4552 4582 4547 4566 4539 ct 4551 4530 4538 4517 4529 4502 ct 
4521 4486 4516 4469 4516 4452 ct 4516 4434 4521 4417 4529 4401 ct 4538 4386 4551 4373 4566 4364 ct 
4582 4356 4599 4351 4617 4351 ct 4634 4351 4651 4356 4667 4364 ct 4682 4373 4695 4386 4704 4401 ct 
4712 4417 4717 4434 4717 4452 ct 4717 4452 l  p ef
gr
gs
0.210 0.324 0.414 c 6418 4453 m  6418 4470 6413 4487 6405 4503 ct 6396 4518 6383 4531 6368 4540 ct 
6352 4548 6335 4553 6318 4553 ct 6300 4553 6283 4548 6267 4540 ct 6252 4531 6239 4518 6230 4503 ct 
6222 4487 6217 4470 6217 4453 ct 6217 4435 6222 4418 6230 4402 ct 6239 4387 6252 4374 6267 4365 ct 
6283 4357 6300 4352 6318 4352 ct 6335 4352 6352 4357 6368 4365 ct 6383 4374 6396 4387 6405 4402 ct 
6413 4418 6418 4435 6418 4453 ct 6418 4453 l  p ef
gr
gs
0.210 0.324 0.414 c 3218 4653 m  3218 4670 3213 4687 3205 4703 ct 3196 4718 3183 4731 3168 4740 ct 
3152 4748 3135 4753 3118 4753 ct 3100 4753 3083 4748 3067 4740 ct 3052 4731 3039 4718 3030 4703 ct 
3022 4687 3017 4670 3017 4653 ct 3017 4635 3022 4618 3030 4602 ct 3039 4587 3052 4574 3067 4565 ct 
3083 4557 3100 4552 3118 4552 ct 3135 4552 3152 4557 3168 4565 ct 3183 4574 3196 4587 3205 4602 ct 
3213 4618 3218 4635 3218 4653 ct 3218 4653 l  p ef
gr
gs
0.210 0.324 0.414 c 4119 4754 m  4119 4771 4114 4788 4106 4804 ct 4097 4819 4084 4832 4069 4841 ct 
4053 4849 4036 4854 4018 4854 ct 4001 4854 3984 4849 3968 4841 ct 3953 4832 3940 4819 3931 4804 ct 
3923 4788 3918 4771 3918 4754 ct 3918 4736 3923 4719 3931 4703 ct 3940 4688 3953 4675 3968 4666 ct 
3984 4658 4001 4653 4018 4653 ct 4036 4653 4053 4658 4069 4666 ct 4084 4675 4097 4688 4106 4703 ct 
4114 4719 4119 4736 4119 4754 ct 4119 4754 l  p ef
gr
gs
0.210 0.324 0.414 c 5717 3953 m  5717 3970 5712 3987 5704 4003 ct 5695 4018 5682 4031 5667 4040 ct 
5651 4048 5634 4053 5617 4053 ct 5599 4053 5582 4048 5566 4040 ct 5551 4031 5538 4018 5529 4003 ct 
5521 3987 5516 3970 5516 3953 ct 5516 3935 5521 3918 5529 3902 ct 5538 3887 5551 3874 5566 3865 ct 
5582 3857 5599 3852 5617 3852 ct 5634 3852 5651 3857 5667 3865 ct 5682 3874 5695 3887 5704 3902 ct 
5712 3918 5717 3935 5717 3953 ct 5717 3953 l  p ef
gr
gs
0.210 0.324 0.414 c 3718 3954 m  3718 3971 3713 3988 3705 4004 ct 3696 4019 3683 4032 3668 4041 ct 
3652 4049 3635 4054 3618 4054 ct 3600 4054 3583 4049 3567 4041 ct 3552 4032 3539 4019 3530 4004 ct 
3522 3988 3517 3971 3517 3954 ct 3517 3936 3522 3919 3530 3903 ct 3539 3888 3552 3875 3567 3866 ct 
3583 3858 3600 3853 3618 3853 ct 3635 3853 3652 3858 3668 3866 ct 3683 3875 3696 3888 3705 3903 ct 
3713 3919 3718 3936 3718 3954 ct 3718 3954 l  p ef
gr
gs
0.210 0.324 0.414 c 4719 3955 m  4719 3972 4714 3989 4706 4005 ct 4697 4020 4684 4033 4669 4042 ct 
4653 4050 4636 4055 4618 4055 ct 4601 4055 4584 4050 4568 4042 ct 4553 4033 4540 4020 4531 4005 ct 
4523 3989 4518 3972 4518 3955 ct 4518 3937 4523 3920 4531 3904 ct 4540 3889 4553 3876 4568 3867 ct 
4584 3859 4601 3854 4618 3854 ct 4636 3854 4653 3859 4669 3867 ct 4684 3876 4697 3889 4706 3904 ct 
4714 3920 4719 3937 4719 3955 ct 4719 3955 l  p ef
gr
gs
0.210 0.324 0.414 c 5717 4756 m  5717 4773 5712 4790 5704 4806 ct 5695 4821 5682 4834 5667 4843 ct 
5651 4851 5634 4856 5617 4856 ct 5599 4856 5582 4851 5566 4843 ct 5551 4834 5538 4821 5529 4806 ct 
5521 4790 5516 4773 5516 4756 ct 5516 4738 5521 4721 5529 4705 ct 5538 4690 5551 4677 5566 4668 ct 
5582 4660 5599 4655 5617 4655 ct 5634 4655 5651 4660 5667 4668 ct 5682 4677 5695 4690 5704 4705 ct 
5712 4721 5717 4738 5717 4756 ct 5717 4756 l  p ef
gr
gs
0.210 0.324 0.414 c 6718 4757 m  6718 4774 6713 4791 6705 4807 ct 6696 4822 6683 4835 6668 4844 ct 
6652 4852 6635 4857 6618 4857 ct 6600 4857 6583 4852 6567 4844 ct 6552 4835 6539 4822 6530 4807 ct 
6522 4791 6517 4774 6517 4757 ct 6517 4739 6522 4722 6530 4706 ct 6539 4691 6552 4678 6567 4669 ct 
6583 4661 6600 4656 6618 4656 ct 6635 4656 6652 4661 6668 4669 ct 6683 4678 6696 4691 6705 4706 ct 
6713 4722 6718 4739 6718 4757 ct 6718 4757 l  p ef
gr
gs
0.210 0.324 0.414 c 3718 4757 m  3718 4774 3713 4791 3705 4807 ct 3696 4822 3683 4835 3668 4844 ct 
3652 4852 3635 4857 3618 4857 ct 3600 4857 3583 4852 3567 4844 ct 3552 4835 3539 4822 3530 4807 ct 
3522 4791 3517 4774 3517 4757 ct 3517 4739 3522 4722 3530 4706 ct 3539 4691 3552 4678 3567 4669 ct 
3583 4661 3600 4656 3618 4656 ct 3635 4656 3652 4661 3668 4669 ct 3683 4678 3696 4691 3705 4706 ct 
3713 4722 3718 4739 3718 4757 ct 3718 4757 l  p ef
gr
gs
0.210 0.324 0.414 c 4919 5158 m  4919 5175 4914 5192 4906 5208 ct 4897 5223 4884 5236 4869 5245 ct 
4853 5253 4836 5258 4818 5258 ct 4801 5258 4784 5253 4768 5245 ct 4753 5236 4740 5223 4731 5208 ct 
4723 5192 4718 5175 4718 5158 ct 4718 5140 4723 5123 4731 5107 ct 4740 5092 4753 5079 4768 5070 ct 
4784 5062 4801 5057 4818 5057 ct 4836 5057 4853 5062 4869 5070 ct 4884 5079 4897 5092 4906 5107 ct 
4914 5123 4919 5140 4919 5158 ct 4919 5158 l  p ef
gr
gs
0.210 0.324 0.414 c 4618 4853 m  4618 4870 4613 4887 4605 4903 ct 4596 4918 4583 4931 4568 4940 ct 
4552 4948 4535 4953 4518 4953 ct 4500 4953 4483 4948 4467 4940 ct 4452 4931 4439 4918 4430 4903 ct 
4422 4887 4417 4870 4417 4853 ct 4417 4835 4422 4818 4430 4802 ct 4439 4787 4452 4774 4467 4765 ct 
4483 4757 4500 4752 4518 4752 ct 4535 4752 4552 4757 4568 4765 ct 4583 4774 4596 4787 4605 4802 ct 
4613 4818 4618 4835 4618 4853 ct 4618 4853 l  p ef
gr
gs
0.210 0.324 0.414 c 5019 4854 m  5019 4871 5014 4888 5006 4904 ct 4997 4919 4984 4932 4969 4941 ct 
4953 4949 4936 4954 4919 4954 ct 4901 4954 4884 4949 4868 4941 ct 4853 4932 4840 4919 4831 4904 ct 
4823 4888 4818 4871 4818 4854 ct 4818 4836 4823 4819 4831 4803 ct 4840 4788 4853 4775 4868 4766 ct 
4884 4758 4901 4753 4919 4753 ct 4936 4753 4953 4758 4969 4766 ct 4984 4775 4997 4788 5006 4803 ct 
5014 4819 5019 4836 5019 4854 ct 5019 4854 l  p ef
gr
gs
0.210 0.324 0.414 c 5420 4954 m  5420 4971 5415 4988 5407 5004 ct 5398 5019 5385 5032 5370 5041 ct 
5354 5049 5337 5054 5320 5054 ct 5302 5054 5285 5049 5269 5041 ct 5254 5032 5241 5019 5232 5004 ct 
5224 4988 5219 4971 5219 4954 ct 5219 4936 5224 4919 5232 4903 ct 5241 4888 5254 4875 5269 4866 ct 
5285 4858 5302 4853 5320 4853 ct 5337 4853 5354 4858 5370 4866 ct 5385 4875 5398 4888 5407 4903 ct 
5415 4919 5420 4936 5420 4954 ct 5420 4954 l  p ef
gr
gs
0.210 0.324 0.414 c 5421 4354 m  5421 4371 5416 4388 5408 4404 ct 5399 4419 5386 4432 5371 4441 ct 
5355 4449 5338 4454 5321 4454 ct 5303 4454 5286 4449 5270 4441 ct 5255 4432 5242 4419 5233 4404 ct 
5225 4388 5220 4371 5220 4354 ct 5220 4336 5225 4319 5233 4303 ct 5242 4288 5255 4275 5270 4266 ct 
5286 4258 5303 4253 5321 4253 ct 5338 4253 5355 4258 5371 4266 ct 5386 4275 5399 4288 5408 4303 ct 
5416 4319 5421 4336 5421 4354 ct 5421 4354 l  p ef
gr
gs
0.210 0.324 0.414 c 6023 4955 m  6023 4972 6018 4989 6010 5005 ct 6001 5020 5988 5033 5973 5042 ct 
5957 5050 5940 5055 5923 5055 ct 5905 5055 5888 5050 5872 5042 ct 5857 5033 5844 5020 5835 5005 ct 
5827 4989 5822 4972 5822 4955 ct 5822 4937 5827 4920 5835 4904 ct 5844 4889 5857 4876 5872 4867 ct 
5888 4859 5905 4854 5923 4854 ct 5940 4854 5957 4859 5973 4867 ct 5988 4876 6001 4889 6010 4904 ct 
6018 4920 6023 4937 6023 4955 ct 6023 4955 l  p ef
gr
gs
0.210 0.324 0.414 c 6223 5256 m  6223 5273 6218 5290 6210 5306 ct 6201 5321 6188 5334 6173 5343 ct 
6157 5351 6140 5356 6123 5356 ct 6105 5356 6088 5351 6072 5343 ct 6057 5334 6044 5321 6035 5306 ct 
6027 5290 6022 5273 6022 5256 ct 6022 5238 6027 5221 6035 5205 ct 6044 5190 6057 5177 6072 5168 ct 
6088 5160 6105 5155 6123 5155 ct 6140 5155 6157 5160 6173 5168 ct 6188 5177 6201 5190 6210 5205 ct 
6218 5221 6223 5238 6223 5256 ct 6223 5256 l  p ef
gr
gs
0.210 0.324 0.414 c 6624 5157 m  6624 5174 6619 5191 6611 5207 ct 6602 5222 6589 5235 6574 5244 ct 
6558 5252 6541 5257 6524 5257 ct 6506 5257 6489 5252 6473 5244 ct 6458 5235 6445 5222 6436 5207 ct 
6428 5191 6423 5174 6423 5157 ct 6423 5139 6428 5122 6436 5106 ct 6445 5091 6458 5078 6473 5069 ct 
6489 5061 6506 5056 6524 5056 ct 6541 5056 6558 5061 6574 5069 ct 6589 5078 6602 5091 6611 5106 ct 
6619 5122 6624 5139 6624 5157 ct 6624 5157 l  p ef
gr
gs
0.210 0.324 0.414 c 6925 5058 m  6925 5075 6920 5092 6912 5108 ct 6903 5123 6890 5136 6875 5145 ct 
6859 5153 6842 5158 6825 5158 ct 6807 5158 6790 5153 6774 5145 ct 6759 5136 6746 5123 6737 5108 ct 
6729 5092 6724 5075 6724 5058 ct 6724 5040 6729 5023 6737 5007 ct 6746 4992 6759 4979 6774 4970 ct 
6790 4962 6807 4957 6825 4957 ct 6842 4957 6859 4962 6875 4970 ct 6890 4979 6903 4992 6912 5007 ct 
6920 5023 6925 5040 6925 5058 ct 6925 5058 l  p ef
gr
gs
0.210 0.324 0.414 c 6326 4879 m  6326 4896 6321 4913 6313 4929 ct 6304 4944 6291 4957 6276 4966 ct 
6260 4974 6243 4979 6225 4979 ct 6208 4979 6191 4974 6175 4966 ct 6160 4957 6147 4944 6138 4929 ct 
6130 4913 6125 4896 6125 4879 ct 6125 4861 6130 4844 6138 4828 ct 6147 4813 6160 4800 6175 4791 ct 
6191 4783 6208 4778 6225 4778 ct 6243 4778 6260 4783 6276 4791 ct 6291 4800 6304 4813 6313 4828 ct 
6321 4844 6326 4861 6326 4879 ct 6326 4879 l  p ef
gr
gs
0.210 0.324 0.414 c 5818 3253 m  5818 3271 5813 3288 5805 3304 ct 5796 3319 5783 3332 5768 3341 ct 
5752 3349 5735 3354 5718 3354 ct 5700 3354 5683 3349 5667 3341 ct 5652 3332 5639 3319 5630 3304 ct 
5622 3288 5617 3271 5617 3253 ct 5617 3236 5622 3219 5630 3203 ct 5639 3188 5652 3175 5667 3166 ct 
5683 3158 5700 3153 5718 3153 ct 5735 3153 5752 3158 5768 3166 ct 5783 3175 5796 3188 5805 3203 ct 
5813 3219 5818 3236 5818 3253 ct 5818 3253 l  p ef
gr
gs
0.210 0.324 0.414 c 5119 3254 m  5119 3272 5114 3289 5106 3305 ct 5097 3320 5084 3333 5069 3342 ct 
5053 3350 5036 3355 5019 3355 ct 5001 3355 4984 3350 4968 3342 ct 4953 3333 4940 3320 4931 3305 ct 
4923 3289 4918 3272 4918 3254 ct 4918 3237 4923 3220 4931 3204 ct 4940 3189 4953 3176 4968 3167 ct 
4984 3159 5001 3154 5019 3154 ct 5036 3154 5053 3159 5069 3167 ct 5084 3176 5097 3189 5106 3204 ct 
5114 3220 5119 3237 5119 3254 ct 5119 3254 l  p ef
gr
gs
0.210 0.324 0.414 c 5320 3655 m  5320 3673 5315 3690 5307 3706 ct 5298 3721 5285 3734 5270 3743 ct 
5254 3751 5237 3756 5219 3756 ct 5202 3756 5185 3751 5169 3743 ct 5154 3734 5141 3721 5132 3706 ct 
5124 3690 5119 3673 5119 3655 ct 5119 3638 5124 3621 5132 3605 ct 5141 3590 5154 3577 5169 3568 ct 
5185 3560 5202 3555 5219 3555 ct 5237 3555 5254 3560 5270 3568 ct 5285 3577 5298 3590 5307 3605 ct 
5315 3621 5320 3638 5320 3655 ct 5320 3655 l  p ef
gr
gs
0.210 0.324 0.414 c 4321 3656 m  4321 3674 4316 3691 4308 3707 ct 4299 3722 4286 3735 4271 3744 ct 
4255 3752 4238 3757 4221 3757 ct 4203 3757 4186 3752 4170 3744 ct 4155 3735 4142 3722 4133 3707 ct 
4125 3691 4120 3674 4120 3656 ct 4120 3639 4125 3622 4133 3606 ct 4142 3591 4155 3578 4170 3569 ct 
4186 3561 4203 3556 4221 3556 ct 4238 3556 4255 3561 4271 3569 ct 4286 3578 4299 3591 4308 3606 ct 
4316 3622 4321 3639 4321 3656 ct 4321 3656 l  p ef
gr
gs
0.210 0.324 0.414 c 4122 3257 m  4122 3275 4117 3292 4109 3308 ct 4100 3323 4087 3336 4072 3345 ct 
4056 3353 4039 3358 4022 3358 ct 4004 3358 3987 3353 3971 3345 ct 3956 3336 3943 3323 3934 3308 ct 
3926 3292 3921 3275 3921 3257 ct 3921 3240 3926 3223 3934 3207 ct 3943 3192 3956 3179 3971 3170 ct 
3987 3162 4004 3157 4022 3157 ct 4039 3157 4056 3162 4072 3170 ct 4087 3179 4100 3192 4109 3207 ct 
4117 3223 4122 3240 4122 3257 ct 4122 3257 l  p ef
gr
gs
0.210 0.324 0.414 c 4723 3059 m  4723 3076 4718 3093 4710 3109 ct 4701 3124 4688 3137 4673 3146 ct 
4657 3154 4640 3159 4623 3159 ct 4605 3159 4588 3154 4572 3146 ct 4557 3137 4544 3124 4535 3109 ct 
4527 3093 4522 3076 4522 3059 ct 4522 3041 4527 3024 4535 3008 ct 4544 2993 4557 2980 4572 2971 ct 
4588 2963 4605 2958 4623 2958 ct 4640 2958 4657 2963 4673 2971 ct 4688 2980 4701 2993 4710 3008 ct 
4718 3024 4723 3041 4723 3059 ct 4723 3059 l  p ef
gr
gs
0.210 0.324 0.414 c 4624 2460 m  4624 2478 4619 2495 4611 2511 ct 4602 2526 4589 2539 4574 2548 ct 
4558 2556 4541 2561 4524 2561 ct 4506 2561 4489 2556 4473 2548 ct 4458 2539 4445 2526 4436 2511 ct 
4428 2495 4423 2478 4423 2460 ct 4423 2443 4428 2426 4436 2410 ct 4445 2395 4458 2382 4473 2373 ct 
4489 2365 4506 2360 4524 2360 ct 4541 2360 4558 2365 4574 2373 ct 4589 2382 4602 2395 4611 2410 ct 
4619 2426 4624 2443 4624 2460 ct 4624 2460 l  p ef
gr
gs
0.210 0.324 0.414 c 2525 2560 m  2525 2578 2520 2594 2512 2610 ct 2503 2625 2491 2638 2476 2647 ct 
2460 2655 2443 2660 2426 2660 ct 2408 2660 2391 2655 2375 2647 ct 2360 2638 2347 2625 2338 2610 ct 
2330 2594 2325 2578 2325 2560 ct 2325 2543 2330 2526 2338 2510 ct 2347 2495 2360 2482 2375 2473 ct 
2391 2465 2408 2460 2426 2460 ct 2443 2460 2460 2465 2476 2473 ct 2491 2482 2503 2495 2512 2510 ct 
2520 2526 2525 2543 2525 2560 ct 2525 2560 l  p ef
gr
gs
0.210 0.324 0.414 c 3528 4263 m  3528 4280 3523 4297 3515 4313 ct 3506 4328 3493 4341 3478 4350 ct 
3462 4358 3445 4363 3428 4363 ct 3410 4363 3393 4358 3377 4350 ct 3362 4341 3349 4328 3340 4313 ct 
3332 4297 3327 4280 3327 4263 ct 3327 4245 3332 4228 3340 4212 ct 3349 4197 3362 4184 3377 4175 ct 
3393 4167 3410 4162 3428 4162 ct 3445 4162 3462 4167 3478 4175 ct 3493 4184 3506 4197 3515 4212 ct 
3523 4228 3528 4245 3528 4263 ct 3528 4263 l  p ef
gr
gs
0.210 0.324 0.414 c 4228 4163 m  4228 4180 4223 4197 4215 4213 ct 4206 4228 4193 4241 4178 4250 ct 
4162 4258 4145 4263 4128 4263 ct 4110 4263 4093 4258 4077 4250 ct 4062 4241 4049 4228 4040 4213 ct 
4032 4197 4027 4180 4027 4163 ct 4027 4145 4032 4128 4040 4112 ct 4049 4097 4062 4084 4077 4075 ct 
4093 4067 4110 4062 4128 4062 ct 4145 4062 4162 4067 4178 4075 ct 4193 4084 4206 4097 4215 4112 ct 
4223 4128 4228 4145 4228 4163 ct 4228 4163 l  p ef
gr
gs
0.210 0.324 0.414 c 3328 3564 m  3328 3581 3323 3598 3315 3614 ct 3306 3629 3293 3642 3278 3651 ct 
3262 3659 3245 3664 3228 3664 ct 3210 3664 3193 3659 3177 3651 ct 3162 3642 3149 3629 3140 3614 ct 
3132 3598 3127 3581 3127 3564 ct 3127 3546 3132 3529 3140 3513 ct 3149 3498 3162 3485 3177 3476 ct 
3193 3468 3210 3463 3228 3463 ct 3245 3463 3262 3468 3278 3476 ct 3293 3485 3306 3498 3315 3513 ct 
3323 3529 3328 3546 3328 3564 ct 3328 3564 l  p ef
gr
gs
0.210 0.324 0.414 c 2629 3765 m  2629 3782 2624 3799 2616 3815 ct 2607 3830 2594 3843 2579 3852 ct 
2563 3860 2546 3865 2529 3865 ct 2511 3865 2495 3860 2479 3852 ct 2464 3843 2451 3830 2442 3815 ct 
2434 3799 2429 3782 2429 3765 ct 2429 3747 2434 3730 2442 3714 ct 2451 3699 2464 3686 2479 3677 ct 
2495 3669 2511 3664 2529 3664 ct 2546 3664 2563 3669 2579 3677 ct 2594 3686 2607 3699 2616 3714 ct 
2624 3730 2629 3747 2629 3765 ct 2629 3765 l  p ef
gr
gs
0.210 0.324 0.414 c 2311 3466 m  2311 3483 2306 3500 2298 3516 ct 2289 3531 2276 3544 2261 3553 ct 
2245 3561 2228 3566 2211 3566 ct 2193 3566 2176 3561 2160 3553 ct 2145 3544 2132 3531 2123 3516 ct 
2115 3500 2110 3483 2110 3466 ct 2110 3448 2115 3431 2123 3415 ct 2132 3400 2145 3387 2160 3378 ct 
2176 3370 2193 3365 2211 3365 ct 2228 3365 2245 3370 2261 3378 ct 2276 3387 2289 3400 2298 3415 ct 
2306 3431 2311 3448 2311 3466 ct 2311 3466 l  p ef
gr
gs
0.210 0.324 0.414 c 2931 3067 m  2931 3084 2926 3101 2918 3117 ct 2909 3132 2896 3145 2881 3154 ct 
2865 3162 2848 3167 2831 3167 ct 2813 3167 2796 3162 2780 3154 ct 2765 3145 2752 3132 2743 3117 ct 
2735 3101 2730 3084 2730 3067 ct 2730 3049 2735 3032 2743 3016 ct 2752 3001 2765 2988 2780 2979 ct 
2796 2971 2813 2966 2831 2966 ct 2848 2966 2865 2971 2881 2979 ct 2896 2988 2909 3001 2918 3016 ct 
2926 3032 2931 3049 2931 3067 ct 2931 3067 l  p ef
gr
gs
0.210 0.324 0.414 c 3632 2768 m  3632 2785 3627 2802 3619 2818 ct 3610 2833 3597 2846 3582 2855 ct 
3566 2863 3549 2868 3532 2868 ct 3514 2868 3497 2863 3481 2855 ct 3466 2846 3453 2833 3444 2818 ct 
3436 2802 3431 2785 3431 2768 ct 3431 2750 3436 2733 3444 2717 ct 3453 2702 3466 2689 3481 2680 ct 
3497 2672 3514 2667 3532 2667 ct 3549 2667 3566 2672 3582 2680 ct 3597 2689 3610 2702 3619 2717 ct 
3627 2733 3632 2750 3632 2768 ct 3632 2768 l  p ef
gr
gs
0.210 0.324 0.414 c 6433 2769 m  6433 2786 6428 2803 6420 2819 ct 6411 2834 6398 2847 6383 2856 ct 
6367 2864 6350 2869 6333 2869 ct 6315 2869 6298 2864 6282 2856 ct 6267 2847 6254 2834 6245 2819 ct 
6237 2803 6232 2786 6232 2769 ct 6232 2751 6237 2734 6245 2718 ct 6254 2703 6267 2690 6282 2681 ct 
6298 2673 6315 2668 6333 2668 ct 6350 2668 6367 2673 6383 2681 ct 6398 2690 6411 2703 6420 2718 ct 
6428 2734 6433 2751 6433 2769 ct 6433 2769 l  p ef
gr
gs
0.210 0.324 0.414 c 5734 2471 m  5734 2488 5729 2505 5721 2521 ct 5712 2536 5699 2549 5684 2558 ct 
5668 2566 5651 2571 5634 2571 ct 5616 2571 5599 2566 5583 2558 ct 5568 2549 5555 2536 5546 2521 ct 
5538 2505 5533 2488 5533 2471 ct 5533 2453 5538 2436 5546 2420 ct 5555 2405 5568 2392 5583 2383 ct 
5599 2375 5616 2370 5634 2370 ct 5651 2370 5668 2375 5684 2383 ct 5699 2392 5712 2405 5721 2420 ct 
5729 2436 5734 2453 5734 2471 ct 5734 2471 l  p ef
gr
gs
0.210 0.324 0.414 c 5029 5462 m  5029 5480 5024 5497 5016 5513 ct 5007 5528 4994 5541 4979 5550 ct 
4963 5558 4946 5563 4929 5563 ct 4911 5563 4894 5558 4878 5550 ct 4863 5541 4850 5528 4841 5513 ct 
4833 5497 4828 5480 4828 5462 ct 4828 5445 4833 5428 4841 5412 ct 4850 5397 4863 5384 4878 5375 ct 
4894 5367 4911 5362 4929 5362 ct 4946 5362 4963 5367 4979 5375 ct 4994 5384 5007 5397 5016 5412 ct 
5024 5428 5029 5445 5029 5462 ct 5029 5462 l  p ef
gr
gs
0.210 0.324 0.414 c 5620 5454 m  5620 5471 5615 5488 5607 5504 ct 5598 5519 5585 5532 5570 5541 ct 
5554 5549 5537 5554 5520 5554 ct 5502 5554 5485 5549 5469 5541 ct 5454 5532 5441 5519 5432 5504 ct 
5424 5488 5419 5471 5419 5454 ct 5419 5436 5424 5419 5432 5403 ct 5441 5388 5454 5375 5469 5366 ct 
5485 5358 5502 5353 5520 5353 ct 5537 5353 5554 5358 5570 5366 ct 5585 5375 5598 5388 5607 5403 ct 
5615 5419 5620 5436 5620 5454 ct 5620 5454 l  p ef
gr
pum
4245 1896 t
1.000 1.000 1.000 c 11 0 m  11 -11 l  24 -11 31 -12 34 -13 ct 37 -15 39 -19 39 -27 ct 
39 -210 l  39 -219 37 -225 34 -227 ct 31 -229 24 -230 11 -230 ct 11 -241 l  62 -245 l 
62 -122 l  62 -122 l  66 -131 72 -138 81 -145 ct 89 -152 100 -156 113 -156 ct 
131 -156 143 -152 150 -143 ct 156 -137 159 -131 160 -124 ct 161 -118 161 -106 161 -89 ct 
161 -22 l  162 -17 164 -14 167 -13 ct 171 -11 178 -11 189 -11 ct 189 0 l  165 -1 152 -1 149 -1 ct 
147 -1 134 -1 109 0 ct 109 -11 l  122 -11 130 -12 133 -13 ct 135 -15 137 -19 137 -27 ct 
137 -109 l  137 -121 135 -131 131 -138 ct 128 -145 121 -148 111 -148 ct 99 -148 88 -143 78 -133 ct 
68 -123 63 -109 63 -92 ct 63 -27 l  63 -19 65 -15 68 -13 ct 71 -12 78 -11 91 -11 ct 
91 0 l  67 -1 54 -1 51 -1 ct 49 -1 36 -1 11 0 ct p ef
228 -19 m  213 -34 205 -53 205 -76 ct 205 -98 212 -117 228 -134 ct 243 -150 261 -158 283 -158 ct 
305 -158 323 -150 338 -134 ct 354 -118 361 -98 361 -76 ct 361 -53 354 -35 338 -19 ct 
323 -4 304 4 283 4 ct 262 4 244 -4 228 -19 ct p
234 -78 m  234 -56 237 -39 243 -29 ct 252 -13 266 -5 283 -5 ct 292 -5 300 -7 307 -12 ct 
315 -17 320 -23 324 -31 ct 329 -41 332 -57 332 -78 ct 332 -101 329 -117 323 -127 ct 
314 -143 300 -150 283 -150 ct 275 -150 268 -148 260 -144 ct 253 -140 247 -134 243 -127 ct 
237 -116 234 -100 234 -78 ct p ef
380 -141 m  380 -149 l  391 -149 400 -153 407 -161 ct 414 -169 419 -177 421 -187 ct 
424 -196 425 -206 425 -217 ct 434 -217 l  434 -152 l  485 -152 l  485 -141 l 
434 -141 l  434 -43 l  434 -18 442 -5 458 -5 ct 465 -5 470 -8 475 -15 ct 479 -22 481 -32 481 -44 ct 
481 -64 l  490 -64 l  490 -44 l  490 -31 487 -20 481 -10 ct 475 -1 467 4 455 4 ct 
451 4 447 3 443 2 ct 438 1 433 -1 428 -4 ct 423 -6 418 -11 415 -18 ct 411 -25 410 -34 410 -44 ct 
410 -141 l  p ef
pom
pum
4186 6395 t
34 -19 m  19 -35 12 -54 12 -76 ct 12 -99 19 -118 34 -134 ct 49 -150 67 -158 89 -158 ct 
103 -158 116 -155 126 -148 ct 137 -141 143 -132 143 -120 ct 143 -115 141 -111 138 -108 ct 
135 -105 131 -104 126 -104 ct 121 -104 117 -105 115 -108 ct 112 -111 110 -115 110 -120 ct 
110 -122 110 -124 111 -126 ct 112 -128 114 -130 116 -133 ct 119 -135 122 -136 127 -136 ct 
118 -145 106 -149 89 -149 ct 77 -149 66 -144 56 -132 ct 46 -121 41 -103 41 -77 ct 
41 -64 43 -52 46 -42 ct 50 -32 54 -25 59 -20 ct 65 -15 70 -11 75 -8 ct 81 -6 86 -5 91 -5 ct 
114 -5 130 -17 137 -42 ct 138 -44 140 -46 142 -46 ct 145 -46 146 -44 146 -42 ct 
146 -41 146 -39 145 -36 ct 144 -33 142 -29 139 -24 ct 137 -20 133 -15 129 -11 ct 
125 -7 119 -3 112 -1 ct 105 2 97 4 88 4 ct 67 4 49 -4 34 -19 ct p ef
190 -19 m  175 -34 167 -53 167 -76 ct 167 -98 174 -117 190 -134 ct 205 -150 223 -158 245 -158 ct 
267 -158 285 -150 300 -134 ct 316 -118 323 -98 323 -76 ct 323 -53 316 -35 300 -19 ct 
285 -4 266 4 245 4 ct 224 4 206 -4 190 -19 ct p
196 -78 m  196 -56 199 -39 205 -29 ct 214 -13 228 -5 245 -5 ct 254 -5 262 -7 269 -12 ct 
277 -17 282 -23 286 -31 ct 291 -41 294 -57 294 -78 ct 294 -101 291 -117 285 -127 ct 
276 -143 262 -150 245 -150 ct 237 -150 230 -148 222 -144 ct 215 -140 209 -134 205 -127 ct 
199 -116 196 -100 196 -78 ct p ef
346 0 m  346 -11 l  358 -11 366 -12 369 -13 ct 372 -15 373 -19 373 -27 ct 373 -210 l 
373 -219 372 -225 369 -227 ct 366 -229 358 -230 346 -230 ct 346 -241 l  396 -245 l 
396 -27 l  396 -19 398 -15 401 -13 ct 404 -12 412 -11 424 -11 ct 424 0 l  421 0 417 0 411 0 ct 
405 -1 400 -1 395 -1 ct 391 -1 387 -1 385 -1 ct 382 -1 369 -1 346 0 ct p ef
444 -76 m  444 -98 452 -117 467 -133 ct 483 -148 502 -156 523 -156 ct 541 -156 555 -149 567 -134 ct 
567 -210 l  567 -219 566 -225 563 -227 ct 560 -229 552 -230 540 -230 ct 540 -241 l 
590 -245 l  590 -31 l  590 -22 592 -17 595 -14 ct 598 -12 606 -11 618 -11 ct 
618 0 l  566 4 l  566 -19 l  554 -4 538 4 519 4 ct 499 4 481 -4 466 -19 ct 451 -35 444 -54 444 -76 ct 
p
473 -76 m  473 -54 477 -37 484 -26 ct 493 -11 505 -4 521 -4 ct 538 -4 552 -12 562 -29 ct 
565 -33 566 -37 566 -42 ct 566 -114 l  566 -119 565 -123 562 -127 ct 553 -141 540 -148 524 -148 ct 
508 -148 494 -141 484 -126 ct 477 -114 473 -98 473 -76 ct p ef
pom
gs
2344 3219 m  2344 4239 l  2100 4239 l  2689 4778 l  3280 4239 l  3035 4239 l 
3035 3219 l  2344 3219 l  p ef
gr
gs
2315 3705 m 3067 3705 l 3067 4120 l 2315 4120 l 2315 3705 l eoclip newpath
pum
2427 4042 t
0.003 0.003 0.003 c 139 32 m  0 -281 l  297 -281 l  p
154 -39 m  268 -263 l  54 -263 l  p ef
pom
pum
2786 4042 t
39 -54 m  39 -80 48 -103 67 -124 ct 85 -145 105 -155 127 -155 ct 138 -155 147 -152 154 -147 ct 
161 -141 165 -134 165 -125 ct 165 -119 163 -114 160 -110 ct 156 -106 152 -104 147 -104 ct 
143 -104 140 -105 138 -107 ct 136 -109 135 -112 135 -115 ct 135 -116 135 -116 135 -117 ct 
135 -118 136 -119 136 -121 ct 137 -123 138 -124 139 -126 ct 140 -127 142 -128 144 -130 ct 
147 -131 149 -132 153 -132 ct 149 -142 141 -147 128 -147 ct 120 -147 111 -144 103 -138 ct 
95 -132 88 -124 82 -112 ct 77 -104 73 -92 69 -77 ct 65 -62 63 -49 63 -40 ct 63 -29 66 -21 70 -14 ct 
75 -7 82 -4 91 -4 ct 95 -4 99 -4 104 -5 ct 109 -6 117 -9 127 -15 ct 137 -21 146 -28 154 -38 ct 
156 -41 158 -42 159 -42 ct 160 -42 161 -41 163 -40 ct 164 -39 164 -37 164 -37 ct 
164 -34 161 -30 156 -24 ct 150 -18 141 -12 129 -5 ct 117 1 104 4 90 4 ct 75 4 62 -1 53 -12 ct 
43 -23 39 -37 39 -54 ct p ef
pom
gr
gs
5976 4778 m  5976 3758 l  5732 3758 l  6322 3219 l  6913 3758 l  6668 3758 l 
6668 4778 l  5976 4778 l  p ef
gr
gs
5889 3695 m 6761 3695 l 6761 4110 l 5889 4110 l 5889 3695 l eoclip newpath
pum
6001 4032 t
0.003 0.003 0.003 c 139 32 m  0 -281 l  297 -281 l  p
154 -39 m  268 -263 l  54 -263 l  p ef
pom
pum
6361 4032 t
61 -163 m  61 -163 62 -165 63 -168 ct 84 -231 l  85 -234 86 -236 87 -237 ct 
88 -237 90 -238 94 -238 ct 274 -238 l  276 -238 278 -238 279 -237 ct 280 -237 281 -237 282 -236 ct 
282 -236 283 -235 283 -233 ct 283 -231 283 -230 283 -229 ct 272 -166 l  272 -163 271 -161 270 -160 ct 
270 -159 268 -159 266 -159 ct 262 -159 260 -160 260 -163 ct 260 -164 261 -166 261 -168 ct 
263 -182 265 -193 265 -200 ct 265 -211 262 -218 256 -222 ct 250 -225 238 -227 220 -227 ct 
210 -227 204 -227 202 -226 ct 198 -226 195 -222 194 -214 ct 147 -26 l  146 -22 145 -20 145 -19 ct 
145 -16 146 -15 147 -14 ct 149 -13 152 -12 157 -12 ct 157 -12 158 -12 160 -11 ct 
163 -11 165 -11 168 -11 ct 171 -11 173 -11 174 -11 ct 180 -11 l  186 -11 188 -10 188 -7 ct 
188 -2 186 0 181 0 ct 175 0 166 0 154 -1 ct 141 -1 132 -1 126 -1 ct 120 -1 111 -1 99 -1 ct 
87 0 78 0 72 0 ct 68 0 66 -1 66 -4 ct 66 -7 66 -9 68 -10 ct 69 -11 72 -11 75 -11 ct 
81 -11 l  96 -11 105 -12 110 -14 ct 114 -16 117 -20 118 -27 ct 165 -215 l  166 -218 167 -221 167 -223 ct 
167 -224 167 -225 166 -225 ct 166 -225 165 -226 164 -226 ct 163 -227 161 -227 159 -227 ct 
147 -227 l  124 -227 108 -223 100 -217 ct 92 -210 83 -194 75 -170 ct 73 -164 71 -160 71 -160 ct 
70 -159 69 -159 67 -159 ct 63 -159 61 -160 61 -163 ct p ef
pom
gr
gs
0.210 0.324 0.414 c 2420 4854 m  2420 4871 2415 4888 2407 4904 ct 2398 4919 2385 4932 2370 4941 ct 
2354 4949 2337 4954 2319 4954 ct 2302 4954 2285 4949 2269 4941 ct 2254 4932 2241 4919 2232 4904 ct 
2224 4888 2219 4871 2219 4854 ct 2219 4836 2224 4819 2232 4803 ct 2241 4788 2254 4775 2269 4766 ct 
2285 4758 2302 4753 2319 4753 ct 2337 4753 2354 4758 2370 4766 ct 2385 4775 2398 4788 2407 4803 ct 
2415 4819 2420 4836 2420 4854 ct 2420 4854 l  p ef
gr
gs
0.210 0.324 0.414 c 2720 5055 m  2720 5072 2715 5089 2707 5105 ct 2698 5120 2685 5133 2670 5142 ct 
2654 5150 2637 5155 2619 5155 ct 2602 5155 2585 5150 2569 5142 ct 2554 5133 2541 5120 2532 5105 ct 
2524 5089 2519 5072 2519 5055 ct 2519 5037 2524 5020 2532 5004 ct 2541 4989 2554 4976 2569 4967 ct 
2585 4959 2602 4954 2619 4954 ct 2637 4954 2654 4959 2670 4967 ct 2685 4976 2698 4989 2707 5004 ct 
2715 5020 2720 5037 2720 5055 ct 2720 5055 l  p ef
gr
0 5170 t 
pom
count op_count sub {pop} repeat countdictstack dict_count sub {end} repeat b4_inc_state restore
%%PageTrailer
%%Trailer
%%EOF
