%!PS-Adobe-3.0 EPSF-3.0 
%%BoundingBox: 0 0 142 147
%%Pages: 0
%%Creator: LibreOffice 6.4
%%Title: none
%%CreationDate: none
%%LanguageLevel: 2
%%EndComments
%%BeginProlog
%%BeginResource: procset SDRes-Prolog 1.0 0
/b4_inc_state save def
/dict_count countdictstack def
/op_count count 1 sub def
userdict begin
0 setgray 0 setlinecap 1 setlinewidth 0 setlinejoin 10 setmiterlimit[] 0 setdash newpath
/languagelevel where {pop languagelevel 1 ne {false setstrokeadjust false setoverprint} if} if
/bdef {bind def} bind def
/c {setrgbcolor} bdef
/l {neg lineto} bdef
/rl {neg rlineto} bdef
/lc {setlinecap} bdef
/lj {setlinejoin} bdef
/lw {setlinewidth} bdef
/ml {setmiterlimit} bdef
/ld {setdash} bdef
/m {neg moveto} bdef
/ct {6 2 roll neg 6 2 roll neg 6 2 roll neg curveto} bdef
/r {rotate} bdef
/t {neg translate} bdef
/s {scale} bdef
/sw {show} bdef
/gs {gsave} bdef
/gr {grestore} bdef
/f {findfont dup length dict begin
{1 index /FID ne {def} {pop pop} ifelse} forall /Encoding ISOLatin1Encoding def
currentdict end /NFont exch definefont pop /NFont findfont} bdef
/p {closepath} bdef
/sf {scalefont setfont} bdef
/ef {eofill}bdef
/pc {closepath stroke}bdef
/ps {stroke}bdef
/pum {matrix currentmatrix}bdef
/pom {setmatrix}bdef
/bs {/aString exch def /nXOfs exch def /nWidth exch def currentpoint nXOfs 0 rmoveto pum nWidth aString stringwidth pop div 1 scale aString show pom moveto} bdef
%%EndResource
%%EndProlog
%%BeginSetup
%%EndSetup
%%Page: 1 1
%%BeginPageSetup
%%EndPageSetup
pum
0.0284 0.02843 s 
0 -5170 t
/tm matrix currentmatrix def
tm setmatrix
-13997 -7948 t 
1 1 s 
gs
16496 12507 m  13997 12507 l  13997 8508 l  18996 8508 l  18996 12507 l 
16496 12507 l  eoclip newpath
gs
13997 8508 m 18996 8508 l 18996 12508 l 13997 12508 l 13997 8508 l eoclip newpath
0.707 0.781 0.863 c 13996 8507 m  18997 8507 l  18997 8543 l  13996 8543 l 
p ef
0.707 0.777 0.855 c 13996 8543 m  18997 8543 l  18997 8579 l  13996 8579 l 
p ef
0.710 0.773 0.851 c 13996 8579 m  18997 8579 l  18997 8615 l  13996 8615 l 
p ef
0.714 0.769 0.847 c 13996 8615 m  18997 8615 l  18997 8651 l  13996 8651 l 
p ef
0.714 0.765 0.843 c 13996 8651 m  18997 8651 l  18997 8687 l  13996 8687 l 
p ef
0.718 0.761 0.839 c 13996 8687 m  18997 8687 l  18997 8723 l  13996 8723 l 
p ef
0.722 0.761 0.835 c 13996 8723 m  18997 8723 l  18997 8759 l  13996 8759 l 
p ef
0.722 0.757 0.832 c 13996 8759 m  18997 8759 l  18997 8795 l  13996 8795 l 
p ef
0.726 0.753 0.828 c 13996 8795 m  18997 8795 l  18997 8831 l  13996 8831 l 
p ef
0.730 0.750 0.824 c 13996 8831 m  18997 8831 l  18997 8867 l  13996 8867 l 
p ef
0.730 0.746 0.820 c 13996 8867 m  18997 8867 l  18997 8903 l  13996 8903 l 
p ef
0.734 0.746 0.816 c 13996 8903 m  18997 8903 l  18997 8939 l  13996 8939 l 
p ef
0.738 0.742 0.812 c 13996 8939 m  18997 8939 l  18997 8975 l  13996 8975 l 
p ef
0.738 0.738 0.808 c 13996 8975 m  18997 8975 l  18997 9011 l  13996 9011 l 
p ef
0.742 0.734 0.804 c 13996 9011 m  18997 9011 l  18997 9047 l  13996 9047 l 
p ef
0.746 0.730 0.800 c 13996 9047 m  18997 9047 l  18997 9084 l  13996 9084 l 
p ef
0.746 0.726 0.796 c 13996 9084 m  18997 9084 l  18997 9120 l  13996 9120 l 
p ef
0.750 0.726 0.792 c 13996 9120 m  18997 9120 l  18997 9156 l  13996 9156 l 
p ef
0.753 0.722 0.789 c 13996 9156 m  18997 9156 l  18997 9192 l  13996 9192 l 
p ef
0.753 0.718 0.785 c 13996 9192 m  18997 9192 l  18997 9228 l  13996 9228 l 
p ef
0.757 0.714 0.781 c 13996 9228 m  18997 9228 l  18997 9264 l  13996 9264 l 
p ef
0.761 0.710 0.777 c 13996 9264 m  18997 9264 l  18997 9300 l  13996 9300 l 
p ef
0.765 0.710 0.773 c 13996 9300 m  18997 9300 l  18997 9336 l  13996 9336 l 
p ef
0.765 0.707 0.769 c 13996 9336 m  18997 9336 l  18997 9372 l  13996 9372 l 
p ef
0.769 0.703 0.765 c 13996 9372 m  18997 9372 l  18997 9408 l  13996 9408 l 
p ef
0.773 0.699 0.761 c 13996 9408 m  18997 9408 l  18997 9444 l  13996 9444 l 
p ef
0.773 0.695 0.757 c 13996 9444 m  18997 9444 l  18997 9480 l  13996 9480 l 
p ef
0.777 0.691 0.753 c 13996 9480 m  18997 9480 l  18997 9516 l  13996 9516 l 
p ef
0.781 0.691 0.750 c 13996 9516 m  18997 9516 l  18997 9552 l  13996 9552 l 
p ef
0.781 0.687 0.746 c 13996 9552 m  18997 9552 l  18997 9588 l  13996 9588 l 
p ef
0.785 0.683 0.742 c 13996 9588 m  18997 9588 l  18997 9624 l  13996 9624 l 
p ef
0.789 0.679 0.738 c 13996 9624 m  18997 9624 l  18997 9661 l  13996 9661 l 
p ef
0.789 0.675 0.734 c 13996 9661 m  18997 9661 l  18997 9697 l  13996 9697 l 
p ef
0.792 0.671 0.730 c 13996 9697 m  18997 9697 l  18997 9733 l  13996 9733 l 
p ef
0.796 0.671 0.726 c 13996 9733 m  18997 9733 l  18997 9769 l  13996 9769 l 
p ef
0.796 0.667 0.722 c 13996 9769 m  18997 9769 l  18997 9805 l  13996 9805 l 
p ef
0.800 0.664 0.718 c 13996 9805 m  18997 9805 l  18997 9841 l  13996 9841 l 
p ef
0.804 0.660 0.714 c 13996 9841 m  18997 9841 l  18997 9877 l  13996 9877 l 
p ef
0.804 0.656 0.710 c 13996 9877 m  18997 9877 l  18997 9913 l  13996 9913 l 
p ef
0.808 0.656 0.707 c 13996 9913 m  18997 9913 l  18997 9949 l  13996 9949 l 
p ef
0.812 0.652 0.703 c 13996 9949 m  18997 9949 l  18997 9985 l  13996 9985 l 
p ef
0.812 0.648 0.699 c 13996 9985 m  18997 9985 l  18997 10021 l  13996 10021 l 
p ef
0.816 0.644 0.695 c 13996 10021 m  18997 10021 l  18997 10057 l  13996 10057 l 
p ef
0.820 0.640 0.691 c 13996 10057 m  18997 10057 l  18997 10093 l  13996 10093 l 
p ef
0.824 0.640 0.687 c 13996 10093 m  18997 10093 l  18997 10129 l  13996 10129 l 
p ef
0.824 0.636 0.683 c 13996 10129 m  18997 10129 l  18997 10165 l  13996 10165 l 
p ef
0.828 0.632 0.679 c 13996 10165 m  18997 10165 l  18997 10201 l  13996 10201 l 
p ef
0.832 0.628 0.675 c 13996 10201 m  18997 10201 l  18997 10238 l  13996 10238 l 
p ef
0.832 0.625 0.671 c 13996 10238 m  18997 10238 l  18997 10274 l  13996 10274 l 
p ef
0.835 0.621 0.667 c 13996 10274 m  18997 10274 l  18997 10310 l  13996 10310 l 
p ef
0.839 0.621 0.664 c 13996 10310 m  18997 10310 l  18997 10346 l  13996 10346 l 
p ef
0.839 0.617 0.660 c 13996 10346 m  18997 10346 l  18997 10382 l  13996 10382 l 
p ef
0.843 0.613 0.656 c 13996 10382 m  18997 10382 l  18997 10418 l  13996 10418 l 
p ef
0.847 0.609 0.652 c 13996 10418 m  18997 10418 l  18997 10454 l  13996 10454 l 
p ef
0.847 0.605 0.648 c 13996 10454 m  18997 10454 l  18997 10490 l  13996 10490 l 
p ef
0.851 0.605 0.644 c 13996 10490 m  18997 10490 l  18997 10526 l  13996 10526 l 
p ef
0.855 0.601 0.640 c 13996 10526 m  18997 10526 l  18997 10562 l  13996 10562 l 
p ef
0.855 0.597 0.636 c 13996 10562 m  18997 10562 l  18997 10598 l  13996 10598 l 
p ef
0.859 0.593 0.632 c 13996 10598 m  18997 10598 l  18997 10634 l  13996 10634 l 
p ef
0.863 0.589 0.628 c 13996 10634 m  18997 10634 l  18997 10670 l  13996 10670 l 
p ef
0.863 0.585 0.625 c 13996 10670 m  18997 10670 l  18997 10706 l  13996 10706 l 
p ef
0.867 0.585 0.621 c 13996 10706 m  18997 10706 l  18997 10742 l  13996 10742 l 
p ef
0.871 0.582 0.617 c 13996 10742 m  18997 10742 l  18997 10778 l  13996 10778 l 
p ef
0.871 0.578 0.613 c 13996 10778 m  18997 10778 l  18997 10815 l  13996 10815 l 
p ef
0.875 0.574 0.609 c 13996 10815 m  18997 10815 l  18997 10851 l  13996 10851 l 
p ef
0.878 0.570 0.605 c 13996 10851 m  18997 10851 l  18997 10887 l  13996 10887 l 
p ef
0.882 0.570 0.601 c 13996 10887 m  18997 10887 l  18997 10923 l  13996 10923 l 
p ef
0.882 0.566 0.597 c 13996 10923 m  18997 10923 l  18997 10959 l  13996 10959 l 
p ef
0.886 0.562 0.593 c 13996 10959 m  18997 10959 l  18997 10995 l  13996 10995 l 
p ef
0.890 0.558 0.589 c 13996 10995 m  18997 10995 l  18997 11031 l  13996 11031 l 
p ef
0.890 0.554 0.585 c 13996 11031 m  18997 11031 l  18997 11067 l  13996 11067 l 
p ef
0.894 0.550 0.582 c 13996 11067 m  18997 11067 l  18997 11103 l  13996 11103 l 
p ef
0.898 0.550 0.578 c 13996 11103 m  18997 11103 l  18997 11139 l  13996 11139 l 
p ef
0.898 0.546 0.574 c 13996 11139 m  18997 11139 l  18997 11175 l  13996 11175 l 
p ef
0.902 0.542 0.570 c 13996 11175 m  18997 11175 l  18997 11211 l  13996 11211 l 
p ef
0.906 0.539 0.566 c 13996 11211 m  18997 11211 l  18997 11247 l  13996 11247 l 
p ef
0.906 0.535 0.562 c 13996 11247 m  18997 11247 l  18997 11283 l  13996 11283 l 
p ef
0.910 0.535 0.558 c 13996 11283 m  18997 11283 l  18997 11319 l  13996 11319 l 
p ef
0.914 0.531 0.554 c 13996 11319 m  18997 11319 l  18997 11355 l  13996 11355 l 
p ef
0.914 0.527 0.550 c 13996 11355 m  18997 11355 l  18997 11392 l  13996 11392 l 
p ef
0.917 0.523 0.546 c 13996 11392 m  18997 11392 l  18997 11428 l  13996 11428 l 
p ef
0.921 0.519 0.542 c 13996 11428 m  18997 11428 l  18997 11464 l  13996 11464 l 
p ef
0.921 0.515 0.539 c 13996 11464 m  18997 11464 l  18997 11500 l  13996 11500 l 
p ef
0.925 0.515 0.535 c 13996 11500 m  18997 11500 l  18997 11536 l  13996 11536 l 
p ef
0.929 0.511 0.531 c 13996 11536 m  18997 11536 l  18997 11572 l  13996 11572 l 
p ef
0.929 0.507 0.527 c 13996 11572 m  18997 11572 l  18997 11608 l  13996 11608 l 
p ef
0.933 0.503 0.523 c 13996 11608 m  18997 11608 l  18997 11644 l  13996 11644 l 
p ef
0.937 0.500 0.519 c 13996 11644 m  18997 11644 l  18997 11680 l  13996 11680 l 
p ef
0.941 0.500 0.515 c 13996 11680 m  18997 11680 l  18997 11716 l  13996 11716 l 
p ef
0.941 0.496 0.511 c 13996 11716 m  18997 11716 l  18997 11752 l  13996 11752 l 
p ef
0.945 0.492 0.507 c 13996 11752 m  18997 11752 l  18997 11788 l  13996 11788 l 
p ef
0.949 0.488 0.503 c 13996 11788 m  18997 11788 l  18997 11824 l  13996 11824 l 
p ef
0.949 0.484 0.500 c 13996 11824 m  18997 11824 l  18997 11860 l  13996 11860 l 
p ef
0.953 0.480 0.496 c 13996 11860 m  18997 11860 l  18997 11896 l  13996 11896 l 
p ef
0.957 0.480 0.492 c 13996 11896 m  18997 11896 l  18997 11932 l  13996 11932 l 
p ef
0.957 0.476 0.488 c 13996 11932 m  18997 11932 l  18997 11969 l  13996 11969 l 
p ef
0.960 0.472 0.484 c 13996 11969 m  18997 11969 l  18997 12005 l  13996 12005 l 
p ef
0.964 0.468 0.480 c 13996 12005 m  18997 12005 l  18997 12041 l  13996 12041 l 
p ef
0.964 0.464 0.476 c 13996 12041 m  18997 12041 l  18997 12077 l  13996 12077 l 
p ef
0.968 0.464 0.472 c 13996 12077 m  18997 12077 l  18997 12113 l  13996 12113 l 
p ef
0.972 0.460 0.468 c 13996 12113 m  18997 12113 l  18997 12149 l  13996 12149 l 
p ef
0.972 0.457 0.464 c 13996 12149 m  18997 12149 l  18997 12185 l  13996 12185 l 
p ef
0.976 0.453 0.460 c 13996 12185 m  18997 12185 l  18997 12221 l  13996 12221 l 
p ef
0.980 0.449 0.457 c 13996 12221 m  18997 12221 l  18997 12257 l  13996 12257 l 
p ef
0.980 0.445 0.453 c 13996 12257 m  18997 12257 l  18997 12293 l  13996 12293 l 
p ef
0.984 0.445 0.449 c 13996 12293 m  18997 12293 l  18997 12329 l  13996 12329 l 
p ef
0.988 0.441 0.445 c 13996 12329 m  18997 12329 l  18997 12365 l  13996 12365 l 
p ef
0.988 0.437 0.441 c 13996 12365 m  18997 12365 l  18997 12401 l  13996 12401 l 
p ef
0.992 0.433 0.437 c 13996 12401 m  18997 12401 l  18997 12437 l  13996 12437 l 
p ef
0.996 0.429 0.433 c 13996 12437 m  18997 12437 l  18997 12473 l  13996 12473 l 
p ef
1.000 0.429 0.429 c 13996 12473 m  18997 12473 l  18997 12510 l  13996 12510 l 
p ef
gr
gr
gs
0.109 0.609 0.949 c 14451 9248 m  14451 9233 l  14453 9217 l  14455 9202 l 
14457 9186 l  14461 9171 l  14465 9156 l  14470 9142 l  14476 9127 l  14482 9113 l 
14489 9099 l  14497 9086 l  14506 9073 l  14515 9061 l  14525 9049 l  14535 9037 l 
14546 9026 l  14558 9016 l  14570 9006 l  14582 8997 l  14595 8988 l  14608 8980 l 
14622 8973 l  14636 8967 l  14651 8961 l  14665 8956 l  14680 8952 l  14695 8948 l 
14711 8946 l  14726 8944 l  14742 8942 l  14757 8942 l  14772 8942 l  14788 8944 l 
14803 8946 l  14819 8948 l  14834 8952 l  14849 8956 l  14863 8961 l  14878 8967 l 
14892 8973 l  14906 8980 l  14919 8988 l  14932 8997 l  14944 9006 l  14956 9016 l 
14968 9026 l  14979 9037 l  14989 9049 l  14999 9061 l  15008 9073 l  15017 9086 l 
15025 9099 l  15032 9113 l  15038 9127 l  15044 9142 l  15049 9156 l  15053 9171 l 
15057 9186 l  15059 9202 l  15061 9217 l  15063 9233 l  15063 9248 l  15357 9248 l 
15356 9218 l  15354 9187 l  15350 9157 l  15345 9127 l  15338 9098 l  15329 9068 l 
15320 9040 l  15308 9011 l  15296 8984 l  15282 8957 l  15266 8931 l  15249 8905 l 
15231 8881 l  15212 8857 l  15192 8835 l  15170 8813 l  15148 8793 l  15124 8774 l 
15100 8756 l  15074 8739 l  15048 8723 l  15021 8709 l  14994 8697 l  14965 8685 l 
14937 8676 l  14907 8667 l  14878 8660 l  14848 8655 l  14818 8651 l  14787 8649 l 
14757 8648 l  14727 8649 l  14696 8651 l  14666 8655 l  14636 8660 l  14607 8667 l 
14577 8676 l  14549 8685 l  14520 8697 l  14493 8709 l  14466 8723 l  14440 8739 l 
14414 8756 l  14390 8774 l  14366 8793 l  14344 8813 l  14322 8835 l  14302 8857 l 
14283 8881 l  14265 8905 l  14248 8931 l  14232 8957 l  14218 8984 l  14206 9011 l 
14194 9040 l  14185 9068 l  14176 9098 l  14169 9127 l  14164 9157 l  14160 9187 l 
14158 9218 l  14157 9248 l  14006 9248 l  14304 9545 l  14601 9248 l  14451 9248 l 
p ef
gr
gs
0.109 0.609 0.949 c 16779 9248 m  16779 9233 l  16777 9217 l  16775 9202 l 
16773 9186 l  16769 9171 l  16765 9156 l  16760 9142 l  16754 9127 l  16748 9113 l 
16741 9099 l  16733 9086 l  16724 9073 l  16715 9061 l  16705 9049 l  16695 9037 l 
16684 9026 l  16672 9016 l  16660 9006 l  16648 8997 l  16635 8988 l  16622 8980 l 
16608 8973 l  16594 8967 l  16579 8961 l  16565 8956 l  16550 8952 l  16535 8948 l 
16519 8946 l  16504 8944 l  16488 8942 l  16473 8942 l  16458 8942 l  16442 8944 l 
16427 8946 l  16411 8948 l  16396 8952 l  16381 8956 l  16367 8961 l  16352 8967 l 
16338 8973 l  16324 8980 l  16311 8988 l  16298 8997 l  16286 9006 l  16274 9016 l 
16262 9026 l  16251 9037 l  16241 9049 l  16231 9061 l  16222 9073 l  16213 9086 l 
16205 9099 l  16198 9113 l  16192 9127 l  16186 9142 l  16181 9156 l  16177 9171 l 
16173 9186 l  16171 9202 l  16169 9217 l  16167 9233 l  16167 9248 l  15873 9248 l 
15874 9218 l  15876 9187 l  15880 9157 l  15885 9127 l  15892 9098 l  15901 9068 l 
15910 9040 l  15922 9011 l  15934 8984 l  15948 8957 l  15964 8931 l  15981 8905 l 
15999 8881 l  16018 8857 l  16038 8835 l  16060 8813 l  16082 8793 l  16106 8774 l 
16130 8756 l  16156 8739 l  16182 8723 l  16209 8709 l  16236 8697 l  16265 8685 l 
16293 8676 l  16323 8667 l  16352 8660 l  16382 8655 l  16412 8651 l  16443 8649 l 
16473 8648 l  16503 8649 l  16534 8651 l  16564 8655 l  16594 8660 l  16623 8667 l 
16653 8676 l  16681 8685 l  16710 8697 l  16737 8709 l  16764 8723 l  16790 8739 l 
16816 8756 l  16840 8774 l  16864 8793 l  16886 8813 l  16908 8835 l  16928 8857 l 
16947 8881 l  16965 8905 l  16982 8931 l  16998 8957 l  17012 8984 l  17024 9011 l 
17036 9040 l  17045 9068 l  17054 9098 l  17061 9127 l  17066 9157 l  17070 9187 l 
17072 9218 l  17073 9248 l  17224 9248 l  16926 9545 l  16629 9248 l  16779 9248 l 
p ef
gr
gs
0.109 0.609 0.949 c 17890 9248 m  17890 9233 l  17892 9217 l  17894 9202 l 
17896 9186 l  17900 9171 l  17904 9156 l  17909 9142 l  17915 9127 l  17921 9113 l 
17928 9099 l  17936 9086 l  17945 9073 l  17954 9061 l  17964 9049 l  17974 9037 l 
17985 9026 l  17997 9016 l  18009 9006 l  18021 8997 l  18034 8988 l  18047 8980 l 
18061 8973 l  18075 8967 l  18090 8961 l  18104 8956 l  18119 8952 l  18134 8948 l 
18150 8946 l  18165 8944 l  18181 8942 l  18196 8942 l  18211 8942 l  18227 8944 l 
18242 8946 l  18258 8948 l  18273 8952 l  18288 8956 l  18302 8961 l  18317 8967 l 
18331 8973 l  18345 8980 l  18358 8988 l  18371 8997 l  18383 9006 l  18395 9016 l 
18407 9026 l  18418 9037 l  18428 9049 l  18438 9061 l  18447 9073 l  18456 9086 l 
18464 9099 l  18471 9113 l  18477 9127 l  18483 9142 l  18488 9156 l  18492 9171 l 
18496 9186 l  18498 9202 l  18500 9217 l  18502 9233 l  18502 9248 l  18796 9248 l 
18795 9218 l  18793 9187 l  18789 9157 l  18784 9127 l  18777 9098 l  18768 9068 l 
18759 9040 l  18747 9011 l  18735 8984 l  18721 8957 l  18705 8931 l  18688 8905 l 
18670 8881 l  18651 8857 l  18631 8835 l  18609 8813 l  18587 8793 l  18563 8774 l 
18539 8756 l  18513 8739 l  18487 8723 l  18460 8709 l  18433 8697 l  18404 8685 l 
18376 8676 l  18346 8667 l  18317 8660 l  18287 8655 l  18257 8651 l  18226 8649 l 
18196 8648 l  18166 8649 l  18135 8651 l  18105 8655 l  18075 8660 l  18046 8667 l 
18016 8676 l  17988 8685 l  17959 8697 l  17932 8709 l  17905 8723 l  17879 8739 l 
17853 8756 l  17829 8774 l  17805 8793 l  17783 8813 l  17761 8835 l  17741 8857 l 
17722 8881 l  17704 8905 l  17687 8931 l  17671 8957 l  17657 8984 l  17645 9011 l 
17633 9040 l  17624 9068 l  17615 9098 l  17608 9127 l  17603 9157 l  17599 9187 l 
17597 9218 l  17596 9248 l  17446 9248 l  17743 9545 l  18040 9248 l  17890 9248 l 
p ef
gr
gs
0.109 0.609 0.949 c 15028 11798 m  15028 11813 l  15026 11829 l  15024 11844 l 
15022 11860 l  15018 11875 l  15014 11890 l  15009 11904 l  15003 11919 l 
14997 11933 l  14990 11947 l  14982 11960 l  14973 11973 l  14964 11985 l 
14954 11997 l  14944 12009 l  14933 12020 l  14921 12030 l  14909 12040 l 
14897 12049 l  14884 12058 l  14871 12066 l  14857 12073 l  14843 12079 l 
14828 12085 l  14814 12090 l  14799 12094 l  14784 12098 l  14768 12100 l 
14753 12102 l  14737 12104 l  14722 12104 l  14707 12104 l  14691 12102 l 
14676 12100 l  14660 12098 l  14645 12094 l  14630 12090 l  14616 12085 l 
14601 12079 l  14587 12073 l  14573 12066 l  14560 12058 l  14547 12049 l 
14535 12040 l  14523 12030 l  14511 12020 l  14500 12009 l  14490 11997 l 
14480 11985 l  14471 11973 l  14462 11960 l  14454 11947 l  14447 11933 l 
14441 11919 l  14435 11904 l  14430 11890 l  14426 11875 l  14422 11860 l 
14420 11844 l  14418 11829 l  14416 11813 l  14416 11798 l  14122 11798 l 
14123 11828 l  14125 11859 l  14129 11889 l  14134 11919 l  14141 11948 l 
14150 11978 l  14159 12006 l  14171 12035 l  14183 12062 l  14197 12089 l 
14213 12115 l  14230 12141 l  14248 12165 l  14267 12189 l  14287 12211 l 
14309 12233 l  14331 12253 l  14355 12272 l  14379 12290 l  14405 12307 l 
14431 12323 l  14458 12337 l  14485 12349 l  14514 12361 l  14542 12370 l 
14572 12379 l  14601 12386 l  14631 12391 l  14661 12395 l  14692 12397 l 
14722 12398 l  14752 12397 l  14783 12395 l  14813 12391 l  14843 12386 l 
14872 12379 l  14902 12370 l  14930 12361 l  14959 12349 l  14986 12337 l 
15013 12323 l  15039 12307 l  15065 12290 l  15089 12272 l  15113 12253 l 
15135 12233 l  15157 12211 l  15177 12189 l  15196 12165 l  15214 12141 l 
15231 12115 l  15247 12089 l  15261 12062 l  15273 12035 l  15285 12006 l 
15294 11978 l  15303 11948 l  15310 11919 l  15315 11889 l  15319 11859 l 
15321 11828 l  15322 11798 l  15473 11798 l  15175 11501 l  14878 11798 l 
15028 11798 l  p ef
gr
gs
0.109 0.609 0.949 c 16191 11798 m  16191 11813 l  16193 11829 l  16195 11844 l 
16197 11860 l  16201 11875 l  16205 11890 l  16210 11904 l  16216 11919 l 
16222 11933 l  16229 11947 l  16237 11960 l  16246 11973 l  16255 11985 l 
16265 11997 l  16275 12009 l  16286 12020 l  16298 12030 l  16310 12040 l 
16322 12049 l  16335 12058 l  16348 12066 l  16362 12073 l  16376 12079 l 
16391 12085 l  16405 12090 l  16420 12094 l  16435 12098 l  16451 12100 l 
16466 12102 l  16482 12104 l  16497 12104 l  16512 12104 l  16528 12102 l 
16543 12100 l  16559 12098 l  16574 12094 l  16589 12090 l  16603 12085 l 
16618 12079 l  16632 12073 l  16646 12066 l  16659 12058 l  16672 12049 l 
16684 12040 l  16696 12030 l  16708 12020 l  16719 12009 l  16729 11997 l 
16739 11985 l  16748 11973 l  16757 11960 l  16765 11947 l  16772 11933 l 
16778 11919 l  16784 11904 l  16789 11890 l  16793 11875 l  16797 11860 l 
16799 11844 l  16801 11829 l  16803 11813 l  16803 11798 l  17097 11798 l 
17096 11828 l  17094 11859 l  17090 11889 l  17085 11919 l  17078 11948 l 
17069 11978 l  17060 12006 l  17048 12035 l  17036 12062 l  17022 12089 l 
17006 12115 l  16989 12141 l  16971 12165 l  16952 12189 l  16932 12211 l 
16910 12233 l  16888 12253 l  16864 12272 l  16840 12290 l  16814 12307 l 
16788 12323 l  16761 12337 l  16734 12349 l  16705 12361 l  16677 12370 l 
16647 12379 l  16618 12386 l  16588 12391 l  16558 12395 l  16527 12397 l 
16497 12398 l  16467 12397 l  16436 12395 l  16406 12391 l  16376 12386 l 
16347 12379 l  16317 12370 l  16289 12361 l  16260 12349 l  16233 12337 l 
16206 12323 l  16180 12307 l  16154 12290 l  16130 12272 l  16106 12253 l 
16084 12233 l  16062 12211 l  16042 12189 l  16023 12165 l  16005 12141 l 
15988 12115 l  15972 12089 l  15958 12062 l  15946 12035 l  15934 12006 l 
15925 11978 l  15916 11948 l  15909 11919 l  15904 11889 l  15900 11859 l 
15898 11828 l  15897 11798 l  15746 11798 l  16044 11501 l  16341 11798 l 
16191 11798 l  p ef
gr
gs
0.109 0.609 0.949 c 18502 11798 m  18502 11813 l  18500 11829 l  18498 11844 l 
18496 11860 l  18492 11875 l  18488 11890 l  18483 11904 l  18477 11919 l 
18471 11933 l  18464 11947 l  18456 11960 l  18447 11973 l  18438 11985 l 
18428 11997 l  18418 12009 l  18407 12020 l  18395 12030 l  18383 12040 l 
18371 12049 l  18358 12058 l  18345 12066 l  18331 12073 l  18317 12079 l 
18302 12085 l  18288 12090 l  18273 12094 l  18258 12098 l  18242 12100 l 
18227 12102 l  18211 12104 l  18196 12104 l  18181 12104 l  18165 12102 l 
18150 12100 l  18134 12098 l  18119 12094 l  18104 12090 l  18090 12085 l 
18075 12079 l  18061 12073 l  18047 12066 l  18034 12058 l  18021 12049 l 
18009 12040 l  17997 12030 l  17985 12020 l  17974 12009 l  17964 11997 l 
17954 11985 l  17945 11973 l  17936 11960 l  17928 11947 l  17921 11933 l 
17915 11919 l  17909 11904 l  17904 11890 l  17900 11875 l  17896 11860 l 
17894 11844 l  17892 11829 l  17890 11813 l  17890 11798 l  17596 11798 l 
17597 11828 l  17599 11859 l  17603 11889 l  17608 11919 l  17615 11948 l 
17624 11978 l  17633 12006 l  17645 12035 l  17657 12062 l  17671 12089 l 
17687 12115 l  17704 12141 l  17722 12165 l  17741 12189 l  17761 12211 l 
17783 12233 l  17805 12253 l  17829 12272 l  17853 12290 l  17879 12307 l 
17905 12323 l  17932 12337 l  17959 12349 l  17988 12361 l  18016 12370 l 
18046 12379 l  18075 12386 l  18105 12391 l  18135 12395 l  18166 12397 l 
18196 12398 l  18226 12397 l  18257 12395 l  18287 12391 l  18317 12386 l 
18346 12379 l  18376 12370 l  18404 12361 l  18433 12349 l  18460 12337 l 
18487 12323 l  18513 12307 l  18539 12290 l  18563 12272 l  18587 12253 l 
18609 12233 l  18631 12211 l  18651 12189 l  18670 12165 l  18688 12141 l 
18705 12115 l  18721 12089 l  18735 12062 l  18747 12035 l  18759 12006 l 
18768 11978 l  18777 11948 l  18784 11919 l  18789 11889 l  18793 11859 l 
18795 11828 l  18796 11798 l  18947 11798 l  18649 11501 l  18352 11798 l 
18502 11798 l  p ef
gr
gs
0.503 0.503 0.503 c 16497 8508 m  13997 8508 l  13997 8008 l  18996 8008 l 
18996 8508 l  16497 8508 l  p ef
gr
gs
0.503 0.503 0.503 c 16497 13007 m  13997 13007 l  13997 12508 l  18996 12508 l 
18996 13007 l  16497 13007 l  p ef
gr
gs
0.210 0.324 0.414 c 16816 8774 m  16816 8756 16811 8739 16803 8723 ct 16794 8708 16781 8695 16766 8686 ct 
16750 8678 16733 8673 16715 8673 ct 16698 8673 16681 8678 16665 8686 ct 16650 8695 16637 8708 16628 8723 ct 
16620 8739 16615 8756 16615 8774 ct 16615 8791 16620 8808 16628 8824 ct 16637 8839 16650 8852 16665 8861 ct 
16681 8869 16698 8874 16715 8874 ct 16733 8874 16750 8869 16766 8861 ct 16781 8852 16794 8839 16803 8824 ct 
16811 8808 16816 8791 16816 8774 ct 16816 8774 l  p ef
gr
gs
0.210 0.324 0.414 c 17816 8673 m  17816 8655 17811 8638 17803 8622 ct 17794 8607 17781 8594 17766 8585 ct 
17750 8577 17733 8572 17715 8572 ct 17698 8572 17681 8577 17665 8585 ct 17650 8594 17637 8607 17628 8622 ct 
17620 8638 17615 8655 17615 8673 ct 17615 8690 17620 8707 17628 8723 ct 17637 8738 17650 8751 17665 8760 ct 
17681 8768 17698 8773 17715 8773 ct 17733 8773 17750 8768 17766 8760 ct 17781 8751 17794 8738 17803 8723 ct 
17811 8707 17816 8690 17816 8673 ct 17816 8673 l  p ef
gr
gs
0.210 0.324 0.414 c 14817 8773 m  14817 8755 14812 8738 14804 8722 ct 14795 8707 14782 8694 14767 8685 ct 
14751 8677 14734 8672 14717 8672 ct 14699 8672 14682 8677 14666 8685 ct 14651 8694 14638 8707 14629 8722 ct 
14621 8738 14616 8755 14616 8773 ct 14616 8790 14621 8807 14629 8823 ct 14638 8838 14651 8851 14666 8860 ct 
14682 8868 14699 8873 14717 8873 ct 14734 8873 14751 8868 14767 8860 ct 14782 8851 14795 8838 14804 8823 ct 
14812 8807 14817 8790 14817 8773 ct 14817 8773 l  p ef
gr
gs
0.210 0.324 0.414 c 15818 8672 m  15818 8654 15813 8637 15805 8621 ct 15796 8606 15783 8593 15768 8584 ct 
15752 8576 15735 8571 15718 8571 ct 15700 8571 15683 8576 15667 8584 ct 15652 8593 15639 8606 15630 8621 ct 
15622 8637 15617 8654 15617 8672 ct 15617 8689 15622 8706 15630 8722 ct 15639 8737 15652 8750 15667 8759 ct 
15683 8767 15700 8772 15718 8772 ct 15735 8772 15752 8767 15768 8759 ct 15783 8750 15796 8737 15805 8722 ct 
15813 8706 15818 8689 15818 8672 ct 15818 8672 l  p ef
gr
gs
0.210 0.324 0.414 c 17117 8773 m  17117 8755 17112 8738 17104 8722 ct 17095 8707 17082 8694 17067 8685 ct 
17051 8677 17034 8672 17016 8672 ct 16999 8672 16982 8677 16966 8685 ct 16951 8694 16938 8707 16929 8722 ct 
16921 8738 16916 8755 16916 8773 ct 16916 8790 16921 8807 16929 8823 ct 16938 8838 16951 8851 16966 8860 ct 
16982 8868 16999 8873 17016 8873 ct 17034 8873 17051 8868 17067 8860 ct 17082 8851 17095 8838 17104 8823 ct 
17112 8807 17117 8790 17117 8773 ct 17117 8773 l  p ef
gr
gs
0.210 0.324 0.414 c 18217 8772 m  18217 8754 18212 8737 18204 8721 ct 18195 8706 18182 8693 18167 8684 ct 
18151 8676 18134 8671 18116 8671 ct 18099 8671 18082 8676 18066 8684 ct 18051 8693 18038 8706 18029 8721 ct 
18021 8737 18016 8754 18016 8772 ct 18016 8789 18021 8806 18029 8822 ct 18038 8837 18051 8850 18066 8859 ct 
18082 8867 18099 8872 18116 8872 ct 18134 8872 18151 8867 18167 8859 ct 18182 8850 18195 8837 18204 8822 ct 
18212 8806 18217 8789 18217 8772 ct 18217 8772 l  p ef
gr
gs
0.210 0.324 0.414 c 15218 8772 m  15218 8754 15213 8737 15205 8721 ct 15196 8706 15183 8693 15168 8684 ct 
15152 8676 15135 8671 15117 8671 ct 15100 8671 15083 8676 15067 8684 ct 15052 8693 15039 8706 15030 8721 ct 
15022 8737 15017 8754 15017 8772 ct 15017 8789 15022 8806 15030 8822 ct 15039 8837 15052 8850 15067 8859 ct 
15083 8867 15100 8872 15117 8872 ct 15135 8872 15152 8867 15168 8859 ct 15183 8850 15196 8837 15205 8822 ct 
15213 8806 15218 8789 15218 8772 ct 15218 8772 l  p ef
gr
gs
0.210 0.324 0.414 c 16219 8770 m  16219 8753 16214 8736 16206 8720 ct 16197 8705 16184 8692 16169 8683 ct 
16153 8675 16136 8670 16119 8670 ct 16101 8670 16084 8675 16068 8683 ct 16053 8692 16040 8705 16031 8720 ct 
16023 8736 16018 8753 16018 8770 ct 16018 8788 16023 8805 16031 8821 ct 16040 8836 16053 8849 16068 8858 ct 
16084 8866 16101 8871 16119 8871 ct 16136 8871 16153 8866 16169 8858 ct 16184 8849 16197 8836 16206 8821 ct 
16214 8805 16219 8788 16219 8770 ct 16219 8770 l  p ef
gr
gs
0.210 0.324 0.414 c 17517 8772 m  17517 8754 17512 8737 17504 8721 ct 17496 8706 17483 8693 17468 8684 ct 
17452 8676 17435 8671 17417 8671 ct 17400 8671 17383 8676 17367 8684 ct 17352 8693 17339 8706 17330 8721 ct 
17322 8737 17317 8754 17317 8772 ct 17317 8789 17322 8806 17330 8822 ct 17339 8837 17352 8850 17367 8859 ct 
17383 8867 17400 8872 17417 8872 ct 17435 8872 17452 8867 17468 8859 ct 17483 8850 17496 8837 17504 8822 ct 
17512 8806 17517 8789 17517 8772 ct 17517 8772 l  p ef
gr
gs
0.210 0.324 0.414 c 15519 8871 m  15519 8853 15514 8836 15506 8820 ct 15497 8805 15484 8792 15469 8783 ct 
15453 8775 15436 8770 15419 8770 ct 15401 8770 15384 8775 15368 8783 ct 15353 8792 15340 8805 15331 8820 ct 
15323 8836 15318 8853 15318 8871 ct 15318 8888 15323 8905 15331 8921 ct 15340 8936 15353 8949 15368 8958 ct 
15384 8966 15401 8971 15419 8971 ct 15436 8971 15453 8966 15469 8958 ct 15484 8949 15497 8936 15506 8921 ct 
15514 8905 15519 8888 15519 8871 ct 15519 8871 l  p ef
gr
gs
0.210 0.324 0.414 c 16517 8673 m  16517 8655 16512 8638 16504 8622 ct 16495 8607 16482 8594 16467 8585 ct 
16451 8577 16434 8572 16417 8572 ct 16399 8572 16382 8577 16366 8585 ct 16351 8594 16338 8607 16329 8622 ct 
16321 8638 16316 8655 16316 8672 ct 16316 8690 16321 8707 16329 8723 ct 16338 8738 16351 8751 16366 8760 ct 
16382 8768 16399 8773 16417 8773 ct 16434 8773 16451 8768 16467 8760 ct 16482 8751 16495 8738 16504 8723 ct 
16512 8707 16517 8690 16517 8673 ct 16517 8673 l  p ef
gr
gs
0.210 0.324 0.414 c 18017 8971 m  18017 8954 18012 8937 18004 8921 ct 17995 8906 17982 8893 17967 8884 ct 
17951 8876 17934 8871 17916 8871 ct 17899 8871 17882 8876 17866 8884 ct 17851 8893 17838 8906 17829 8921 ct 
17821 8937 17816 8954 17816 8971 ct 17816 8989 17821 9006 17829 9022 ct 17838 9037 17851 9050 17866 9059 ct 
17882 9067 17899 9072 17916 9072 ct 17934 9072 17951 9067 17967 9059 ct 17982 9050 17995 9037 18004 9022 ct 
18012 9006 18017 8989 18017 8971 ct 18017 8971 l  p ef
gr
gs
0.210 0.324 0.414 c 18518 8971 m  18518 8953 18513 8936 18505 8920 ct 18496 8905 18483 8892 18468 8883 ct 
18452 8875 18435 8870 18417 8870 ct 18400 8870 18383 8875 18367 8883 ct 18352 8892 18339 8905 18330 8920 ct 
18322 8936 18317 8953 18317 8971 ct 18317 8988 18322 9005 18330 9021 ct 18339 9036 18352 9049 18367 9058 ct 
18383 9066 18400 9071 18417 9071 ct 18435 9071 18452 9066 18468 9058 ct 18483 9049 18496 9036 18505 9021 ct 
18513 9005 18518 8988 18518 8971 ct 18518 8971 l  p ef
gr
gs
0.210 0.324 0.414 c 18519 8669 m  18519 8652 18514 8635 18506 8619 ct 18497 8604 18484 8591 18469 8582 ct 
18453 8574 18436 8569 18418 8569 ct 18401 8569 18384 8574 18368 8582 ct 18353 8591 18340 8604 18331 8619 ct 
18323 8635 18318 8652 18318 8669 ct 18318 8687 18323 8704 18331 8720 ct 18340 8735 18353 8748 18368 8757 ct 
18384 8765 18401 8770 18418 8770 ct 18436 8770 18453 8765 18469 8757 ct 18484 8748 18497 8735 18506 8720 ct 
18514 8704 18519 8687 18519 8669 ct 18519 8669 l  p ef
gr
gs
0.210 0.324 0.414 c 18820 8768 m  18820 8751 18815 8734 18807 8718 ct 18798 8703 18785 8690 18770 8681 ct 
18754 8673 18737 8668 18719 8668 ct 18702 8668 18685 8673 18669 8681 ct 18654 8690 18641 8703 18632 8718 ct 
18624 8734 18619 8751 18619 8768 ct 18619 8786 18624 8803 18632 8819 ct 18641 8834 18654 8847 18669 8856 ct 
18685 8864 18702 8869 18719 8869 ct 18737 8869 18754 8864 18770 8856 ct 18785 8847 18798 8834 18807 8819 ct 
18815 8803 18820 8786 18820 8768 ct 18820 8768 l  p ef
gr
gs
0.210 0.324 0.414 c 18821 9067 m  18821 9050 18816 9033 18808 9017 ct 18799 9002 18786 8989 18771 8980 ct 
18755 8972 18738 8967 18720 8967 ct 18703 8967 18686 8972 18670 8980 ct 18655 8989 18642 9002 18633 9017 ct 
18625 9033 18620 9050 18620 9067 ct 18620 9085 18625 9102 18633 9118 ct 18642 9133 18655 9146 18670 9155 ct 
18686 9163 18703 9168 18720 9168 ct 18738 9168 18755 9163 18771 9155 ct 18786 9146 18799 9133 18808 9118 ct 
18816 9102 18821 9085 18821 9067 ct 18821 9067 l  p ef
gr
gs
0.210 0.324 0.414 c 14323 8667 m  14323 8649 14318 8632 14310 8616 ct 14301 8601 14288 8588 14273 8579 ct 
14257 8571 14240 8566 14223 8566 ct 14205 8566 14188 8571 14172 8579 ct 14157 8588 14144 8601 14135 8616 ct 
14127 8632 14122 8649 14122 8667 ct 14122 8684 14127 8701 14135 8717 ct 14144 8732 14157 8745 14172 8754 ct 
14188 8762 14205 8767 14223 8767 ct 14240 8767 14257 8762 14273 8754 ct 14288 8745 14301 8732 14310 8717 ct 
14318 8701 14323 8684 14323 8667 ct 14323 8667 l  p ef
gr
gs
0.210 0.324 0.414 c 14523 8866 m  14523 8848 14518 8831 14510 8815 ct 14501 8800 14488 8787 14473 8778 ct 
14457 8770 14440 8765 14423 8765 ct 14405 8765 14388 8770 14372 8778 ct 14357 8787 14344 8800 14335 8815 ct 
14327 8831 14322 8848 14322 8866 ct 14322 8883 14327 8900 14335 8916 ct 14344 8931 14357 8944 14372 8953 ct 
14388 8961 14405 8966 14423 8966 ct 14440 8966 14457 8961 14473 8953 ct 14488 8944 14501 8931 14510 8916 ct 
14518 8900 14523 8883 14523 8866 ct 14523 8866 l  p ef
gr
gs
0.210 0.324 0.414 c 14224 8965 m  14224 8947 14219 8930 14211 8914 ct 14202 8899 14189 8886 14174 8877 ct 
14158 8869 14141 8864 14124 8864 ct 14106 8864 14089 8869 14073 8877 ct 14058 8886 14045 8899 14036 8914 ct 
14028 8930 14023 8947 14023 8965 ct 14023 8982 14028 8999 14036 9015 ct 14045 9030 14058 9043 14073 9052 ct 
14089 9060 14106 9065 14124 9065 ct 14141 9065 14158 9060 14174 9052 ct 14189 9043 14202 9030 14211 9015 ct 
14219 8999 14224 8982 14224 8965 ct 14224 8965 l  p ef
gr
gs
0.210 0.324 0.414 c 15025 8963 m  15025 8946 15020 8929 15012 8913 ct 15003 8898 14990 8885 14975 8876 ct 
14959 8868 14942 8863 14924 8863 ct 14907 8863 14890 8868 14874 8876 ct 14859 8885 14846 8898 14837 8913 ct 
14829 8929 14824 8946 14824 8963 ct 14824 8981 14829 8998 14837 9014 ct 14846 9029 14859 9042 14874 9051 ct 
14890 9059 14907 9064 14924 9064 ct 14942 9064 14959 9059 14975 9051 ct 14990 9042 15003 9029 15012 9014 ct 
15020 8998 15025 8981 15025 8963 ct 15025 8963 l  p ef
gr
gs
0.210 0.324 0.414 c 15926 8963 m  15926 8945 15921 8928 15913 8912 ct 15904 8897 15891 8884 15876 8875 ct 
15860 8867 15843 8862 15826 8862 ct 15808 8862 15791 8867 15775 8875 ct 15760 8884 15747 8897 15738 8912 ct 
15730 8928 15725 8945 15725 8963 ct 15725 8980 15730 8997 15738 9013 ct 15747 9028 15760 9041 15775 9050 ct 
15791 9058 15808 9063 15826 9063 ct 15843 9063 15860 9058 15876 9050 ct 15891 9041 15904 9028 15913 9013 ct 
15921 8997 15926 8980 15926 8963 ct 15926 8963 l  p ef
gr
gs
0.210 0.324 0.414 c 16226 9062 m  16226 9045 16221 9028 16213 9012 ct 16204 8997 16191 8984 16176 8975 ct 
16160 8967 16143 8962 16126 8962 ct 16108 8962 16091 8967 16075 8975 ct 16060 8984 16047 8997 16038 9012 ct 
16030 9028 16025 9045 16025 9062 ct 16025 9080 16030 9097 16038 9113 ct 16047 9128 16060 9141 16075 9150 ct 
16091 9158 16108 9163 16126 9163 ct 16143 9163 16160 9158 16176 9150 ct 16191 9141 16204 9128 16213 9113 ct 
16221 9097 16226 9080 16226 9062 ct 16226 9062 l  p ef
gr
gs
0.210 0.324 0.414 c 16627 8963 m  16627 8945 16622 8928 16614 8912 ct 16605 8897 16592 8884 16577 8875 ct 
16561 8867 16544 8862 16526 8862 ct 16509 8862 16492 8867 16476 8875 ct 16461 8884 16448 8897 16439 8912 ct 
16431 8928 16426 8945 16426 8963 ct 16426 8980 16431 8997 16439 9013 ct 16448 9028 16461 9041 16476 9050 ct 
16492 9058 16509 9063 16526 9063 ct 16544 9063 16561 9058 16577 9050 ct 16592 9041 16605 9028 16614 9013 ct 
16622 8997 16627 8980 16627 8963 ct 16627 8963 l  p ef
gr
gs
0.210 0.324 0.414 c 15816 9373 m  15816 9356 15811 9339 15803 9323 ct 15794 9308 15781 9295 15766 9286 ct 
15750 9278 15733 9273 15716 9273 ct 15698 9273 15681 9278 15665 9286 ct 15650 9295 15637 9308 15628 9323 ct 
15620 9339 15615 9356 15615 9373 ct 15615 9391 15620 9408 15628 9424 ct 15637 9439 15650 9452 15665 9461 ct 
15681 9469 15698 9474 15716 9474 ct 15733 9474 15750 9469 15766 9461 ct 15781 9452 15794 9439 15803 9424 ct 
15811 9408 15816 9391 15816 9373 ct 15816 9373 l  p ef
gr
gs
0.210 0.324 0.414 c 17317 9173 m  17317 9155 17312 9138 17304 9122 ct 17295 9107 17282 9094 17267 9085 ct 
17251 9077 17234 9072 17216 9072 ct 17199 9072 17182 9077 17166 9085 ct 17151 9094 17138 9107 17129 9122 ct 
17121 9138 17116 9155 17116 9173 ct 17116 9190 17121 9207 17129 9223 ct 17138 9238 17151 9251 17166 9260 ct 
17182 9268 17199 9273 17216 9273 ct 17234 9273 17251 9268 17267 9260 ct 17282 9251 17295 9238 17304 9223 ct 
17312 9207 17317 9190 17317 9173 ct 17317 9173 l  p ef
gr
gs
0.210 0.324 0.414 c 14417 9273 m  14417 9255 14412 9238 14404 9222 ct 14395 9207 14382 9194 14367 9185 ct 
14351 9177 14334 9172 14317 9172 ct 14299 9172 14282 9177 14266 9185 ct 14251 9194 14238 9207 14229 9222 ct 
14221 9238 14216 9255 14216 9273 ct 14216 9290 14221 9307 14229 9323 ct 14238 9338 14251 9351 14266 9360 ct 
14282 9368 14299 9373 14317 9373 ct 14334 9373 14351 9368 14367 9360 ct 14382 9351 14395 9338 14404 9323 ct 
14412 9307 14417 9290 14417 9273 ct 14417 9273 l  p ef
gr
gs
0.210 0.324 0.414 c 15118 9472 m  15118 9454 15113 9437 15105 9421 ct 15096 9406 15083 9393 15068 9384 ct 
15052 9376 15035 9371 15018 9371 ct 15000 9371 14983 9376 14967 9384 ct 14952 9393 14939 9406 14930 9421 ct 
14922 9437 14917 9454 14917 9472 ct 14917 9489 14922 9506 14930 9522 ct 14939 9537 14952 9550 14967 9559 ct 
14983 9567 15000 9572 15018 9572 ct 15035 9572 15052 9567 15068 9559 ct 15083 9550 15096 9537 15105 9522 ct 
15113 9506 15118 9489 15118 9472 ct 15118 9472 l  p ef
gr
gs
0.210 0.324 0.414 c 16317 9373 m  16317 9355 16312 9338 16304 9322 ct 16295 9307 16282 9294 16267 9285 ct 
16251 9277 16234 9272 16216 9272 ct 16199 9272 16182 9277 16166 9285 ct 16151 9294 16138 9307 16129 9322 ct 
16121 9338 16116 9355 16116 9373 ct 16116 9390 16121 9407 16129 9423 ct 16138 9438 16151 9451 16166 9460 ct 
16182 9468 16199 9473 16216 9473 ct 16234 9473 16251 9468 16267 9460 ct 16282 9451 16295 9438 16304 9423 ct 
16312 9407 16317 9390 16317 9373 ct 16317 9373 l  p ef
gr
gs
0.210 0.324 0.414 c 17717 9372 m  17717 9354 17712 9337 17704 9321 ct 17695 9306 17682 9293 17667 9284 ct 
17651 9276 17634 9271 17616 9271 ct 17599 9271 17582 9276 17566 9284 ct 17551 9293 17538 9306 17529 9321 ct 
17521 9337 17516 9354 17516 9372 ct 17516 9389 17521 9406 17529 9422 ct 17538 9437 17551 9450 17566 9459 ct 
17582 9467 17599 9472 17616 9472 ct 17634 9472 17651 9467 17667 9459 ct 17682 9450 17695 9437 17704 9422 ct 
17712 9406 17717 9389 17717 9372 ct 17717 9372 l  p ef
gr
gs
0.210 0.324 0.414 c 14818 9172 m  14818 9154 14813 9137 14805 9121 ct 14796 9106 14783 9093 14768 9084 ct 
14752 9076 14735 9071 14718 9071 ct 14700 9071 14683 9076 14667 9084 ct 14652 9093 14639 9106 14630 9121 ct 
14622 9137 14617 9154 14617 9172 ct 14617 9189 14622 9206 14630 9222 ct 14639 9237 14652 9250 14667 9259 ct 
14683 9267 14700 9272 14718 9272 ct 14735 9272 14752 9267 14768 9259 ct 14783 9250 14796 9237 14805 9222 ct 
14813 9206 14818 9189 14818 9172 ct 14818 9172 l  p ef
gr
gs
0.210 0.324 0.414 c 15419 9271 m  15419 9253 15414 9236 15406 9220 ct 15397 9205 15384 9192 15369 9183 ct 
15353 9175 15336 9170 15318 9170 ct 15301 9170 15284 9175 15268 9183 ct 15253 9192 15240 9205 15231 9220 ct 
15223 9236 15218 9253 15218 9271 ct 15218 9288 15223 9305 15231 9321 ct 15240 9336 15253 9349 15268 9358 ct 
15284 9366 15301 9371 15318 9371 ct 15336 9371 15353 9366 15369 9358 ct 15384 9349 15397 9336 15406 9321 ct 
15414 9305 15419 9288 15419 9271 ct 15419 9271 l  p ef
gr
gs
0.210 0.324 0.414 c 16715 10074 m  16715 10056 16710 10039 16702 10023 ct 
16693 10008 16680 9995 16665 9986 ct 16649 9978 16632 9973 16615 9973 ct 16597 9973 16580 9978 16564 9986 ct 
16549 9995 16536 10008 16527 10023 ct 16519 10039 16514 10056 16514 10074 ct 
16514 10091 16519 10108 16527 10124 ct 16536 10139 16549 10152 16564 10161 ct 
16580 10169 16597 10174 16615 10174 ct 16632 10174 16649 10169 16665 10161 ct 
16680 10152 16693 10139 16702 10124 ct 16710 10108 16715 10091 16715 10074 ct 
16715 10074 l  p ef
gr
gs
0.210 0.324 0.414 c 18415 10072 m  18415 10055 18410 10038 18402 10022 ct 
18393 10007 18380 9994 18365 9985 ct 18349 9977 18332 9972 18315 9972 ct 18297 9972 18280 9977 18264 9985 ct 
18249 9994 18236 10007 18227 10022 ct 18219 10038 18214 10055 18214 10072 ct 
18214 10090 18219 10107 18227 10123 ct 18236 10138 18249 10151 18264 10160 ct 
18280 10168 18297 10173 18315 10173 ct 18332 10173 18349 10168 18365 10160 ct 
18380 10151 18393 10138 18402 10123 ct 18410 10107 18415 10090 18415 10072 ct 
18415 10072 l  p ef
gr
gs
0.210 0.324 0.414 c 15216 9872 m  15216 9855 15211 9838 15203 9822 ct 15194 9807 15181 9794 15166 9785 ct 
15150 9777 15133 9772 15116 9772 ct 15098 9772 15081 9777 15065 9785 ct 15050 9794 15037 9807 15028 9822 ct 
15020 9838 15015 9855 15015 9872 ct 15015 9890 15020 9907 15028 9923 ct 15037 9938 15050 9951 15065 9960 ct 
15081 9968 15098 9973 15116 9973 ct 15133 9973 15150 9968 15166 9960 ct 15181 9951 15194 9938 15203 9923 ct 
15211 9907 15216 9890 15216 9872 ct 15216 9872 l  p ef
gr
gs
0.210 0.324 0.414 c 16117 9771 m  16117 9754 16112 9737 16104 9721 ct 16095 9706 16082 9693 16067 9684 ct 
16051 9676 16034 9671 16017 9671 ct 15999 9671 15982 9676 15966 9684 ct 15951 9693 15938 9706 15929 9721 ct 
15921 9737 15916 9754 15916 9771 ct 15916 9789 15921 9806 15929 9822 ct 15938 9837 15951 9850 15966 9859 ct 
15982 9867 15999 9872 16017 9872 ct 16034 9872 16051 9867 16067 9859 ct 16082 9850 16095 9837 16104 9822 ct 
16112 9806 16117 9789 16117 9771 ct 16117 9771 l  p ef
gr
gs
0.210 0.324 0.414 c 17714 10573 m  17714 10555 17709 10538 17701 10522 ct 
17692 10507 17679 10494 17664 10485 ct 17648 10477 17631 10472 17614 10472 ct 
17596 10472 17579 10477 17563 10485 ct 17548 10494 17535 10507 17526 10522 ct 
17518 10538 17513 10555 17513 10573 ct 17513 10590 17518 10607 17526 10623 ct 
17535 10638 17548 10651 17563 10660 ct 17579 10668 17596 10673 17614 10673 ct 
17631 10673 17648 10668 17664 10660 ct 17679 10651 17692 10638 17701 10623 ct 
17709 10607 17714 10590 17714 10573 ct 17714 10573 l  p ef
gr
gs
0.210 0.324 0.414 c 15716 10571 m  15716 10554 15711 10537 15703 10521 ct 
15694 10506 15681 10493 15666 10484 ct 15650 10476 15633 10471 15616 10471 ct 
15598 10471 15581 10476 15565 10484 ct 15550 10493 15537 10506 15528 10521 ct 
15520 10537 15515 10554 15515 10571 ct 15515 10589 15520 10606 15528 10622 ct 
15537 10637 15550 10650 15565 10659 ct 15581 10667 15598 10672 15616 10672 ct 
15633 10672 15650 10667 15666 10659 ct 15681 10650 15694 10637 15703 10622 ct 
15711 10606 15716 10589 15716 10571 ct 15716 10571 l  p ef
gr
gs
0.210 0.324 0.414 c 16717 10571 m  16717 10553 16712 10536 16704 10520 ct 
16695 10505 16682 10492 16667 10483 ct 16651 10475 16634 10470 16617 10470 ct 
16599 10470 16582 10475 16566 10483 ct 16551 10492 16538 10505 16529 10520 ct 
16521 10536 16516 10553 16516 10571 ct 16516 10588 16521 10605 16529 10621 ct 
16538 10636 16551 10649 16566 10658 ct 16582 10666 16599 10671 16617 10671 ct 
16634 10671 16651 10666 16667 10658 ct 16682 10649 16695 10636 16704 10621 ct 
16712 10605 16717 10588 16717 10571 ct 16717 10571 l  p ef
gr
gs
0.210 0.324 0.414 c 17714 9770 m  17714 9752 17709 9735 17701 9719 ct 17692 9704 17679 9691 17664 9682 ct 
17648 9674 17631 9669 17614 9669 ct 17596 9669 17579 9674 17563 9682 ct 17548 9691 17535 9704 17526 9719 ct 
17518 9735 17513 9752 17513 9770 ct 17513 9787 17518 9804 17526 9820 ct 17535 9835 17548 9848 17563 9857 ct 
17579 9865 17596 9870 17614 9870 ct 17631 9870 17648 9865 17664 9857 ct 17679 9848 17692 9835 17701 9820 ct 
17709 9804 17714 9787 17714 9770 ct 17714 9770 l  p ef
gr
gs
0.210 0.324 0.414 c 18715 9769 m  18715 9751 18710 9734 18702 9718 ct 18693 9703 18680 9690 18665 9681 ct 
18649 9673 18632 9668 18615 9668 ct 18597 9668 18580 9673 18564 9681 ct 18549 9690 18536 9703 18527 9718 ct 
18519 9734 18514 9751 18514 9769 ct 18514 9786 18519 9803 18527 9819 ct 18536 9834 18549 9847 18564 9856 ct 
18580 9864 18597 9869 18615 9869 ct 18632 9869 18649 9864 18665 9856 ct 18680 9847 18693 9834 18702 9819 ct 
18710 9803 18715 9786 18715 9769 ct 18715 9769 l  p ef
gr
gs
0.210 0.324 0.414 c 15716 9769 m  15716 9751 15711 9734 15703 9718 ct 15694 9703 15681 9690 15666 9681 ct 
15650 9673 15633 9668 15616 9668 ct 15598 9668 15581 9673 15565 9681 ct 15550 9690 15537 9703 15528 9718 ct 
15520 9734 15515 9751 15515 9769 ct 15515 9786 15520 9803 15528 9819 ct 15537 9834 15550 9847 15565 9856 ct 
15581 9864 15598 9869 15616 9869 ct 15633 9869 15650 9864 15666 9856 ct 15681 9847 15694 9834 15703 9819 ct 
15711 9803 15716 9786 15716 9769 ct 15716 9769 l  p ef
gr
gs
0.210 0.324 0.414 c 16917 9368 m  16917 9350 16912 9333 16904 9317 ct 16895 9302 16882 9289 16867 9280 ct 
16851 9272 16834 9267 16816 9267 ct 16799 9267 16782 9272 16766 9280 ct 16751 9289 16738 9302 16729 9317 ct 
16721 9333 16716 9350 16716 9368 ct 16716 9385 16721 9402 16729 9418 ct 16738 9433 16751 9446 16766 9455 ct 
16782 9463 16799 9468 16816 9468 ct 16834 9468 16851 9463 16867 9455 ct 16882 9446 16895 9433 16904 9418 ct 
16912 9402 16917 9385 16917 9368 ct 16917 9368 l  p ef
gr
gs
0.210 0.324 0.414 c 16616 9673 m  16616 9655 16611 9638 16603 9622 ct 16594 9607 16581 9594 16566 9585 ct 
16550 9577 16533 9572 16515 9572 ct 16498 9572 16481 9577 16465 9585 ct 16450 9594 16437 9607 16428 9622 ct 
16420 9638 16415 9655 16415 9673 ct 16415 9690 16420 9707 16428 9723 ct 16437 9738 16450 9751 16465 9760 ct 
16481 9768 16498 9773 16515 9773 ct 16533 9773 16550 9768 16566 9760 ct 16581 9751 16594 9738 16603 9723 ct 
16611 9707 16616 9690 16616 9673 ct 16616 9673 l  p ef
gr
gs
0.210 0.324 0.414 c 17017 9672 m  17017 9654 17012 9637 17004 9621 ct 16995 9606 16982 9593 16967 9584 ct 
16951 9576 16934 9571 16916 9571 ct 16899 9571 16882 9576 16866 9584 ct 16851 9593 16838 9606 16829 9621 ct 
16821 9637 16816 9654 16816 9672 ct 16816 9689 16821 9706 16829 9722 ct 16838 9737 16851 9750 16866 9759 ct 
16882 9767 16899 9772 16916 9772 ct 16934 9772 16951 9767 16967 9759 ct 16982 9750 16995 9737 17004 9722 ct 
17012 9706 17017 9689 17017 9672 ct 17017 9672 l  p ef
gr
gs
0.210 0.324 0.414 c 17418 9572 m  17418 9554 17413 9537 17405 9521 ct 17396 9506 17383 9493 17368 9484 ct 
17352 9476 17335 9471 17317 9471 ct 17300 9471 17283 9476 17267 9484 ct 17252 9493 17239 9506 17230 9521 ct 
17222 9537 17217 9554 17217 9572 ct 17217 9589 17222 9606 17230 9622 ct 17239 9637 17252 9650 17267 9659 ct 
17283 9667 17300 9672 17317 9672 ct 17335 9672 17352 9667 17368 9659 ct 17383 9650 17396 9637 17405 9622 ct 
17413 9606 17418 9589 17418 9572 ct 17418 9572 l  p ef
gr
gs
0.210 0.324 0.414 c 17419 10172 m  17419 10154 17414 10137 17406 10121 ct 
17397 10106 17384 10093 17369 10084 ct 17353 10076 17336 10071 17319 10071 ct 
17301 10071 17284 10076 17268 10084 ct 17253 10093 17240 10106 17231 10121 ct 
17223 10137 17218 10154 17218 10172 ct 17218 10189 17223 10206 17231 10222 ct 
17240 10237 17253 10250 17268 10259 ct 17284 10267 17301 10272 17319 10272 ct 
17336 10272 17353 10267 17369 10259 ct 17384 10250 17397 10237 17406 10222 ct 
17414 10206 17419 10189 17419 10172 ct 17419 10172 l  p ef
gr
gs
0.210 0.324 0.414 c 18020 9570 m  18020 9553 18015 9536 18007 9520 ct 17998 9505 17985 9492 17970 9483 ct 
17954 9475 17937 9470 17919 9470 ct 17902 9470 17885 9475 17869 9483 ct 17854 9492 17841 9505 17832 9520 ct 
17824 9536 17819 9553 17819 9570 ct 17819 9588 17824 9605 17832 9621 ct 17841 9636 17854 9649 17869 9658 ct 
17885 9666 17902 9671 17919 9671 ct 17937 9671 17954 9666 17970 9658 ct 17985 9649 17998 9636 18007 9621 ct 
18015 9605 18020 9588 18020 9570 ct 18020 9570 l  p ef
gr
gs
0.210 0.324 0.414 c 18220 9269 m  18220 9252 18215 9235 18207 9219 ct 18198 9204 18185 9191 18170 9182 ct 
18154 9174 18137 9169 18120 9169 ct 18102 9169 18085 9174 18069 9182 ct 18054 9191 18041 9204 18032 9219 ct 
18024 9235 18019 9252 18019 9269 ct 18019 9287 18024 9304 18032 9320 ct 18041 9335 18054 9348 18069 9357 ct 
18085 9365 18102 9370 18120 9370 ct 18137 9370 18154 9365 18170 9357 ct 18185 9348 18198 9335 18207 9320 ct 
18215 9304 18220 9287 18220 9269 ct 18220 9269 l  p ef
gr
gs
0.210 0.324 0.414 c 18621 9369 m  18621 9351 18616 9334 18608 9318 ct 18599 9303 18586 9290 18571 9281 ct 
18555 9273 18538 9268 18520 9268 ct 18503 9268 18486 9273 18470 9281 ct 18455 9290 18442 9303 18433 9318 ct 
18425 9334 18420 9351 18420 9369 ct 18420 9386 18425 9403 18433 9419 ct 18442 9434 18455 9447 18470 9456 ct 
18486 9464 18503 9469 18520 9469 ct 18538 9469 18555 9464 18571 9456 ct 18586 9447 18599 9434 18608 9419 ct 
18616 9403 18621 9386 18621 9369 ct 18621 9369 l  p ef
gr
gs
0.210 0.324 0.414 c 18922 9468 m  18922 9450 18917 9433 18909 9417 ct 18900 9402 18887 9389 18872 9380 ct 
18856 9372 18839 9367 18821 9367 ct 18804 9367 18787 9372 18771 9380 ct 18756 9389 18743 9402 18734 9417 ct 
18726 9433 18721 9450 18721 9467 ct 18721 9485 18726 9502 18734 9518 ct 18743 9533 18756 9546 18771 9555 ct 
18787 9563 18804 9568 18821 9568 ct 18839 9568 18856 9563 18872 9555 ct 18887 9546 18900 9533 18909 9518 ct 
18917 9502 18922 9485 18922 9468 ct 18922 9468 l  p ef
gr
gs
0.210 0.324 0.414 c 18323 9646 m  18323 9629 18318 9612 18310 9596 ct 18301 9581 18288 9568 18273 9559 ct 
18257 9551 18240 9546 18222 9546 ct 18205 9546 18188 9551 18172 9559 ct 18157 9568 18144 9581 18135 9596 ct 
18127 9612 18122 9629 18122 9646 ct 18122 9664 18127 9681 18135 9697 ct 18144 9712 18157 9725 18172 9734 ct 
18188 9742 18205 9747 18222 9747 ct 18240 9747 18257 9742 18273 9734 ct 18288 9725 18301 9712 18310 9697 ct 
18318 9681 18323 9664 18323 9646 ct 18323 9646 l  p ef
gr
gs
0.210 0.324 0.414 c 17815 11272 m  17815 11254 17810 11237 17802 11221 ct 
17793 11206 17780 11193 17765 11184 ct 17749 11176 17732 11171 17715 11171 ct 
17697 11171 17680 11176 17664 11184 ct 17649 11193 17636 11206 17627 11221 ct 
17619 11237 17614 11254 17614 11272 ct 17614 11289 17619 11306 17627 11322 ct 
17636 11337 17649 11350 17664 11359 ct 17680 11367 17697 11372 17715 11372 ct 
17732 11372 17749 11367 17765 11359 ct 17780 11350 17793 11337 17802 11322 ct 
17810 11306 17815 11289 17815 11272 ct 17815 11272 l  p ef
gr
gs
0.210 0.324 0.414 c 17117 11271 m  17117 11253 17112 11236 17104 11220 ct 
17095 11205 17082 11192 17067 11183 ct 17051 11175 17034 11170 17017 11170 ct 
16999 11170 16982 11175 16966 11183 ct 16951 11192 16938 11205 16929 11220 ct 
16921 11236 16916 11253 16916 11271 ct 16916 11288 16921 11305 16929 11321 ct 
16938 11336 16951 11349 16966 11358 ct 16982 11366 16999 11371 17017 11371 ct 
17034 11371 17051 11366 17067 11358 ct 17082 11349 17095 11336 17104 11321 ct 
17112 11305 17117 11288 17117 11271 ct 17117 11271 l  p ef
gr
gs
0.210 0.324 0.414 c 17318 10870 m  17318 10852 17313 10835 17305 10819 ct 
17296 10804 17283 10791 17268 10782 ct 17252 10774 17235 10769 17218 10769 ct 
17200 10769 17183 10774 17167 10782 ct 17152 10791 17139 10804 17130 10819 ct 
17122 10835 17117 10852 17117 10870 ct 17117 10887 17122 10904 17130 10920 ct 
17139 10935 17152 10948 17167 10957 ct 17183 10965 17200 10970 17218 10970 ct 
17235 10970 17252 10965 17268 10957 ct 17283 10948 17296 10935 17305 10920 ct 
17313 10904 17318 10887 17318 10870 ct 17318 10870 l  p ef
gr
gs
0.210 0.324 0.414 c 16319 10869 m  16319 10851 16314 10834 16306 10818 ct 
16297 10803 16284 10790 16269 10781 ct 16253 10773 16236 10768 16219 10768 ct 
16201 10768 16184 10773 16168 10781 ct 16153 10790 16140 10803 16131 10818 ct 
16123 10834 16118 10851 16118 10869 ct 16118 10886 16123 10903 16131 10919 ct 
16140 10934 16153 10947 16168 10956 ct 16184 10964 16201 10969 16219 10969 ct 
16236 10969 16253 10964 16269 10956 ct 16284 10947 16297 10934 16306 10919 ct 
16314 10903 16319 10886 16319 10869 ct 16319 10869 l  p ef
gr
gs
0.210 0.324 0.414 c 16120 11267 m  16120 11250 16115 11233 16107 11217 ct 
16098 11202 16085 11189 16070 11180 ct 16054 11172 16037 11167 16019 11167 ct 
16002 11167 15985 11172 15969 11180 ct 15954 11189 15941 11202 15932 11217 ct 
15924 11233 15919 11250 15919 11267 ct 15919 11285 15924 11302 15932 11318 ct 
15941 11333 15954 11346 15969 11355 ct 15985 11363 16002 11368 16019 11368 ct 
16037 11368 16054 11363 16070 11355 ct 16085 11346 16098 11333 16107 11318 ct 
16115 11302 16120 11285 16120 11267 ct 16120 11267 l  p ef
gr
gs
0.210 0.324 0.414 c 16721 11467 m  16721 11449 16716 11432 16708 11416 ct 
16699 11401 16686 11388 16671 11379 ct 16655 11371 16638 11366 16621 11366 ct 
16603 11366 16586 11371 16570 11379 ct 16555 11388 16542 11401 16533 11416 ct 
16525 11432 16520 11449 16520 11467 ct 16520 11484 16525 11501 16533 11517 ct 
16542 11532 16555 11545 16570 11554 ct 16586 11562 16603 11567 16621 11567 ct 
16638 11567 16655 11562 16671 11554 ct 16686 11545 16699 11532 16708 11517 ct 
16716 11501 16721 11484 16721 11467 ct 16721 11467 l  p ef
gr
gs
0.210 0.324 0.414 c 16622 12066 m  16622 12048 16617 12031 16609 12015 ct 
16600 12000 16587 11987 16572 11978 ct 16556 11970 16539 11965 16522 11965 ct 
16504 11965 16487 11970 16471 11978 ct 16456 11987 16443 12000 16434 12015 ct 
16426 12031 16421 12048 16421 12066 ct 16421 12083 16426 12100 16434 12116 ct 
16443 12131 16456 12144 16471 12153 ct 16487 12161 16504 12166 16522 12166 ct 
16539 12166 16556 12161 16572 12153 ct 16587 12144 16600 12131 16609 12116 ct 
16617 12100 16622 12083 16622 12066 ct 16622 12066 l  p ef
gr
gs
0.210 0.324 0.414 c 14523 11966 m  14523 11948 14518 11931 14510 11915 ct 
14501 11900 14488 11887 14473 11878 ct 14457 11870 14440 11865 14423 11865 ct 
14405 11865 14388 11870 14372 11878 ct 14357 11887 14344 11900 14335 11915 ct 
14327 11931 14322 11948 14322 11966 ct 14322 11983 14327 12000 14335 12016 ct 
14344 12031 14357 12044 14372 12053 ct 14388 12061 14405 12066 14423 12066 ct 
14440 12066 14457 12061 14473 12053 ct 14488 12044 14501 12031 14510 12016 ct 
14518 12000 14523 11983 14523 11966 ct 14523 11966 l  p ef
gr
gs
0.210 0.324 0.414 c 15526 10262 m  15526 10245 15521 10228 15513 10212 ct 
15504 10197 15491 10184 15476 10175 ct 15460 10167 15443 10162 15426 10162 ct 
15408 10162 15391 10167 15375 10175 ct 15360 10184 15347 10197 15338 10212 ct 
15330 10228 15325 10245 15325 10262 ct 15325 10280 15330 10297 15338 10313 ct 
15347 10328 15360 10341 15375 10350 ct 15391 10358 15408 10363 15426 10363 ct 
15443 10363 15460 10358 15476 10350 ct 15491 10341 15504 10328 15513 10313 ct 
15521 10297 15526 10280 15526 10262 ct 15526 10262 l  p ef
gr
gs
0.210 0.324 0.414 c 16226 10362 m  16226 10345 16221 10328 16213 10312 ct 
16204 10297 16191 10284 16176 10275 ct 16160 10267 16143 10262 16126 10262 ct 
16108 10262 16091 10267 16075 10275 ct 16060 10284 16047 10297 16038 10312 ct 
16030 10328 16025 10345 16025 10362 ct 16025 10380 16030 10397 16038 10413 ct 
16047 10428 16060 10441 16075 10450 ct 16091 10458 16108 10463 16126 10463 ct 
16143 10463 16160 10458 16176 10450 ct 16191 10441 16204 10428 16213 10413 ct 
16221 10397 16226 10380 16226 10362 ct 16226 10362 l  p ef
gr
gs
0.210 0.324 0.414 c 15326 10961 m  15326 10944 15321 10927 15313 10911 ct 
15304 10896 15291 10883 15276 10874 ct 15260 10866 15243 10861 15226 10861 ct 
15208 10861 15191 10866 15175 10874 ct 15160 10883 15147 10896 15138 10911 ct 
15130 10927 15125 10944 15125 10961 ct 15125 10979 15130 10996 15138 11012 ct 
15147 11027 15160 11040 15175 11049 ct 15191 11057 15208 11062 15226 11062 ct 
15243 11062 15260 11057 15276 11049 ct 15291 11040 15304 11027 15313 11012 ct 
15321 10996 15326 10979 15326 10961 ct 15326 10961 l  p ef
gr
gs
0.210 0.324 0.414 c 14627 10761 m  14627 10743 14622 10726 14614 10710 ct 
14605 10695 14592 10682 14577 10673 ct 14561 10665 14544 10660 14526 10660 ct 
14509 10660 14492 10665 14476 10673 ct 14461 10682 14448 10695 14439 10710 ct 
14431 10726 14426 10743 14426 10761 ct 14426 10778 14431 10795 14439 10811 ct 
14448 10826 14461 10839 14476 10848 ct 14492 10856 14509 10861 14526 10861 ct 
14544 10861 14561 10856 14577 10848 ct 14592 10839 14605 10826 14614 10811 ct 
14622 10795 14627 10778 14627 10761 ct 14627 10761 l  p ef
gr
gs
0.210 0.324 0.414 c 14308 11060 m  14308 11042 14303 11025 14295 11009 ct 
14286 10994 14273 10981 14258 10972 ct 14242 10964 14225 10959 14208 10959 ct 
14190 10959 14173 10964 14157 10972 ct 14142 10981 14129 10994 14120 11009 ct 
14112 11025 14107 11042 14107 11060 ct 14107 11077 14112 11094 14120 11110 ct 
14129 11125 14142 11138 14157 11147 ct 14173 11155 14190 11160 14208 11160 ct 
14225 11160 14242 11155 14258 11147 ct 14273 11138 14286 11125 14295 11110 ct 
14303 11094 14308 11077 14308 11060 ct 14308 11060 l  p ef
gr
gs
0.210 0.324 0.414 c 14929 11459 m  14929 11441 14924 11424 14916 11408 ct 
14907 11393 14894 11380 14879 11371 ct 14863 11363 14846 11358 14829 11358 ct 
14811 11358 14794 11363 14778 11371 ct 14763 11380 14750 11393 14741 11408 ct 
14733 11424 14728 11441 14728 11459 ct 14728 11476 14733 11493 14741 11509 ct 
14750 11524 14763 11537 14778 11546 ct 14794 11554 14811 11559 14829 11559 ct 
14846 11559 14863 11554 14879 11546 ct 14894 11537 14907 11524 14916 11509 ct 
14924 11493 14929 11476 14929 11459 ct 14929 11459 l  p ef
gr
gs
0.210 0.324 0.414 c 15630 11757 m  15630 11740 15625 11723 15617 11707 ct 
15608 11692 15595 11679 15580 11670 ct 15564 11662 15547 11657 15530 11657 ct 
15512 11657 15495 11662 15479 11670 ct 15464 11679 15451 11692 15442 11707 ct 
15434 11723 15429 11740 15429 11757 ct 15429 11775 15434 11792 15442 11808 ct 
15451 11823 15464 11836 15479 11845 ct 15495 11853 15512 11858 15530 11858 ct 
15547 11858 15564 11853 15580 11845 ct 15595 11836 15608 11823 15617 11808 ct 
15625 11792 15630 11775 15630 11757 ct 15630 11757 l  p ef
gr
gs
0.210 0.324 0.414 c 18430 11756 m  18430 11739 18425 11722 18417 11706 ct 
18408 11691 18395 11678 18380 11669 ct 18364 11661 18347 11656 18330 11656 ct 
18312 11656 18295 11661 18279 11669 ct 18264 11678 18251 11691 18242 11706 ct 
18234 11722 18229 11739 18229 11756 ct 18229 11774 18234 11791 18242 11807 ct 
18251 11822 18264 11835 18279 11844 ct 18295 11852 18312 11857 18330 11857 ct 
18347 11857 18364 11852 18380 11844 ct 18395 11835 18408 11822 18417 11807 ct 
18425 11791 18430 11774 18430 11756 ct 18430 11756 l  p ef
gr
gs
0.210 0.324 0.414 c 17731 12056 m  17731 12038 17726 12021 17718 12005 ct 
17709 11990 17696 11977 17681 11968 ct 17665 11960 17648 11955 17631 11955 ct 
17613 11955 17596 11960 17580 11968 ct 17565 11977 17552 11990 17543 12005 ct 
17535 12021 17530 12038 17530 12056 ct 17530 12073 17535 12090 17543 12106 ct 
17552 12121 17565 12134 17580 12143 ct 17596 12151 17613 12156 17631 12156 ct 
17648 12156 17665 12151 17681 12143 ct 17696 12134 17709 12121 17718 12106 ct 
17726 12090 17731 12073 17731 12056 ct 17731 12056 l  p ef
gr
gs
0.210 0.324 0.414 c 17027 9063 m  17027 9045 17022 9028 17014 9012 ct 17005 8997 16992 8984 16977 8975 ct 
16961 8967 16944 8962 16926 8962 ct 16909 8962 16892 8967 16876 8975 ct 16861 8984 16848 8997 16839 9012 ct 
16831 9028 16826 9045 16826 9063 ct 16826 9080 16831 9097 16839 9113 ct 16848 9128 16861 9141 16876 9150 ct 
16892 9158 16909 9163 16926 9163 ct 16944 9163 16961 9158 16977 9150 ct 16992 9141 17005 9128 17014 9113 ct 
17022 9097 17027 9080 17027 9063 ct 17027 9063 l  p ef
gr
gs
0.210 0.324 0.414 c 17617 9072 m  17617 9054 17612 9037 17604 9021 ct 17595 9006 17582 8993 17567 8984 ct 
17551 8976 17534 8971 17517 8971 ct 17500 8971 17483 8976 17467 8984 ct 17452 8993 17439 9006 17430 9021 ct 
17422 9037 17417 9054 17417 9072 ct 17417 9089 17422 9106 17430 9122 ct 17439 9137 17452 9150 17467 9159 ct 
17483 9167 17500 9172 17517 9172 ct 17534 9172 17551 9167 17567 9159 ct 17582 9150 17595 9137 17604 9122 ct 
17612 9106 17617 9089 17617 9072 ct 17617 9072 l  p ef
gr
pum
16184 8404 t
1.000 1.000 1.000 c 34 -19 m  19 -35 12 -54 12 -76 ct 12 -99 19 -118 34 -134 ct 
49 -150 67 -158 89 -158 ct 103 -158 116 -155 126 -148 ct 137 -141 143 -132 143 -120 ct 
143 -115 141 -111 138 -108 ct 135 -105 131 -104 126 -104 ct 121 -104 117 -105 115 -108 ct 
112 -111 110 -115 110 -120 ct 110 -122 110 -124 111 -126 ct 112 -128 114 -130 116 -133 ct 
119 -135 122 -136 127 -136 ct 118 -145 106 -149 89 -149 ct 77 -149 66 -144 56 -132 ct 
46 -121 41 -103 41 -77 ct 41 -64 43 -52 46 -42 ct 50 -32 54 -25 59 -20 ct 65 -15 70 -11 75 -8 ct 
81 -6 86 -5 91 -5 ct 114 -5 130 -17 137 -42 ct 138 -44 140 -46 142 -46 ct 145 -46 146 -44 146 -42 ct 
146 -41 146 -39 145 -36 ct 144 -33 142 -29 139 -24 ct 137 -20 133 -15 129 -11 ct 
125 -7 119 -3 112 -1 ct 105 2 97 4 88 4 ct 67 4 49 -4 34 -19 ct p ef
190 -19 m  175 -34 167 -53 167 -76 ct 167 -98 174 -117 190 -134 ct 205 -150 223 -158 245 -158 ct 
267 -158 285 -150 300 -134 ct 316 -118 323 -98 323 -76 ct 323 -53 316 -35 300 -19 ct 
285 -4 266 4 245 4 ct 224 4 206 -4 190 -19 ct p
196 -78 m  196 -56 199 -39 205 -29 ct 214 -13 228 -5 245 -5 ct 254 -5 262 -7 269 -12 ct 
277 -17 282 -23 286 -31 ct 291 -41 294 -57 294 -78 ct 294 -101 291 -117 285 -127 ct 
276 -143 262 -150 245 -150 ct 237 -150 230 -148 222 -144 ct 215 -140 209 -134 205 -127 ct 
199 -116 196 -100 196 -78 ct p ef
346 0 m  346 -11 l  358 -11 366 -12 369 -13 ct 372 -15 373 -19 373 -27 ct 373 -210 l 
373 -219 372 -225 369 -227 ct 366 -229 358 -230 346 -230 ct 346 -241 l  396 -245 l 
396 -27 l  396 -19 398 -15 401 -13 ct 404 -12 412 -11 424 -11 ct 424 0 l  421 0 417 0 411 0 ct 
405 -1 400 -1 395 -1 ct 391 -1 387 -1 385 -1 ct 382 -1 369 -1 346 0 ct p ef
444 -76 m  444 -98 452 -117 467 -133 ct 483 -148 502 -156 523 -156 ct 541 -156 555 -149 567 -134 ct 
567 -210 l  567 -219 566 -225 563 -227 ct 560 -229 552 -230 540 -230 ct 540 -241 l 
590 -245 l  590 -31 l  590 -22 592 -17 595 -14 ct 598 -12 606 -11 618 -11 ct 
618 0 l  566 4 l  566 -19 l  554 -4 538 4 519 4 ct 499 4 481 -4 466 -19 ct 451 -35 444 -54 444 -76 ct 
p
473 -76 m  473 -54 477 -37 484 -26 ct 493 -11 505 -4 521 -4 ct 538 -4 552 -12 562 -29 ct 
565 -33 566 -37 566 -42 ct 566 -114 l  566 -119 565 -123 562 -127 ct 553 -141 540 -148 524 -148 ct 
508 -148 494 -141 484 -126 ct 477 -114 473 -98 473 -76 ct p ef
pom
pum
16243 12904 t
11 0 m  11 -11 l  24 -11 31 -12 34 -13 ct 37 -15 39 -19 39 -27 ct 39 -210 l 
39 -219 37 -225 34 -227 ct 31 -229 24 -230 11 -230 ct 11 -241 l  62 -245 l  62 -122 l 
62 -122 l  66 -131 72 -138 81 -145 ct 89 -152 100 -156 113 -156 ct 131 -156 143 -152 150 -143 ct 
156 -137 159 -131 160 -124 ct 161 -118 161 -106 161 -89 ct 161 -22 l  162 -17 164 -14 167 -13 ct 
171 -11 178 -11 189 -11 ct 189 0 l  165 -1 152 -1 149 -1 ct 147 -1 134 -1 109 0 ct 
109 -11 l  122 -11 130 -12 133 -13 ct 135 -15 137 -19 137 -27 ct 137 -109 l 
137 -121 135 -131 131 -138 ct 128 -145 121 -148 111 -148 ct 99 -148 88 -143 78 -133 ct 
68 -123 63 -109 63 -92 ct 63 -27 l  63 -19 65 -15 68 -13 ct 71 -12 78 -11 91 -11 ct 
91 0 l  67 -1 54 -1 51 -1 ct 49 -1 36 -1 11 0 ct p ef
228 -19 m  213 -34 205 -53 205 -76 ct 205 -98 212 -117 228 -134 ct 243 -150 261 -158 283 -158 ct 
305 -158 323 -150 338 -134 ct 354 -118 361 -98 361 -76 ct 361 -53 354 -35 338 -19 ct 
323 -4 304 4 283 4 ct 262 4 244 -4 228 -19 ct p
234 -78 m  234 -56 237 -39 243 -29 ct 252 -13 266 -5 283 -5 ct 292 -5 300 -7 307 -12 ct 
315 -17 320 -23 324 -31 ct 329 -41 332 -57 332 -78 ct 332 -101 329 -117 323 -127 ct 
314 -143 300 -150 283 -150 ct 275 -150 268 -148 260 -144 ct 253 -140 247 -134 243 -127 ct 
237 -116 234 -100 234 -78 ct p ef
380 -141 m  380 -149 l  391 -149 400 -153 407 -161 ct 414 -169 419 -177 421 -187 ct 
424 -196 425 -206 425 -217 ct 434 -217 l  434 -152 l  485 -152 l  485 -141 l 
434 -141 l  434 -43 l  434 -18 442 -5 458 -5 ct 465 -5 470 -8 475 -15 ct 479 -22 481 -32 481 -44 ct 
481 -64 l  490 -64 l  490 -44 l  490 -31 487 -20 481 -10 ct 475 -1 467 4 455 4 ct 
451 4 447 3 443 2 ct 438 1 433 -1 428 -4 ct 423 -6 418 -11 415 -18 ct 411 -25 410 -34 410 -44 ct 
410 -141 l  p ef
pom
gs
14341 11287 m  14341 10268 l  14097 10268 l  14687 9728 l  15278 10268 l 
15033 10268 l  15033 11287 l  14341 11287 l  p ef
gr
gs
14312 10214 m 15065 10214 l 15065 10629 l 14312 10629 l 14312 10214 l eoclip newpath
pum
14424 10551 t
0.003 0.003 0.003 c 139 32 m  0 -281 l  297 -281 l  p
154 -39 m  268 -263 l  54 -263 l  p ef
pom
pum
14784 10551 t
39 -54 m  39 -80 48 -103 67 -124 ct 85 -145 105 -155 127 -155 ct 138 -155 147 -152 154 -147 ct 
161 -141 165 -134 165 -125 ct 165 -119 163 -114 160 -110 ct 156 -106 152 -104 147 -104 ct 
143 -104 140 -105 138 -107 ct 136 -109 135 -112 135 -115 ct 135 -116 135 -116 135 -117 ct 
135 -118 136 -119 136 -121 ct 137 -123 138 -124 139 -126 ct 140 -127 142 -128 144 -130 ct 
147 -131 149 -132 153 -132 ct 149 -142 141 -147 128 -147 ct 120 -147 111 -144 103 -138 ct 
95 -132 88 -124 82 -112 ct 77 -104 73 -92 69 -77 ct 65 -62 63 -49 63 -40 ct 63 -29 66 -21 70 -14 ct 
75 -7 82 -4 91 -4 ct 95 -4 99 -4 104 -5 ct 109 -6 117 -9 127 -15 ct 137 -21 146 -28 154 -38 ct 
156 -41 158 -42 159 -42 ct 160 -42 161 -41 163 -40 ct 164 -39 164 -37 164 -37 ct 
164 -34 161 -30 156 -24 ct 150 -18 141 -12 129 -5 ct 117 1 104 4 90 4 ct 75 4 62 -1 53 -12 ct 
43 -23 39 -37 39 -54 ct p ef
pom
gr
gs
17973 9728 m  17973 10747 l  17729 10747 l  18319 11287 l  18910 10747 l 
18665 10747 l  18665 9728 l  17973 9728 l  p ef
gr
gs
17886 10204 m 18758 10204 l 18758 10619 l 17886 10619 l 17886 10204 l eoclip newpath
pum
17998 10541 t
0.003 0.003 0.003 c 139 32 m  0 -281 l  297 -281 l  p
154 -39 m  268 -263 l  54 -263 l  p ef
pom
pum
18358 10541 t
61 -163 m  61 -163 62 -165 63 -168 ct 84 -231 l  85 -234 86 -236 87 -237 ct 
88 -237 90 -238 94 -238 ct 274 -238 l  276 -238 278 -238 279 -237 ct 280 -237 281 -237 282 -236 ct 
282 -236 283 -235 283 -233 ct 283 -231 283 -230 283 -229 ct 272 -166 l  272 -163 271 -161 270 -160 ct 
270 -159 268 -159 266 -159 ct 262 -159 260 -160 260 -163 ct 260 -164 261 -166 261 -168 ct 
263 -182 265 -193 265 -200 ct 265 -211 262 -218 256 -222 ct 250 -225 238 -227 220 -227 ct 
210 -227 204 -227 202 -226 ct 198 -226 195 -222 194 -214 ct 147 -26 l  146 -22 145 -20 145 -19 ct 
145 -16 146 -15 147 -14 ct 149 -13 152 -12 157 -12 ct 157 -12 158 -12 160 -11 ct 
163 -11 165 -11 168 -11 ct 171 -11 173 -11 174 -11 ct 180 -11 l  186 -11 188 -10 188 -7 ct 
188 -2 186 0 181 0 ct 175 0 166 0 154 -1 ct 141 -1 132 -1 126 -1 ct 120 -1 111 -1 99 -1 ct 
87 0 78 0 72 0 ct 68 0 66 -1 66 -4 ct 66 -7 66 -9 68 -10 ct 69 -11 72 -11 75 -11 ct 
81 -11 l  96 -11 105 -12 110 -14 ct 114 -16 117 -20 118 -27 ct 165 -215 l  166 -218 167 -221 167 -223 ct 
167 -224 167 -225 166 -225 ct 166 -225 165 -226 164 -226 ct 163 -227 161 -227 159 -227 ct 
147 -227 l  124 -227 108 -223 100 -217 ct 92 -210 83 -194 75 -170 ct 73 -164 71 -160 71 -160 ct 
70 -159 69 -159 67 -159 ct 63 -159 61 -160 61 -163 ct p ef
pom
gr
gs
0.210 0.324 0.414 c 14417 9672 m  14417 9654 14412 9637 14404 9621 ct 14395 9606 14382 9593 14367 9584 ct 
14351 9576 14334 9571 14317 9571 ct 14299 9571 14282 9576 14266 9584 ct 14251 9593 14238 9606 14229 9621 ct 
14221 9637 14216 9654 14216 9672 ct 14216 9689 14221 9706 14229 9722 ct 14238 9737 14251 9750 14266 9759 ct 
14282 9767 14299 9772 14317 9772 ct 14334 9772 14351 9767 14367 9759 ct 14382 9750 14395 9737 14404 9722 ct 
14412 9706 14417 9689 14417 9672 ct 14417 9672 l  p ef
gr
gs
0.210 0.324 0.414 c 14718 9470 m  14718 9453 14713 9436 14705 9420 ct 14696 9405 14683 9392 14668 9383 ct 
14652 9375 14635 9370 14618 9370 ct 14600 9370 14583 9375 14567 9383 ct 14552 9392 14539 9405 14530 9420 ct 
14522 9436 14517 9453 14517 9470 ct 14517 9488 14522 9505 14530 9521 ct 14539 9536 14552 9549 14567 9558 ct 
14583 9566 14600 9571 14618 9571 ct 14635 9571 14652 9566 14668 9558 ct 14683 9549 14696 9536 14705 9521 ct 
14713 9505 14718 9488 14718 9470 ct 14718 9470 l  p ef
gr
0 5170 t 
pom
count op_count sub {pop} repeat countdictstack dict_count sub {end} repeat b4_inc_state restore
%%PageTrailer
%%Trailer
%%EOF
