%!PS-Adobe-3.0 EPSF-3.0 
%%BoundingBox: 0 0 142 147
%%Pages: 0
%%Creator: LibreOffice 6.4
%%Title: none
%%CreationDate: none
%%LanguageLevel: 2
%%EndComments
%%BeginProlog
%%BeginResource: procset SDRes-Prolog 1.0 0
/b4_inc_state save def
/dict_count countdictstack def
/op_count count 1 sub def
userdict begin
0 setgray 0 setlinecap 1 setlinewidth 0 setlinejoin 10 setmiterlimit[] 0 setdash newpath
/languagelevel where {pop languagelevel 1 ne {false setstrokeadjust false setoverprint} if} if
/bdef {bind def} bind def
/c {setrgbcolor} bdef
/l {neg lineto} bdef
/rl {neg rlineto} bdef
/lc {setlinecap} bdef
/lj {setlinejoin} bdef
/lw {setlinewidth} bdef
/ml {setmiterlimit} bdef
/ld {setdash} bdef
/m {neg moveto} bdef
/ct {6 2 roll neg 6 2 roll neg 6 2 roll neg curveto} bdef
/r {rotate} bdef
/t {neg translate} bdef
/s {scale} bdef
/sw {show} bdef
/gs {gsave} bdef
/gr {grestore} bdef
/f {findfont dup length dict begin
{1 index /FID ne {def} {pop pop} ifelse} forall /Encoding ISOLatin1Encoding def
currentdict end /NFont exch definefont pop /NFont findfont} bdef
/p {closepath} bdef
/sf {scalefont setfont} bdef
/ef {eofill}bdef
/pc {closepath stroke}bdef
/ps {stroke}bdef
/pum {matrix currentmatrix}bdef
/pom {setmatrix}bdef
/bs {/aString exch def /nXOfs exch def /nWidth exch def currentpoint nXOfs 0 rmoveto pum nWidth aString stringwidth pop div 1 scale aString show pom moveto} bdef
%%EndResource
%%EndProlog
%%BeginSetup
%%EndSetup
%%Page: 1 1
%%BeginPageSetup
%%EndPageSetup
pum
0.0284 0.02843 s 
0 -5170 t
/tm matrix currentmatrix def
tm setmatrix
-7996 -1440 t 
1 1 s 
gs
10495 1999 m  12994 1999 l  12994 5998 l  7996 5998 l  7996 1999 l  10495 1999 l 
eoclip newpath
gs
7997 2000 m 12995 2000 l 12995 5999 l 7997 5999 l 7997 2000 l eoclip newpath
1.000 0.429 0.429 c 7996 1999 m  12996 1999 l  12996 2035 l  7996 2035 l 
p ef
0.996 0.429 0.433 c 7996 2035 m  12996 2035 l  12996 2071 l  7996 2071 l 
p ef
0.992 0.433 0.437 c 7996 2071 m  12996 2071 l  12996 2107 l  7996 2107 l 
p ef
0.988 0.437 0.441 c 7996 2107 m  12996 2107 l  12996 2143 l  7996 2143 l 
p ef
0.988 0.441 0.445 c 7996 2143 m  12996 2143 l  12996 2179 l  7996 2179 l 
p ef
0.984 0.445 0.449 c 7996 2179 m  12996 2179 l  12996 2215 l  7996 2215 l 
p ef
0.980 0.445 0.453 c 7996 2215 m  12996 2215 l  12996 2251 l  7996 2251 l 
p ef
0.980 0.449 0.457 c 7996 2251 m  12996 2251 l  12996 2287 l  7996 2287 l 
p ef
0.976 0.453 0.460 c 7996 2287 m  12996 2287 l  12996 2323 l  7996 2323 l 
p ef
0.972 0.457 0.464 c 7996 2323 m  12996 2323 l  12996 2359 l  7996 2359 l 
p ef
0.972 0.460 0.468 c 7996 2359 m  12996 2359 l  12996 2395 l  7996 2395 l 
p ef
0.968 0.464 0.472 c 7996 2395 m  12996 2395 l  12996 2431 l  7996 2431 l 
p ef
0.964 0.464 0.476 c 7996 2431 m  12996 2431 l  12996 2467 l  7996 2467 l 
p ef
0.964 0.468 0.480 c 7996 2467 m  12996 2467 l  12996 2503 l  7996 2503 l 
p ef
0.960 0.472 0.484 c 7996 2503 m  12996 2503 l  12996 2539 l  7996 2539 l 
p ef
0.957 0.476 0.488 c 7996 2539 m  12996 2539 l  12996 2575 l  7996 2575 l 
p ef
0.957 0.480 0.492 c 7996 2575 m  12996 2575 l  12996 2611 l  7996 2611 l 
p ef
0.953 0.480 0.496 c 7996 2611 m  12996 2611 l  12996 2647 l  7996 2647 l 
p ef
0.949 0.484 0.500 c 7996 2647 m  12996 2647 l  12996 2684 l  7996 2684 l 
p ef
0.949 0.488 0.503 c 7996 2684 m  12996 2684 l  12996 2720 l  7996 2720 l 
p ef
0.945 0.492 0.507 c 7996 2720 m  12996 2720 l  12996 2756 l  7996 2756 l 
p ef
0.941 0.496 0.511 c 7996 2756 m  12996 2756 l  12996 2792 l  7996 2792 l 
p ef
0.941 0.500 0.515 c 7996 2792 m  12996 2792 l  12996 2828 l  7996 2828 l 
p ef
0.937 0.500 0.519 c 7996 2828 m  12996 2828 l  12996 2864 l  7996 2864 l 
p ef
0.933 0.503 0.523 c 7996 2864 m  12996 2864 l  12996 2900 l  7996 2900 l 
p ef
0.929 0.507 0.527 c 7996 2900 m  12996 2900 l  12996 2936 l  7996 2936 l 
p ef
0.929 0.511 0.531 c 7996 2936 m  12996 2936 l  12996 2972 l  7996 2972 l 
p ef
0.925 0.515 0.535 c 7996 2972 m  12996 2972 l  12996 3008 l  7996 3008 l 
p ef
0.921 0.515 0.539 c 7996 3008 m  12996 3008 l  12996 3044 l  7996 3044 l 
p ef
0.921 0.519 0.542 c 7996 3044 m  12996 3044 l  12996 3080 l  7996 3080 l 
p ef
0.917 0.523 0.546 c 7996 3080 m  12996 3080 l  12996 3116 l  7996 3116 l 
p ef
0.914 0.527 0.550 c 7996 3116 m  12996 3116 l  12996 3152 l  7996 3152 l 
p ef
0.914 0.531 0.554 c 7996 3152 m  12996 3152 l  12996 3188 l  7996 3188 l 
p ef
0.910 0.535 0.558 c 7996 3188 m  12996 3188 l  12996 3224 l  7996 3224 l 
p ef
0.906 0.535 0.562 c 7996 3224 m  12996 3224 l  12996 3260 l  7996 3260 l 
p ef
0.906 0.539 0.566 c 7996 3260 m  12996 3260 l  12996 3296 l  7996 3296 l 
p ef
0.902 0.542 0.570 c 7996 3296 m  12996 3296 l  12996 3333 l  7996 3333 l 
p ef
0.898 0.546 0.574 c 7996 3333 m  12996 3333 l  12996 3369 l  7996 3369 l 
p ef
0.898 0.550 0.578 c 7996 3369 m  12996 3369 l  12996 3405 l  7996 3405 l 
p ef
0.894 0.550 0.582 c 7996 3405 m  12996 3405 l  12996 3441 l  7996 3441 l 
p ef
0.890 0.554 0.585 c 7996 3441 m  12996 3441 l  12996 3477 l  7996 3477 l 
p ef
0.890 0.558 0.589 c 7996 3477 m  12996 3477 l  12996 3513 l  7996 3513 l 
p ef
0.886 0.562 0.593 c 7996 3513 m  12996 3513 l  12996 3549 l  7996 3549 l 
p ef
0.882 0.566 0.597 c 7996 3549 m  12996 3549 l  12996 3585 l  7996 3585 l 
p ef
0.882 0.570 0.601 c 7996 3585 m  12996 3585 l  12996 3621 l  7996 3621 l 
p ef
0.878 0.570 0.605 c 7996 3621 m  12996 3621 l  12996 3657 l  7996 3657 l 
p ef
0.875 0.574 0.609 c 7996 3657 m  12996 3657 l  12996 3693 l  7996 3693 l 
p ef
0.871 0.578 0.613 c 7996 3693 m  12996 3693 l  12996 3729 l  7996 3729 l 
p ef
0.871 0.582 0.617 c 7996 3729 m  12996 3729 l  12996 3765 l  7996 3765 l 
p ef
0.867 0.585 0.621 c 7996 3765 m  12996 3765 l  12996 3801 l  7996 3801 l 
p ef
0.863 0.585 0.625 c 7996 3801 m  12996 3801 l  12996 3837 l  7996 3837 l 
p ef
0.863 0.589 0.628 c 7996 3837 m  12996 3837 l  12996 3873 l  7996 3873 l 
p ef
0.859 0.593 0.632 c 7996 3873 m  12996 3873 l  12996 3909 l  7996 3909 l 
p ef
0.855 0.597 0.636 c 7996 3909 m  12996 3909 l  12996 3945 l  7996 3945 l 
p ef
0.855 0.601 0.640 c 7996 3945 m  12996 3945 l  12996 3981 l  7996 3981 l 
p ef
0.851 0.605 0.644 c 7996 3981 m  12996 3981 l  12996 4018 l  7996 4018 l 
p ef
0.847 0.605 0.648 c 7996 4018 m  12996 4018 l  12996 4054 l  7996 4054 l 
p ef
0.847 0.609 0.652 c 7996 4054 m  12996 4054 l  12996 4090 l  7996 4090 l 
p ef
0.843 0.613 0.656 c 7996 4090 m  12996 4090 l  12996 4126 l  7996 4126 l 
p ef
0.839 0.617 0.660 c 7996 4126 m  12996 4126 l  12996 4162 l  7996 4162 l 
p ef
0.839 0.621 0.664 c 7996 4162 m  12996 4162 l  12996 4198 l  7996 4198 l 
p ef
0.835 0.621 0.667 c 7996 4198 m  12996 4198 l  12996 4234 l  7996 4234 l 
p ef
0.832 0.625 0.671 c 7996 4234 m  12996 4234 l  12996 4270 l  7996 4270 l 
p ef
0.832 0.628 0.675 c 7996 4270 m  12996 4270 l  12996 4306 l  7996 4306 l 
p ef
0.828 0.632 0.679 c 7996 4306 m  12996 4306 l  12996 4342 l  7996 4342 l 
p ef
0.824 0.636 0.683 c 7996 4342 m  12996 4342 l  12996 4378 l  7996 4378 l 
p ef
0.824 0.640 0.687 c 7996 4378 m  12996 4378 l  12996 4414 l  7996 4414 l 
p ef
0.820 0.640 0.691 c 7996 4414 m  12996 4414 l  12996 4450 l  7996 4450 l 
p ef
0.816 0.644 0.695 c 7996 4450 m  12996 4450 l  12996 4486 l  7996 4486 l 
p ef
0.812 0.648 0.699 c 7996 4486 m  12996 4486 l  12996 4522 l  7996 4522 l 
p ef
0.812 0.652 0.703 c 7996 4522 m  12996 4522 l  12996 4558 l  7996 4558 l 
p ef
0.808 0.656 0.707 c 7996 4558 m  12996 4558 l  12996 4594 l  7996 4594 l 
p ef
0.804 0.656 0.710 c 7996 4594 m  12996 4594 l  12996 4630 l  7996 4630 l 
p ef
0.804 0.660 0.714 c 7996 4630 m  12996 4630 l  12996 4667 l  7996 4667 l 
p ef
0.800 0.664 0.718 c 7996 4667 m  12996 4667 l  12996 4703 l  7996 4703 l 
p ef
0.796 0.667 0.722 c 7996 4703 m  12996 4703 l  12996 4739 l  7996 4739 l 
p ef
0.796 0.671 0.726 c 7996 4739 m  12996 4739 l  12996 4775 l  7996 4775 l 
p ef
0.792 0.675 0.730 c 7996 4775 m  12996 4775 l  12996 4811 l  7996 4811 l 
p ef
0.789 0.675 0.734 c 7996 4811 m  12996 4811 l  12996 4847 l  7996 4847 l 
p ef
0.789 0.679 0.738 c 7996 4847 m  12996 4847 l  12996 4883 l  7996 4883 l 
p ef
0.785 0.683 0.742 c 7996 4883 m  12996 4883 l  12996 4919 l  7996 4919 l 
p ef
0.781 0.687 0.746 c 7996 4919 m  12996 4919 l  12996 4955 l  7996 4955 l 
p ef
0.781 0.691 0.750 c 7996 4955 m  12996 4955 l  12996 4991 l  7996 4991 l 
p ef
0.777 0.691 0.753 c 7996 4991 m  12996 4991 l  12996 5027 l  7996 5027 l 
p ef
0.773 0.695 0.757 c 7996 5027 m  12996 5027 l  12996 5063 l  7996 5063 l 
p ef
0.773 0.699 0.761 c 7996 5063 m  12996 5063 l  12996 5099 l  7996 5099 l 
p ef
0.769 0.703 0.765 c 7996 5099 m  12996 5099 l  12996 5135 l  7996 5135 l 
p ef
0.765 0.707 0.769 c 7996 5135 m  12996 5135 l  12996 5171 l  7996 5171 l 
p ef
0.765 0.710 0.773 c 7996 5171 m  12996 5171 l  12996 5207 l  7996 5207 l 
p ef
0.761 0.710 0.777 c 7996 5207 m  12996 5207 l  12996 5243 l  7996 5243 l 
p ef
0.757 0.714 0.781 c 7996 5243 m  12996 5243 l  12996 5279 l  7996 5279 l 
p ef
0.753 0.718 0.785 c 7996 5279 m  12996 5279 l  12996 5315 l  7996 5315 l 
p ef
0.753 0.722 0.789 c 7996 5315 m  12996 5315 l  12996 5352 l  7996 5352 l 
p ef
0.750 0.726 0.792 c 7996 5352 m  12996 5352 l  12996 5388 l  7996 5388 l 
p ef
0.746 0.726 0.796 c 7996 5388 m  12996 5388 l  12996 5424 l  7996 5424 l 
p ef
0.746 0.730 0.800 c 7996 5424 m  12996 5424 l  12996 5460 l  7996 5460 l 
p ef
0.742 0.734 0.804 c 7996 5460 m  12996 5460 l  12996 5496 l  7996 5496 l 
p ef
0.738 0.738 0.808 c 7996 5496 m  12996 5496 l  12996 5532 l  7996 5532 l 
p ef
0.738 0.742 0.812 c 7996 5532 m  12996 5532 l  12996 5568 l  7996 5568 l 
p ef
0.734 0.746 0.816 c 7996 5568 m  12996 5568 l  12996 5604 l  7996 5604 l 
p ef
0.730 0.746 0.820 c 7996 5604 m  12996 5604 l  12996 5640 l  7996 5640 l 
p ef
0.730 0.750 0.824 c 7996 5640 m  12996 5640 l  12996 5676 l  7996 5676 l 
p ef
0.726 0.753 0.828 c 7996 5676 m  12996 5676 l  12996 5712 l  7996 5712 l 
p ef
0.722 0.757 0.832 c 7996 5712 m  12996 5712 l  12996 5748 l  7996 5748 l 
p ef
0.722 0.761 0.835 c 7996 5748 m  12996 5748 l  12996 5784 l  7996 5784 l 
p ef
0.718 0.761 0.839 c 7996 5784 m  12996 5784 l  12996 5820 l  7996 5820 l 
p ef
0.714 0.765 0.843 c 7996 5820 m  12996 5820 l  12996 5856 l  7996 5856 l 
p ef
0.714 0.769 0.847 c 7996 5856 m  12996 5856 l  12996 5892 l  7996 5892 l 
p ef
0.710 0.773 0.851 c 7996 5892 m  12996 5892 l  12996 5928 l  7996 5928 l 
p ef
0.707 0.777 0.855 c 7996 5928 m  12996 5928 l  12996 5964 l  7996 5964 l 
p ef
0.707 0.781 0.863 c 7996 5964 m  12996 5964 l  12996 6001 l  7996 6001 l 
p ef
gr
gr
gs
0.503 0.503 0.503 c 10496 2000 m  7997 2000 l  7997 1500 l  12995 1500 l 
12995 2000 l  10496 2000 l  p ef
gr
gs
0.503 0.503 0.503 c 10496 6499 m  7997 6499 l  7997 5999 l  12995 5999 l 
12995 6499 l  10496 6499 l  p ef
gr
gs
0.109 0.609 0.949 c 11008 2694 m  11007 2669 l  11005 2643 l  11001 2617 l 
10997 2592 l  10991 2568 l  10983 2543 l  10975 2518 l  10965 2494 l  10954 2471 l 
10942 2448 l  10928 2426 l  10914 2404 l  10899 2384 l  10882 2364 l  10865 2345 l 
10846 2327 l  10827 2309 l  10807 2293 l  10786 2278 l  10764 2264 l  10742 2251 l 
10719 2239 l  10695 2228 l  10671 2219 l  10647 2211 l  10622 2204 l  10597 2198 l 
10571 2194 l  10545 2190 l  10520 2189 l  10494 2188 l  10468 2189 l  10442 2191 l 
10416 2194 l  10391 2199 l  10366 2205 l  10341 2212 l  10317 2220 l  10293 2230 l 
10269 2241 l  10246 2253 l  10224 2266 l  10202 2281 l  10182 2296 l  10162 2312 l 
10142 2330 l  10124 2348 l  10107 2367 l  10091 2387 l  10075 2408 l  10061 2430 l 
10048 2452 l  10036 2475 l  10025 2499 l  10016 2523 l  10007 2547 l  10000 2572 l 
9994 2596 l  9990 2622 l  9987 2647 l  9985 2673 l  9984 2699 l  9896 2699 l 
9897 2669 l  9899 2638 l  9903 2608 l  9908 2580 l  9915 2550 l  9923 2521 l 
9933 2492 l  9944 2464 l  9957 2436 l  9971 2410 l  9986 2383 l  10003 2358 l 
10021 2334 l  10040 2310 l  10060 2287 l  10082 2266 l  10104 2246 l  10128 2226 l 
10152 2208 l  10177 2192 l  10203 2176 l  10230 2162 l  10258 2149 l  10286 2138 l 
10314 2128 l  10344 2120 l  10373 2113 l  10403 2107 l  10433 2103 l  10463 2101 l 
10494 2100 l  10524 2101 l  10554 2103 l  10584 2107 l  10614 2112 l  10644 2118 l 
10673 2127 l  10702 2136 l  10730 2147 l  10757 2160 l  10784 2174 l  10810 2189 l 
10836 2206 l  10860 2223 l  10884 2242 l  10907 2263 l  10928 2284 l  10949 2306 l 
10968 2330 l  10986 2354 l  11003 2379 l  11019 2405 l  11033 2432 l  11046 2459 l 
11057 2487 l  11067 2516 l  11076 2545 l  11083 2575 l  11088 2603 l  11092 2633 l 
11095 2664 l  11096 2694 l  11247 2692 l  11054 2889 l  10857 2696 l  11008 2694 l 
p ef
gr
gs
0.210 0.324 0.414 c 10815 2248 m  10815 2230 10810 2213 10802 2197 ct 10793 2182 10780 2169 10765 2160 ct 
10749 2152 10732 2147 10715 2147 ct 10697 2147 10680 2152 10664 2160 ct 10649 2169 10636 2182 10627 2197 ct 
10619 2213 10614 2230 10614 2248 ct 10614 2265 10619 2282 10627 2298 ct 10636 2313 10649 2326 10664 2335 ct 
10680 2343 10697 2348 10715 2348 ct 10732 2348 10749 2343 10765 2335 ct 10780 2326 10793 2313 10802 2298 ct 
10810 2282 10815 2265 10815 2248 ct 10815 2248 l  p ef
gr
gs
0.210 0.324 0.414 c 11815 2147 m  11815 2129 11810 2112 11802 2096 ct 11793 2081 11780 2068 11765 2059 ct 
11749 2051 11732 2046 11715 2046 ct 11697 2046 11680 2051 11664 2059 ct 11649 2068 11636 2081 11627 2096 ct 
11619 2112 11614 2129 11614 2146 ct 11614 2164 11619 2181 11627 2197 ct 11636 2212 11649 2225 11664 2234 ct 
11680 2242 11697 2247 11715 2247 ct 11732 2247 11749 2242 11765 2234 ct 11780 2225 11793 2212 11802 2197 ct 
11810 2181 11815 2164 11815 2147 ct 11815 2147 l  p ef
gr
gs
0.109 0.609 0.949 c 8361 2699 m  8362 2674 l  8364 2648 l  8368 2622 l 
8372 2597 l  8378 2573 l  8386 2548 l  8394 2523 l  8404 2499 l  8415 2476 l 
8427 2453 l  8441 2431 l  8455 2409 l  8470 2389 l  8487 2369 l  8504 2350 l 
8523 2332 l  8542 2314 l  8562 2298 l  8583 2283 l  8605 2269 l  8627 2256 l 
8650 2244 l  8674 2233 l  8698 2224 l  8722 2216 l  8747 2209 l  8771 2203 l 
8797 2199 l  8823 2195 l  8848 2194 l  8874 2193 l  8900 2194 l  8926 2196 l 
8952 2199 l  8977 2204 l  9002 2210 l  9027 2217 l  9051 2225 l  9075 2235 l 
9099 2246 l  9122 2258 l  9144 2271 l  9166 2286 l  9186 2301 l  9206 2317 l 
9226 2335 l  9244 2353 l  9261 2372 l  9277 2392 l  9293 2413 l  9307 2435 l 
9320 2457 l  9332 2480 l  9343 2504 l  9352 2528 l  9361 2552 l  9368 2577 l 
9374 2601 l  9378 2627 l  9381 2652 l  9383 2678 l  9384 2704 l  9472 2704 l 
9471 2674 l  9469 2643 l  9465 2613 l  9460 2585 l  9453 2555 l  9445 2526 l 
9435 2497 l  9424 2469 l  9411 2441 l  9397 2415 l  9382 2388 l  9365 2363 l 
9347 2339 l  9328 2315 l  9308 2292 l  9286 2271 l  9264 2251 l  9240 2231 l 
9216 2213 l  9191 2197 l  9165 2181 l  9138 2167 l  9110 2154 l  9082 2143 l 
9054 2133 l  9024 2125 l  8995 2118 l  8965 2112 l  8935 2108 l  8905 2106 l 
8874 2105 l  8844 2106 l  8814 2108 l  8784 2112 l  8754 2117 l  8725 2123 l 
8696 2132 l  8667 2141 l  8639 2152 l  8612 2165 l  8585 2179 l  8559 2194 l 
8533 2211 l  8509 2228 l  8485 2247 l  8462 2268 l  8441 2289 l  8420 2311 l 
8401 2335 l  8383 2359 l  8366 2384 l  8350 2410 l  8336 2437 l  8323 2464 l 
8312 2492 l  8302 2521 l  8293 2550 l  8286 2580 l  8281 2608 l  8277 2638 l 
8274 2669 l  8273 2699 l  8122 2697 l  8315 2894 l  8512 2701 l  8361 2699 l 
p ef
gr
gs
0.210 0.324 0.414 c 8816 2247 m  8816 2229 8811 2212 8803 2196 ct 8794 2181 8781 2168 8766 2159 ct 
8750 2151 8734 2146 8717 2146 ct 8699 2146 8682 2151 8666 2159 ct 8651 2168 8638 2181 8629 2196 ct 
8621 2212 8616 2229 8616 2247 ct 8616 2264 8621 2281 8629 2297 ct 8638 2312 8651 2325 8666 2334 ct 
8682 2342 8699 2347 8717 2347 ct 8734 2347 8750 2342 8766 2334 ct 8781 2325 8794 2312 8803 2297 ct 
8811 2281 8816 2264 8816 2247 ct 8816 2247 l  p ef
gr
gs
0.210 0.324 0.414 c 9817 2146 m  9817 2128 9812 2111 9804 2095 ct 9795 2080 9782 2067 9767 2058 ct 
9751 2050 9734 2045 9717 2045 ct 9699 2045 9682 2050 9666 2058 ct 9651 2067 9638 2080 9629 2095 ct 
9621 2111 9616 2128 9616 2145 ct 9616 2163 9621 2180 9629 2196 ct 9638 2211 9651 2224 9666 2233 ct 
9682 2241 9699 2246 9717 2246 ct 9734 2246 9751 2241 9767 2233 ct 9782 2224 9795 2211 9804 2196 ct 
9812 2180 9817 2163 9817 2146 ct 9817 2146 l  p ef
gr
gs
0.210 0.324 0.414 c 11116 2247 m  11116 2229 11111 2212 11103 2196 ct 11094 2181 11081 2168 11066 2159 ct 
11050 2151 11033 2146 11016 2146 ct 10998 2146 10981 2151 10965 2159 ct 10950 2168 10937 2181 10928 2196 ct 
10920 2212 10915 2229 10915 2246 ct 10915 2264 10920 2281 10928 2297 ct 10937 2312 10950 2325 10965 2334 ct 
10981 2342 10998 2347 11016 2347 ct 11033 2347 11050 2342 11066 2334 ct 11081 2325 11094 2312 11103 2297 ct 
11111 2281 11116 2264 11116 2247 ct 11116 2247 l  p ef
gr
gs
0.109 0.609 0.949 c 11683 2689 m  11684 2664 l  11686 2638 l  11690 2612 l 
11694 2587 l  11700 2563 l  11708 2538 l  11716 2513 l  11726 2489 l  11737 2466 l 
11749 2443 l  11763 2421 l  11777 2399 l  11792 2379 l  11809 2359 l  11826 2340 l 
11845 2322 l  11864 2304 l  11884 2288 l  11905 2273 l  11927 2259 l  11949 2246 l 
11972 2234 l  11996 2223 l  12020 2214 l  12044 2206 l  12069 2199 l  12094 2193 l 
12120 2189 l  12146 2185 l  12171 2184 l  12197 2183 l  12223 2184 l  12249 2186 l 
12275 2189 l  12300 2194 l  12325 2200 l  12350 2207 l  12374 2215 l  12398 2225 l 
12422 2236 l  12445 2248 l  12467 2261 l  12489 2276 l  12509 2291 l  12529 2307 l 
12549 2325 l  12567 2343 l  12584 2362 l  12600 2382 l  12616 2403 l  12630 2425 l 
12643 2447 l  12655 2470 l  12666 2494 l  12675 2518 l  12684 2542 l  12691 2567 l 
12697 2591 l  12701 2617 l  12704 2642 l  12706 2668 l  12707 2694 l  12795 2694 l 
12794 2664 l  12792 2633 l  12788 2603 l  12783 2575 l  12776 2545 l  12768 2516 l 
12758 2487 l  12747 2459 l  12734 2431 l  12720 2405 l  12705 2378 l  12688 2353 l 
12670 2329 l  12651 2305 l  12631 2282 l  12609 2261 l  12587 2241 l  12563 2221 l 
12539 2203 l  12514 2187 l  12488 2171 l  12461 2157 l  12433 2144 l  12405 2133 l 
12377 2123 l  12347 2115 l  12318 2108 l  12288 2102 l  12258 2098 l  12228 2096 l 
12197 2095 l  12167 2096 l  12137 2098 l  12107 2102 l  12077 2107 l  12047 2113 l 
12018 2122 l  11989 2131 l  11961 2142 l  11934 2155 l  11907 2169 l  11881 2184 l 
11855 2201 l  11831 2218 l  11807 2237 l  11784 2258 l  11763 2279 l  11742 2301 l 
11723 2325 l  11705 2349 l  11688 2374 l  11672 2400 l  11658 2427 l  11645 2454 l 
11634 2482 l  11624 2511 l  11615 2540 l  11608 2570 l  11603 2598 l  11599 2628 l 
11596 2659 l  11595 2689 l  11444 2687 l  11637 2884 l  11834 2691 l  11683 2689 l 
p ef
gr
gs
0.210 0.324 0.414 c 12216 2246 m  12216 2228 12211 2211 12203 2195 ct 12194 2180 12181 2167 12166 2158 ct 
12150 2150 12133 2145 12116 2145 ct 12098 2145 12081 2150 12065 2158 ct 12050 2167 12037 2180 12028 2195 ct 
12020 2211 12015 2228 12015 2246 ct 12015 2263 12020 2280 12028 2296 ct 12037 2311 12050 2324 12065 2333 ct 
12081 2341 12098 2346 12116 2346 ct 12133 2346 12150 2341 12166 2333 ct 12181 2324 12194 2311 12203 2296 ct 
12211 2280 12216 2263 12216 2246 ct 12216 2246 l  p ef
gr
gs
0.210 0.324 0.414 c 9217 2246 m  9217 2228 9212 2211 9204 2195 ct 9195 2180 9182 2167 9167 2158 ct 
9151 2150 9134 2145 9117 2145 ct 9099 2145 9082 2150 9066 2158 ct 9051 2167 9038 2180 9029 2195 ct 
9021 2211 9016 2228 9016 2246 ct 9016 2263 9021 2280 9029 2296 ct 9038 2311 9051 2324 9066 2333 ct 
9082 2341 9099 2346 9117 2346 ct 9134 2346 9151 2341 9167 2333 ct 9182 2324 9195 2311 9204 2296 ct 
9212 2280 9217 2263 9217 2246 ct 9217 2246 l  p ef
gr
gs
0.210 0.324 0.414 c 10218 2245 m  10218 2227 10213 2210 10205 2194 ct 10196 2179 10183 2166 10168 2157 ct 
10152 2149 10135 2144 10118 2144 ct 10100 2144 10083 2149 10067 2157 ct 10052 2166 10039 2179 10030 2194 ct 
10022 2210 10017 2227 10017 2245 ct 10017 2262 10022 2279 10030 2295 ct 10039 2310 10052 2323 10067 2332 ct 
10083 2340 10100 2345 10118 2345 ct 10135 2345 10152 2340 10168 2332 ct 10183 2323 10196 2310 10205 2295 ct 
10213 2279 10218 2262 10218 2245 ct 10218 2245 l  p ef
gr
gs
0.210 0.324 0.414 c 11516 2246 m  11516 2228 11511 2211 11503 2195 ct 11494 2180 11481 2167 11466 2158 ct 
11450 2150 11433 2145 11416 2145 ct 11398 2145 11381 2150 11365 2158 ct 11350 2167 11337 2180 11328 2195 ct 
11320 2211 11315 2228 11315 2246 ct 11315 2263 11320 2280 11328 2296 ct 11337 2311 11350 2324 11365 2333 ct 
11381 2341 11398 2346 11416 2346 ct 11433 2346 11450 2341 11466 2333 ct 11481 2324 11494 2311 11503 2296 ct 
11511 2280 11516 2263 11516 2246 ct 11516 2246 l  p ef
gr
gs
0.210 0.324 0.414 c 9518 2344 m  9518 2327 9513 2310 9505 2294 ct 9496 2279 9483 2266 9468 2257 ct 
9452 2249 9435 2244 9418 2244 ct 9400 2244 9383 2249 9367 2257 ct 9352 2266 9339 2279 9330 2294 ct 
9322 2310 9317 2327 9317 2344 ct 9317 2362 9322 2379 9330 2395 ct 9339 2410 9352 2423 9367 2432 ct 
9383 2440 9400 2445 9418 2445 ct 9435 2445 9452 2440 9468 2432 ct 9483 2423 9496 2410 9505 2395 ct 
9513 2379 9518 2362 9518 2344 ct 9518 2344 l  p ef
gr
gs
0.210 0.324 0.414 c 10516 2147 m  10516 2129 10511 2112 10503 2096 ct 10494 2081 10481 2068 10466 2059 ct 
10450 2051 10433 2046 10416 2046 ct 10398 2046 10381 2051 10365 2059 ct 10350 2068 10337 2081 10328 2096 ct 
10320 2112 10315 2129 10315 2146 ct 10315 2164 10320 2181 10328 2197 ct 10337 2212 10350 2225 10365 2234 ct 
10381 2242 10398 2247 10416 2247 ct 10433 2247 10450 2242 10466 2234 ct 10481 2225 10494 2212 10503 2197 ct 
10511 2181 10516 2164 10516 2147 ct 10516 2147 l  p ef
gr
gs
0.210 0.324 0.414 c 12016 2446 m  12016 2428 12011 2411 12003 2395 ct 11994 2380 11981 2367 11966 2358 ct 
11950 2350 11933 2345 11916 2345 ct 11898 2345 11881 2350 11865 2358 ct 11850 2367 11837 2380 11828 2395 ct 
11820 2411 11815 2428 11815 2446 ct 11815 2463 11820 2480 11828 2496 ct 11837 2511 11850 2524 11865 2533 ct 
11881 2541 11898 2546 11916 2546 ct 11933 2546 11950 2541 11966 2533 ct 11981 2524 11994 2511 12003 2496 ct 
12011 2480 12016 2463 12016 2446 ct 12016 2446 l  p ef
gr
gs
0.210 0.324 0.414 c 12517 2445 m  12517 2427 12512 2410 12504 2394 ct 12495 2379 12482 2366 12467 2357 ct 
12451 2349 12434 2344 12417 2344 ct 12399 2344 12382 2349 12366 2357 ct 12351 2366 12338 2379 12329 2394 ct 
12321 2410 12316 2427 12316 2445 ct 12316 2462 12321 2479 12329 2495 ct 12338 2510 12351 2523 12366 2532 ct 
12382 2540 12399 2545 12417 2545 ct 12434 2545 12451 2540 12467 2532 ct 12482 2523 12495 2510 12504 2495 ct 
12512 2479 12517 2462 12517 2445 ct 12517 2445 l  p ef
gr
gs
0.210 0.324 0.414 c 12518 2144 m  12518 2126 12513 2109 12505 2093 ct 12496 2078 12483 2065 12468 2056 ct 
12452 2048 12435 2043 12418 2043 ct 12400 2043 12383 2048 12367 2056 ct 12352 2065 12339 2078 12330 2093 ct 
12322 2109 12317 2126 12317 2144 ct 12317 2161 12322 2178 12330 2194 ct 12339 2209 12352 2222 12367 2231 ct 
12383 2239 12400 2244 12418 2244 ct 12435 2244 12452 2239 12468 2231 ct 12483 2222 12496 2209 12505 2194 ct 
12513 2178 12518 2161 12518 2144 ct 12518 2144 l  p ef
gr
gs
0.210 0.324 0.414 c 12819 2242 m  12819 2225 12814 2208 12806 2192 ct 12797 2177 12784 2164 12769 2155 ct 
12753 2147 12736 2142 12719 2142 ct 12701 2142 12684 2147 12668 2155 ct 12653 2164 12640 2177 12631 2192 ct 
12623 2208 12618 2225 12618 2242 ct 12618 2260 12623 2277 12631 2293 ct 12640 2308 12653 2321 12668 2330 ct 
12684 2338 12701 2343 12719 2343 ct 12736 2343 12753 2338 12769 2330 ct 12784 2321 12797 2308 12806 2293 ct 
12814 2277 12819 2260 12819 2242 ct 12819 2242 l  p ef
gr
gs
0.210 0.324 0.414 c 12820 2541 m  12820 2524 12815 2507 12807 2491 ct 12798 2476 12785 2463 12770 2454 ct 
12754 2446 12737 2441 12720 2441 ct 12702 2441 12685 2446 12669 2454 ct 12654 2463 12641 2476 12632 2491 ct 
12624 2507 12619 2524 12619 2541 ct 12619 2559 12624 2576 12632 2591 ct 12641 2606 12654 2619 12669 2628 ct 
12685 2636 12702 2641 12720 2641 ct 12737 2641 12754 2636 12770 2628 ct 12785 2619 12798 2606 12807 2591 ct 
12815 2576 12820 2559 12820 2541 ct 12820 2541 l  p ef
gr
gs
0.210 0.324 0.414 c 8323 2141 m  8323 2123 8318 2106 8310 2090 ct 8301 2075 8288 2062 8273 2053 ct 
8257 2045 8240 2040 8222 2040 ct 8205 2040 8188 2045 8172 2053 ct 8157 2062 8144 2075 8135 2090 ct 
8127 2106 8122 2123 8122 2141 ct 8122 2158 8127 2175 8135 2191 ct 8144 2206 8157 2219 8172 2228 ct 
8188 2236 8205 2241 8222 2241 ct 8240 2241 8257 2236 8273 2228 ct 8288 2219 8301 2206 8310 2191 ct 
8318 2175 8323 2158 8323 2141 ct 8323 2141 l  p ef
gr
gs
0.210 0.324 0.414 c 8523 2340 m  8523 2322 8518 2305 8510 2289 ct 8501 2274 8488 2261 8473 2252 ct 
8457 2244 8440 2239 8423 2239 ct 8405 2239 8388 2244 8372 2252 ct 8357 2261 8344 2274 8335 2289 ct 
8327 2305 8322 2322 8322 2340 ct 8322 2357 8327 2374 8335 2390 ct 8344 2405 8357 2418 8372 2427 ct 
8388 2435 8405 2440 8423 2440 ct 8440 2440 8457 2435 8473 2427 ct 8488 2418 8501 2405 8510 2390 ct 
8518 2374 8523 2357 8523 2340 ct 8523 2340 l  p ef
gr
gs
0.210 0.324 0.414 c 8224 2439 m  8224 2421 8219 2404 8211 2388 ct 8202 2373 8189 2360 8174 2351 ct 
8158 2343 8141 2338 8123 2338 ct 8106 2338 8089 2343 8073 2351 ct 8058 2360 8045 2373 8036 2388 ct 
8028 2404 8023 2421 8023 2439 ct 8023 2456 8028 2473 8036 2489 ct 8045 2504 8058 2517 8073 2526 ct 
8089 2534 8106 2539 8123 2539 ct 8141 2539 8158 2534 8174 2526 ct 8189 2517 8202 2504 8211 2489 ct 
8219 2473 8224 2456 8224 2439 ct 8224 2439 l  p ef
gr
gs
0.210 0.324 0.414 c 9024 2438 m  9024 2420 9019 2403 9011 2387 ct 9002 2372 8989 2359 8974 2350 ct 
8958 2342 8941 2337 8924 2337 ct 8906 2337 8889 2342 8873 2350 ct 8858 2359 8845 2372 8836 2387 ct 
8828 2403 8823 2420 8823 2438 ct 8823 2455 8828 2472 8836 2488 ct 8845 2503 8858 2516 8873 2525 ct 
8889 2533 8906 2538 8924 2538 ct 8941 2538 8958 2533 8974 2525 ct 8989 2516 9002 2503 9011 2488 ct 
9019 2472 9024 2455 9024 2438 ct 9024 2438 l  p ef
gr
gs
0.210 0.324 0.414 c 9925 2437 m  9925 2419 9920 2402 9912 2386 ct 9903 2371 9890 2358 9875 2349 ct 
9859 2341 9842 2336 9825 2336 ct 9807 2336 9790 2341 9774 2349 ct 9759 2358 9746 2371 9737 2386 ct 
9729 2402 9724 2419 9724 2437 ct 9724 2454 9729 2471 9737 2487 ct 9746 2502 9759 2515 9774 2524 ct 
9790 2532 9807 2537 9825 2537 ct 9842 2537 9859 2532 9875 2524 ct 9890 2515 9903 2502 9912 2487 ct 
9920 2471 9925 2454 9925 2437 ct 9925 2437 l  p ef
gr
gs
0.210 0.324 0.414 c 10225 2537 m  10225 2519 10220 2502 10212 2486 ct 10203 2471 10190 2458 10175 2449 ct 
10159 2441 10142 2436 10125 2436 ct 10107 2436 10090 2441 10074 2449 ct 10059 2458 10046 2471 10037 2486 ct 
10029 2502 10024 2519 10024 2537 ct 10024 2554 10029 2571 10037 2586 ct 10046 2601 10059 2614 10074 2623 ct 
10090 2631 10107 2636 10125 2636 ct 10142 2636 10159 2631 10175 2623 ct 10190 2614 10203 2601 10212 2586 ct 
10220 2571 10225 2554 10225 2537 ct 10225 2537 l  p ef
gr
gs
0.210 0.324 0.414 c 10626 2437 m  10626 2419 10621 2402 10613 2386 ct 10604 2371 10591 2358 10576 2349 ct 
10560 2341 10543 2336 10526 2336 ct 10508 2336 10491 2341 10475 2349 ct 10460 2358 10447 2371 10438 2386 ct 
10430 2402 10425 2419 10425 2437 ct 10425 2454 10430 2471 10438 2487 ct 10447 2502 10460 2515 10475 2524 ct 
10491 2532 10508 2537 10526 2537 ct 10543 2537 10560 2532 10576 2524 ct 10591 2515 10604 2502 10613 2487 ct 
10621 2471 10626 2454 10626 2437 ct 10626 2437 l  p ef
gr
gs
0.210 0.324 0.414 c 9815 2847 m  9815 2829 9810 2812 9802 2796 ct 9793 2781 9780 2768 9765 2759 ct 
9749 2751 9732 2746 9715 2746 ct 9697 2746 9680 2751 9664 2759 ct 9649 2768 9636 2781 9627 2796 ct 
9619 2812 9614 2829 9614 2846 ct 9614 2864 9619 2881 9627 2897 ct 9636 2912 9649 2925 9664 2934 ct 
9680 2942 9697 2947 9715 2947 ct 9732 2947 9749 2942 9765 2934 ct 9780 2925 9793 2912 9802 2897 ct 
9810 2881 9815 2864 9815 2847 ct 9815 2847 l  p ef
gr
gs
0.210 0.324 0.414 c 11315 2646 m  11315 2628 11310 2611 11302 2595 ct 11293 2581 11280 2568 11265 2559 ct 
11250 2551 11233 2546 11216 2546 ct 11198 2546 11181 2551 11165 2559 ct 11150 2568 11137 2581 11128 2595 ct 
11120 2611 11115 2628 11115 2646 ct 11115 2663 11120 2680 11128 2696 ct 11137 2711 11150 2724 11165 2733 ct 
11181 2741 11198 2746 11216 2746 ct 11233 2746 11250 2741 11265 2733 ct 11280 2724 11293 2711 11302 2696 ct 
11310 2680 11315 2663 11315 2646 ct 11315 2646 l  p ef
gr
gs
0.210 0.324 0.414 c 8417 2746 m  8417 2728 8412 2711 8404 2695 ct 8395 2680 8382 2667 8367 2658 ct 
8351 2650 8334 2645 8317 2645 ct 8299 2645 8282 2650 8266 2658 ct 8251 2667 8238 2680 8229 2695 ct 
8221 2711 8216 2728 8216 2746 ct 8216 2763 8221 2780 8229 2796 ct 8238 2811 8251 2824 8266 2833 ct 
8282 2841 8299 2846 8317 2846 ct 8334 2846 8351 2841 8367 2833 ct 8382 2824 8395 2811 8404 2796 ct 
8412 2780 8417 2763 8417 2746 ct 8417 2746 l  p ef
gr
gs
0.210 0.324 0.414 c 9117 2945 m  9117 2927 9112 2910 9104 2894 ct 9095 2879 9082 2866 9067 2857 ct 
9051 2849 9034 2844 9017 2844 ct 8999 2844 8982 2849 8966 2857 ct 8951 2866 8938 2879 8929 2894 ct 
8921 2910 8916 2927 8916 2945 ct 8916 2962 8921 2979 8929 2995 ct 8938 3010 8951 3023 8966 3032 ct 
8982 3040 8999 3045 9017 3045 ct 9034 3045 9051 3040 9067 3032 ct 9082 3023 9095 3010 9104 2995 ct 
9112 2979 9117 2962 9117 2945 ct 9117 2945 l  p ef
gr
gs
0.210 0.324 0.414 c 10316 2845 m  10316 2828 10311 2811 10303 2795 ct 10294 2780 10281 2767 10266 2758 ct 
10250 2750 10233 2745 10216 2745 ct 10198 2745 10181 2750 10165 2758 ct 10150 2767 10137 2780 10128 2795 ct 
10120 2811 10115 2828 10115 2845 ct 10115 2863 10120 2880 10128 2896 ct 10137 2911 10150 2924 10165 2933 ct 
10181 2941 10198 2946 10216 2946 ct 10233 2946 10250 2941 10266 2933 ct 10281 2924 10294 2911 10303 2896 ct 
10311 2880 10316 2863 10316 2845 ct 10316 2845 l  p ef
gr
gs
0.210 0.324 0.414 c 11716 2845 m  11716 2827 11711 2810 11703 2794 ct 11694 2779 11681 2766 11666 2757 ct 
11650 2749 11633 2744 11616 2744 ct 11598 2744 11581 2749 11565 2757 ct 11550 2766 11537 2779 11528 2794 ct 
11520 2810 11515 2827 11515 2845 ct 11515 2862 11520 2879 11528 2895 ct 11537 2910 11550 2923 11565 2932 ct 
11581 2940 11598 2945 11616 2945 ct 11633 2945 11650 2940 11666 2932 ct 11681 2923 11694 2910 11703 2895 ct 
11711 2879 11716 2862 11716 2845 ct 11716 2845 l  p ef
gr
gs
0.210 0.324 0.414 c 8817 2645 m  8817 2627 8812 2610 8804 2594 ct 8795 2580 8782 2567 8767 2558 ct 
8751 2550 8735 2545 8718 2545 ct 8700 2545 8683 2550 8667 2558 ct 8652 2567 8639 2580 8630 2594 ct 
8622 2610 8617 2627 8617 2645 ct 8617 2662 8622 2679 8630 2695 ct 8639 2710 8652 2723 8667 2732 ct 
8683 2740 8700 2745 8718 2745 ct 8735 2745 8751 2740 8767 2732 ct 8782 2723 8795 2710 8804 2695 ct 
8812 2679 8817 2662 8817 2645 ct 8817 2645 l  p ef
gr
gs
0.210 0.324 0.414 c 9418 2744 m  9418 2726 9413 2709 9405 2693 ct 9396 2678 9383 2665 9368 2656 ct 
9352 2648 9335 2643 9318 2643 ct 9300 2643 9283 2648 9267 2656 ct 9252 2665 9239 2678 9230 2693 ct 
9222 2709 9217 2726 9217 2744 ct 9217 2761 9222 2778 9230 2794 ct 9239 2809 9252 2822 9267 2831 ct 
9283 2839 9300 2844 9318 2844 ct 9335 2844 9352 2839 9368 2831 ct 9383 2822 9396 2809 9405 2794 ct 
9413 2778 9418 2761 9418 2744 ct 9418 2744 l  p ef
gr
gs
0.210 0.324 0.414 c 10714 3547 m  10714 3529 10709 3512 10701 3496 ct 10692 3481 10679 3468 10664 3459 ct 
10648 3451 10631 3446 10614 3446 ct 10596 3446 10579 3451 10563 3459 ct 10548 3468 10535 3481 10526 3496 ct 
10518 3512 10513 3529 10513 3546 ct 10513 3564 10518 3581 10526 3597 ct 10535 3612 10548 3625 10563 3634 ct 
10579 3642 10596 3647 10614 3647 ct 10631 3647 10648 3642 10664 3634 ct 10679 3625 10692 3612 10701 3597 ct 
10709 3581 10714 3564 10714 3547 ct 10714 3547 l  p ef
gr
gs
0.210 0.324 0.414 c 12414 3546 m  12414 3528 12409 3511 12401 3495 ct 12392 3480 12379 3467 12364 3458 ct 
12348 3450 12331 3445 12314 3445 ct 12296 3445 12279 3450 12263 3458 ct 12248 3467 12235 3480 12226 3495 ct 
12218 3511 12213 3528 12213 3546 ct 12213 3563 12218 3580 12226 3596 ct 12235 3611 12248 3624 12263 3633 ct 
12279 3641 12296 3646 12314 3646 ct 12331 3646 12348 3641 12364 3633 ct 12379 3624 12392 3611 12401 3596 ct 
12409 3580 12414 3563 12414 3546 ct 12414 3546 l  p ef
gr
gs
0.210 0.324 0.414 c 9215 3346 m  9215 3328 9210 3311 9202 3295 ct 9193 3280 9180 3267 9165 3258 ct 
9149 3250 9132 3245 9115 3245 ct 9097 3245 9080 3250 9064 3258 ct 9049 3267 9036 3280 9027 3295 ct 
9019 3311 9014 3328 9014 3346 ct 9014 3363 9019 3380 9027 3396 ct 9036 3411 9049 3424 9064 3433 ct 
9080 3441 9097 3446 9115 3446 ct 9132 3446 9149 3441 9165 3433 ct 9180 3424 9193 3411 9202 3396 ct 
9210 3380 9215 3363 9215 3346 ct 9215 3346 l  p ef
gr
gs
0.210 0.324 0.414 c 10116 3245 m  10116 3227 10111 3210 10103 3194 ct 10094 3179 10081 3166 10066 3157 ct 
10050 3149 10033 3144 10016 3144 ct 9998 3144 9981 3149 9965 3157 ct 9950 3166 9937 3179 9928 3194 ct 
9920 3210 9915 3227 9915 3245 ct 9915 3262 9920 3279 9928 3295 ct 9937 3310 9950 3323 9965 3332 ct 
9981 3340 9998 3345 10016 3345 ct 10033 3345 10050 3340 10066 3332 ct 10081 3323 10094 3310 10103 3295 ct 
10111 3279 10116 3262 10116 3245 ct 10116 3245 l  p ef
gr
gs
0.210 0.324 0.414 c 11713 4046 m  11713 4028 11708 4011 11700 3995 ct 11691 3980 11678 3967 11663 3958 ct 
11647 3950 11630 3945 11612 3945 ct 11595 3945 11578 3950 11562 3958 ct 11547 3967 11534 3980 11525 3995 ct 
11517 4011 11512 4028 11512 4046 ct 11512 4063 11517 4080 11525 4096 ct 11534 4111 11547 4124 11562 4133 ct 
11578 4141 11595 4146 11612 4146 ct 11630 4146 11647 4141 11663 4133 ct 11678 4124 11691 4111 11700 4096 ct 
11708 4080 11713 4063 11713 4046 ct 11713 4046 l  p ef
gr
gs
0.210 0.324 0.414 c 9715 4045 m  9715 4027 9710 4010 9702 3994 ct 9693 3979 9680 3966 9665 3957 ct 
9649 3949 9632 3944 9614 3944 ct 9597 3944 9580 3949 9564 3957 ct 9549 3966 9536 3979 9527 3994 ct 
9519 4010 9514 4027 9514 4045 ct 9514 4062 9519 4079 9527 4095 ct 9536 4110 9549 4123 9564 4132 ct 
9580 4140 9597 4145 9614 4145 ct 9632 4145 9649 4140 9665 4132 ct 9680 4123 9693 4110 9702 4095 ct 
9710 4079 9715 4062 9715 4045 ct 9715 4045 l  p ef
gr
gs
0.210 0.324 0.414 c 10716 4044 m  10716 4026 10711 4009 10703 3993 ct 10694 3978 10681 3965 10666 3956 ct 
10650 3948 10633 3943 10616 3943 ct 10598 3943 10581 3948 10565 3956 ct 10550 3965 10537 3978 10528 3993 ct 
10520 4009 10515 4026 10515 4044 ct 10515 4061 10520 4078 10528 4094 ct 10537 4109 10550 4122 10565 4131 ct 
10581 4139 10598 4144 10616 4144 ct 10633 4144 10650 4139 10666 4131 ct 10681 4122 10694 4109 10703 4094 ct 
10711 4078 10716 4061 10716 4044 ct 10716 4044 l  p ef
gr
gs
0.210 0.324 0.414 c 11713 3243 m  11713 3225 11708 3208 11700 3192 ct 11691 3177 11678 3164 11663 3155 ct 
11647 3147 11630 3142 11613 3142 ct 11595 3142 11578 3147 11562 3155 ct 11547 3164 11534 3177 11525 3192 ct 
11517 3208 11512 3225 11512 3243 ct 11512 3260 11517 3277 11525 3293 ct 11534 3308 11547 3321 11562 3330 ct 
11578 3338 11595 3343 11613 3343 ct 11630 3343 11647 3338 11663 3330 ct 11678 3321 11691 3308 11700 3293 ct 
11708 3277 11713 3260 11713 3243 ct 11713 3243 l  p ef
gr
gs
0.210 0.324 0.414 c 12714 3242 m  12714 3224 12709 3207 12701 3191 ct 12692 3176 12679 3163 12664 3154 ct 
12648 3146 12631 3141 12614 3141 ct 12596 3141 12579 3146 12563 3154 ct 12548 3163 12535 3176 12526 3191 ct 
12518 3207 12513 3224 12513 3242 ct 12513 3259 12518 3276 12526 3292 ct 12535 3307 12548 3320 12563 3329 ct 
12579 3337 12596 3342 12614 3342 ct 12631 3342 12648 3337 12664 3329 ct 12679 3320 12692 3307 12701 3292 ct 
12709 3276 12714 3259 12714 3242 ct 12714 3242 l  p ef
gr
gs
0.210 0.324 0.414 c 9715 3242 m  9715 3224 9710 3207 9702 3191 ct 9693 3176 9680 3163 9665 3154 ct 
9649 3146 9632 3141 9615 3141 ct 9597 3141 9580 3146 9564 3154 ct 9549 3163 9536 3176 9527 3191 ct 
9519 3207 9514 3224 9514 3242 ct 9514 3259 9519 3276 9527 3292 ct 9536 3307 9549 3320 9564 3329 ct 
9580 3337 9597 3342 9615 3342 ct 9632 3342 9649 3337 9665 3329 ct 9680 3320 9693 3307 9702 3292 ct 
9710 3276 9715 3259 9715 3242 ct 9715 3242 l  p ef
gr
gs
0.210 0.324 0.414 c 10916 2841 m  10916 2823 10911 2806 10903 2790 ct 10894 2775 10881 2762 10866 2753 ct 
10850 2745 10833 2740 10816 2740 ct 10798 2740 10781 2745 10765 2753 ct 10750 2762 10737 2775 10728 2790 ct 
10720 2806 10715 2823 10715 2841 ct 10715 2858 10720 2875 10728 2891 ct 10737 2906 10750 2919 10765 2928 ct 
10781 2936 10798 2941 10816 2941 ct 10833 2941 10850 2936 10866 2928 ct 10881 2919 10894 2906 10903 2891 ct 
10911 2875 10916 2858 10916 2841 ct 10916 2841 l  p ef
gr
gs
0.210 0.324 0.414 c 10615 3146 m  10615 3128 10610 3111 10602 3095 ct 10593 3080 10580 3067 10565 3058 ct 
10549 3050 10532 3045 10515 3045 ct 10497 3045 10480 3050 10464 3058 ct 10449 3067 10436 3080 10427 3095 ct 
10419 3111 10414 3128 10414 3146 ct 10414 3163 10419 3180 10427 3196 ct 10436 3211 10449 3224 10464 3233 ct 
10480 3241 10497 3246 10515 3246 ct 10532 3246 10549 3241 10565 3233 ct 10580 3224 10593 3211 10602 3196 ct 
10610 3180 10615 3163 10615 3146 ct 10615 3146 l  p ef
gr
gs
0.210 0.324 0.414 c 11016 3145 m  11016 3127 11011 3110 11003 3094 ct 10994 3079 10981 3066 10966 3057 ct 
10950 3049 10933 3044 10916 3044 ct 10898 3044 10881 3049 10865 3057 ct 10850 3066 10837 3079 10828 3094 ct 
10820 3110 10815 3127 10815 3145 ct 10815 3162 10820 3179 10828 3195 ct 10837 3210 10850 3223 10865 3232 ct 
10881 3240 10898 3245 10916 3245 ct 10933 3245 10950 3240 10966 3232 ct 10981 3223 10994 3210 11003 3195 ct 
11011 3179 11016 3162 11016 3145 ct 11016 3145 l  p ef
gr
gs
0.210 0.324 0.414 c 11416 3045 m  11416 3027 11411 3010 11403 2994 ct 11394 2979 11381 2966 11366 2957 ct 
11350 2949 11333 2944 11316 2944 ct 11298 2944 11281 2949 11265 2957 ct 11250 2966 11238 2979 11229 2994 ct 
11221 3010 11216 3027 11216 3045 ct 11216 3062 11221 3079 11229 3095 ct 11238 3110 11250 3123 11265 3132 ct 
11281 3140 11298 3145 11316 3145 ct 11333 3145 11350 3140 11366 3132 ct 11381 3123 11394 3110 11403 3095 ct 
11411 3079 11416 3062 11416 3045 ct 11416 3045 l  p ef
gr
gs
0.210 0.324 0.414 c 11417 3645 m  11417 3627 11412 3610 11404 3594 ct 11395 3579 11382 3566 11367 3557 ct 
11351 3549 11334 3544 11317 3544 ct 11299 3544 11282 3549 11266 3557 ct 11251 3566 11239 3579 11230 3594 ct 
11222 3610 11217 3627 11217 3645 ct 11217 3662 11222 3679 11230 3695 ct 11239 3710 11251 3723 11266 3732 ct 
11282 3740 11299 3745 11317 3745 ct 11334 3745 11351 3740 11367 3732 ct 11382 3723 11395 3710 11404 3695 ct 
11412 3679 11417 3662 11417 3645 ct 11417 3645 l  p ef
gr
gs
0.210 0.324 0.414 c 12019 3043 m  12019 3026 12014 3009 12006 2993 ct 11997 2978 11984 2965 11969 2956 ct 
11953 2948 11936 2943 11919 2943 ct 11901 2943 11884 2948 11868 2956 ct 11853 2965 11840 2978 11831 2993 ct 
11823 3009 11818 3026 11818 3043 ct 11818 3061 11823 3078 11831 3094 ct 11840 3109 11853 3122 11868 3131 ct 
11884 3139 11901 3144 11919 3144 ct 11936 3144 11953 3139 11969 3131 ct 11984 3122 11997 3109 12006 3094 ct 
12014 3078 12019 3061 12019 3043 ct 12019 3043 l  p ef
gr
gs
0.210 0.324 0.414 c 12219 2742 m  12219 2725 12214 2708 12206 2692 ct 12197 2677 12184 2664 12169 2655 ct 
12153 2647 12136 2642 12119 2642 ct 12101 2642 12084 2647 12068 2655 ct 12053 2664 12040 2677 12031 2692 ct 
12023 2708 12018 2725 12018 2742 ct 12018 2760 12023 2777 12031 2793 ct 12040 2808 12053 2821 12068 2830 ct 
12084 2838 12101 2843 12119 2843 ct 12136 2843 12153 2838 12169 2830 ct 12184 2821 12197 2808 12206 2793 ct 
12214 2777 12219 2760 12219 2742 ct 12219 2742 l  p ef
gr
gs
0.210 0.324 0.414 c 12620 2842 m  12620 2824 12615 2807 12607 2791 ct 12598 2776 12585 2763 12570 2754 ct 
12554 2746 12537 2741 12520 2741 ct 12502 2741 12485 2746 12469 2754 ct 12454 2763 12441 2776 12432 2791 ct 
12424 2807 12419 2824 12419 2842 ct 12419 2859 12424 2876 12432 2892 ct 12441 2907 12454 2920 12469 2929 ct 
12485 2937 12502 2942 12520 2942 ct 12537 2942 12554 2937 12570 2929 ct 12585 2920 12598 2907 12607 2892 ct 
12615 2876 12620 2859 12620 2842 ct 12620 2842 l  p ef
gr
gs
0.210 0.324 0.414 c 12921 2941 m  12921 2923 12916 2906 12908 2890 ct 12899 2875 12886 2862 12871 2853 ct 
12855 2845 12838 2840 12821 2840 ct 12803 2840 12786 2845 12770 2853 ct 12755 2862 12742 2875 12733 2890 ct 
12725 2906 12720 2923 12720 2940 ct 12720 2958 12725 2975 12733 2991 ct 12742 3006 12755 3019 12770 3028 ct 
12786 3036 12803 3041 12821 3041 ct 12838 3041 12855 3036 12871 3028 ct 12886 3019 12899 3006 12908 2991 ct 
12916 2975 12921 2958 12921 2941 ct 12921 2941 l  p ef
gr
gs
0.210 0.324 0.414 c 12322 3120 m  12322 3102 12317 3085 12309 3069 ct 12300 3054 12287 3041 12272 3032 ct 
12256 3024 12239 3019 12222 3019 ct 12204 3019 12187 3024 12171 3032 ct 12156 3041 12143 3054 12134 3069 ct 
12126 3085 12121 3102 12121 3120 ct 12121 3137 12126 3154 12134 3170 ct 12143 3185 12156 3198 12171 3207 ct 
12187 3215 12204 3220 12222 3220 ct 12239 3220 12256 3215 12272 3207 ct 12287 3198 12300 3185 12309 3170 ct 
12317 3154 12322 3137 12322 3120 ct 12322 3120 l  p ef
gr
gs
0.210 0.324 0.414 c 11814 4745 m  11814 4727 11809 4710 11801 4694 ct 11792 4679 11779 4666 11764 4657 ct 
11748 4649 11731 4644 11713 4644 ct 11696 4644 11679 4649 11663 4657 ct 11648 4666 11635 4679 11626 4694 ct 
11618 4710 11613 4727 11613 4745 ct 11613 4762 11618 4779 11626 4795 ct 11635 4810 11648 4823 11663 4832 ct 
11679 4840 11696 4845 11713 4845 ct 11731 4845 11748 4840 11764 4832 ct 11779 4823 11792 4810 11801 4795 ct 
11809 4779 11814 4762 11814 4745 ct 11814 4745 l  p ef
gr
gs
0.210 0.324 0.414 c 11116 4744 m  11116 4726 11111 4709 11103 4693 ct 11094 4678 11081 4665 11066 4656 ct 
11050 4648 11033 4643 11016 4643 ct 10998 4643 10981 4648 10965 4656 ct 10950 4665 10937 4678 10928 4693 ct 
10920 4709 10915 4726 10915 4744 ct 10915 4761 10920 4778 10928 4794 ct 10937 4809 10950 4822 10965 4831 ct 
10981 4839 10998 4844 11016 4844 ct 11033 4844 11050 4839 11066 4831 ct 11081 4822 11094 4809 11103 4794 ct 
11111 4778 11116 4761 11116 4744 ct 11116 4744 l  p ef
gr
gs
0.210 0.324 0.414 c 11316 4343 m  11316 4325 11311 4308 11303 4292 ct 11294 4277 11281 4264 11266 4255 ct 
11250 4247 11234 4242 11217 4242 ct 11199 4242 11182 4247 11166 4255 ct 11151 4264 11138 4277 11129 4292 ct 
11121 4308 11116 4325 11116 4343 ct 11116 4360 11121 4377 11129 4393 ct 11138 4408 11151 4421 11166 4430 ct 
11182 4438 11199 4443 11217 4443 ct 11234 4443 11250 4438 11266 4430 ct 11281 4421 11294 4408 11303 4393 ct 
11311 4377 11316 4360 11316 4343 ct 11316 4343 l  p ef
gr
gs
0.210 0.324 0.414 c 10318 4342 m  10318 4324 10313 4307 10305 4291 ct 10296 4276 10283 4263 10268 4254 ct 
10252 4246 10235 4241 10217 4241 ct 10200 4241 10183 4246 10167 4254 ct 10152 4263 10139 4276 10130 4291 ct 
10122 4307 10117 4324 10117 4342 ct 10117 4359 10122 4376 10130 4392 ct 10139 4407 10152 4420 10167 4429 ct 
10183 4437 10200 4442 10217 4442 ct 10235 4442 10252 4437 10268 4429 ct 10283 4420 10296 4407 10305 4392 ct 
10313 4376 10318 4359 10318 4342 ct 10318 4342 l  p ef
gr
gs
0.210 0.324 0.414 c 10119 4741 m  10119 4723 10114 4706 10106 4690 ct 10097 4675 10084 4662 10069 4653 ct 
10053 4645 10036 4640 10018 4640 ct 10001 4640 9984 4645 9968 4653 ct 9953 4662 9940 4675 9931 4690 ct 
9923 4706 9918 4723 9918 4741 ct 9918 4758 9923 4775 9931 4791 ct 9940 4806 9953 4819 9968 4828 ct 
9984 4836 10001 4841 10018 4841 ct 10036 4841 10053 4836 10069 4828 ct 10084 4819 10097 4806 10106 4791 ct 
10114 4775 10119 4758 10119 4741 ct 10119 4741 l  p ef
gr
gs
0.210 0.324 0.414 c 10720 4939 m  10720 4922 10715 4905 10707 4889 ct 10698 4874 10685 4861 10670 4852 ct 
10654 4844 10637 4839 10620 4839 ct 10602 4839 10585 4844 10569 4852 ct 10554 4861 10541 4874 10532 4889 ct 
10524 4905 10519 4922 10519 4939 ct 10519 4957 10524 4974 10532 4990 ct 10541 5005 10554 5018 10569 5027 ct 
10585 5035 10602 5040 10620 5040 ct 10637 5040 10654 5035 10670 5027 ct 10685 5018 10698 5005 10707 4990 ct 
10715 4974 10720 4957 10720 4939 ct 10720 4939 l  p ef
gr
gs
0.210 0.324 0.414 c 10621 5539 m  10621 5521 10616 5504 10608 5488 ct 10599 5473 10586 5460 10571 5451 ct 
10555 5443 10538 5438 10521 5438 ct 10503 5438 10486 5443 10470 5451 ct 10455 5460 10442 5473 10433 5488 ct 
10425 5504 10420 5521 10420 5539 ct 10420 5556 10425 5573 10433 5589 ct 10442 5604 10455 5617 10470 5626 ct 
10486 5634 10503 5639 10521 5639 ct 10538 5639 10555 5634 10571 5626 ct 10586 5617 10599 5604 10608 5589 ct 
10616 5573 10621 5556 10621 5539 ct 10621 5539 l  p ef
gr
gs
0.210 0.324 0.414 c 8523 5439 m  8523 5421 8518 5404 8510 5388 ct 8501 5373 8488 5360 8473 5351 ct 
8457 5343 8440 5338 8423 5338 ct 8405 5338 8388 5343 8372 5351 ct 8357 5360 8344 5373 8335 5388 ct 
8327 5404 8322 5421 8322 5439 ct 8322 5456 8327 5473 8335 5489 ct 8344 5504 8357 5517 8372 5526 ct 
8388 5534 8405 5539 8423 5539 ct 8440 5539 8457 5534 8473 5526 ct 8488 5517 8501 5504 8510 5489 ct 
8518 5473 8523 5456 8523 5439 ct 8523 5439 l  p ef
gr
gs
0.210 0.324 0.414 c 9525 3736 m  9525 3718 9520 3701 9512 3685 ct 9503 3670 9490 3657 9475 3648 ct 
9459 3640 9442 3635 9425 3635 ct 9407 3635 9390 3640 9374 3648 ct 9359 3657 9346 3670 9337 3685 ct 
9329 3701 9324 3718 9324 3735 ct 9324 3753 9329 3770 9337 3786 ct 9346 3801 9359 3814 9374 3823 ct 
9390 3831 9407 3836 9424 3836 ct 9442 3836 9459 3831 9475 3823 ct 9490 3814 9503 3801 9512 3786 ct 
9520 3770 9525 3753 9525 3736 ct 9525 3736 l  p ef
gr
gs
0.210 0.324 0.414 c 10225 3836 m  10225 3818 10220 3801 10212 3785 ct 10203 3770 10190 3757 10175 3748 ct 
10159 3740 10142 3735 10125 3735 ct 10107 3735 10090 3740 10074 3748 ct 10059 3757 10046 3770 10037 3785 ct 
10029 3801 10024 3818 10024 3836 ct 10024 3853 10029 3870 10037 3886 ct 10046 3901 10059 3914 10074 3923 ct 
10090 3931 10107 3936 10124 3936 ct 10142 3936 10159 3931 10175 3923 ct 10190 3914 10203 3901 10212 3886 ct 
10220 3870 10225 3853 10225 3836 ct 10225 3836 l  p ef
gr
gs
0.210 0.324 0.414 c 9325 4434 m  9325 4417 9320 4400 9312 4384 ct 9303 4369 9290 4356 9275 4347 ct 
9259 4339 9242 4334 9224 4334 ct 9207 4334 9190 4339 9174 4347 ct 9159 4356 9146 4369 9137 4384 ct 
9129 4400 9124 4417 9124 4434 ct 9124 4452 9129 4469 9137 4485 ct 9146 4500 9159 4513 9174 4522 ct 
9190 4530 9207 4535 9224 4535 ct 9242 4535 9259 4530 9275 4522 ct 9290 4513 9303 4500 9312 4485 ct 
9320 4469 9325 4452 9325 4434 ct 9325 4434 l  p ef
gr
gs
0.210 0.324 0.414 c 8627 4234 m  8627 4216 8622 4199 8614 4183 ct 8605 4168 8592 4155 8577 4146 ct 
8561 4138 8544 4133 8527 4133 ct 8509 4133 8492 4138 8476 4146 ct 8461 4155 8448 4168 8439 4183 ct 
8431 4199 8426 4216 8426 4234 ct 8426 4251 8431 4268 8439 4284 ct 8448 4299 8461 4312 8476 4321 ct 
8492 4329 8509 4334 8527 4334 ct 8544 4334 8561 4329 8577 4321 ct 8592 4312 8605 4299 8614 4284 ct 
8622 4268 8627 4251 8627 4234 ct 8627 4234 l  p ef
gr
gs
0.210 0.324 0.414 c 8308 4533 m  8308 4515 8303 4498 8295 4482 ct 8286 4467 8273 4454 8258 4445 ct 
8242 4437 8225 4432 8208 4432 ct 8190 4432 8173 4437 8157 4445 ct 8142 4454 8129 4467 8120 4482 ct 
8112 4498 8107 4515 8107 4533 ct 8107 4550 8112 4567 8120 4583 ct 8129 4598 8142 4611 8157 4620 ct 
8173 4628 8190 4633 8208 4633 ct 8225 4633 8242 4628 8258 4620 ct 8273 4611 8286 4598 8295 4583 ct 
8303 4567 8308 4550 8308 4533 ct 8308 4533 l  p ef
gr
gs
0.210 0.324 0.414 c 8928 4932 m  8928 4914 8923 4897 8915 4881 ct 8906 4866 8893 4853 8878 4844 ct 
8862 4836 8845 4831 8828 4831 ct 8810 4831 8793 4836 8777 4844 ct 8762 4853 8750 4866 8741 4881 ct 
8733 4897 8728 4914 8728 4932 ct 8728 4949 8733 4966 8741 4982 ct 8750 4997 8762 5010 8777 5019 ct 
8793 5027 8810 5032 8828 5032 ct 8845 5032 8862 5027 8878 5019 ct 8893 5010 8906 4997 8915 4982 ct 
8923 4966 8928 4949 8928 4932 ct 8928 4932 l  p ef
gr
gs
0.109 0.609 0.949 c 9308 5304 m  9307 5329 l  9305 5355 l  9301 5381 l 
9297 5406 l  9291 5431 l  9283 5456 l  9275 5481 l  9265 5505 l  9254 5528 l 
9242 5551 l  9228 5573 l  9214 5595 l  9199 5615 l  9182 5635 l  9165 5654 l 
9146 5672 l  9127 5690 l  9107 5706 l  9086 5721 l  9064 5735 l  9042 5748 l 
9019 5760 l  8995 5771 l  8971 5780 l  8947 5788 l  8922 5795 l  8897 5801 l 
8871 5805 l  8845 5809 l  8820 5810 l  8794 5811 l  8768 5810 l  8743 5808 l 
8717 5805 l  8692 5800 l  8667 5794 l  8642 5787 l  8618 5779 l  8594 5769 l 
8570 5758 l  8547 5746 l  8525 5733 l  8503 5718 l  8483 5703 l  8463 5687 l 
8443 5669 l  8425 5651 l  8408 5632 l  8392 5612 l  8376 5591 l  8362 5569 l 
8349 5547 l  8337 5524 l  8326 5500 l  8317 5476 l  8308 5452 l  8301 5427 l 
8295 5402 l  8291 5376 l  8288 5351 l  8286 5325 l  8285 5299 l  8197 5299 l 
8198 5329 l  8200 5360 l  8204 5390 l  8209 5419 l  8216 5449 l  8224 5478 l 
8234 5507 l  8245 5535 l  8258 5563 l  8272 5589 l  8287 5616 l  8304 5641 l 
8322 5665 l  8341 5689 l  8361 5712 l  8383 5733 l  8405 5753 l  8429 5773 l 
8453 5791 l  8478 5807 l  8504 5823 l  8531 5837 l  8559 5850 l  8587 5861 l 
8615 5871 l  8645 5879 l  8674 5886 l  8704 5892 l  8734 5896 l  8763 5898 l 
8794 5899 l  8824 5898 l  8854 5896 l  8884 5892 l  8914 5887 l  8944 5881 l 
8973 5872 l  9002 5863 l  9030 5852 l  9057 5839 l  9084 5825 l  9110 5810 l 
9136 5793 l  9160 5776 l  9184 5757 l  9207 5736 l  9228 5715 l  9249 5693 l 
9268 5669 l  9286 5645 l  9303 5620 l  9319 5594 l  9333 5567 l  9346 5540 l 
9357 5512 l  9367 5483 l  9376 5454 l  9383 5424 l  9388 5395 l  9392 5365 l 
9395 5334 l  9396 5304 l  9547 5306 l  9354 5109 l  9157 5302 l  9308 5304 l 
p ef
gr
gs
0.210 0.324 0.414 c 9629 5231 m  9629 5213 9624 5196 9616 5180 ct 9607 5165 9594 5152 9579 5143 ct 
9563 5135 9546 5130 9529 5130 ct 9511 5130 9494 5135 9478 5143 ct 9463 5152 9450 5165 9441 5180 ct 
9433 5196 9428 5213 9428 5230 ct 9428 5248 9433 5265 9441 5281 ct 9450 5296 9463 5309 9478 5318 ct 
9494 5326 9511 5331 9529 5331 ct 9546 5331 9563 5326 9579 5318 ct 9594 5309 9607 5296 9616 5281 ct 
9624 5265 9629 5248 9629 5231 ct 9629 5231 l  p ef
gr
gs
0.210 0.324 0.414 c 12429 5229 m  12429 5212 12424 5195 12416 5179 ct 12407 5164 12394 5151 12379 5142 ct 
12363 5134 12346 5129 12329 5129 ct 12311 5129 12294 5134 12278 5142 ct 12263 5151 12250 5164 12241 5179 ct 
12233 5195 12228 5212 12228 5229 ct 12228 5247 12233 5264 12241 5280 ct 12250 5295 12263 5308 12278 5317 ct 
12294 5325 12311 5330 12329 5330 ct 12346 5330 12363 5325 12379 5317 ct 12394 5308 12407 5295 12416 5280 ct 
12424 5264 12429 5247 12429 5229 ct 12429 5229 l  p ef
gr
gs
0.109 0.609 0.949 c 12707 5314 m  12706 5339 l  12704 5365 l  12700 5391 l 
12696 5416 l  12690 5441 l  12682 5466 l  12674 5491 l  12664 5515 l  12653 5538 l 
12641 5561 l  12627 5583 l  12613 5605 l  12598 5625 l  12581 5645 l  12564 5664 l 
12545 5682 l  12526 5700 l  12506 5716 l  12485 5731 l  12463 5745 l  12441 5758 l 
12418 5770 l  12394 5781 l  12370 5790 l  12346 5798 l  12321 5805 l  12296 5811 l 
12270 5815 l  12244 5819 l  12219 5820 l  12193 5821 l  12167 5820 l  12141 5818 l 
12115 5815 l  12090 5810 l  12065 5804 l  12040 5797 l  12016 5789 l  11992 5779 l 
11968 5768 l  11945 5756 l  11923 5743 l  11901 5728 l  11881 5713 l  11861 5697 l 
11841 5679 l  11823 5661 l  11806 5642 l  11790 5622 l  11774 5601 l  11760 5579 l 
11747 5557 l  11735 5534 l  11724 5510 l  11715 5486 l  11706 5462 l  11699 5437 l 
11693 5412 l  11689 5386 l  11686 5361 l  11684 5335 l  11683 5309 l  11595 5309 l 
11596 5339 l  11598 5370 l  11602 5400 l  11607 5429 l  11614 5459 l  11622 5488 l 
11632 5517 l  11643 5545 l  11656 5573 l  11670 5599 l  11685 5626 l  11702 5651 l 
11720 5675 l  11739 5699 l  11759 5722 l  11781 5743 l  11803 5763 l  11827 5783 l 
11851 5801 l  11876 5817 l  11902 5833 l  11929 5847 l  11957 5860 l  11985 5871 l 
12013 5881 l  12043 5889 l  12072 5896 l  12102 5902 l  12132 5906 l  12162 5908 l 
12193 5909 l  12223 5908 l  12253 5906 l  12283 5902 l  12313 5897 l  12343 5891 l 
12372 5882 l  12401 5873 l  12429 5862 l  12456 5849 l  12483 5835 l  12509 5820 l 
12535 5803 l  12559 5786 l  12583 5767 l  12606 5746 l  12627 5725 l  12648 5703 l 
12667 5679 l  12685 5655 l  12702 5630 l  12718 5604 l  12732 5577 l  12745 5550 l 
12756 5522 l  12766 5493 l  12775 5464 l  12782 5434 l  12787 5405 l  12791 5375 l 
12794 5344 l  12795 5314 l  12946 5316 l  12753 5119 l  12556 5312 l  12707 5314 l 
p ef
gr
gs
0.210 0.324 0.414 c 11730 5529 m  11730 5511 11725 5494 11717 5478 ct 11708 5463 11695 5450 11680 5441 ct 
11664 5433 11647 5428 11630 5428 ct 11612 5428 11595 5433 11579 5441 ct 11564 5450 11551 5463 11542 5478 ct 
11534 5494 11529 5511 11529 5529 ct 11529 5546 11534 5563 11542 5579 ct 11551 5594 11564 5607 11579 5616 ct 
11595 5624 11612 5629 11630 5629 ct 11647 5629 11664 5624 11680 5616 ct 11695 5607 11708 5594 11717 5579 ct 
11725 5563 11730 5546 11730 5529 ct 11730 5529 l  p ef
gr
gs
0.210 0.324 0.414 c 11026 2537 m  11026 2519 11021 2502 11013 2486 ct 11004 2471 10991 2458 10976 2449 ct 
10960 2441 10943 2436 10926 2436 ct 10908 2436 10891 2441 10875 2449 ct 10860 2458 10847 2471 10838 2486 ct 
10830 2502 10825 2519 10825 2537 ct 10825 2554 10830 2571 10838 2586 ct 10847 2601 10860 2614 10875 2623 ct 
10891 2631 10908 2636 10926 2636 ct 10943 2636 10960 2631 10976 2623 ct 10991 2614 11004 2601 11013 2586 ct 
11021 2571 11026 2554 11026 2537 ct 11026 2537 l  p ef
gr
gs
0.210 0.324 0.414 c 11616 2546 m  11616 2528 11611 2511 11603 2495 ct 11594 2480 11581 2467 11566 2458 ct 
11550 2450 11533 2445 11516 2445 ct 11498 2445 11481 2450 11465 2458 ct 11450 2467 11437 2480 11428 2495 ct 
11420 2511 11415 2528 11415 2546 ct 11415 2563 11420 2580 11428 2595 ct 11437 2610 11450 2623 11465 2632 ct 
11481 2640 11498 2645 11516 2645 ct 11533 2645 11550 2640 11566 2632 ct 11581 2623 11594 2610 11603 2595 ct 
11611 2580 11616 2563 11616 2546 ct 11616 2546 l  p ef
gr
pum
10242 1896 t
1.000 1.000 1.000 c 11 0 m  11 -11 l  24 -11 31 -12 34 -13 ct 37 -15 39 -19 39 -27 ct 
39 -210 l  39 -219 37 -225 34 -227 ct 31 -229 24 -230 11 -230 ct 11 -241 l  62 -245 l 
62 -122 l  62 -122 l  66 -131 72 -138 81 -145 ct 89 -152 100 -156 113 -156 ct 
131 -156 143 -152 150 -143 ct 156 -137 159 -131 160 -124 ct 161 -118 161 -106 161 -89 ct 
161 -22 l  162 -17 164 -14 167 -13 ct 171 -11 178 -11 189 -11 ct 189 0 l  165 -1 152 -1 149 -1 ct 
147 -1 134 -1 109 0 ct 109 -11 l  122 -11 130 -12 133 -13 ct 135 -15 137 -19 137 -27 ct 
137 -109 l  137 -121 135 -131 131 -138 ct 128 -145 121 -148 111 -148 ct 99 -148 88 -143 78 -133 ct 
68 -123 63 -109 63 -92 ct 63 -27 l  63 -19 65 -15 68 -13 ct 71 -12 78 -11 91 -11 ct 
91 0 l  67 -1 54 -1 51 -1 ct 49 -1 36 -1 11 0 ct p ef
228 -19 m  213 -34 205 -53 205 -76 ct 205 -98 212 -117 228 -134 ct 243 -150 261 -158 283 -158 ct 
305 -158 323 -150 338 -134 ct 354 -118 361 -98 361 -76 ct 361 -53 354 -35 338 -19 ct 
323 -4 304 4 283 4 ct 262 4 244 -4 228 -19 ct p
234 -78 m  234 -56 237 -39 243 -29 ct 252 -13 266 -5 283 -5 ct 292 -5 300 -7 307 -12 ct 
315 -17 320 -23 324 -31 ct 329 -41 332 -57 332 -78 ct 332 -101 329 -117 323 -127 ct 
314 -143 300 -150 283 -150 ct 275 -150 268 -148 260 -144 ct 253 -140 247 -134 243 -127 ct 
237 -116 234 -100 234 -78 ct p ef
380 -141 m  380 -149 l  391 -149 400 -153 407 -161 ct 414 -169 419 -177 421 -187 ct 
424 -196 425 -206 425 -217 ct 434 -217 l  434 -152 l  485 -152 l  485 -141 l 
434 -141 l  434 -43 l  434 -18 442 -5 458 -5 ct 465 -5 470 -8 475 -15 ct 479 -22 481 -32 481 -44 ct 
481 -64 l  490 -64 l  490 -44 l  490 -31 487 -20 481 -10 ct 475 -1 467 4 455 4 ct 
451 4 447 3 443 2 ct 438 1 433 -1 428 -4 ct 423 -6 418 -11 415 -18 ct 411 -25 410 -34 410 -44 ct 
410 -141 l  p ef
pom
pum
10183 6395 t
34 -19 m  19 -35 12 -54 12 -76 ct 12 -99 19 -118 34 -134 ct 49 -150 67 -158 89 -158 ct 
103 -158 116 -155 126 -148 ct 137 -141 143 -132 143 -120 ct 143 -115 141 -111 138 -108 ct 
135 -105 131 -104 126 -104 ct 121 -104 117 -105 115 -108 ct 112 -111 110 -115 110 -120 ct 
110 -122 110 -124 111 -126 ct 112 -128 114 -130 116 -133 ct 119 -135 122 -136 127 -136 ct 
118 -145 106 -149 89 -149 ct 77 -149 66 -144 56 -132 ct 46 -121 41 -103 41 -77 ct 
41 -64 43 -52 46 -42 ct 50 -32 54 -25 59 -20 ct 65 -15 70 -11 75 -8 ct 81 -6 86 -5 91 -5 ct 
114 -5 130 -17 137 -42 ct 138 -44 140 -46 142 -46 ct 145 -46 146 -44 146 -42 ct 
146 -41 146 -39 145 -36 ct 144 -33 142 -29 139 -24 ct 137 -20 133 -15 129 -11 ct 
125 -7 119 -3 112 -1 ct 105 2 97 4 88 4 ct 67 4 49 -4 34 -19 ct p ef
190 -19 m  175 -34 167 -53 167 -76 ct 167 -98 174 -117 190 -134 ct 205 -150 223 -158 245 -158 ct 
267 -158 285 -150 300 -134 ct 316 -118 323 -98 323 -76 ct 323 -53 316 -35 300 -19 ct 
285 -4 266 4 245 4 ct 224 4 206 -4 190 -19 ct p
196 -78 m  196 -56 199 -39 205 -29 ct 214 -13 228 -5 245 -5 ct 254 -5 262 -7 269 -12 ct 
277 -17 282 -23 286 -31 ct 291 -41 294 -57 294 -78 ct 294 -101 291 -117 285 -127 ct 
276 -143 262 -150 245 -150 ct 237 -150 230 -148 222 -144 ct 215 -140 209 -134 205 -127 ct 
199 -116 196 -100 196 -78 ct p ef
346 0 m  346 -11 l  358 -11 366 -12 369 -13 ct 372 -15 373 -19 373 -27 ct 373 -210 l 
373 -219 372 -225 369 -227 ct 366 -229 358 -230 346 -230 ct 346 -241 l  396 -245 l 
396 -27 l  396 -19 398 -15 401 -13 ct 404 -12 412 -11 424 -11 ct 424 0 l  421 0 417 0 411 0 ct 
405 -1 400 -1 395 -1 ct 391 -1 387 -1 385 -1 ct 382 -1 369 -1 346 0 ct p ef
444 -76 m  444 -98 452 -117 467 -133 ct 483 -148 502 -156 523 -156 ct 541 -156 555 -149 567 -134 ct 
567 -210 l  567 -219 566 -225 563 -227 ct 560 -229 552 -230 540 -230 ct 540 -241 l 
590 -245 l  590 -31 l  590 -22 592 -17 595 -14 ct 598 -12 606 -11 618 -11 ct 
618 0 l  566 4 l  566 -19 l  554 -4 538 4 519 4 ct 499 4 481 -4 466 -19 ct 451 -35 444 -54 444 -76 ct 
p
473 -76 m  473 -54 477 -37 484 -26 ct 493 -11 505 -4 521 -4 ct 538 -4 552 -12 562 -29 ct 
565 -33 566 -37 566 -42 ct 566 -114 l  566 -119 565 -123 562 -127 ct 553 -141 540 -148 524 -148 ct 
508 -148 494 -141 484 -126 ct 477 -114 473 -98 473 -76 ct p ef
pom
gs
8341 4772 m  8341 3753 l  8097 3753 l  8687 3213 l  9277 3753 l  9032 3753 l 
9032 4772 l  8341 4772 l  p ef
gr
gs
8312 3705 m 9064 3705 l 9064 4120 l 8312 4120 l 8312 3705 l eoclip newpath
pum
8424 4042 t
0.003 0.003 0.003 c 139 32 m  0 -281 l  297 -281 l  p
154 -39 m  268 -263 l  54 -263 l  p ef
pom
pum
8783 4042 t
39 -54 m  39 -80 48 -103 67 -124 ct 85 -145 105 -155 127 -155 ct 138 -155 147 -152 154 -147 ct 
161 -141 165 -134 165 -125 ct 165 -119 163 -114 160 -110 ct 156 -106 152 -104 147 -104 ct 
143 -104 140 -105 138 -107 ct 136 -109 135 -112 135 -115 ct 135 -116 135 -116 135 -117 ct 
135 -118 136 -119 136 -121 ct 137 -123 138 -124 139 -126 ct 140 -127 142 -128 144 -130 ct 
147 -131 149 -132 153 -132 ct 149 -142 141 -147 128 -147 ct 120 -147 111 -144 103 -138 ct 
95 -132 88 -124 82 -112 ct 77 -104 73 -92 69 -77 ct 65 -62 63 -49 63 -40 ct 63 -29 66 -21 70 -14 ct 
75 -7 82 -4 91 -4 ct 95 -4 99 -4 104 -5 ct 109 -6 117 -9 127 -15 ct 137 -21 146 -28 154 -38 ct 
156 -41 158 -42 159 -42 ct 160 -42 161 -41 163 -40 ct 164 -39 164 -37 164 -37 ct 
164 -34 161 -30 156 -24 ct 150 -18 141 -12 129 -5 ct 117 1 104 4 90 4 ct 75 4 62 -1 53 -12 ct 
43 -23 39 -37 39 -54 ct p ef
pom
gr
gs
11972 4772 m  11972 3753 l  11728 3753 l  12318 3213 l  12909 3753 l  12664 3753 l 
12664 4772 l  11972 4772 l  p ef
gr
gs
11885 3695 m 12757 3695 l 12757 4110 l 11885 4110 l 11885 3695 l eoclip newpath
pum
11997 4032 t
0.003 0.003 0.003 c 139 32 m  0 -281 l  297 -281 l  p
154 -39 m  268 -263 l  54 -263 l  p ef
pom
pum
12357 4032 t
61 -163 m  61 -163 62 -165 63 -168 ct 84 -231 l  85 -234 86 -236 87 -237 ct 
88 -237 90 -238 94 -238 ct 274 -238 l  276 -238 278 -238 279 -237 ct 280 -237 281 -237 282 -236 ct 
282 -236 283 -235 283 -233 ct 283 -231 283 -230 283 -229 ct 272 -166 l  272 -163 271 -161 270 -160 ct 
270 -159 268 -159 266 -159 ct 262 -159 260 -160 260 -163 ct 260 -164 261 -166 261 -168 ct 
263 -182 265 -193 265 -200 ct 265 -211 262 -218 256 -222 ct 250 -225 238 -227 220 -227 ct 
210 -227 204 -227 202 -226 ct 198 -226 195 -222 194 -214 ct 147 -26 l  146 -22 145 -20 145 -19 ct 
145 -16 146 -15 147 -14 ct 149 -13 152 -12 157 -12 ct 157 -12 158 -12 160 -11 ct 
163 -11 165 -11 168 -11 ct 171 -11 173 -11 174 -11 ct 180 -11 l  186 -11 188 -10 188 -7 ct 
188 -2 186 0 181 0 ct 175 0 166 0 154 -1 ct 141 -1 132 -1 126 -1 ct 120 -1 111 -1 99 -1 ct 
87 0 78 0 72 0 ct 68 0 66 -1 66 -4 ct 66 -7 66 -9 68 -10 ct 69 -11 72 -11 75 -11 ct 
81 -11 l  96 -11 105 -12 110 -14 ct 114 -16 117 -20 118 -27 ct 165 -215 l  166 -218 167 -221 167 -223 ct 
167 -224 167 -225 166 -225 ct 166 -225 165 -226 164 -226 ct 163 -227 161 -227 159 -227 ct 
147 -227 l  124 -227 108 -223 100 -217 ct 92 -210 83 -194 75 -170 ct 73 -164 71 -160 71 -160 ct 
70 -159 69 -159 67 -159 ct 63 -159 61 -160 61 -163 ct p ef
pom
gr
gs
0.210 0.324 0.414 c 8417 3145 m  8417 3127 8412 3110 8404 3094 ct 8395 3079 8382 3066 8367 3057 ct 
8351 3049 8334 3044 8317 3044 ct 8299 3044 8282 3049 8266 3057 ct 8251 3066 8238 3079 8229 3094 ct 
8221 3110 8216 3127 8216 3145 ct 8216 3162 8221 3179 8229 3195 ct 8238 3210 8251 3223 8266 3232 ct 
8282 3240 8299 3245 8317 3245 ct 8334 3245 8351 3240 8367 3232 ct 8382 3223 8395 3210 8404 3195 ct 
8412 3179 8417 3162 8417 3145 ct 8417 3145 l  p ef
gr
gs
0.210 0.324 0.414 c 8718 2943 m  8718 2926 8713 2909 8705 2893 ct 8696 2878 8683 2865 8668 2856 ct 
8652 2848 8635 2843 8618 2843 ct 8600 2843 8583 2848 8567 2856 ct 8552 2865 8539 2878 8530 2893 ct 
8522 2909 8517 2926 8517 2943 ct 8517 2961 8522 2978 8530 2994 ct 8539 3009 8552 3022 8567 3031 ct 
8583 3039 8600 3044 8618 3044 ct 8635 3044 8652 3039 8668 3031 ct 8683 3022 8696 3009 8705 2994 ct 
8713 2978 8718 2961 8718 2943 ct 8718 2943 l  p ef
gr
gs
0.109 0.609 0.949 c 9984 5309 m  9985 5334 l  9987 5360 l  9991 5386 l 
9995 5411 l  10001 5436 l  10009 5461 l  10017 5486 l  10027 5510 l  10038 5533 l 
10050 5556 l  10064 5578 l  10078 5600 l  10093 5620 l  10110 5640 l  10127 5659 l 
10146 5677 l  10165 5695 l  10185 5711 l  10206 5726 l  10228 5740 l  10250 5753 l 
10273 5765 l  10297 5776 l  10321 5785 l  10345 5793 l  10370 5800 l  10395 5806 l 
10421 5810 l  10447 5814 l  10472 5815 l  10498 5816 l  10524 5815 l  10550 5813 l 
10576 5810 l  10601 5805 l  10626 5799 l  10651 5792 l  10675 5784 l  10699 5774 l 
10723 5763 l  10746 5751 l  10768 5738 l  10790 5723 l  10810 5708 l  10830 5692 l 
10850 5674 l  10868 5656 l  10885 5637 l  10901 5617 l  10917 5596 l  10931 5574 l 
10944 5552 l  10956 5529 l  10967 5505 l  10976 5481 l  10985 5457 l  10992 5432 l 
10998 5407 l  11002 5381 l  11005 5356 l  11007 5330 l  11008 5304 l  11096 5304 l 
11095 5334 l  11093 5365 l  11089 5395 l  11084 5424 l  11077 5454 l  11069 5483 l 
11059 5512 l  11048 5540 l  11035 5568 l  11021 5594 l  11006 5621 l  10989 5646 l 
10971 5670 l  10952 5694 l  10932 5717 l  10910 5738 l  10888 5758 l  10864 5778 l 
10840 5796 l  10815 5812 l  10789 5828 l  10762 5842 l  10734 5855 l  10706 5866 l 
10678 5876 l  10648 5884 l  10619 5891 l  10589 5897 l  10559 5901 l  10529 5903 l 
10498 5904 l  10468 5903 l  10438 5901 l  10408 5897 l  10378 5892 l  10348 5886 l 
10319 5877 l  10290 5868 l  10262 5857 l  10235 5844 l  10208 5830 l  10182 5815 l 
10156 5798 l  10132 5781 l  10108 5762 l  10085 5741 l  10064 5720 l  10043 5698 l 
10024 5674 l  10006 5650 l  9989 5625 l  9973 5599 l  9959 5572 l  9946 5545 l 
9935 5517 l  9925 5488 l  9916 5459 l  9909 5429 l  9904 5400 l  9900 5370 l 
9897 5339 l  9896 5309 l  9745 5311 l  9938 5114 l  10135 5307 l  9984 5309 l 
p ef
gr
0 5170 t 
pom
count op_count sub {pop} repeat countdictstack dict_count sub {end} repeat b4_inc_state restore
%%PageTrailer
%%Trailer
%%EOF
