%!PS-Adobe-3.0 EPSF-3.0 
%%BoundingBox: 0 0 142 147
%%Pages: 0
%%Creator: LibreOffice 6.4
%%Title: none
%%CreationDate: none
%%LanguageLevel: 2
%%EndComments
%%BeginProlog
%%BeginResource: procset SDRes-Prolog 1.0 0
/b4_inc_state save def
/dict_count countdictstack def
/op_count count 1 sub def
userdict begin
0 setgray 0 setlinecap 1 setlinewidth 0 setlinejoin 10 setmiterlimit[] 0 setdash newpath
/languagelevel where {pop languagelevel 1 ne {false setstrokeadjust false setoverprint} if} if
/bdef {bind def} bind def
/c {setrgbcolor} bdef
/l {neg lineto} bdef
/rl {neg rlineto} bdef
/lc {setlinecap} bdef
/lj {setlinejoin} bdef
/lw {setlinewidth} bdef
/ml {setmiterlimit} bdef
/ld {setdash} bdef
/m {neg moveto} bdef
/ct {6 2 roll neg 6 2 roll neg 6 2 roll neg curveto} bdef
/r {rotate} bdef
/t {neg translate} bdef
/s {scale} bdef
/sw {show} bdef
/gs {gsave} bdef
/gr {grestore} bdef
/f {findfont dup length dict begin
{1 index /FID ne {def} {pop pop} ifelse} forall /Encoding ISOLatin1Encoding def
currentdict end /NFont exch definefont pop /NFont findfont} bdef
/p {closepath} bdef
/sf {scalefont setfont} bdef
/ef {eofill}bdef
/pc {closepath stroke}bdef
/ps {stroke}bdef
/pum {matrix currentmatrix}bdef
/pom {setmatrix}bdef
/bs {/aString exch def /nXOfs exch def /nWidth exch def currentpoint nXOfs 0 rmoveto pum nWidth aString stringwidth pop div 1 scale aString show pom moveto} bdef
%%EndResource
%%EndProlog
%%BeginSetup
%%EndSetup
%%Page: 1 1
%%BeginPageSetup
%%EndPageSetup
pum
0.0284 0.02843 s 
0 -5170 t
/tm matrix currentmatrix def
tm setmatrix
-7998 -7948 t 
1 1 s 
gs
10497 12507 m  7998 12507 l  7998 8508 l  12997 8508 l  12997 12507 l 
10497 12507 l  eoclip newpath
gs
7998 8508 m 12997 8508 l 12997 12508 l 7998 12508 l 7998 8508 l eoclip newpath
0.707 0.781 0.863 c 7997 8507 m  12998 8507 l  12998 8543 l  7997 8543 l 
p ef
0.707 0.777 0.855 c 7997 8543 m  12998 8543 l  12998 8579 l  7997 8579 l 
p ef
0.710 0.773 0.851 c 7997 8579 m  12998 8579 l  12998 8615 l  7997 8615 l 
p ef
0.714 0.769 0.847 c 7997 8615 m  12998 8615 l  12998 8651 l  7997 8651 l 
p ef
0.714 0.765 0.843 c 7997 8651 m  12998 8651 l  12998 8687 l  7997 8687 l 
p ef
0.718 0.761 0.839 c 7997 8687 m  12998 8687 l  12998 8723 l  7997 8723 l 
p ef
0.722 0.761 0.835 c 7997 8723 m  12998 8723 l  12998 8759 l  7997 8759 l 
p ef
0.722 0.757 0.832 c 7997 8759 m  12998 8759 l  12998 8795 l  7997 8795 l 
p ef
0.726 0.753 0.828 c 7997 8795 m  12998 8795 l  12998 8831 l  7997 8831 l 
p ef
0.730 0.750 0.824 c 7997 8831 m  12998 8831 l  12998 8867 l  7997 8867 l 
p ef
0.730 0.746 0.820 c 7997 8867 m  12998 8867 l  12998 8903 l  7997 8903 l 
p ef
0.734 0.746 0.816 c 7997 8903 m  12998 8903 l  12998 8939 l  7997 8939 l 
p ef
0.738 0.742 0.812 c 7997 8939 m  12998 8939 l  12998 8975 l  7997 8975 l 
p ef
0.738 0.738 0.808 c 7997 8975 m  12998 8975 l  12998 9011 l  7997 9011 l 
p ef
0.742 0.734 0.804 c 7997 9011 m  12998 9011 l  12998 9047 l  7997 9047 l 
p ef
0.746 0.730 0.800 c 7997 9047 m  12998 9047 l  12998 9084 l  7997 9084 l 
p ef
0.746 0.726 0.796 c 7997 9084 m  12998 9084 l  12998 9120 l  7997 9120 l 
p ef
0.750 0.726 0.792 c 7997 9120 m  12998 9120 l  12998 9156 l  7997 9156 l 
p ef
0.753 0.722 0.789 c 7997 9156 m  12998 9156 l  12998 9192 l  7997 9192 l 
p ef
0.753 0.718 0.785 c 7997 9192 m  12998 9192 l  12998 9228 l  7997 9228 l 
p ef
0.757 0.714 0.781 c 7997 9228 m  12998 9228 l  12998 9264 l  7997 9264 l 
p ef
0.761 0.710 0.777 c 7997 9264 m  12998 9264 l  12998 9300 l  7997 9300 l 
p ef
0.765 0.710 0.773 c 7997 9300 m  12998 9300 l  12998 9336 l  7997 9336 l 
p ef
0.765 0.707 0.769 c 7997 9336 m  12998 9336 l  12998 9372 l  7997 9372 l 
p ef
0.769 0.703 0.765 c 7997 9372 m  12998 9372 l  12998 9408 l  7997 9408 l 
p ef
0.773 0.699 0.761 c 7997 9408 m  12998 9408 l  12998 9444 l  7997 9444 l 
p ef
0.773 0.695 0.757 c 7997 9444 m  12998 9444 l  12998 9480 l  7997 9480 l 
p ef
0.777 0.691 0.753 c 7997 9480 m  12998 9480 l  12998 9516 l  7997 9516 l 
p ef
0.781 0.691 0.750 c 7997 9516 m  12998 9516 l  12998 9552 l  7997 9552 l 
p ef
0.781 0.687 0.746 c 7997 9552 m  12998 9552 l  12998 9588 l  7997 9588 l 
p ef
0.785 0.683 0.742 c 7997 9588 m  12998 9588 l  12998 9624 l  7997 9624 l 
p ef
0.789 0.679 0.738 c 7997 9624 m  12998 9624 l  12998 9661 l  7997 9661 l 
p ef
0.789 0.675 0.734 c 7997 9661 m  12998 9661 l  12998 9697 l  7997 9697 l 
p ef
0.792 0.671 0.730 c 7997 9697 m  12998 9697 l  12998 9733 l  7997 9733 l 
p ef
0.796 0.671 0.726 c 7997 9733 m  12998 9733 l  12998 9769 l  7997 9769 l 
p ef
0.796 0.667 0.722 c 7997 9769 m  12998 9769 l  12998 9805 l  7997 9805 l 
p ef
0.800 0.664 0.718 c 7997 9805 m  12998 9805 l  12998 9841 l  7997 9841 l 
p ef
0.804 0.660 0.714 c 7997 9841 m  12998 9841 l  12998 9877 l  7997 9877 l 
p ef
0.804 0.656 0.710 c 7997 9877 m  12998 9877 l  12998 9913 l  7997 9913 l 
p ef
0.808 0.656 0.707 c 7997 9913 m  12998 9913 l  12998 9949 l  7997 9949 l 
p ef
0.812 0.652 0.703 c 7997 9949 m  12998 9949 l  12998 9985 l  7997 9985 l 
p ef
0.812 0.648 0.699 c 7997 9985 m  12998 9985 l  12998 10021 l  7997 10021 l 
p ef
0.816 0.644 0.695 c 7997 10021 m  12998 10021 l  12998 10057 l  7997 10057 l 
p ef
0.820 0.640 0.691 c 7997 10057 m  12998 10057 l  12998 10093 l  7997 10093 l 
p ef
0.824 0.640 0.687 c 7997 10093 m  12998 10093 l  12998 10129 l  7997 10129 l 
p ef
0.824 0.636 0.683 c 7997 10129 m  12998 10129 l  12998 10165 l  7997 10165 l 
p ef
0.828 0.632 0.679 c 7997 10165 m  12998 10165 l  12998 10201 l  7997 10201 l 
p ef
0.832 0.628 0.675 c 7997 10201 m  12998 10201 l  12998 10238 l  7997 10238 l 
p ef
0.832 0.625 0.671 c 7997 10238 m  12998 10238 l  12998 10274 l  7997 10274 l 
p ef
0.835 0.621 0.667 c 7997 10274 m  12998 10274 l  12998 10310 l  7997 10310 l 
p ef
0.839 0.621 0.664 c 7997 10310 m  12998 10310 l  12998 10346 l  7997 10346 l 
p ef
0.839 0.617 0.660 c 7997 10346 m  12998 10346 l  12998 10382 l  7997 10382 l 
p ef
0.843 0.613 0.656 c 7997 10382 m  12998 10382 l  12998 10418 l  7997 10418 l 
p ef
0.847 0.609 0.652 c 7997 10418 m  12998 10418 l  12998 10454 l  7997 10454 l 
p ef
0.847 0.605 0.648 c 7997 10454 m  12998 10454 l  12998 10490 l  7997 10490 l 
p ef
0.851 0.605 0.644 c 7997 10490 m  12998 10490 l  12998 10526 l  7997 10526 l 
p ef
0.855 0.601 0.640 c 7997 10526 m  12998 10526 l  12998 10562 l  7997 10562 l 
p ef
0.855 0.597 0.636 c 7997 10562 m  12998 10562 l  12998 10598 l  7997 10598 l 
p ef
0.859 0.593 0.632 c 7997 10598 m  12998 10598 l  12998 10634 l  7997 10634 l 
p ef
0.863 0.589 0.628 c 7997 10634 m  12998 10634 l  12998 10670 l  7997 10670 l 
p ef
0.863 0.585 0.625 c 7997 10670 m  12998 10670 l  12998 10706 l  7997 10706 l 
p ef
0.867 0.585 0.621 c 7997 10706 m  12998 10706 l  12998 10742 l  7997 10742 l 
p ef
0.871 0.582 0.617 c 7997 10742 m  12998 10742 l  12998 10778 l  7997 10778 l 
p ef
0.871 0.578 0.613 c 7997 10778 m  12998 10778 l  12998 10815 l  7997 10815 l 
p ef
0.875 0.574 0.609 c 7997 10815 m  12998 10815 l  12998 10851 l  7997 10851 l 
p ef
0.878 0.570 0.605 c 7997 10851 m  12998 10851 l  12998 10887 l  7997 10887 l 
p ef
0.882 0.570 0.601 c 7997 10887 m  12998 10887 l  12998 10923 l  7997 10923 l 
p ef
0.882 0.566 0.597 c 7997 10923 m  12998 10923 l  12998 10959 l  7997 10959 l 
p ef
0.886 0.562 0.593 c 7997 10959 m  12998 10959 l  12998 10995 l  7997 10995 l 
p ef
0.890 0.558 0.589 c 7997 10995 m  12998 10995 l  12998 11031 l  7997 11031 l 
p ef
0.890 0.554 0.585 c 7997 11031 m  12998 11031 l  12998 11067 l  7997 11067 l 
p ef
0.894 0.550 0.582 c 7997 11067 m  12998 11067 l  12998 11103 l  7997 11103 l 
p ef
0.898 0.550 0.578 c 7997 11103 m  12998 11103 l  12998 11139 l  7997 11139 l 
p ef
0.898 0.546 0.574 c 7997 11139 m  12998 11139 l  12998 11175 l  7997 11175 l 
p ef
0.902 0.542 0.570 c 7997 11175 m  12998 11175 l  12998 11211 l  7997 11211 l 
p ef
0.906 0.539 0.566 c 7997 11211 m  12998 11211 l  12998 11247 l  7997 11247 l 
p ef
0.906 0.535 0.562 c 7997 11247 m  12998 11247 l  12998 11283 l  7997 11283 l 
p ef
0.910 0.535 0.558 c 7997 11283 m  12998 11283 l  12998 11319 l  7997 11319 l 
p ef
0.914 0.531 0.554 c 7997 11319 m  12998 11319 l  12998 11355 l  7997 11355 l 
p ef
0.914 0.527 0.550 c 7997 11355 m  12998 11355 l  12998 11392 l  7997 11392 l 
p ef
0.917 0.523 0.546 c 7997 11392 m  12998 11392 l  12998 11428 l  7997 11428 l 
p ef
0.921 0.519 0.542 c 7997 11428 m  12998 11428 l  12998 11464 l  7997 11464 l 
p ef
0.921 0.515 0.539 c 7997 11464 m  12998 11464 l  12998 11500 l  7997 11500 l 
p ef
0.925 0.515 0.535 c 7997 11500 m  12998 11500 l  12998 11536 l  7997 11536 l 
p ef
0.929 0.511 0.531 c 7997 11536 m  12998 11536 l  12998 11572 l  7997 11572 l 
p ef
0.929 0.507 0.527 c 7997 11572 m  12998 11572 l  12998 11608 l  7997 11608 l 
p ef
0.933 0.503 0.523 c 7997 11608 m  12998 11608 l  12998 11644 l  7997 11644 l 
p ef
0.937 0.500 0.519 c 7997 11644 m  12998 11644 l  12998 11680 l  7997 11680 l 
p ef
0.941 0.500 0.515 c 7997 11680 m  12998 11680 l  12998 11716 l  7997 11716 l 
p ef
0.941 0.496 0.511 c 7997 11716 m  12998 11716 l  12998 11752 l  7997 11752 l 
p ef
0.945 0.492 0.507 c 7997 11752 m  12998 11752 l  12998 11788 l  7997 11788 l 
p ef
0.949 0.488 0.503 c 7997 11788 m  12998 11788 l  12998 11824 l  7997 11824 l 
p ef
0.949 0.484 0.500 c 7997 11824 m  12998 11824 l  12998 11860 l  7997 11860 l 
p ef
0.953 0.480 0.496 c 7997 11860 m  12998 11860 l  12998 11896 l  7997 11896 l 
p ef
0.957 0.480 0.492 c 7997 11896 m  12998 11896 l  12998 11932 l  7997 11932 l 
p ef
0.957 0.476 0.488 c 7997 11932 m  12998 11932 l  12998 11969 l  7997 11969 l 
p ef
0.960 0.472 0.484 c 7997 11969 m  12998 11969 l  12998 12005 l  7997 12005 l 
p ef
0.964 0.468 0.480 c 7997 12005 m  12998 12005 l  12998 12041 l  7997 12041 l 
p ef
0.964 0.464 0.476 c 7997 12041 m  12998 12041 l  12998 12077 l  7997 12077 l 
p ef
0.968 0.464 0.472 c 7997 12077 m  12998 12077 l  12998 12113 l  7997 12113 l 
p ef
0.972 0.460 0.468 c 7997 12113 m  12998 12113 l  12998 12149 l  7997 12149 l 
p ef
0.972 0.457 0.464 c 7997 12149 m  12998 12149 l  12998 12185 l  7997 12185 l 
p ef
0.976 0.453 0.460 c 7997 12185 m  12998 12185 l  12998 12221 l  7997 12221 l 
p ef
0.980 0.449 0.457 c 7997 12221 m  12998 12221 l  12998 12257 l  7997 12257 l 
p ef
0.980 0.445 0.453 c 7997 12257 m  12998 12257 l  12998 12293 l  7997 12293 l 
p ef
0.984 0.445 0.449 c 7997 12293 m  12998 12293 l  12998 12329 l  7997 12329 l 
p ef
0.988 0.441 0.445 c 7997 12329 m  12998 12329 l  12998 12365 l  7997 12365 l 
p ef
0.988 0.437 0.441 c 7997 12365 m  12998 12365 l  12998 12401 l  7997 12401 l 
p ef
0.992 0.433 0.437 c 7997 12401 m  12998 12401 l  12998 12437 l  7997 12437 l 
p ef
0.996 0.429 0.433 c 7997 12437 m  12998 12437 l  12998 12473 l  7997 12473 l 
p ef
1.000 0.429 0.429 c 7997 12473 m  12998 12473 l  12998 12510 l  7997 12510 l 
p ef
gr
gr
gs
0.109 0.609 0.949 c 8452 9248 m  8452 9233 l  8454 9217 l  8456 9202 l 
8458 9186 l  8462 9171 l  8466 9156 l  8471 9142 l  8477 9127 l  8483 9113 l 
8490 9099 l  8498 9086 l  8507 9073 l  8516 9061 l  8526 9049 l  8536 9037 l 
8547 9026 l  8559 9016 l  8571 9006 l  8583 8997 l  8596 8988 l  8609 8980 l 
8623 8973 l  8637 8967 l  8652 8961 l  8666 8956 l  8681 8952 l  8696 8948 l 
8712 8946 l  8727 8944 l  8743 8942 l  8758 8942 l  8773 8942 l  8789 8944 l 
8804 8946 l  8820 8948 l  8835 8952 l  8850 8956 l  8864 8961 l  8879 8967 l 
8893 8973 l  8907 8980 l  8920 8988 l  8933 8997 l  8945 9006 l  8957 9016 l 
8969 9026 l  8980 9037 l  8990 9049 l  9000 9061 l  9009 9073 l  9018 9086 l 
9026 9099 l  9033 9113 l  9039 9127 l  9045 9142 l  9050 9156 l  9054 9171 l 
9058 9186 l  9060 9202 l  9062 9217 l  9064 9233 l  9064 9248 l  9358 9248 l 
9357 9218 l  9355 9187 l  9351 9157 l  9346 9127 l  9339 9098 l  9330 9068 l 
9321 9040 l  9309 9011 l  9297 8984 l  9283 8957 l  9267 8931 l  9250 8905 l 
9232 8881 l  9213 8857 l  9193 8835 l  9171 8813 l  9149 8793 l  9125 8774 l 
9101 8756 l  9075 8739 l  9049 8723 l  9022 8709 l  8995 8697 l  8966 8685 l 
8938 8676 l  8908 8667 l  8879 8660 l  8849 8655 l  8819 8651 l  8788 8649 l 
8758 8648 l  8728 8649 l  8697 8651 l  8667 8655 l  8637 8660 l  8608 8667 l 
8578 8676 l  8550 8685 l  8521 8697 l  8494 8709 l  8467 8723 l  8441 8739 l 
8415 8756 l  8391 8774 l  8367 8793 l  8345 8813 l  8323 8835 l  8303 8857 l 
8284 8881 l  8266 8905 l  8249 8931 l  8233 8957 l  8219 8984 l  8207 9011 l 
8195 9040 l  8186 9068 l  8177 9098 l  8170 9127 l  8165 9157 l  8161 9187 l 
8159 9218 l  8158 9248 l  8007 9248 l  8305 9545 l  8602 9248 l  8452 9248 l 
p ef
gr
gs
0.109 0.609 0.949 c 10780 9248 m  10780 9233 l  10778 9217 l  10776 9202 l 
10774 9186 l  10770 9171 l  10766 9156 l  10761 9142 l  10755 9127 l  10749 9113 l 
10742 9099 l  10734 9086 l  10725 9073 l  10716 9061 l  10706 9049 l  10696 9037 l 
10685 9026 l  10673 9016 l  10661 9006 l  10649 8997 l  10636 8988 l  10623 8980 l 
10609 8973 l  10595 8967 l  10580 8961 l  10566 8956 l  10551 8952 l  10536 8948 l 
10520 8946 l  10505 8944 l  10489 8942 l  10474 8942 l  10459 8942 l  10443 8944 l 
10428 8946 l  10412 8948 l  10397 8952 l  10382 8956 l  10368 8961 l  10353 8967 l 
10339 8973 l  10325 8980 l  10312 8988 l  10299 8997 l  10287 9006 l  10275 9016 l 
10263 9026 l  10252 9037 l  10242 9049 l  10232 9061 l  10223 9073 l  10214 9086 l 
10206 9099 l  10199 9113 l  10193 9127 l  10187 9142 l  10182 9156 l  10178 9171 l 
10174 9186 l  10172 9202 l  10170 9217 l  10168 9233 l  10168 9248 l  9874 9248 l 
9875 9218 l  9877 9187 l  9881 9157 l  9886 9127 l  9893 9098 l  9902 9068 l 
9911 9040 l  9923 9011 l  9935 8984 l  9949 8957 l  9965 8931 l  9982 8905 l 
10000 8881 l  10019 8857 l  10039 8835 l  10061 8813 l  10083 8793 l  10107 8774 l 
10131 8756 l  10157 8739 l  10183 8723 l  10210 8709 l  10237 8697 l  10266 8685 l 
10294 8676 l  10324 8667 l  10353 8660 l  10383 8655 l  10413 8651 l  10444 8649 l 
10474 8648 l  10504 8649 l  10535 8651 l  10565 8655 l  10595 8660 l  10624 8667 l 
10654 8676 l  10682 8685 l  10711 8697 l  10738 8709 l  10765 8723 l  10791 8739 l 
10817 8756 l  10841 8774 l  10865 8793 l  10887 8813 l  10909 8835 l  10929 8857 l 
10948 8881 l  10966 8905 l  10983 8931 l  10999 8957 l  11013 8984 l  11025 9011 l 
11037 9040 l  11046 9068 l  11055 9098 l  11062 9127 l  11067 9157 l  11071 9187 l 
11073 9218 l  11074 9248 l  11225 9248 l  10927 9545 l  10630 9248 l  10780 9248 l 
p ef
gr
gs
0.109 0.609 0.949 c 11892 9248 m  11892 9233 l  11894 9217 l  11896 9202 l 
11898 9186 l  11902 9171 l  11906 9156 l  11911 9142 l  11917 9127 l  11923 9113 l 
11930 9099 l  11938 9086 l  11947 9073 l  11956 9061 l  11966 9049 l  11976 9037 l 
11987 9026 l  11999 9016 l  12011 9006 l  12023 8997 l  12036 8988 l  12049 8980 l 
12063 8973 l  12077 8967 l  12092 8961 l  12106 8956 l  12121 8952 l  12136 8948 l 
12152 8946 l  12167 8944 l  12183 8942 l  12198 8942 l  12213 8942 l  12229 8944 l 
12244 8946 l  12260 8948 l  12275 8952 l  12290 8956 l  12304 8961 l  12319 8967 l 
12333 8973 l  12347 8980 l  12360 8988 l  12373 8997 l  12385 9006 l  12397 9016 l 
12409 9026 l  12420 9037 l  12430 9049 l  12440 9061 l  12449 9073 l  12458 9086 l 
12466 9099 l  12473 9113 l  12479 9127 l  12485 9142 l  12490 9156 l  12494 9171 l 
12498 9186 l  12500 9202 l  12501 9217 l  12503 9233 l  12503 9248 l  12797 9248 l 
12796 9218 l  12794 9187 l  12790 9157 l  12785 9127 l  12778 9098 l  12769 9068 l 
12760 9040 l  12748 9011 l  12736 8984 l  12722 8957 l  12706 8931 l  12689 8905 l 
12671 8881 l  12652 8857 l  12632 8835 l  12610 8813 l  12588 8793 l  12564 8774 l 
12540 8756 l  12514 8739 l  12489 8723 l  12462 8709 l  12435 8697 l  12406 8685 l 
12378 8676 l  12348 8667 l  12319 8660 l  12289 8655 l  12259 8651 l  12228 8649 l 
12198 8648 l  12168 8649 l  12137 8651 l  12107 8655 l  12077 8660 l  12048 8667 l 
12018 8676 l  11990 8685 l  11961 8697 l  11934 8709 l  11907 8723 l  11881 8739 l 
11855 8756 l  11831 8774 l  11807 8793 l  11785 8813 l  11763 8835 l  11743 8857 l 
11724 8881 l  11706 8905 l  11689 8931 l  11673 8957 l  11659 8984 l  11647 9011 l 
11635 9040 l  11626 9068 l  11617 9098 l  11610 9127 l  11605 9157 l  11601 9187 l 
11599 9218 l  11598 9248 l  11447 9248 l  11745 9545 l  12042 9248 l  11892 9248 l 
p ef
gr
gs
0.109 0.609 0.949 c 9029 11798 m  9029 11813 l  9027 11829 l  9025 11844 l 
9023 11860 l  9019 11875 l  9015 11890 l  9010 11904 l  9004 11919 l  8998 11933 l 
8991 11947 l  8983 11960 l  8974 11973 l  8965 11985 l  8955 11997 l  8945 12009 l 
8934 12020 l  8922 12030 l  8910 12040 l  8898 12049 l  8885 12058 l  8872 12066 l 
8858 12073 l  8844 12079 l  8829 12085 l  8815 12090 l  8800 12094 l  8785 12098 l 
8769 12100 l  8754 12102 l  8738 12104 l  8723 12104 l  8708 12104 l  8692 12102 l 
8677 12100 l  8661 12098 l  8646 12094 l  8631 12090 l  8617 12085 l  8602 12079 l 
8588 12073 l  8574 12066 l  8561 12058 l  8548 12049 l  8536 12040 l  8524 12030 l 
8512 12020 l  8501 12009 l  8491 11997 l  8481 11985 l  8472 11973 l  8463 11960 l 
8455 11947 l  8448 11933 l  8442 11919 l  8436 11904 l  8431 11890 l  8427 11875 l 
8423 11860 l  8421 11844 l  8419 11829 l  8417 11813 l  8417 11798 l  8123 11798 l 
8124 11828 l  8126 11859 l  8130 11889 l  8135 11919 l  8142 11948 l  8151 11978 l 
8160 12006 l  8172 12035 l  8184 12062 l  8198 12089 l  8214 12115 l  8231 12141 l 
8249 12165 l  8268 12189 l  8288 12211 l  8310 12233 l  8332 12253 l  8356 12272 l 
8380 12290 l  8406 12307 l  8432 12323 l  8459 12337 l  8486 12349 l  8515 12361 l 
8543 12370 l  8573 12379 l  8602 12386 l  8632 12391 l  8662 12395 l  8693 12397 l 
8723 12398 l  8753 12397 l  8784 12395 l  8814 12391 l  8844 12386 l  8873 12379 l 
8903 12370 l  8931 12361 l  8960 12349 l  8987 12337 l  9014 12323 l  9040 12307 l 
9066 12290 l  9090 12272 l  9114 12253 l  9136 12233 l  9158 12211 l  9178 12189 l 
9197 12165 l  9215 12141 l  9232 12115 l  9248 12089 l  9262 12062 l  9274 12035 l 
9286 12006 l  9295 11978 l  9304 11948 l  9311 11919 l  9316 11889 l  9320 11859 l 
9322 11828 l  9323 11798 l  9474 11798 l  9176 11501 l  8879 11798 l  9029 11798 l 
p ef
gr
gs
0.109 0.609 0.949 c 10192 11798 m  10192 11813 l  10194 11829 l  10196 11844 l 
10198 11860 l  10202 11875 l  10206 11890 l  10211 11904 l  10217 11919 l 
10223 11933 l  10230 11947 l  10238 11960 l  10247 11973 l  10256 11985 l 
10266 11997 l  10276 12009 l  10287 12020 l  10299 12030 l  10311 12040 l 
10323 12049 l  10336 12058 l  10349 12066 l  10363 12073 l  10377 12079 l 
10392 12085 l  10406 12090 l  10421 12094 l  10436 12098 l  10452 12100 l 
10467 12102 l  10483 12104 l  10498 12104 l  10513 12104 l  10529 12102 l 
10544 12100 l  10560 12098 l  10575 12094 l  10590 12090 l  10604 12085 l 
10619 12079 l  10633 12073 l  10647 12066 l  10660 12058 l  10673 12049 l 
10685 12040 l  10697 12030 l  10709 12020 l  10720 12009 l  10730 11997 l 
10740 11985 l  10749 11973 l  10758 11960 l  10766 11947 l  10773 11933 l 
10779 11919 l  10785 11904 l  10790 11890 l  10794 11875 l  10798 11860 l 
10800 11844 l  10802 11829 l  10804 11813 l  10804 11798 l  11098 11798 l 
11097 11828 l  11095 11859 l  11091 11889 l  11086 11919 l  11079 11948 l 
11070 11978 l  11061 12006 l  11049 12035 l  11037 12062 l  11023 12089 l 
11007 12115 l  10990 12141 l  10972 12165 l  10953 12189 l  10933 12211 l 
10911 12233 l  10889 12253 l  10865 12272 l  10841 12290 l  10815 12307 l 
10789 12323 l  10762 12337 l  10735 12349 l  10706 12361 l  10678 12370 l 
10648 12379 l  10619 12386 l  10589 12391 l  10559 12395 l  10528 12397 l 
10498 12398 l  10468 12397 l  10437 12395 l  10407 12391 l  10377 12386 l 
10348 12379 l  10318 12370 l  10290 12361 l  10261 12349 l  10234 12337 l 
10207 12323 l  10181 12307 l  10155 12290 l  10131 12272 l  10107 12253 l 
10085 12233 l  10063 12211 l  10043 12189 l  10024 12165 l  10006 12141 l 
9989 12115 l  9973 12089 l  9959 12062 l  9947 12035 l  9935 12006 l  9926 11978 l 
9917 11948 l  9910 11919 l  9905 11889 l  9901 11859 l  9899 11828 l  9898 11798 l 
9747 11798 l  10045 11501 l  10342 11798 l  10192 11798 l  p ef
gr
gs
0.109 0.609 0.949 c 12503 11798 m  12503 11813 l  12501 11829 l  12500 11844 l 
12498 11860 l  12494 11875 l  12490 11890 l  12485 11904 l  12479 11919 l 
12473 11933 l  12466 11947 l  12458 11960 l  12449 11973 l  12440 11985 l 
12430 11997 l  12420 12009 l  12409 12020 l  12397 12030 l  12385 12040 l 
12373 12049 l  12360 12058 l  12347 12066 l  12333 12073 l  12319 12079 l 
12304 12085 l  12290 12090 l  12275 12094 l  12260 12098 l  12244 12100 l 
12229 12102 l  12213 12104 l  12198 12104 l  12183 12104 l  12167 12102 l 
12152 12100 l  12136 12098 l  12121 12094 l  12106 12090 l  12092 12085 l 
12077 12079 l  12063 12073 l  12049 12066 l  12036 12058 l  12023 12049 l 
12011 12040 l  11999 12030 l  11987 12020 l  11976 12009 l  11966 11997 l 
11956 11985 l  11947 11973 l  11938 11960 l  11930 11947 l  11923 11933 l 
11917 11919 l  11911 11904 l  11906 11890 l  11902 11875 l  11898 11860 l 
11896 11844 l  11894 11829 l  11892 11813 l  11892 11798 l  11598 11798 l 
11599 11828 l  11601 11859 l  11605 11889 l  11610 11919 l  11617 11948 l 
11626 11978 l  11635 12006 l  11647 12035 l  11659 12062 l  11673 12089 l 
11689 12115 l  11706 12141 l  11724 12165 l  11743 12189 l  11763 12211 l 
11785 12233 l  11807 12253 l  11831 12272 l  11855 12290 l  11881 12307 l 
11907 12323 l  11934 12337 l  11961 12349 l  11990 12361 l  12018 12370 l 
12048 12379 l  12077 12386 l  12107 12391 l  12137 12395 l  12168 12397 l 
12198 12398 l  12228 12397 l  12259 12395 l  12289 12391 l  12319 12386 l 
12348 12379 l  12378 12370 l  12406 12361 l  12435 12349 l  12462 12337 l 
12489 12323 l  12514 12307 l  12540 12290 l  12564 12272 l  12588 12253 l 
12610 12233 l  12632 12211 l  12652 12189 l  12671 12165 l  12689 12141 l 
12706 12115 l  12722 12089 l  12736 12062 l  12748 12035 l  12760 12006 l 
12769 11978 l  12778 11948 l  12785 11919 l  12790 11889 l  12794 11859 l 
12796 11828 l  12797 11798 l  12948 11798 l  12650 11501 l  12354 11798 l 
12503 11798 l  p ef
gr
gs
0.503 0.503 0.503 c 10498 8508 m  7998 8508 l  7998 8008 l  12997 8008 l 
12997 8508 l  10498 8508 l  p ef
gr
gs
0.503 0.503 0.503 c 10498 13007 m  7998 13007 l  7998 12508 l  12997 12508 l 
12997 13007 l  10498 13007 l  p ef
gr
gs
0.210 0.324 0.414 c 10817 12261 m  10817 12278 10812 12295 10804 12311 ct 
10795 12326 10782 12339 10767 12348 ct 10751 12356 10734 12361 10717 12361 ct 
10699 12361 10682 12356 10666 12348 ct 10651 12339 10638 12326 10629 12311 ct 
10621 12295 10616 12278 10616 12261 ct 10616 12243 10621 12226 10629 12210 ct 
10638 12195 10651 12182 10666 12173 ct 10682 12165 10699 12160 10717 12160 ct 
10734 12160 10751 12165 10767 12173 ct 10782 12182 10795 12195 10804 12210 ct 
10812 12226 10817 12243 10817 12261 ct 10817 12261 l  p ef
gr
gs
0.210 0.324 0.414 c 11818 12362 m  11818 12379 11813 12396 11805 12412 ct 
11796 12427 11783 12440 11768 12449 ct 11752 12457 11735 12462 11718 12462 ct 
11700 12462 11683 12457 11667 12449 ct 11652 12440 11639 12427 11630 12412 ct 
11622 12396 11617 12379 11617 12362 ct 11617 12344 11622 12327 11630 12311 ct 
11639 12296 11652 12283 11667 12274 ct 11683 12266 11700 12261 11718 12261 ct 
11735 12261 11752 12266 11768 12274 ct 11783 12283 11796 12296 11805 12311 ct 
11813 12327 11818 12344 11818 12362 ct 11818 12362 l  p ef
gr
gs
0.210 0.324 0.414 c 8818 12262 m  8818 12279 8813 12296 8805 12312 ct 8796 12327 8783 12340 8768 12349 ct 
8752 12357 8735 12362 8718 12362 ct 8700 12362 8683 12357 8667 12349 ct 8652 12340 8639 12327 8630 12312 ct 
8622 12296 8617 12279 8617 12262 ct 8617 12244 8622 12227 8630 12211 ct 8639 12196 8652 12183 8667 12174 ct 
8683 12166 8700 12161 8718 12161 ct 8735 12161 8752 12166 8768 12174 ct 8783 12183 8796 12196 8805 12211 ct 
8813 12227 8818 12244 8818 12262 ct 8818 12262 l  p ef
gr
gs
0.210 0.324 0.414 c 9819 12363 m  9819 12380 9814 12397 9806 12413 ct 9797 12428 9784 12441 9769 12450 ct 
9753 12458 9736 12463 9719 12463 ct 9701 12463 9684 12458 9668 12450 ct 9653 12441 9640 12428 9631 12413 ct 
9623 12397 9618 12380 9618 12363 ct 9618 12345 9623 12328 9631 12312 ct 9640 12297 9653 12284 9668 12275 ct 
9684 12267 9701 12262 9719 12262 ct 9736 12262 9753 12267 9769 12275 ct 9784 12284 9797 12297 9806 12312 ct 
9814 12328 9819 12345 9819 12363 ct 9819 12363 l  p ef
gr
gs
0.210 0.324 0.414 c 11118 12262 m  11118 12279 11113 12296 11105 12312 ct 
11096 12327 11083 12340 11068 12349 ct 11052 12357 11035 12362 11018 12362 ct 
11000 12362 10983 12357 10967 12349 ct 10952 12340 10939 12327 10930 12312 ct 
10922 12296 10917 12279 10917 12262 ct 10917 12244 10922 12227 10930 12211 ct 
10939 12196 10952 12183 10967 12174 ct 10983 12166 11000 12161 11018 12161 ct 
11035 12161 11052 12166 11068 12174 ct 11083 12183 11096 12196 11105 12211 ct 
11113 12227 11118 12244 11118 12262 ct 11118 12262 l  p ef
gr
gs
0.210 0.324 0.414 c 12219 12263 m  12219 12280 12214 12297 12206 12313 ct 
12197 12328 12184 12341 12169 12350 ct 12153 12358 12136 12363 12119 12363 ct 
12101 12363 12084 12358 12068 12350 ct 12053 12341 12040 12328 12031 12313 ct 
12023 12297 12018 12280 12018 12263 ct 12018 12245 12023 12228 12031 12212 ct 
12040 12197 12053 12184 12068 12175 ct 12084 12167 12101 12162 12119 12162 ct 
12136 12162 12153 12167 12169 12175 ct 12184 12184 12197 12197 12206 12212 ct 
12214 12228 12219 12245 12219 12263 ct 12219 12263 l  p ef
gr
gs
0.210 0.324 0.414 c 9219 12263 m  9219 12280 9214 12297 9206 12313 ct 9197 12328 9184 12341 9169 12350 ct 
9153 12358 9136 12363 9119 12363 ct 9101 12363 9084 12358 9068 12350 ct 9053 12341 9040 12328 9031 12313 ct 
9023 12297 9018 12280 9018 12263 ct 9018 12245 9023 12228 9031 12212 ct 9040 12197 9053 12184 9068 12175 ct 
9084 12167 9101 12162 9119 12162 ct 9136 12162 9153 12167 9169 12175 ct 9184 12184 9197 12197 9206 12212 ct 
9214 12228 9219 12245 9219 12263 ct 9219 12263 l  p ef
gr
gs
0.210 0.324 0.414 c 10220 12264 m  10220 12281 10215 12298 10207 12314 ct 
10198 12329 10185 12342 10170 12351 ct 10154 12359 10137 12364 10120 12364 ct 
10102 12364 10085 12359 10069 12351 ct 10054 12342 10041 12329 10032 12314 ct 
10024 12298 10019 12281 10019 12264 ct 10019 12246 10024 12229 10032 12213 ct 
10041 12198 10054 12185 10069 12176 ct 10085 12168 10102 12163 10120 12163 ct 
10137 12163 10154 12168 10170 12176 ct 10185 12185 10198 12198 10207 12213 ct 
10215 12229 10220 12246 10220 12264 ct 10220 12264 l  p ef
gr
gs
0.210 0.324 0.414 c 11519 12263 m  11519 12280 11514 12297 11506 12313 ct 
11497 12328 11484 12341 11469 12350 ct 11453 12358 11436 12363 11419 12363 ct 
11401 12363 11384 12358 11368 12350 ct 11353 12341 11340 12328 11331 12313 ct 
11323 12297 11318 12280 11318 12263 ct 11318 12245 11323 12228 11331 12212 ct 
11340 12197 11353 12184 11368 12175 ct 11384 12167 11401 12162 11419 12162 ct 
11436 12162 11453 12167 11469 12175 ct 11484 12184 11497 12197 11506 12212 ct 
11514 12228 11519 12245 11519 12263 ct 11519 12263 l  p ef
gr
gs
0.210 0.324 0.414 c 9520 12164 m  9520 12181 9515 12198 9507 12214 ct 9498 12229 9485 12242 9470 12251 ct 
9454 12259 9437 12264 9419 12264 ct 9402 12264 9385 12259 9369 12251 ct 9354 12242 9341 12229 9332 12214 ct 
9324 12198 9319 12181 9319 12164 ct 9319 12146 9324 12129 9332 12113 ct 9341 12098 9354 12085 9369 12076 ct 
9385 12068 9402 12063 9419 12063 ct 9437 12063 9454 12068 9470 12076 ct 9485 12085 9498 12098 9507 12113 ct 
9515 12129 9520 12146 9520 12164 ct 9520 12164 l  p ef
gr
gs
0.210 0.324 0.414 c 10518 12362 m  10518 12379 10513 12396 10505 12412 ct 
10496 12427 10483 12440 10468 12449 ct 10452 12457 10435 12462 10418 12462 ct 
10400 12462 10383 12457 10367 12449 ct 10352 12440 10339 12427 10330 12412 ct 
10322 12396 10317 12379 10317 12362 ct 10317 12344 10322 12327 10330 12311 ct 
10339 12296 10352 12283 10367 12274 ct 10383 12266 10400 12261 10418 12261 ct 
10435 12261 10452 12266 10468 12274 ct 10483 12283 10496 12296 10505 12311 ct 
10513 12327 10518 12344 10518 12362 ct 10518 12362 l  p ef
gr
gs
0.210 0.324 0.414 c 12019 12063 m  12019 12080 12014 12097 12006 12113 ct 
11997 12128 11984 12141 11969 12150 ct 11953 12158 11936 12163 11919 12163 ct 
11901 12163 11884 12158 11868 12150 ct 11853 12141 11840 12128 11831 12113 ct 
11823 12097 11818 12080 11818 12063 ct 11818 12045 11823 12028 11831 12012 ct 
11840 11997 11853 11984 11868 11975 ct 11884 11967 11901 11962 11919 11962 ct 
11936 11962 11953 11967 11969 11975 ct 11984 11984 11997 11997 12006 12012 ct 
12014 12028 12019 12045 12019 12063 ct 12019 12063 l  p ef
gr
gs
0.210 0.324 0.414 c 12519 12064 m  12519 12081 12514 12098 12506 12114 ct 
12498 12129 12485 12142 12470 12151 ct 12454 12159 12437 12164 12420 12164 ct 
12402 12164 12385 12159 12369 12151 ct 12354 12142 12341 12129 12332 12114 ct 
12324 12098 12319 12081 12319 12064 ct 12319 12046 12324 12029 12332 12013 ct 
12341 11998 12354 11985 12369 11976 ct 12385 11968 12402 11963 12420 11963 ct 
12437 11963 12454 11968 12470 11976 ct 12485 11985 12498 11998 12506 12013 ct 
12514 12029 12519 12046 12519 12064 ct 12519 12064 l  p ef
gr
gs
0.210 0.324 0.414 c 12520 12365 m  12520 12382 12515 12399 12507 12415 ct 
12499 12430 12486 12443 12471 12452 ct 12455 12460 12438 12465 12421 12465 ct 
12403 12465 12386 12460 12370 12452 ct 12355 12443 12342 12430 12333 12415 ct 
12325 12399 12320 12382 12320 12365 ct 12320 12347 12325 12330 12333 12314 ct 
12342 12299 12355 12286 12370 12277 ct 12386 12269 12403 12264 12421 12264 ct 
12438 12264 12455 12269 12471 12277 ct 12486 12286 12499 12299 12507 12314 ct 
12515 12330 12520 12347 12520 12365 ct 12520 12365 l  p ef
gr
gs
0.210 0.324 0.414 c 12821 12266 m  12821 12283 12816 12300 12808 12316 ct 
12799 12331 12786 12344 12771 12353 ct 12755 12361 12738 12366 12721 12366 ct 
12703 12366 12686 12361 12670 12353 ct 12655 12344 12642 12331 12633 12316 ct 
12625 12300 12620 12283 12620 12266 ct 12620 12248 12625 12231 12633 12215 ct 
12642 12200 12655 12187 12670 12178 ct 12686 12170 12703 12165 12721 12165 ct 
12738 12165 12755 12170 12771 12178 ct 12786 12187 12799 12200 12808 12215 ct 
12816 12231 12821 12248 12821 12266 ct 12821 12266 l  p ef
gr
gs
0.210 0.324 0.414 c 12822 11967 m  12822 11984 12817 12001 12809 12017 ct 
12800 12032 12787 12045 12772 12054 ct 12756 12062 12739 12067 12722 12067 ct 
12704 12067 12687 12062 12671 12054 ct 12656 12045 12643 12032 12634 12017 ct 
12626 12001 12621 11984 12621 11967 ct 12621 11949 12626 11932 12634 11916 ct 
12643 11901 12656 11888 12671 11879 ct 12687 11871 12704 11866 12722 11866 ct 
12739 11866 12756 11871 12772 11879 ct 12787 11888 12800 11901 12809 11916 ct 
12817 11932 12822 11949 12822 11967 ct 12822 11967 l  p ef
gr
gs
0.210 0.324 0.414 c 8324 12368 m  8324 12385 8319 12402 8311 12418 ct 8302 12433 8289 12446 8274 12455 ct 
8258 12463 8241 12468 8224 12468 ct 8206 12468 8189 12463 8173 12455 ct 8158 12446 8145 12433 8136 12418 ct 
8128 12402 8123 12385 8123 12368 ct 8123 12350 8128 12333 8136 12317 ct 8145 12302 8158 12289 8173 12280 ct 
8189 12272 8206 12267 8224 12267 ct 8241 12267 8258 12272 8274 12280 ct 8289 12289 8302 12302 8311 12317 ct 
8319 12333 8324 12350 8324 12368 ct 8324 12368 l  p ef
gr
gs
0.210 0.324 0.414 c 8524 12169 m  8524 12186 8519 12203 8511 12219 ct 8502 12234 8489 12247 8474 12256 ct 
8458 12264 8441 12269 8424 12269 ct 8406 12269 8389 12264 8373 12256 ct 8358 12247 8345 12234 8336 12219 ct 
8328 12203 8323 12186 8323 12169 ct 8323 12151 8328 12134 8336 12118 ct 8345 12103 8358 12090 8373 12081 ct 
8389 12073 8406 12068 8424 12068 ct 8441 12068 8458 12073 8474 12081 ct 8489 12090 8502 12103 8511 12118 ct 
8519 12134 8524 12151 8524 12169 ct 8524 12169 l  p ef
gr
gs
0.210 0.324 0.414 c 8225 12069 m  8225 12087 8220 12104 8212 12120 ct 8203 12135 8190 12148 8175 12157 ct 
8159 12165 8142 12170 8125 12170 ct 8107 12170 8090 12165 8074 12157 ct 8059 12148 8046 12135 8037 12120 ct 
8029 12104 8024 12087 8024 12069 ct 8024 12052 8029 12035 8037 12019 ct 8046 12004 8059 11991 8074 11982 ct 
8090 11974 8107 11969 8125 11969 ct 8142 11969 8159 11974 8175 11982 ct 8190 11991 8203 12004 8212 12019 ct 
8220 12035 8225 12052 8225 12069 ct 8225 12069 l  p ef
gr
gs
0.210 0.324 0.414 c 9026 12071 m  9026 12088 9021 12105 9013 12121 ct 9004 12136 8991 12149 8976 12158 ct 
8960 12166 8943 12171 8926 12171 ct 8908 12171 8891 12166 8875 12158 ct 8860 12149 8847 12136 8838 12121 ct 
8830 12105 8825 12088 8825 12071 ct 8825 12053 8830 12036 8838 12020 ct 8847 12005 8860 11992 8875 11983 ct 
8891 11975 8908 11970 8926 11970 ct 8943 11970 8960 11975 8976 11983 ct 8991 11992 9004 12005 9013 12020 ct 
9021 12036 9026 12053 9026 12071 ct 9026 12071 l  p ef
gr
gs
0.210 0.324 0.414 c 9927 12071 m  9927 12089 9922 12106 9914 12122 ct 9905 12137 9892 12150 9877 12159 ct 
9861 12167 9844 12172 9827 12172 ct 9809 12172 9792 12167 9776 12159 ct 9761 12150 9748 12137 9739 12122 ct 
9731 12106 9726 12089 9726 12071 ct 9726 12054 9731 12037 9739 12021 ct 9748 12006 9761 11993 9776 11984 ct 
9792 11976 9809 11971 9827 11971 ct 9844 11971 9861 11976 9877 11984 ct 9892 11993 9905 12006 9914 12021 ct 
9922 12037 9927 12054 9927 12071 ct 9927 12071 l  p ef
gr
gs
0.210 0.324 0.414 c 10227 11972 m  10227 11989 10222 12006 10214 12022 ct 
10205 12037 10192 12050 10177 12059 ct 10161 12067 10144 12072 10127 12072 ct 
10109 12072 10092 12067 10076 12059 ct 10061 12050 10048 12037 10039 12022 ct 
10031 12006 10026 11989 10026 11972 ct 10026 11954 10031 11937 10039 11921 ct 
10048 11906 10061 11893 10076 11884 ct 10092 11876 10109 11871 10127 11871 ct 
10144 11871 10161 11876 10177 11884 ct 10192 11893 10205 11906 10214 11921 ct 
10222 11937 10227 11954 10227 11972 ct 10227 11972 l  p ef
gr
gs
0.210 0.324 0.414 c 10628 12071 m  10628 12089 10623 12106 10615 12122 ct 
10606 12137 10593 12150 10578 12159 ct 10562 12167 10545 12172 10528 12172 ct 
10510 12172 10493 12167 10477 12159 ct 10462 12150 10449 12137 10440 12122 ct 
10432 12106 10427 12089 10427 12071 ct 10427 12054 10432 12037 10440 12021 ct 
10449 12006 10462 11993 10477 11984 ct 10493 11976 10510 11971 10528 11971 ct 
10545 11971 10562 11976 10578 11984 ct 10593 11993 10606 12006 10615 12021 ct 
10623 12037 10628 12054 10628 12071 ct 10628 12071 l  p ef
gr
gs
0.210 0.324 0.414 c 9817 11661 m  9817 11678 9812 11695 9804 11711 ct 9795 11726 9782 11739 9767 11748 ct 
9751 11756 9734 11761 9717 11761 ct 9699 11761 9682 11756 9666 11748 ct 9651 11739 9638 11726 9629 11711 ct 
9621 11695 9616 11678 9616 11661 ct 9616 11643 9621 11626 9629 11610 ct 9638 11595 9651 11582 9666 11573 ct 
9682 11565 9699 11560 9717 11560 ct 9734 11560 9751 11565 9767 11573 ct 9782 11582 9795 11595 9804 11610 ct 
9812 11626 9817 11643 9817 11661 ct 9817 11661 l  p ef
gr
gs
0.210 0.324 0.414 c 11318 11862 m  11318 11879 11313 11896 11305 11912 ct 
11296 11927 11283 11940 11268 11949 ct 11252 11957 11235 11962 11218 11962 ct 
11200 11962 11183 11957 11167 11949 ct 11152 11940 11139 11927 11130 11912 ct 
11122 11896 11117 11879 11117 11862 ct 11117 11844 11122 11827 11130 11811 ct 
11139 11796 11152 11783 11167 11774 ct 11183 11766 11200 11761 11218 11761 ct 
11235 11761 11252 11766 11268 11774 ct 11283 11783 11296 11796 11305 11811 ct 
11313 11827 11318 11844 11318 11862 ct 11318 11862 l  p ef
gr
gs
0.210 0.324 0.414 c 8418 11762 m  8418 11779 8413 11796 8405 11812 ct 8396 11827 8383 11840 8368 11849 ct 
8352 11857 8335 11862 8318 11862 ct 8300 11862 8283 11857 8267 11849 ct 8252 11840 8239 11827 8230 11812 ct 
8222 11796 8217 11779 8217 11762 ct 8217 11744 8222 11727 8230 11711 ct 8239 11696 8252 11683 8267 11674 ct 
8283 11666 8300 11661 8318 11661 ct 8335 11661 8352 11666 8368 11674 ct 8383 11683 8396 11696 8405 11711 ct 
8413 11727 8418 11744 8418 11762 ct 8418 11762 l  p ef
gr
gs
0.210 0.324 0.414 c 9119 11563 m  9119 11580 9114 11597 9106 11613 ct 9097 11628 9084 11641 9069 11650 ct 
9053 11658 9036 11663 9019 11663 ct 9001 11663 8984 11658 8968 11650 ct 8953 11641 8940 11628 8931 11613 ct 
8923 11597 8918 11580 8918 11563 ct 8918 11545 8923 11528 8931 11512 ct 8940 11497 8953 11484 8968 11475 ct 
8984 11467 9001 11462 9019 11462 ct 9036 11462 9053 11467 9069 11475 ct 9084 11484 9097 11497 9106 11512 ct 
9114 11528 9119 11545 9119 11563 ct 9119 11563 l  p ef
gr
gs
0.210 0.324 0.414 c 10318 11662 m  10318 11679 10313 11696 10305 11712 ct 
10296 11727 10283 11740 10268 11749 ct 10252 11757 10235 11762 10218 11762 ct 
10200 11762 10183 11757 10167 11749 ct 10152 11740 10139 11727 10130 11712 ct 
10122 11696 10117 11679 10117 11662 ct 10117 11644 10122 11627 10130 11611 ct 
10139 11596 10152 11583 10167 11574 ct 10183 11566 10200 11561 10218 11561 ct 
10235 11561 10252 11566 10268 11574 ct 10283 11583 10296 11596 10305 11611 ct 
10313 11627 10318 11644 10318 11662 ct 10318 11662 l  p ef
gr
gs
0.210 0.324 0.414 c 11719 11663 m  11719 11680 11714 11697 11706 11713 ct 
11697 11728 11684 11741 11669 11750 ct 11653 11758 11636 11763 11619 11763 ct 
11601 11763 11584 11758 11568 11750 ct 11553 11741 11540 11728 11531 11713 ct 
11523 11697 11518 11680 11518 11663 ct 11518 11645 11523 11628 11531 11612 ct 
11540 11597 11553 11584 11568 11575 ct 11584 11567 11601 11562 11619 11562 ct 
11636 11562 11653 11567 11669 11575 ct 11684 11584 11697 11597 11706 11612 ct 
11714 11628 11719 11645 11719 11663 ct 11719 11663 l  p ef
gr
gs
0.210 0.324 0.414 c 8819 11863 m  8819 11880 8814 11897 8806 11913 ct 8797 11928 8784 11941 8769 11950 ct 
8753 11958 8736 11963 8719 11963 ct 8701 11963 8684 11958 8668 11950 ct 8653 11941 8640 11928 8631 11913 ct 
8623 11897 8618 11880 8618 11863 ct 8618 11845 8623 11828 8631 11812 ct 8640 11797 8653 11784 8668 11775 ct 
8684 11767 8701 11762 8719 11762 ct 8736 11762 8753 11767 8769 11775 ct 8784 11784 8797 11797 8806 11812 ct 
8814 11828 8819 11845 8819 11863 ct 8819 11863 l  p ef
gr
gs
0.210 0.324 0.414 c 9420 11764 m  9420 11781 9415 11798 9407 11814 ct 9398 11829 9385 11842 9370 11851 ct 
9354 11859 9337 11864 9320 11864 ct 9302 11864 9285 11859 9269 11851 ct 9254 11842 9241 11829 9232 11814 ct 
9224 11798 9219 11781 9219 11764 ct 9219 11746 9224 11729 9232 11713 ct 9241 11698 9254 11685 9269 11676 ct 
9285 11668 9302 11663 9320 11663 ct 9337 11663 9354 11668 9370 11676 ct 9385 11685 9398 11698 9407 11713 ct 
9415 11729 9420 11746 9420 11764 ct 9420 11764 l  p ef
gr
gs
0.210 0.324 0.414 c 10716 10961 m  10716 10978 10711 10995 10703 11011 ct 
10694 11026 10681 11039 10666 11048 ct 10650 11056 10633 11061 10616 11061 ct 
10598 11061 10581 11056 10565 11048 ct 10550 11039 10537 11026 10528 11011 ct 
10520 10995 10515 10978 10515 10961 ct 10515 10943 10520 10926 10528 10910 ct 
10537 10895 10550 10882 10565 10873 ct 10581 10865 10598 10860 10616 10860 ct 
10633 10860 10650 10865 10666 10873 ct 10681 10882 10694 10895 10703 10910 ct 
10711 10926 10716 10943 10716 10961 ct 10716 10961 l  p ef
gr
gs
0.210 0.324 0.414 c 12417 10962 m  12417 10979 12412 10996 12404 11012 ct 
12395 11027 12382 11040 12367 11049 ct 12351 11057 12334 11062 12317 11062 ct 
12299 11062 12282 11057 12266 11049 ct 12251 11040 12238 11027 12229 11012 ct 
12221 10996 12216 10979 12216 10962 ct 12216 10944 12221 10927 12229 10911 ct 
12238 10896 12251 10883 12266 10874 ct 12282 10866 12299 10861 12317 10861 ct 
12334 10861 12351 10866 12367 10874 ct 12382 10883 12395 10896 12404 10911 ct 
12412 10927 12417 10944 12417 10962 ct 12417 10962 l  p ef
gr
gs
0.210 0.324 0.414 c 9217 11162 m  9217 11179 9212 11196 9204 11212 ct 9195 11227 9182 11240 9167 11249 ct 
9151 11257 9134 11262 9117 11262 ct 9099 11262 9082 11257 9066 11249 ct 9051 11240 9038 11227 9029 11212 ct 
9021 11196 9016 11179 9016 11162 ct 9016 11144 9021 11127 9029 11111 ct 9038 11096 9051 11083 9066 11074 ct 
9082 11066 9099 11061 9117 11061 ct 9134 11061 9151 11066 9167 11074 ct 9182 11083 9195 11096 9204 11111 ct 
9212 11127 9217 11144 9217 11162 ct 9217 11162 l  p ef
gr
gs
0.210 0.324 0.414 c 10118 11263 m  10118 11280 10113 11297 10105 11313 ct 
10096 11328 10083 11341 10068 11350 ct 10052 11358 10035 11363 10018 11363 ct 
10000 11363 9983 11358 9967 11350 ct 9952 11341 9939 11328 9930 11313 ct 9922 11297 9917 11280 9917 11263 ct 
9917 11245 9922 11228 9930 11212 ct 9939 11197 9952 11184 9967 11175 ct 9983 11167 10000 11162 10018 11162 ct 
10035 11162 10052 11167 10068 11175 ct 10083 11184 10096 11197 10105 11212 ct 
10113 11228 10118 11245 10118 11263 ct 10118 11263 l  p ef
gr
gs
0.210 0.324 0.414 c 11716 10461 m  11716 10479 11711 10496 11703 10512 ct 
11694 10527 11681 10540 11666 10549 ct 11650 10557 11633 10562 11616 10562 ct 
11598 10562 11581 10557 11565 10549 ct 11550 10540 11537 10527 11528 10512 ct 
11520 10496 11515 10479 11515 10461 ct 11515 10444 11520 10427 11528 10411 ct 
11537 10396 11550 10383 11565 10374 ct 11581 10366 11598 10361 11616 10361 ct 
11633 10361 11650 10366 11666 10374 ct 11681 10383 11694 10396 11703 10411 ct 
11711 10427 11716 10444 11716 10461 ct 11716 10461 l  p ef
gr
gs
0.210 0.324 0.414 c 9717 10463 m  9717 10480 9712 10497 9704 10513 ct 9695 10528 9682 10541 9667 10550 ct 
9651 10558 9634 10563 9616 10563 ct 9599 10563 9582 10558 9566 10550 ct 9551 10541 9538 10528 9529 10513 ct 
9521 10497 9516 10480 9516 10463 ct 9516 10445 9521 10428 9529 10412 ct 9538 10397 9551 10384 9566 10375 ct 
9582 10367 9599 10362 9616 10362 ct 9634 10362 9651 10367 9667 10375 ct 9682 10384 9695 10397 9704 10412 ct 
9712 10428 9717 10445 9717 10463 ct 9717 10463 l  p ef
gr
gs
0.210 0.324 0.414 c 10718 10463 m  10718 10481 10713 10498 10705 10514 ct 
10696 10529 10683 10542 10668 10551 ct 10652 10559 10635 10564 10618 10564 ct 
10600 10564 10583 10559 10567 10551 ct 10552 10542 10539 10529 10530 10514 ct 
10522 10498 10517 10481 10517 10463 ct 10517 10446 10522 10429 10530 10413 ct 
10539 10398 10552 10385 10567 10376 ct 10583 10368 10600 10363 10618 10363 ct 
10635 10363 10652 10368 10668 10376 ct 10683 10385 10696 10398 10705 10413 ct 
10713 10429 10718 10446 10718 10463 ct 10718 10463 l  p ef
gr
gs
0.210 0.324 0.414 c 11716 11265 m  11716 11282 11711 11299 11703 11315 ct 
11694 11330 11681 11343 11666 11352 ct 11650 11360 11633 11365 11616 11365 ct 
11598 11365 11581 11360 11565 11352 ct 11550 11343 11537 11330 11528 11315 ct 
11520 11299 11515 11282 11515 11265 ct 11515 11247 11520 11230 11528 11214 ct 
11537 11199 11550 11186 11565 11177 ct 11581 11169 11598 11164 11616 11164 ct 
11633 11164 11650 11169 11666 11177 ct 11681 11186 11694 11199 11703 11214 ct 
11711 11230 11716 11247 11716 11265 ct 11716 11265 l  p ef
gr
gs
0.210 0.324 0.414 c 12716 11265 m  12716 11283 12711 11300 12703 11316 ct 
12694 11331 12681 11344 12666 11353 ct 12650 11361 12633 11366 12616 11366 ct 
12598 11366 12581 11361 12565 11353 ct 12550 11344 12537 11331 12528 11316 ct 
12520 11300 12515 11283 12515 11265 ct 12515 11248 12520 11231 12528 11215 ct 
12537 11200 12550 11187 12565 11178 ct 12581 11170 12598 11165 12616 11165 ct 
12633 11165 12650 11170 12666 11178 ct 12681 11187 12694 11200 12703 11215 ct 
12711 11231 12716 11248 12716 11265 ct 12716 11265 l  p ef
gr
gs
0.210 0.324 0.414 c 9717 11265 m  9717 11283 9712 11300 9704 11316 ct 9695 11331 9682 11344 9667 11353 ct 
9651 11361 9634 11366 9616 11366 ct 9599 11366 9582 11361 9566 11353 ct 9551 11344 9538 11331 9529 11316 ct 
9521 11300 9516 11283 9516 11265 ct 9516 11248 9521 11231 9529 11215 ct 9538 11200 9551 11187 9566 11178 ct 
9582 11170 9599 11165 9616 11165 ct 9634 11165 9651 11170 9667 11178 ct 9682 11187 9695 11200 9704 11215 ct 
9712 11231 9717 11248 9717 11265 ct 9717 11265 l  p ef
gr
gs
0.210 0.324 0.414 c 10918 11667 m  10918 11684 10913 11701 10905 11717 ct 
10896 11732 10883 11745 10868 11754 ct 10852 11762 10835 11767 10818 11767 ct 
10800 11767 10783 11762 10767 11754 ct 10752 11745 10739 11732 10730 11717 ct 
10722 11701 10717 11684 10717 11667 ct 10717 11649 10722 11632 10730 11616 ct 
10739 11601 10752 11588 10767 11579 ct 10783 11571 10800 11566 10818 11566 ct 
10835 11566 10852 11571 10868 11579 ct 10883 11588 10896 11601 10905 11616 ct 
10913 11632 10918 11649 10918 11667 ct 10918 11667 l  p ef
gr
gs
0.210 0.324 0.414 c 10617 11362 m  10617 11379 10612 11396 10604 11412 ct 
10595 11427 10582 11440 10567 11449 ct 10551 11457 10534 11462 10517 11462 ct 
10499 11462 10482 11457 10466 11449 ct 10451 11440 10438 11427 10429 11412 ct 
10421 11396 10416 11379 10416 11362 ct 10416 11344 10421 11327 10429 11311 ct 
10438 11296 10451 11283 10466 11274 ct 10482 11266 10499 11261 10517 11261 ct 
10534 11261 10551 11266 10567 11274 ct 10582 11283 10595 11296 10604 11311 ct 
10612 11327 10617 11344 10617 11362 ct 10617 11362 l  p ef
gr
gs
0.210 0.324 0.414 c 11018 11363 m  11018 11380 11013 11397 11005 11413 ct 
10996 11428 10983 11441 10968 11450 ct 10952 11458 10935 11463 10918 11463 ct 
10900 11463 10883 11458 10867 11450 ct 10852 11441 10839 11428 10830 11413 ct 
10822 11397 10817 11380 10817 11363 ct 10817 11345 10822 11328 10830 11312 ct 
10839 11297 10852 11284 10867 11275 ct 10883 11267 10900 11262 10918 11262 ct 
10935 11262 10952 11267 10968 11275 ct 10983 11284 10996 11297 11005 11312 ct 
11013 11328 11018 11345 11018 11363 ct 11018 11363 l  p ef
gr
gs
0.210 0.324 0.414 c 11419 11463 m  11419 11480 11414 11497 11406 11513 ct 
11397 11528 11384 11541 11369 11550 ct 11353 11558 11336 11563 11319 11563 ct 
11301 11563 11284 11558 11268 11550 ct 11253 11541 11240 11528 11231 11513 ct 
11223 11497 11218 11480 11218 11463 ct 11218 11445 11223 11428 11231 11412 ct 
11240 11397 11253 11384 11268 11375 ct 11284 11367 11301 11362 11319 11362 ct 
11336 11362 11353 11367 11369 11375 ct 11384 11384 11397 11397 11406 11412 ct 
11414 11428 11419 11445 11419 11463 ct 11419 11463 l  p ef
gr
gs
0.210 0.324 0.414 c 11420 10863 m  11420 10880 11415 10897 11407 10913 ct 
11398 10928 11385 10941 11370 10950 ct 11354 10958 11337 10963 11320 10963 ct 
11302 10963 11285 10958 11269 10950 ct 11254 10941 11241 10928 11232 10913 ct 
11224 10897 11219 10880 11219 10863 ct 11219 10845 11224 10828 11232 10812 ct 
11241 10797 11254 10784 11269 10775 ct 11285 10767 11302 10762 11320 10762 ct 
11337 10762 11354 10767 11370 10775 ct 11385 10784 11398 10797 11407 10812 ct 
11415 10828 11420 10845 11420 10863 ct 11420 10863 l  p ef
gr
gs
0.210 0.324 0.414 c 12022 11464 m  12022 11481 12017 11498 12009 11514 ct 
12000 11529 11987 11542 11972 11551 ct 11956 11559 11939 11564 11922 11564 ct 
11904 11564 11887 11559 11871 11551 ct 11856 11542 11843 11529 11834 11514 ct 
11826 11498 11821 11481 11821 11464 ct 11821 11446 11826 11429 11834 11413 ct 
11843 11398 11856 11385 11871 11376 ct 11887 11368 11904 11363 11922 11363 ct 
11939 11363 11956 11368 11972 11376 ct 11987 11385 12000 11398 12009 11413 ct 
12017 11429 12022 11446 12022 11464 ct 12022 11464 l  p ef
gr
gs
0.210 0.324 0.414 c 12222 11765 m  12222 11782 12217 11799 12209 11815 ct 
12200 11830 12187 11843 12172 11852 ct 12156 11860 12139 11865 12122 11865 ct 
12104 11865 12087 11860 12071 11852 ct 12056 11843 12043 11830 12034 11815 ct 
12026 11799 12021 11782 12021 11765 ct 12021 11747 12026 11730 12034 11714 ct 
12043 11699 12056 11686 12071 11677 ct 12087 11669 12104 11664 12122 11664 ct 
12139 11664 12156 11669 12172 11677 ct 12187 11686 12200 11699 12209 11714 ct 
12217 11730 12222 11747 12222 11765 ct 12222 11765 l  p ef
gr
gs
0.210 0.324 0.414 c 12622 11665 m  12622 11683 12617 11700 12609 11716 ct 
12600 11731 12587 11744 12572 11753 ct 12556 11761 12539 11766 12522 11766 ct 
12504 11766 12488 11761 12472 11753 ct 12457 11744 12444 11731 12435 11716 ct 
12427 11700 12422 11683 12422 11665 ct 12422 11648 12427 11631 12435 11615 ct 
12444 11600 12457 11587 12472 11578 ct 12488 11570 12504 11565 12522 11565 ct 
12539 11565 12556 11570 12572 11578 ct 12587 11587 12600 11600 12609 11615 ct 
12617 11631 12622 11648 12622 11665 ct 12622 11665 l  p ef
gr
gs
0.210 0.324 0.414 c 12923 11567 m  12923 11584 12918 11601 12910 11617 ct 
12901 11632 12888 11645 12873 11654 ct 12857 11662 12840 11667 12823 11667 ct 
12805 11667 12788 11662 12772 11654 ct 12757 11645 12744 11632 12735 11617 ct 
12727 11601 12722 11584 12722 11567 ct 12722 11549 12727 11532 12735 11516 ct 
12744 11501 12757 11488 12772 11479 ct 12788 11471 12805 11466 12823 11466 ct 
12840 11466 12857 11471 12873 11479 ct 12888 11488 12901 11501 12910 11516 ct 
12918 11532 12923 11549 12923 11567 ct 12923 11567 l  p ef
gr
gs
0.210 0.324 0.414 c 12325 11388 m  12325 11405 12320 11422 12312 11438 ct 
12303 11453 12290 11466 12275 11475 ct 12259 11483 12242 11488 12225 11488 ct 
12207 11488 12190 11483 12174 11475 ct 12159 11466 12146 11453 12137 11438 ct 
12129 11422 12124 11405 12124 11388 ct 12124 11370 12129 11353 12137 11337 ct 
12146 11322 12159 11309 12174 11300 ct 12190 11292 12207 11287 12225 11287 ct 
12242 11287 12259 11292 12275 11300 ct 12290 11309 12303 11322 12312 11337 ct 
12320 11353 12325 11370 12325 11388 ct 12325 11388 l  p ef
gr
gs
0.210 0.324 0.414 c 11817 9763 m  11817 9780 11812 9797 11804 9813 ct 11795 9828 11782 9841 11767 9850 ct 
11751 9858 11734 9863 11717 9863 ct 11699 9863 11682 9858 11666 9850 ct 11651 9841 11638 9828 11629 9813 ct 
11621 9797 11616 9780 11616 9763 ct 11616 9745 11621 9728 11629 9712 ct 11638 9697 11651 9684 11666 9675 ct 
11682 9667 11699 9662 11717 9662 ct 11734 9662 11751 9667 11767 9675 ct 11782 9684 11795 9697 11804 9712 ct 
11812 9728 11817 9745 11817 9763 ct 11817 9763 l  p ef
gr
gs
0.210 0.324 0.414 c 11118 9764 m  11118 9781 11113 9798 11105 9814 ct 11096 9829 11083 9842 11068 9851 ct 
11052 9859 11035 9864 11018 9864 ct 11000 9864 10983 9859 10967 9851 ct 10952 9842 10939 9829 10930 9814 ct 
10922 9798 10917 9781 10917 9764 ct 10917 9746 10922 9729 10930 9713 ct 10939 9698 10952 9685 10967 9676 ct 
10983 9668 11000 9663 11018 9663 ct 11035 9663 11052 9668 11068 9676 ct 11083 9685 11096 9698 11105 9713 ct 
11113 9729 11118 9746 11118 9764 ct 11118 9764 l  p ef
gr
gs
0.210 0.324 0.414 c 11319 10165 m  11319 10182 11314 10199 11306 10215 ct 
11297 10230 11284 10243 11269 10252 ct 11253 10260 11236 10265 11219 10265 ct 
11201 10265 11184 10260 11168 10252 ct 11153 10243 11140 10230 11131 10215 ct 
11123 10199 11118 10182 11118 10165 ct 11118 10147 11123 10130 11131 10114 ct 
11140 10099 11153 10086 11168 10077 ct 11184 10069 11201 10064 11219 10064 ct 
11236 10064 11253 10069 11269 10077 ct 11284 10086 11297 10099 11306 10114 ct 
11314 10130 11319 10147 11319 10165 ct 11319 10165 l  p ef
gr
gs
0.210 0.324 0.414 c 10320 10166 m  10320 10183 10315 10200 10307 10216 ct 
10298 10231 10285 10244 10270 10253 ct 10254 10261 10237 10266 10219 10266 ct 
10202 10266 10185 10261 10169 10253 ct 10154 10244 10141 10231 10132 10216 ct 
10124 10200 10119 10183 10119 10166 ct 10119 10148 10124 10131 10132 10115 ct 
10141 10100 10154 10087 10169 10078 ct 10185 10070 10202 10065 10219 10065 ct 
10237 10065 10254 10070 10270 10078 ct 10285 10087 10298 10100 10307 10115 ct 
10315 10131 10320 10148 10320 10166 ct 10320 10166 l  p ef
gr
gs
0.210 0.324 0.414 c 10121 9767 m  10121 9784 10116 9801 10108 9817 ct 10099 9832 10086 9845 10071 9854 ct 
10055 9862 10038 9867 10020 9867 ct 10003 9867 9986 9862 9970 9854 ct 9955 9845 9942 9832 9933 9817 ct 
9925 9801 9920 9784 9920 9767 ct 9920 9749 9925 9732 9933 9716 ct 9942 9701 9955 9688 9970 9679 ct 
9986 9671 10003 9666 10020 9666 ct 10038 9666 10055 9671 10071 9679 ct 10086 9688 10099 9701 10108 9716 ct 
10116 9732 10121 9749 10121 9767 ct 10121 9767 l  p ef
gr
gs
0.210 0.324 0.414 c 10722 9568 m  10722 9585 10717 9602 10709 9618 ct 10700 9633 10687 9646 10672 9655 ct 
10656 9663 10639 9668 10621 9668 ct 10604 9668 10587 9663 10571 9655 ct 10556 9646 10543 9633 10534 9618 ct 
10526 9602 10521 9585 10521 9568 ct 10521 9550 10526 9533 10534 9517 ct 10543 9502 10556 9489 10571 9480 ct 
10587 9472 10604 9467 10621 9467 ct 10639 9467 10656 9472 10672 9480 ct 10687 9489 10700 9502 10709 9517 ct 
10717 9533 10722 9550 10722 9568 ct 10722 9568 l  p ef
gr
gs
0.210 0.324 0.414 c 10623 8969 m  10623 8986 10618 9003 10610 9019 ct 10601 9034 10588 9047 10573 9056 ct 
10557 9064 10540 9069 10523 9069 ct 10505 9069 10488 9064 10472 9056 ct 10457 9047 10444 9034 10435 9019 ct 
10427 9003 10422 8986 10422 8969 ct 10422 8951 10427 8934 10435 8918 ct 10444 8903 10457 8890 10472 8881 ct 
10488 8873 10505 8868 10523 8868 ct 10540 8868 10557 8873 10573 8881 ct 10588 8890 10601 8903 10610 8918 ct 
10618 8934 10623 8951 10623 8969 ct 10623 8969 l  p ef
gr
gs
0.210 0.324 0.414 c 8524 9069 m  8524 9086 8519 9103 8511 9119 ct 8502 9134 8489 9147 8474 9156 ct 
8458 9164 8441 9169 8424 9169 ct 8406 9169 8389 9164 8373 9156 ct 8358 9147 8345 9134 8336 9119 ct 
8328 9103 8323 9086 8323 9069 ct 8323 9051 8328 9034 8336 9018 ct 8345 9003 8358 8990 8373 8981 ct 
8389 8973 8406 8968 8424 8968 ct 8441 8968 8458 8973 8474 8981 ct 8489 8990 8502 9003 8511 9018 ct 
8519 9034 8524 9051 8524 9069 ct 8524 9069 l  p ef
gr
gs
0.210 0.324 0.414 c 9527 10772 m  9527 10789 9522 10806 9514 10822 ct 9505 10837 9492 10850 9477 10859 ct 
9461 10867 9444 10872 9427 10872 ct 9409 10872 9392 10867 9376 10859 ct 9361 10850 9348 10837 9339 10822 ct 
9331 10806 9326 10789 9326 10772 ct 9326 10754 9331 10737 9339 10721 ct 9348 10706 9361 10693 9376 10684 ct 
9392 10676 9409 10671 9427 10671 ct 9444 10671 9461 10676 9477 10684 ct 9492 10693 9505 10706 9514 10721 ct 
9522 10737 9527 10754 9527 10772 ct 9527 10772 l  p ef
gr
gs
0.210 0.324 0.414 c 10227 10672 m  10227 10689 10222 10706 10214 10722 ct 
10205 10737 10192 10750 10177 10759 ct 10161 10767 10144 10772 10127 10772 ct 
10109 10772 10092 10767 10076 10759 ct 10061 10750 10048 10737 10039 10722 ct 
10031 10706 10026 10689 10026 10672 ct 10026 10654 10031 10637 10039 10621 ct 
10048 10606 10061 10593 10076 10584 ct 10092 10576 10109 10571 10127 10571 ct 
10144 10571 10161 10576 10177 10584 ct 10192 10593 10205 10606 10214 10621 ct 
10222 10637 10227 10654 10227 10672 ct 10227 10672 l  p ef
gr
gs
0.210 0.324 0.414 c 9327 10073 m  9327 10090 9322 10107 9314 10123 ct 9305 10138 9292 10151 9277 10160 ct 
9261 10168 9244 10173 9227 10173 ct 9209 10173 9192 10168 9176 10160 ct 9161 10151 9148 10138 9139 10123 ct 
9131 10107 9126 10090 9126 10073 ct 9126 10055 9131 10038 9139 10022 ct 9148 10007 9161 9994 9176 9985 ct 
9192 9977 9209 9972 9227 9972 ct 9244 9972 9261 9977 9277 9985 ct 9292 9994 9305 10007 9314 10022 ct 
9322 10038 9327 10055 9327 10073 ct 9327 10073 l  p ef
gr
gs
0.210 0.324 0.414 c 8628 10274 m  8628 10291 8623 10308 8615 10324 ct 8606 10339 8593 10352 8578 10361 ct 
8562 10369 8545 10374 8528 10374 ct 8510 10374 8493 10369 8477 10361 ct 8462 10352 8449 10339 8440 10324 ct 
8432 10308 8427 10291 8427 10274 ct 8427 10256 8432 10239 8440 10223 ct 8449 10208 8462 10195 8477 10186 ct 
8493 10178 8510 10173 8528 10173 ct 8545 10173 8562 10178 8578 10186 ct 8593 10195 8606 10208 8615 10223 ct 
8623 10239 8628 10256 8628 10274 ct 8628 10274 l  p ef
gr
gs
0.210 0.324 0.414 c 8309 9975 m  8309 9992 8304 10009 8296 10025 ct 8287 10040 8274 10053 8259 10062 ct 
8243 10070 8226 10075 8209 10075 ct 8191 10075 8174 10070 8158 10062 ct 8143 10053 8130 10040 8121 10025 ct 
8113 10009 8108 9992 8108 9975 ct 8108 9957 8113 9940 8121 9924 ct 8130 9909 8143 9896 8158 9887 ct 
8174 9879 8191 9874 8209 9874 ct 8226 9874 8243 9879 8259 9887 ct 8274 9896 8287 9909 8296 9924 ct 
8304 9940 8309 9957 8309 9975 ct 8309 9975 l  p ef
gr
gs
0.210 0.324 0.414 c 8930 9575 m  8930 9593 8925 9610 8917 9626 ct 8908 9641 8895 9654 8880 9663 ct 
8864 9671 8847 9676 8830 9676 ct 8812 9676 8795 9671 8779 9663 ct 8764 9654 8751 9641 8742 9626 ct 
8734 9610 8729 9593 8729 9575 ct 8729 9558 8734 9541 8742 9525 ct 8751 9510 8764 9497 8779 9488 ct 
8795 9480 8812 9475 8830 9475 ct 8847 9475 8864 9480 8880 9488 ct 8895 9497 8908 9510 8917 9525 ct 
8925 9541 8930 9558 8930 9575 ct 8930 9575 l  p ef
gr
gs
0.210 0.324 0.414 c 9631 9277 m  9631 9294 9626 9311 9618 9327 ct 9609 9342 9596 9355 9581 9364 ct 
9565 9372 9548 9377 9531 9377 ct 9513 9377 9496 9372 9480 9364 ct 9465 9355 9452 9342 9443 9327 ct 
9435 9311 9430 9294 9430 9277 ct 9430 9259 9435 9242 9443 9226 ct 9452 9211 9465 9198 9480 9189 ct 
9496 9181 9513 9176 9531 9176 ct 9548 9176 9565 9181 9581 9189 ct 9596 9198 9609 9211 9618 9226 ct 
9626 9242 9631 9259 9631 9277 ct 9631 9277 l  p ef
gr
gs
0.210 0.324 0.414 c 12432 9278 m  12432 9295 12427 9312 12419 9328 ct 12410 9343 12397 9356 12382 9365 ct 
12366 9373 12349 9378 12332 9378 ct 12314 9378 12297 9373 12281 9365 ct 12266 9356 12253 9343 12244 9328 ct 
12236 9312 12231 9295 12231 9278 ct 12231 9260 12236 9243 12244 9227 ct 12253 9212 12266 9199 12281 9190 ct 
12297 9182 12314 9177 12332 9177 ct 12349 9177 12366 9182 12382 9190 ct 12397 9199 12410 9212 12419 9227 ct 
12427 9243 12432 9260 12432 9278 ct 12432 9278 l  p ef
gr
gs
0.210 0.324 0.414 c 11733 8978 m  11733 8996 11728 9013 11720 9029 ct 11711 9044 11698 9057 11683 9066 ct 
11667 9074 11650 9079 11632 9079 ct 11615 9079 11598 9074 11582 9066 ct 11567 9057 11554 9044 11545 9029 ct 
11537 9013 11532 8996 11532 8978 ct 11532 8961 11537 8944 11545 8928 ct 11554 8913 11567 8900 11582 8891 ct 
11598 8883 11615 8878 11632 8878 ct 11650 8878 11667 8883 11683 8891 ct 11698 8900 11711 8913 11720 8928 ct 
11728 8944 11733 8961 11733 8978 ct 11733 8978 l  p ef
gr
gs
0.210 0.324 0.414 c 11028 11972 m  11028 11989 11023 12006 11015 12022 ct 
11006 12037 10993 12050 10978 12059 ct 10962 12067 10945 12072 10928 12072 ct 
10910 12072 10893 12067 10877 12059 ct 10862 12050 10849 12037 10840 12022 ct 
10832 12006 10827 11989 10827 11972 ct 10827 11954 10832 11937 10840 11921 ct 
10849 11906 10862 11893 10877 11884 ct 10893 11876 10910 11871 10928 11871 ct 
10945 11871 10962 11876 10978 11884 ct 10993 11893 11006 11906 11015 11921 ct 
11023 11937 11028 11954 11028 11972 ct 11028 11972 l  p ef
gr
gs
0.210 0.324 0.414 c 11619 11963 m  11619 11980 11614 11997 11606 12013 ct 
11597 12028 11584 12041 11569 12050 ct 11553 12058 11536 12063 11519 12063 ct 
11501 12063 11484 12058 11468 12050 ct 11453 12041 11440 12028 11431 12013 ct 
11423 11997 11418 11980 11418 11963 ct 11418 11945 11423 11928 11431 11912 ct 
11440 11897 11453 11884 11468 11875 ct 11484 11867 11501 11862 11519 11862 ct 
11536 11862 11553 11867 11569 11875 ct 11584 11884 11597 11897 11606 11912 ct 
11614 11928 11619 11945 11619 11963 ct 11619 11963 l  p ef
gr
pum
10185 8404 t
1.000 1.000 1.000 c 34 -19 m  19 -35 12 -54 12 -76 ct 12 -99 19 -118 34 -134 ct 
49 -150 67 -158 89 -158 ct 103 -158 116 -155 126 -148 ct 137 -141 143 -132 143 -120 ct 
143 -115 141 -111 138 -108 ct 135 -105 131 -104 126 -104 ct 121 -104 117 -105 115 -108 ct 
112 -111 110 -115 110 -120 ct 110 -122 110 -124 111 -126 ct 112 -128 114 -130 116 -133 ct 
119 -135 122 -136 127 -136 ct 118 -145 106 -149 89 -149 ct 77 -149 66 -144 56 -132 ct 
46 -121 41 -103 41 -77 ct 41 -64 43 -52 46 -42 ct 50 -32 54 -25 59 -20 ct 65 -15 70 -11 75 -8 ct 
81 -6 86 -5 91 -5 ct 114 -5 130 -17 137 -42 ct 138 -44 140 -46 142 -46 ct 145 -46 146 -44 146 -42 ct 
146 -41 146 -39 145 -36 ct 144 -33 142 -29 139 -24 ct 137 -20 133 -15 129 -11 ct 
125 -7 119 -3 112 -1 ct 105 2 97 4 88 4 ct 67 4 49 -4 34 -19 ct p ef
190 -19 m  175 -34 167 -53 167 -76 ct 167 -98 174 -117 190 -134 ct 205 -150 223 -158 245 -158 ct 
267 -158 285 -150 300 -134 ct 316 -118 323 -98 323 -76 ct 323 -53 316 -35 300 -19 ct 
285 -4 266 4 245 4 ct 224 4 206 -4 190 -19 ct p
196 -78 m  196 -56 199 -39 205 -29 ct 214 -13 228 -5 245 -5 ct 254 -5 262 -7 269 -12 ct 
277 -17 282 -23 286 -31 ct 291 -41 294 -57 294 -78 ct 294 -101 291 -117 285 -127 ct 
276 -143 262 -150 245 -150 ct 237 -150 230 -148 222 -144 ct 215 -140 209 -134 205 -127 ct 
199 -116 196 -100 196 -78 ct p ef
346 0 m  346 -11 l  358 -11 366 -12 369 -13 ct 372 -15 373 -19 373 -27 ct 373 -210 l 
373 -219 372 -225 369 -227 ct 366 -229 358 -230 346 -230 ct 346 -241 l  396 -245 l 
396 -27 l  396 -19 398 -15 401 -13 ct 404 -12 412 -11 424 -11 ct 424 0 l  421 0 417 0 411 0 ct 
405 -1 400 -1 395 -1 ct 391 -1 387 -1 385 -1 ct 382 -1 369 -1 346 0 ct p ef
444 -76 m  444 -98 452 -117 467 -133 ct 483 -148 502 -156 523 -156 ct 541 -156 555 -149 567 -134 ct 
567 -210 l  567 -219 566 -225 563 -227 ct 560 -229 552 -230 540 -230 ct 540 -241 l 
590 -245 l  590 -31 l  590 -22 592 -17 595 -14 ct 598 -12 606 -11 618 -11 ct 
618 0 l  566 4 l  566 -19 l  554 -4 538 4 519 4 ct 499 4 481 -4 466 -19 ct 451 -35 444 -54 444 -76 ct 
p
473 -76 m  473 -54 477 -37 484 -26 ct 493 -11 505 -4 521 -4 ct 538 -4 552 -12 562 -29 ct 
565 -33 566 -37 566 -42 ct 566 -114 l  566 -119 565 -123 562 -127 ct 553 -141 540 -148 524 -148 ct 
508 -148 494 -141 484 -126 ct 477 -114 473 -98 473 -76 ct p ef
pom
pum
10244 12904 t
11 0 m  11 -11 l  24 -11 31 -12 34 -13 ct 37 -15 39 -19 39 -27 ct 39 -210 l 
39 -219 37 -225 34 -227 ct 31 -229 24 -230 11 -230 ct 11 -241 l  62 -245 l  62 -122 l 
62 -122 l  66 -131 72 -138 81 -145 ct 89 -152 100 -156 113 -156 ct 131 -156 143 -152 150 -143 ct 
156 -137 159 -131 160 -124 ct 161 -118 161 -106 161 -89 ct 161 -22 l  162 -17 164 -14 167 -13 ct 
171 -11 178 -11 189 -11 ct 189 0 l  165 -1 152 -1 149 -1 ct 147 -1 134 -1 109 0 ct 
109 -11 l  122 -11 130 -12 133 -13 ct 135 -15 137 -19 137 -27 ct 137 -109 l 
137 -121 135 -131 131 -138 ct 128 -145 121 -148 111 -148 ct 99 -148 88 -143 78 -133 ct 
68 -123 63 -109 63 -92 ct 63 -27 l  63 -19 65 -15 68 -13 ct 71 -12 78 -11 91 -11 ct 
91 0 l  67 -1 54 -1 51 -1 ct 49 -1 36 -1 11 0 ct p ef
228 -19 m  213 -34 205 -53 205 -76 ct 205 -98 212 -117 228 -134 ct 243 -150 261 -158 283 -158 ct 
305 -158 323 -150 338 -134 ct 354 -118 361 -98 361 -76 ct 361 -53 354 -35 338 -19 ct 
323 -4 304 4 283 4 ct 262 4 244 -4 228 -19 ct p
234 -78 m  234 -56 237 -39 243 -29 ct 252 -13 266 -5 283 -5 ct 292 -5 300 -7 307 -12 ct 
315 -17 320 -23 324 -31 ct 329 -41 332 -57 332 -78 ct 332 -101 329 -117 323 -127 ct 
314 -143 300 -150 283 -150 ct 275 -150 268 -148 260 -144 ct 253 -140 247 -134 243 -127 ct 
237 -116 234 -100 234 -78 ct p ef
380 -141 m  380 -149 l  391 -149 400 -153 407 -161 ct 414 -169 419 -177 421 -187 ct 
424 -196 425 -206 425 -217 ct 434 -217 l  434 -152 l  485 -152 l  485 -141 l 
434 -141 l  434 -43 l  434 -18 442 -5 458 -5 ct 465 -5 470 -8 475 -15 ct 479 -22 481 -32 481 -44 ct 
481 -64 l  490 -64 l  490 -44 l  490 -31 487 -20 481 -10 ct 475 -1 467 4 455 4 ct 
451 4 447 3 443 2 ct 438 1 433 -1 428 -4 ct 423 -6 418 -11 415 -18 ct 411 -25 410 -34 410 -44 ct 
410 -141 l  p ef
pom
gs
8342 9728 m  8342 10747 l  8098 10747 l  8688 11287 l  9279 10747 l  9034 10747 l 
9034 9728 l  8342 9728 l  p ef
gr
gs
8313 10214 m 9066 10214 l 9066 10629 l 8313 10629 l 8313 10214 l eoclip newpath
pum
8425 10551 t
0.003 0.003 0.003 c 139 32 m  0 -281 l  297 -281 l  p
154 -39 m  268 -263 l  54 -263 l  p ef
pom
pum
8785 10551 t
39 -54 m  39 -80 48 -103 67 -124 ct 85 -145 105 -155 127 -155 ct 138 -155 147 -152 154 -147 ct 
161 -141 165 -134 165 -125 ct 165 -119 163 -114 160 -110 ct 156 -106 152 -104 147 -104 ct 
143 -104 140 -105 138 -107 ct 136 -109 135 -112 135 -115 ct 135 -116 135 -116 135 -117 ct 
135 -118 136 -119 136 -121 ct 137 -123 138 -124 139 -126 ct 140 -127 142 -128 144 -130 ct 
147 -131 149 -132 153 -132 ct 149 -142 141 -147 128 -147 ct 120 -147 111 -144 103 -138 ct 
95 -132 88 -124 82 -112 ct 77 -104 73 -92 69 -77 ct 65 -62 63 -49 63 -40 ct 63 -29 66 -21 70 -14 ct 
75 -7 82 -4 91 -4 ct 95 -4 99 -4 104 -5 ct 109 -6 117 -9 127 -15 ct 137 -21 146 -28 154 -38 ct 
156 -41 158 -42 159 -42 ct 160 -42 161 -41 163 -40 ct 164 -39 164 -37 164 -37 ct 
164 -34 161 -30 156 -24 ct 150 -18 141 -12 129 -5 ct 117 1 104 4 90 4 ct 75 4 62 -1 53 -12 ct 
43 -23 39 -37 39 -54 ct p ef
pom
gr
gs
11975 9728 m  11975 10747 l  11731 10747 l  12321 11287 l  12911 10747 l 
12666 10747 l  12666 9728 l  11975 9728 l  p ef
gr
gs
11888 10204 m 12759 10204 l 12759 10619 l 11888 10619 l 11888 10204 l eoclip newpath
pum
12000 10541 t
0.003 0.003 0.003 c 139 32 m  0 -281 l  297 -281 l  p
154 -39 m  268 -263 l  54 -263 l  p ef
pom
pum
12360 10541 t
61 -163 m  61 -163 62 -165 63 -168 ct 84 -231 l  85 -234 86 -236 87 -237 ct 
88 -237 90 -238 94 -238 ct 274 -238 l  276 -238 278 -238 279 -237 ct 280 -237 281 -237 282 -236 ct 
282 -236 283 -235 283 -233 ct 283 -231 283 -230 283 -229 ct 272 -166 l  272 -163 271 -161 270 -160 ct 
270 -159 268 -159 266 -159 ct 262 -159 260 -160 260 -163 ct 260 -164 261 -166 261 -168 ct 
263 -182 265 -193 265 -200 ct 265 -211 262 -218 256 -222 ct 250 -225 238 -227 220 -227 ct 
210 -227 204 -227 202 -226 ct 198 -226 195 -222 194 -214 ct 147 -26 l  146 -22 145 -20 145 -19 ct 
145 -16 146 -15 147 -14 ct 149 -13 152 -12 157 -12 ct 157 -12 158 -12 160 -11 ct 
163 -11 165 -11 168 -11 ct 171 -11 173 -11 174 -11 ct 180 -11 l  186 -11 188 -10 188 -7 ct 
188 -2 186 0 181 0 ct 175 0 166 0 154 -1 ct 141 -1 132 -1 126 -1 ct 120 -1 111 -1 99 -1 ct 
87 0 78 0 72 0 ct 68 0 66 -1 66 -4 ct 66 -7 66 -9 68 -10 ct 69 -11 72 -11 75 -11 ct 
81 -11 l  96 -11 105 -12 110 -14 ct 114 -16 117 -20 118 -27 ct 165 -215 l  166 -218 167 -221 167 -223 ct 
167 -224 167 -225 166 -225 ct 166 -225 165 -226 164 -226 ct 163 -227 161 -227 159 -227 ct 
147 -227 l  124 -227 108 -223 100 -217 ct 92 -210 83 -194 75 -170 ct 73 -164 71 -160 71 -160 ct 
70 -159 69 -159 67 -159 ct 63 -159 61 -160 61 -163 ct p ef
pom
gr
gs
0.210 0.324 0.414 c 8418 11363 m  8418 11380 8413 11397 8405 11413 ct 8396 11428 8383 11441 8368 11450 ct 
8352 11458 8335 11463 8318 11463 ct 8300 11463 8283 11458 8267 11450 ct 8252 11441 8239 11428 8230 11413 ct 
8222 11397 8217 11380 8217 11363 ct 8217 11345 8222 11328 8230 11312 ct 8239 11297 8252 11284 8267 11275 ct 
8283 11267 8300 11262 8318 11262 ct 8335 11262 8352 11267 8368 11275 ct 8383 11284 8396 11297 8405 11312 ct 
8413 11328 8418 11345 8418 11363 ct 8418 11363 l  p ef
gr
gs
0.210 0.324 0.414 c 8719 11564 m  8719 11581 8714 11598 8706 11614 ct 8697 11629 8684 11642 8669 11651 ct 
8653 11659 8636 11664 8619 11664 ct 8601 11664 8584 11659 8568 11651 ct 8553 11642 8540 11629 8531 11614 ct 
8523 11598 8518 11581 8518 11564 ct 8518 11546 8523 11529 8531 11513 ct 8540 11498 8553 11485 8568 11476 ct 
8584 11468 8601 11463 8619 11463 ct 8636 11463 8653 11468 8669 11476 ct 8684 11485 8697 11498 8706 11513 ct 
8714 11529 8719 11546 8719 11564 ct 8719 11564 l  p ef
gr
0 5170 t 
pom
count op_count sub {pop} repeat countdictstack dict_count sub {end} repeat b4_inc_state restore
%%PageTrailer
%%Trailer
%%EOF
