%!PS-Adobe-3.0 EPSF-3.0 
%%BoundingBox: 0 0 142 148
%%Pages: 0
%%Creator: LibreOffice 6.4
%%Title: none
%%CreationDate: none
%%LanguageLevel: 2
%%EndComments
%%BeginProlog
%%BeginResource: procset SDRes-Prolog 1.0 0
/b4_inc_state save def
/dict_count countdictstack def
/op_count count 1 sub def
userdict begin
0 setgray 0 setlinecap 1 setlinewidth 0 setlinejoin 10 setmiterlimit[] 0 setdash newpath
/languagelevel where {pop languagelevel 1 ne {false setstrokeadjust false setoverprint} if} if
/bdef {bind def} bind def
/c {setrgbcolor} bdef
/l {neg lineto} bdef
/rl {neg rlineto} bdef
/lc {setlinecap} bdef
/lj {setlinejoin} bdef
/lw {setlinewidth} bdef
/ml {setmiterlimit} bdef
/ld {setdash} bdef
/m {neg moveto} bdef
/ct {6 2 roll neg 6 2 roll neg 6 2 roll neg curveto} bdef
/r {rotate} bdef
/t {neg translate} bdef
/s {scale} bdef
/sw {show} bdef
/gs {gsave} bdef
/gr {grestore} bdef
/f {findfont dup length dict begin
{1 index /FID ne {def} {pop pop} ifelse} forall /Encoding ISOLatin1Encoding def
currentdict end /NFont exch definefont pop /NFont findfont} bdef
/p {closepath} bdef
/sf {scalefont setfont} bdef
/ef {eofill}bdef
/pc {closepath stroke}bdef
/ps {stroke}bdef
/pum {matrix currentmatrix}bdef
/pom {setmatrix}bdef
/bs {/aString exch def /nXOfs exch def /nWidth exch def currentpoint nXOfs 0 rmoveto pum nWidth aString stringwidth pop div 1 scale aString show pom moveto} bdef
%%EndResource
%%EndProlog
%%BeginSetup
%%EndSetup
%%Page: 1 1
%%BeginPageSetup
%%EndPageSetup
pum
0.0284 0.02832 s 
0 -5225 t
/tm matrix currentmatrix def
tm setmatrix
-2000 -13945 t 
1 1 s 
gs
4499 18502 m  1999 18502 l  1999 14504 l  6998 14504 l  6998 18502 l  4499 18502 l 
eoclip newpath
gs
2000 14504 m 6999 14504 l 6999 18503 l 2000 18503 l 2000 14504 l eoclip newpath
0.707 0.781 0.863 c 1999 14503 m  7000 14503 l  7000 14539 l  1999 14539 l 
p ef
0.707 0.777 0.855 c 1999 14539 m  7000 14539 l  7000 14575 l  1999 14575 l 
p ef
0.710 0.773 0.851 c 1999 14575 m  7000 14575 l  7000 14611 l  1999 14611 l 
p ef
0.714 0.769 0.847 c 1999 14611 m  7000 14611 l  7000 14647 l  1999 14647 l 
p ef
0.714 0.765 0.843 c 1999 14647 m  7000 14647 l  7000 14683 l  1999 14683 l 
p ef
0.718 0.761 0.839 c 1999 14683 m  7000 14683 l  7000 14719 l  1999 14719 l 
p ef
0.722 0.761 0.835 c 1999 14719 m  7000 14719 l  7000 14755 l  1999 14755 l 
p ef
0.722 0.757 0.832 c 1999 14755 m  7000 14755 l  7000 14791 l  1999 14791 l 
p ef
0.726 0.753 0.828 c 1999 14791 m  7000 14791 l  7000 14827 l  1999 14827 l 
p ef
0.730 0.750 0.824 c 1999 14827 m  7000 14827 l  7000 14863 l  1999 14863 l 
p ef
0.730 0.746 0.820 c 1999 14863 m  7000 14863 l  7000 14899 l  1999 14899 l 
p ef
0.734 0.746 0.816 c 1999 14899 m  7000 14899 l  7000 14935 l  1999 14935 l 
p ef
0.738 0.742 0.812 c 1999 14935 m  7000 14935 l  7000 14971 l  1999 14971 l 
p ef
0.738 0.738 0.808 c 1999 14971 m  7000 14971 l  7000 15007 l  1999 15007 l 
p ef
0.742 0.734 0.804 c 1999 15007 m  7000 15007 l  7000 15043 l  1999 15043 l 
p ef
0.746 0.730 0.800 c 1999 15043 m  7000 15043 l  7000 15079 l  1999 15079 l 
p ef
0.746 0.726 0.796 c 1999 15079 m  7000 15079 l  7000 15115 l  1999 15115 l 
p ef
0.750 0.726 0.792 c 1999 15115 m  7000 15115 l  7000 15151 l  1999 15151 l 
p ef
0.753 0.722 0.789 c 1999 15151 m  7000 15151 l  7000 15188 l  1999 15188 l 
p ef
0.753 0.718 0.785 c 1999 15188 m  7000 15188 l  7000 15224 l  1999 15224 l 
p ef
0.757 0.714 0.781 c 1999 15224 m  7000 15224 l  7000 15260 l  1999 15260 l 
p ef
0.761 0.710 0.777 c 1999 15260 m  7000 15260 l  7000 15296 l  1999 15296 l 
p ef
0.765 0.710 0.773 c 1999 15296 m  7000 15296 l  7000 15332 l  1999 15332 l 
p ef
0.765 0.707 0.769 c 1999 15332 m  7000 15332 l  7000 15368 l  1999 15368 l 
p ef
0.769 0.703 0.765 c 1999 15368 m  7000 15368 l  7000 15404 l  1999 15404 l 
p ef
0.773 0.699 0.761 c 1999 15404 m  7000 15404 l  7000 15440 l  1999 15440 l 
p ef
0.773 0.695 0.757 c 1999 15440 m  7000 15440 l  7000 15476 l  1999 15476 l 
p ef
0.777 0.691 0.753 c 1999 15476 m  7000 15476 l  7000 15512 l  1999 15512 l 
p ef
0.781 0.691 0.750 c 1999 15512 m  7000 15512 l  7000 15548 l  1999 15548 l 
p ef
0.781 0.687 0.746 c 1999 15548 m  7000 15548 l  7000 15584 l  1999 15584 l 
p ef
0.785 0.683 0.742 c 1999 15584 m  7000 15584 l  7000 15620 l  1999 15620 l 
p ef
0.789 0.679 0.738 c 1999 15620 m  7000 15620 l  7000 15656 l  1999 15656 l 
p ef
0.789 0.675 0.734 c 1999 15656 m  7000 15656 l  7000 15692 l  1999 15692 l 
p ef
0.792 0.671 0.730 c 1999 15692 m  7000 15692 l  7000 15728 l  1999 15728 l 
p ef
0.796 0.671 0.726 c 1999 15728 m  7000 15728 l  7000 15764 l  1999 15764 l 
p ef
0.796 0.667 0.722 c 1999 15764 m  7000 15764 l  7000 15800 l  1999 15800 l 
p ef
0.800 0.664 0.718 c 1999 15800 m  7000 15800 l  7000 15837 l  1999 15837 l 
p ef
0.804 0.660 0.714 c 1999 15837 m  7000 15837 l  7000 15873 l  1999 15873 l 
p ef
0.804 0.656 0.710 c 1999 15873 m  7000 15873 l  7000 15909 l  1999 15909 l 
p ef
0.808 0.656 0.707 c 1999 15909 m  7000 15909 l  7000 15945 l  1999 15945 l 
p ef
0.812 0.652 0.703 c 1999 15945 m  7000 15945 l  7000 15981 l  1999 15981 l 
p ef
0.812 0.648 0.699 c 1999 15981 m  7000 15981 l  7000 16017 l  1999 16017 l 
p ef
0.816 0.644 0.695 c 1999 16017 m  7000 16017 l  7000 16053 l  1999 16053 l 
p ef
0.820 0.640 0.691 c 1999 16053 m  7000 16053 l  7000 16089 l  1999 16089 l 
p ef
0.824 0.640 0.687 c 1999 16089 m  7000 16089 l  7000 16125 l  1999 16125 l 
p ef
0.824 0.636 0.683 c 1999 16125 m  7000 16125 l  7000 16161 l  1999 16161 l 
p ef
0.828 0.632 0.679 c 1999 16161 m  7000 16161 l  7000 16197 l  1999 16197 l 
p ef
0.832 0.628 0.675 c 1999 16197 m  7000 16197 l  7000 16233 l  1999 16233 l 
p ef
0.832 0.625 0.671 c 1999 16233 m  7000 16233 l  7000 16269 l  1999 16269 l 
p ef
0.835 0.621 0.667 c 1999 16269 m  7000 16269 l  7000 16305 l  1999 16305 l 
p ef
0.839 0.621 0.664 c 1999 16305 m  7000 16305 l  7000 16341 l  1999 16341 l 
p ef
0.839 0.617 0.660 c 1999 16341 m  7000 16341 l  7000 16377 l  1999 16377 l 
p ef
0.843 0.613 0.656 c 1999 16377 m  7000 16377 l  7000 16413 l  1999 16413 l 
p ef
0.847 0.609 0.652 c 1999 16413 m  7000 16413 l  7000 16449 l  1999 16449 l 
p ef
0.847 0.605 0.648 c 1999 16449 m  7000 16449 l  7000 16485 l  1999 16485 l 
p ef
0.851 0.605 0.644 c 1999 16485 m  7000 16485 l  7000 16522 l  1999 16522 l 
p ef
0.855 0.601 0.640 c 1999 16522 m  7000 16522 l  7000 16558 l  1999 16558 l 
p ef
0.855 0.597 0.636 c 1999 16558 m  7000 16558 l  7000 16594 l  1999 16594 l 
p ef
0.859 0.593 0.632 c 1999 16594 m  7000 16594 l  7000 16630 l  1999 16630 l 
p ef
0.863 0.589 0.628 c 1999 16630 m  7000 16630 l  7000 16666 l  1999 16666 l 
p ef
0.863 0.585 0.625 c 1999 16666 m  7000 16666 l  7000 16702 l  1999 16702 l 
p ef
0.867 0.585 0.621 c 1999 16702 m  7000 16702 l  7000 16738 l  1999 16738 l 
p ef
0.871 0.582 0.617 c 1999 16738 m  7000 16738 l  7000 16774 l  1999 16774 l 
p ef
0.871 0.578 0.613 c 1999 16774 m  7000 16774 l  7000 16810 l  1999 16810 l 
p ef
0.875 0.574 0.609 c 1999 16810 m  7000 16810 l  7000 16846 l  1999 16846 l 
p ef
0.878 0.570 0.605 c 1999 16846 m  7000 16846 l  7000 16882 l  1999 16882 l 
p ef
0.882 0.570 0.601 c 1999 16882 m  7000 16882 l  7000 16918 l  1999 16918 l 
p ef
0.882 0.566 0.597 c 1999 16918 m  7000 16918 l  7000 16954 l  1999 16954 l 
p ef
0.886 0.562 0.593 c 1999 16954 m  7000 16954 l  7000 16990 l  1999 16990 l 
p ef
0.890 0.558 0.589 c 1999 16990 m  7000 16990 l  7000 17026 l  1999 17026 l 
p ef
0.890 0.554 0.585 c 1999 17026 m  7000 17026 l  7000 17062 l  1999 17062 l 
p ef
0.894 0.550 0.582 c 1999 17062 m  7000 17062 l  7000 17098 l  1999 17098 l 
p ef
0.898 0.550 0.578 c 1999 17098 m  7000 17098 l  7000 17134 l  1999 17134 l 
p ef
0.898 0.546 0.574 c 1999 17134 m  7000 17134 l  7000 17171 l  1999 17171 l 
p ef
0.902 0.542 0.570 c 1999 17171 m  7000 17171 l  7000 17207 l  1999 17207 l 
p ef
0.906 0.539 0.566 c 1999 17207 m  7000 17207 l  7000 17243 l  1999 17243 l 
p ef
0.906 0.535 0.562 c 1999 17243 m  7000 17243 l  7000 17279 l  1999 17279 l 
p ef
0.910 0.535 0.558 c 1999 17279 m  7000 17279 l  7000 17315 l  1999 17315 l 
p ef
0.914 0.531 0.554 c 1999 17315 m  7000 17315 l  7000 17351 l  1999 17351 l 
p ef
0.914 0.527 0.550 c 1999 17351 m  7000 17351 l  7000 17387 l  1999 17387 l 
p ef
0.917 0.523 0.546 c 1999 17387 m  7000 17387 l  7000 17423 l  1999 17423 l 
p ef
0.921 0.519 0.542 c 1999 17423 m  7000 17423 l  7000 17459 l  1999 17459 l 
p ef
0.921 0.515 0.539 c 1999 17459 m  7000 17459 l  7000 17495 l  1999 17495 l 
p ef
0.925 0.515 0.535 c 1999 17495 m  7000 17495 l  7000 17531 l  1999 17531 l 
p ef
0.929 0.511 0.531 c 1999 17531 m  7000 17531 l  7000 17567 l  1999 17567 l 
p ef
0.929 0.507 0.527 c 1999 17567 m  7000 17567 l  7000 17603 l  1999 17603 l 
p ef
0.933 0.503 0.523 c 1999 17603 m  7000 17603 l  7000 17639 l  1999 17639 l 
p ef
0.937 0.500 0.519 c 1999 17639 m  7000 17639 l  7000 17675 l  1999 17675 l 
p ef
0.941 0.500 0.515 c 1999 17675 m  7000 17675 l  7000 17711 l  1999 17711 l 
p ef
0.941 0.496 0.511 c 1999 17711 m  7000 17711 l  7000 17747 l  1999 17747 l 
p ef
0.945 0.492 0.507 c 1999 17747 m  7000 17747 l  7000 17783 l  1999 17783 l 
p ef
0.949 0.488 0.503 c 1999 17783 m  7000 17783 l  7000 17819 l  1999 17819 l 
p ef
0.949 0.484 0.500 c 1999 17819 m  7000 17819 l  7000 17856 l  1999 17856 l 
p ef
0.953 0.480 0.496 c 1999 17856 m  7000 17856 l  7000 17892 l  1999 17892 l 
p ef
0.957 0.480 0.492 c 1999 17892 m  7000 17892 l  7000 17928 l  1999 17928 l 
p ef
0.957 0.476 0.488 c 1999 17928 m  7000 17928 l  7000 17964 l  1999 17964 l 
p ef
0.960 0.472 0.484 c 1999 17964 m  7000 17964 l  7000 18000 l  1999 18000 l 
p ef
0.964 0.468 0.480 c 1999 18000 m  7000 18000 l  7000 18036 l  1999 18036 l 
p ef
0.964 0.464 0.476 c 1999 18036 m  7000 18036 l  7000 18072 l  1999 18072 l 
p ef
0.968 0.464 0.472 c 1999 18072 m  7000 18072 l  7000 18108 l  1999 18108 l 
p ef
0.972 0.460 0.468 c 1999 18108 m  7000 18108 l  7000 18144 l  1999 18144 l 
p ef
0.972 0.457 0.464 c 1999 18144 m  7000 18144 l  7000 18180 l  1999 18180 l 
p ef
0.976 0.453 0.460 c 1999 18180 m  7000 18180 l  7000 18216 l  1999 18216 l 
p ef
0.980 0.449 0.457 c 1999 18216 m  7000 18216 l  7000 18252 l  1999 18252 l 
p ef
0.980 0.445 0.453 c 1999 18252 m  7000 18252 l  7000 18288 l  1999 18288 l 
p ef
0.984 0.445 0.449 c 1999 18288 m  7000 18288 l  7000 18324 l  1999 18324 l 
p ef
0.988 0.441 0.445 c 1999 18324 m  7000 18324 l  7000 18360 l  1999 18360 l 
p ef
0.988 0.437 0.441 c 1999 18360 m  7000 18360 l  7000 18396 l  1999 18396 l 
p ef
0.992 0.433 0.437 c 1999 18396 m  7000 18396 l  7000 18432 l  1999 18432 l 
p ef
0.996 0.429 0.433 c 1999 18432 m  7000 18432 l  7000 18468 l  1999 18468 l 
p ef
1.000 0.429 0.429 c 1999 18468 m  7000 18468 l  7000 18505 l  1999 18505 l 
p ef
gr
gr
gs
0.109 0.609 0.949 c 5012 15259 m  5011 15234 l  5009 15208 l  5005 15182 l 
5001 15157 l  4995 15132 l  4987 15107 l  4979 15082 l  4969 15058 l  4958 15035 l 
4946 15012 l  4932 14990 l  4918 14968 l  4903 14948 l  4886 14928 l  4869 14909 l 
4850 14891 l  4831 14873 l  4811 14857 l  4790 14842 l  4768 14828 l  4746 14815 l 
4723 14803 l  4699 14792 l  4675 14783 l  4651 14775 l  4626 14768 l  4601 14762 l 
4575 14758 l  4549 14754 l  4524 14753 l  4498 14752 l  4472 14753 l  4446 14755 l 
4420 14758 l  4395 14763 l  4370 14769 l  4345 14776 l  4321 14784 l  4297 14794 l 
4273 14805 l  4250 14817 l  4228 14830 l  4206 14845 l  4186 14860 l  4166 14876 l 
4146 14894 l  4128 14912 l  4111 14931 l  4095 14951 l  4079 14972 l  4065 14994 l 
4052 15016 l  4040 15039 l  4029 15063 l  4020 15087 l  4011 15111 l  4004 15136 l 
3998 15161 l  3994 15187 l  3991 15212 l  3989 15238 l  3988 15264 l  3900 15264 l 
3901 15234 l  3903 15203 l  3907 15173 l  3912 15144 l  3919 15114 l  3927 15085 l 
3937 15056 l  3948 15028 l  3961 15000 l  3975 14974 l  3990 14947 l  4007 14922 l 
4025 14898 l  4044 14874 l  4064 14851 l  4086 14830 l  4108 14810 l  4132 14790 l 
4156 14772 l  4181 14756 l  4207 14740 l  4234 14726 l  4262 14713 l  4290 14702 l 
4318 14692 l  4348 14684 l  4377 14677 l  4407 14671 l  4437 14667 l  4467 14665 l 
4498 14664 l  4528 14665 l  4558 14667 l  4588 14671 l  4618 14676 l  4648 14682 l 
4677 14691 l  4706 14700 l  4734 14711 l  4761 14724 l  4788 14738 l  4814 14753 l 
4840 14770 l  4864 14787 l  4888 14806 l  4911 14827 l  4932 14848 l  4953 14870 l 
4972 14894 l  4990 14918 l  5007 14943 l  5023 14969 l  5037 14996 l  5050 15023 l 
5061 15051 l  5071 15080 l  5080 15109 l  5087 15139 l  5092 15168 l  5096 15198 l 
5099 15229 l  5100 15259 l  5251 15257 l  5058 15454 l  4861 15261 l  5012 15259 l 
p ef
gr
gs
0.109 0.609 0.949 c 2365 15264 m  2366 15239 l  2368 15213 l  2372 15187 l 
2376 15162 l  2382 15137 l  2390 15112 l  2398 15087 l  2408 15063 l  2419 15040 l 
2431 15017 l  2445 14995 l  2459 14973 l  2474 14953 l  2491 14933 l  2507 14914 l 
2526 14896 l  2545 14878 l  2565 14862 l  2586 14847 l  2608 14833 l  2630 14820 l 
2653 14808 l  2677 14797 l  2701 14788 l  2725 14780 l  2750 14773 l  2775 14767 l 
2801 14763 l  2827 14759 l  2852 14758 l  2878 14757 l  2904 14758 l  2930 14760 l 
2956 14763 l  2981 14768 l  3006 14774 l  3031 14781 l  3055 14789 l  3079 14799 l 
3103 14810 l  3126 14822 l  3148 14835 l  3170 14850 l  3190 14865 l  3210 14881 l 
3230 14899 l  3248 14917 l  3265 14936 l  3281 14956 l  3297 14977 l  3311 14999 l 
3324 15021 l  3336 15044 l  3347 15068 l  3356 15092 l  3365 15116 l  3372 15141 l 
3378 15166 l  3382 15192 l  3385 15217 l  3387 15243 l  3388 15269 l  3476 15269 l 
3475 15239 l  3473 15208 l  3469 15178 l  3464 15149 l  3457 15119 l  3449 15090 l 
3439 15061 l  3428 15033 l  3415 15005 l  3401 14979 l  3386 14952 l  3369 14927 l 
3351 14903 l  3332 14879 l  3312 14856 l  3290 14835 l  3268 14815 l  3244 14795 l 
3220 14777 l  3195 14761 l  3169 14745 l  3142 14731 l  3114 14718 l  3086 14707 l 
3058 14697 l  3028 14689 l  2999 14682 l  2969 14676 l  2939 14672 l  2909 14670 l 
2878 14669 l  2848 14670 l  2818 14672 l  2788 14676 l  2758 14681 l  2728 14687 l 
2699 14696 l  2670 14705 l  2642 14716 l  2615 14729 l  2588 14743 l  2562 14758 l 
2536 14775 l  2512 14792 l  2489 14811 l  2466 14832 l  2445 14853 l  2424 14875 l 
2405 14899 l  2387 14923 l  2370 14948 l  2354 14974 l  2340 15001 l  2327 15028 l 
2316 15056 l  2306 15085 l  2297 15114 l  2290 15144 l  2285 15173 l  2281 15203 l 
2278 15234 l  2277 15264 l  2126 15262 l  2319 15459 l  2515 15266 l  2365 15264 l 
p ef
gr
gs
0.109 0.609 0.949 c 5688 15254 m  5689 15229 l  5691 15203 l  5695 15177 l 
5699 15152 l  5705 15127 l  5713 15102 l  5721 15077 l  5731 15053 l  5742 15030 l 
5754 15007 l  5768 14985 l  5782 14963 l  5797 14943 l  5814 14923 l  5831 14904 l 
5850 14886 l  5869 14868 l  5889 14852 l  5910 14837 l  5932 14823 l  5954 14810 l 
5977 14798 l  6001 14787 l  6025 14778 l  6049 14770 l  6074 14763 l  6099 14757 l 
6125 14753 l  6151 14749 l  6176 14748 l  6202 14747 l  6228 14748 l  6254 14750 l 
6280 14753 l  6305 14758 l  6330 14764 l  6355 14771 l  6379 14779 l  6403 14789 l 
6427 14800 l  6450 14812 l  6472 14825 l  6494 14840 l  6514 14855 l  6534 14871 l 
6554 14889 l  6572 14907 l  6589 14926 l  6605 14946 l  6621 14967 l  6635 14989 l 
6648 15011 l  6660 15034 l  6671 15058 l  6680 15082 l  6689 15106 l  6696 15131 l 
6702 15156 l  6706 15182 l  6709 15207 l  6711 15233 l  6712 15259 l  6800 15259 l 
6799 15229 l  6797 15198 l  6793 15168 l  6788 15139 l  6781 15109 l  6773 15080 l 
6763 15051 l  6752 15023 l  6739 14995 l  6725 14969 l  6710 14942 l  6693 14917 l 
6675 14893 l  6656 14869 l  6636 14846 l  6614 14825 l  6592 14805 l  6568 14785 l 
6544 14767 l  6519 14751 l  6493 14735 l  6466 14721 l  6438 14708 l  6410 14697 l 
6382 14687 l  6352 14679 l  6323 14672 l  6293 14666 l  6263 14662 l  6233 14660 l 
6202 14659 l  6172 14660 l  6142 14662 l  6112 14666 l  6082 14671 l  6052 14677 l 
6023 14686 l  5994 14695 l  5966 14706 l  5939 14719 l  5912 14733 l  5886 14748 l 
5860 14765 l  5836 14782 l  5812 14801 l  5789 14822 l  5768 14843 l  5747 14865 l 
5728 14889 l  5710 14913 l  5693 14938 l  5677 14964 l  5663 14991 l  5650 15018 l 
5639 15046 l  5629 15075 l  5620 15104 l  5613 15134 l  5608 15163 l  5604 15193 l 
5601 15224 l  5600 15254 l  5449 15252 l  5642 15449 l  5839 15256 l  5688 15254 l 
p ef
gr
gs
0.109 0.609 0.949 c 3987 17769 m  3988 17794 l  3990 17820 l  3994 17846 l 
3998 17871 l  4004 17896 l  4012 17921 l  4020 17946 l  4030 17970 l  4041 17993 l 
4053 18016 l  4067 18038 l  4081 18060 l  4096 18080 l  4113 18100 l  4130 18119 l 
4149 18137 l  4168 18155 l  4188 18171 l  4209 18186 l  4231 18200 l  4253 18213 l 
4276 18225 l  4300 18236 l  4324 18245 l  4348 18253 l  4373 18260 l  4398 18266 l 
4424 18270 l  4450 18274 l  4475 18275 l  4501 18276 l  4527 18275 l  4553 18273 l 
4579 18270 l  4604 18265 l  4629 18259 l  4654 18252 l  4678 18244 l  4702 18234 l 
4726 18223 l  4749 18211 l  4771 18198 l  4793 18183 l  4813 18168 l  4833 18152 l 
4853 18134 l  4871 18116 l  4888 18097 l  4904 18077 l  4920 18056 l  4934 18034 l 
4947 18012 l  4959 17989 l  4970 17965 l  4979 17941 l  4988 17917 l  4995 17892 l 
5001 17867 l  5005 17841 l  5008 17816 l  5010 17790 l  5011 17764 l  5099 17764 l 
5098 17794 l  5096 17825 l  5092 17855 l  5087 17884 l  5080 17914 l  5072 17943 l 
5062 17972 l  5051 18000 l  5038 18028 l  5024 18054 l  5009 18081 l  4992 18106 l 
4974 18130 l  4955 18154 l  4935 18177 l  4913 18198 l  4891 18218 l  4867 18238 l 
4843 18256 l  4818 18272 l  4792 18288 l  4765 18302 l  4737 18315 l  4709 18326 l 
4681 18336 l  4651 18344 l  4622 18351 l  4592 18357 l  4562 18361 l  4532 18363 l 
4501 18364 l  4471 18363 l  4441 18361 l  4411 18357 l  4381 18352 l  4351 18346 l 
4322 18337 l  4293 18328 l  4265 18317 l  4238 18304 l  4211 18290 l  4185 18275 l 
4159 18258 l  4135 18241 l  4111 18222 l  4088 18201 l  4067 18180 l  4046 18158 l 
4027 18134 l  4009 18110 l  3992 18085 l  3976 18059 l  3962 18032 l  3949 18005 l 
3938 17977 l  3928 17948 l  3919 17919 l  3912 17889 l  3907 17860 l  3903 17830 l 
3900 17799 l  3899 17769 l  3748 17771 l  3941 17574 l  4138 17767 l  3987 17769 l 
p ef
gr
gs
0.503 0.503 0.503 c 4499 14504 m  2000 14504 l  2000 14005 l  6999 14005 l 
6999 14504 l  4499 14504 l  p ef
gr
gs
0.503 0.503 0.503 c 4499 19003 m  2000 19003 l  2000 18503 l  6999 18503 l 
6999 19003 l  4499 19003 l  p ef
gr
gs
0.210 0.324 0.414 c 4818 14770 m  4818 14752 4813 14735 4805 14719 ct 4796 14704 4783 14691 4768 14682 ct 
4752 14674 4735 14669 4717 14669 ct 4700 14669 4683 14674 4667 14682 ct 4652 14691 4639 14704 4630 14719 ct 
4622 14735 4617 14752 4617 14770 ct 4617 14787 4622 14804 4630 14820 ct 4639 14835 4652 14848 4667 14857 ct 
4683 14865 4700 14870 4717 14870 ct 4735 14870 4752 14865 4768 14857 ct 4783 14848 4796 14835 4805 14820 ct 
4813 14804 4818 14787 4818 14770 ct 4818 14770 l  p ef
gr
gs
0.210 0.324 0.414 c 5819 14669 m  5819 14651 5814 14634 5806 14618 ct 5797 14603 5784 14590 5769 14581 ct 
5753 14573 5736 14568 5718 14568 ct 5701 14568 5684 14573 5668 14581 ct 5653 14590 5640 14603 5631 14618 ct 
5623 14634 5618 14651 5618 14669 ct 5618 14686 5623 14703 5631 14719 ct 5640 14734 5653 14747 5668 14756 ct 
5684 14764 5701 14769 5718 14769 ct 5736 14769 5753 14764 5769 14756 ct 5784 14747 5797 14734 5806 14719 ct 
5814 14703 5819 14686 5819 14669 ct 5819 14669 l  p ef
gr
gs
0.210 0.324 0.414 c 2819 14769 m  2819 14751 2814 14734 2806 14718 ct 2797 14703 2784 14690 2769 14681 ct 
2753 14673 2736 14668 2719 14668 ct 2701 14668 2684 14673 2668 14681 ct 2653 14690 2640 14703 2631 14718 ct 
2623 14734 2618 14751 2618 14769 ct 2618 14786 2623 14803 2631 14819 ct 2640 14834 2653 14847 2668 14856 ct 
2684 14864 2701 14869 2718 14869 ct 2736 14869 2753 14864 2769 14856 ct 2784 14847 2797 14834 2806 14819 ct 
2814 14803 2819 14786 2819 14769 ct 2819 14769 l  p ef
gr
gs
0.210 0.324 0.414 c 3820 14668 m  3820 14650 3815 14633 3807 14617 ct 3798 14602 3785 14589 3770 14580 ct 
3754 14572 3737 14567 3720 14567 ct 3702 14567 3685 14572 3669 14580 ct 3654 14589 3641 14602 3632 14617 ct 
3624 14633 3619 14650 3619 14668 ct 3619 14685 3624 14702 3632 14718 ct 3641 14733 3654 14746 3669 14755 ct 
3685 14763 3702 14768 3720 14768 ct 3737 14768 3754 14763 3770 14755 ct 3785 14746 3798 14733 3807 14718 ct 
3815 14702 3820 14685 3820 14668 ct 3820 14668 l  p ef
gr
gs
0.210 0.324 0.414 c 5119 14768 m  5119 14751 5114 14734 5106 14718 ct 5097 14703 5084 14690 5069 14681 ct 
5053 14673 5036 14668 5019 14668 ct 5001 14668 4984 14673 4968 14681 ct 4953 14690 4940 14703 4931 14718 ct 
4923 14734 4918 14751 4918 14768 ct 4918 14786 4923 14803 4931 14819 ct 4940 14834 4953 14847 4968 14856 ct 
4984 14864 5001 14869 5019 14869 ct 5036 14869 5053 14864 5069 14856 ct 5084 14847 5097 14834 5106 14819 ct 
5114 14803 5119 14786 5119 14768 ct 5119 14768 l  p ef
gr
gs
0.210 0.324 0.414 c 6220 14768 m  6220 14750 6215 14733 6207 14717 ct 6198 14702 6185 14689 6170 14680 ct 
6154 14672 6137 14667 6119 14667 ct 6102 14667 6085 14672 6069 14680 ct 6054 14689 6041 14702 6032 14717 ct 
6024 14733 6019 14750 6019 14768 ct 6019 14785 6024 14802 6032 14818 ct 6041 14833 6054 14846 6069 14855 ct 
6085 14863 6102 14868 6119 14868 ct 6137 14868 6154 14863 6170 14855 ct 6185 14846 6198 14833 6207 14818 ct 
6215 14802 6220 14785 6220 14768 ct 6220 14768 l  p ef
gr
gs
0.210 0.324 0.414 c 3220 14768 m  3220 14750 3215 14733 3207 14717 ct 3198 14702 3185 14689 3170 14680 ct 
3154 14672 3137 14667 3120 14667 ct 3102 14667 3085 14672 3069 14680 ct 3054 14689 3041 14702 3032 14717 ct 
3024 14733 3019 14750 3019 14768 ct 3019 14785 3024 14802 3032 14818 ct 3041 14833 3054 14846 3069 14855 ct 
3085 14863 3102 14868 3119 14868 ct 3137 14868 3154 14863 3170 14855 ct 3185 14846 3198 14833 3207 14818 ct 
3215 14802 3220 14785 3220 14768 ct 3220 14768 l  p ef
gr
gs
0.210 0.324 0.414 c 4221 14767 m  4221 14749 4216 14732 4208 14716 ct 4199 14701 4186 14688 4171 14679 ct 
4155 14671 4138 14666 4120 14666 ct 4103 14666 4086 14671 4070 14679 ct 4055 14688 4042 14701 4033 14716 ct 
4025 14732 4020 14749 4020 14767 ct 4020 14784 4025 14801 4033 14817 ct 4042 14832 4055 14845 4070 14854 ct 
4086 14862 4103 14867 4120 14867 ct 4138 14867 4155 14862 4171 14854 ct 4186 14845 4199 14832 4208 14817 ct 
4216 14801 4221 14784 4221 14767 ct 4221 14767 l  p ef
gr
gs
0.210 0.324 0.414 c 5520 14768 m  5520 14750 5515 14733 5507 14717 ct 5498 14702 5485 14689 5470 14680 ct 
5454 14672 5437 14667 5420 14667 ct 5402 14667 5385 14672 5369 14680 ct 5354 14689 5341 14702 5332 14717 ct 
5324 14733 5319 14750 5319 14768 ct 5319 14785 5324 14802 5332 14818 ct 5341 14833 5354 14846 5369 14855 ct 
5385 14863 5402 14868 5420 14868 ct 5437 14868 5454 14863 5470 14855 ct 5485 14846 5498 14833 5507 14818 ct 
5515 14802 5520 14785 5520 14768 ct 5520 14768 l  p ef
gr
gs
0.210 0.324 0.414 c 3521 14867 m  3521 14849 3516 14832 3508 14816 ct 3499 14801 3486 14788 3471 14779 ct 
3455 14771 3438 14766 3420 14766 ct 3403 14766 3386 14771 3370 14779 ct 3355 14788 3342 14801 3333 14816 ct 
3325 14832 3320 14849 3320 14867 ct 3320 14884 3325 14901 3333 14917 ct 3342 14932 3355 14945 3370 14954 ct 
3386 14962 3403 14967 3420 14967 ct 3438 14967 3455 14962 3471 14954 ct 3486 14945 3499 14932 3508 14917 ct 
3516 14901 3521 14884 3521 14867 ct 3521 14867 l  p ef
gr
gs
0.210 0.324 0.414 c 4519 14669 m  4519 14651 4514 14634 4506 14618 ct 4497 14603 4484 14590 4469 14581 ct 
4453 14573 4436 14568 4418 14568 ct 4401 14568 4384 14573 4368 14581 ct 4353 14590 4340 14603 4331 14618 ct 
4323 14634 4318 14651 4318 14669 ct 4318 14686 4323 14703 4331 14719 ct 4340 14734 4353 14747 4368 14756 ct 
4384 14764 4401 14769 4418 14769 ct 4436 14769 4453 14764 4469 14756 ct 4484 14747 4497 14734 4506 14719 ct 
4514 14703 4519 14686 4519 14669 ct 4519 14669 l  p ef
gr
gs
0.210 0.324 0.414 c 6020 14968 m  6020 14950 6015 14933 6007 14917 ct 5998 14902 5985 14889 5970 14880 ct 
5954 14872 5937 14867 5919 14867 ct 5902 14867 5885 14872 5869 14880 ct 5854 14889 5841 14902 5832 14917 ct 
5824 14933 5819 14950 5819 14968 ct 5819 14985 5824 15002 5832 15018 ct 5841 15033 5854 15046 5869 15055 ct 
5885 15063 5902 15068 5919 15068 ct 5937 15068 5954 15063 5970 15055 ct 5985 15046 5998 15033 6007 15018 ct 
6015 15002 6020 14985 6020 14968 ct 6020 14968 l  p ef
gr
gs
0.210 0.324 0.414 c 6521 14966 m  6521 14949 6516 14932 6508 14916 ct 6499 14901 6486 14888 6471 14879 ct 
6455 14871 6438 14866 6421 14866 ct 6403 14866 6386 14871 6370 14879 ct 6355 14888 6342 14901 6333 14916 ct 
6325 14932 6320 14949 6320 14966 ct 6320 14984 6325 15001 6333 15017 ct 6342 15032 6355 15045 6370 15054 ct 
6386 15062 6403 15067 6421 15067 ct 6438 15067 6455 15062 6471 15054 ct 6486 15045 6499 15032 6508 15017 ct 
6516 15001 6521 14984 6521 14966 ct 6521 14966 l  p ef
gr
gs
0.210 0.324 0.414 c 6522 14666 m  6522 14648 6517 14631 6509 14615 ct 6500 14600 6487 14587 6472 14578 ct 
6456 14570 6439 14565 6422 14565 ct 6404 14565 6387 14570 6371 14578 ct 6356 14587 6343 14600 6334 14615 ct 
6326 14631 6321 14648 6321 14666 ct 6321 14683 6326 14700 6334 14716 ct 6343 14731 6356 14744 6371 14753 ct 
6387 14761 6404 14766 6422 14766 ct 6439 14766 6456 14761 6472 14753 ct 6487 14744 6500 14731 6509 14716 ct 
6517 14700 6522 14683 6522 14666 ct 6522 14666 l  p ef
gr
gs
0.210 0.324 0.414 c 6823 14764 m  6823 14747 6818 14730 6810 14714 ct 6801 14699 6788 14686 6773 14677 ct 
6757 14669 6740 14664 6723 14664 ct 6705 14664 6688 14669 6672 14677 ct 6657 14686 6644 14699 6635 14714 ct 
6627 14730 6622 14747 6622 14764 ct 6622 14782 6627 14799 6635 14815 ct 6644 14830 6657 14843 6672 14852 ct 
6688 14860 6705 14865 6723 14865 ct 6740 14865 6757 14860 6773 14852 ct 6788 14843 6801 14830 6810 14815 ct 
6818 14799 6823 14782 6823 14764 ct 6823 14764 l  p ef
gr
gs
0.210 0.324 0.414 c 6824 15064 m  6824 15046 6819 15029 6811 15013 ct 6802 14998 6789 14985 6774 14976 ct 
6758 14968 6741 14963 6724 14963 ct 6706 14963 6689 14968 6673 14976 ct 6658 14985 6645 14998 6636 15013 ct 
6628 15029 6623 15046 6623 15064 ct 6623 15081 6628 15098 6636 15114 ct 6645 15129 6658 15142 6673 15151 ct 
6689 15159 6706 15164 6724 15164 ct 6741 15164 6758 15159 6774 15151 ct 6789 15142 6802 15129 6811 15114 ct 
6819 15098 6824 15081 6824 15064 ct 6824 15064 l  p ef
gr
gs
0.210 0.324 0.414 c 2326 14662 m  2326 14645 2321 14628 2313 14612 ct 2304 14597 2291 14584 2276 14575 ct 
2260 14567 2243 14562 2226 14562 ct 2208 14562 2191 14567 2175 14575 ct 2160 14584 2147 14597 2138 14612 ct 
2130 14628 2125 14645 2125 14662 ct 2125 14680 2130 14697 2138 14713 ct 2147 14728 2160 14741 2175 14750 ct 
2191 14758 2208 14763 2226 14763 ct 2243 14763 2260 14758 2276 14750 ct 2291 14741 2304 14728 2313 14713 ct 
2321 14697 2326 14680 2326 14662 ct 2326 14662 l  p ef
gr
gs
0.210 0.324 0.414 c 2525 14862 m  2525 14844 2520 14827 2512 14811 ct 2503 14796 2491 14783 2476 14774 ct 
2460 14766 2443 14761 2426 14761 ct 2408 14761 2391 14766 2375 14774 ct 2360 14783 2347 14796 2338 14811 ct 
2330 14827 2325 14844 2325 14861 ct 2325 14879 2330 14896 2338 14912 ct 2347 14927 2360 14940 2375 14949 ct 
2391 14957 2408 14962 2425 14962 ct 2443 14962 2460 14957 2476 14949 ct 2491 14940 2503 14927 2512 14912 ct 
2520 14896 2525 14879 2525 14862 ct 2525 14862 l  p ef
gr
gs
0.210 0.324 0.414 c 2227 14960 m  2227 14943 2222 14926 2214 14910 ct 2205 14895 2192 14882 2177 14873 ct 
2161 14865 2144 14860 2126 14860 ct 2109 14860 2092 14865 2076 14873 ct 2061 14882 2048 14895 2039 14910 ct 
2031 14926 2026 14943 2026 14960 ct 2026 14978 2031 14995 2039 15011 ct 2048 15026 2061 15039 2076 15048 ct 
2092 15056 2109 15061 2126 15061 ct 2144 15061 2161 15056 2177 15048 ct 2192 15039 2205 15026 2214 15011 ct 
2222 14995 2227 14978 2227 14960 ct 2227 14960 l  p ef
gr
gs
0.210 0.324 0.414 c 3027 14960 m  3027 14942 3022 14925 3014 14909 ct 3005 14894 2992 14881 2977 14872 ct 
2961 14864 2944 14859 2927 14859 ct 2909 14859 2892 14864 2876 14872 ct 2861 14881 2848 14894 2839 14909 ct 
2831 14925 2826 14942 2826 14960 ct 2826 14977 2831 14994 2839 15010 ct 2848 15025 2861 15038 2876 15047 ct 
2892 15055 2909 15060 2927 15060 ct 2944 15060 2961 15055 2977 15047 ct 2992 15038 3005 15025 3014 15010 ct 
3022 14994 3027 14977 3027 14960 ct 3027 14960 l  p ef
gr
gs
0.210 0.324 0.414 c 3928 14959 m  3928 14941 3923 14924 3915 14908 ct 3906 14893 3893 14880 3878 14871 ct 
3862 14863 3845 14858 3828 14858 ct 3810 14858 3793 14863 3777 14871 ct 3762 14880 3749 14893 3740 14908 ct 
3732 14924 3727 14941 3727 14959 ct 3727 14976 3732 14993 3740 15009 ct 3749 15024 3762 15037 3777 15046 ct 
3793 15054 3810 15059 3828 15059 ct 3845 15059 3862 15054 3878 15046 ct 3893 15037 3906 15024 3915 15009 ct 
3923 14993 3928 14976 3928 14959 ct 3928 14959 l  p ef
gr
gs
0.210 0.324 0.414 c 4228 15059 m  4228 15041 4223 15024 4215 15008 ct 4206 14993 4193 14980 4178 14971 ct 
4162 14963 4145 14958 4128 14958 ct 4110 14958 4093 14963 4077 14971 ct 4062 14980 4049 14993 4040 15008 ct 
4032 15024 4027 15041 4027 15059 ct 4027 15076 4032 15093 4040 15109 ct 4049 15124 4062 15137 4077 15146 ct 
4093 15154 4110 15159 4128 15159 ct 4145 15159 4162 15154 4178 15146 ct 4193 15137 4206 15124 4215 15109 ct 
4223 15093 4228 15076 4228 15059 ct 4228 15059 l  p ef
gr
gs
0.210 0.324 0.414 c 4629 14959 m  4629 14941 4624 14924 4616 14908 ct 4607 14893 4594 14880 4579 14871 ct 
4563 14863 4546 14858 4529 14858 ct 4511 14858 4494 14863 4478 14871 ct 4463 14880 4450 14893 4441 14908 ct 
4433 14924 4428 14941 4428 14959 ct 4428 14976 4433 14993 4441 15009 ct 4450 15024 4463 15037 4478 15046 ct 
4494 15054 4511 15059 4529 15059 ct 4546 15059 4563 15054 4579 15046 ct 4594 15037 4607 15024 4616 15009 ct 
4624 14993 4629 14976 4629 14959 ct 4629 14959 l  p ef
gr
gs
0.210 0.324 0.414 c 3818 15370 m  3818 15352 3813 15335 3805 15319 ct 3796 15304 3783 15291 3768 15282 ct 
3752 15274 3735 15269 3718 15269 ct 3700 15269 3683 15274 3667 15282 ct 3652 15291 3639 15304 3630 15319 ct 
3622 15335 3617 15352 3617 15370 ct 3617 15387 3622 15404 3630 15420 ct 3639 15435 3652 15448 3667 15457 ct 
3683 15465 3700 15470 3718 15470 ct 3735 15470 3752 15465 3768 15457 ct 3783 15448 3796 15435 3805 15420 ct 
3813 15404 3818 15387 3818 15370 ct 3818 15370 l  p ef
gr
gs
0.210 0.324 0.414 c 5319 15169 m  5319 15151 5314 15134 5306 15118 ct 5297 15103 5284 15090 5269 15081 ct 
5253 15073 5236 15068 5219 15068 ct 5201 15068 5184 15073 5168 15081 ct 5153 15090 5140 15103 5131 15118 ct 
5123 15134 5118 15151 5118 15169 ct 5118 15186 5123 15203 5131 15219 ct 5140 15234 5153 15247 5168 15256 ct 
5184 15264 5201 15269 5219 15269 ct 5236 15269 5253 15264 5269 15256 ct 5284 15247 5297 15234 5306 15219 ct 
5314 15203 5319 15186 5319 15169 ct 5319 15169 l  p ef
gr
gs
0.210 0.324 0.414 c 2420 15268 m  2420 15251 2415 15234 2407 15218 ct 2398 15203 2385 15190 2370 15181 ct 
2354 15173 2337 15168 2320 15168 ct 2302 15168 2285 15173 2269 15181 ct 2254 15190 2241 15203 2232 15218 ct 
2224 15234 2219 15251 2219 15268 ct 2219 15286 2224 15303 2232 15319 ct 2241 15334 2254 15347 2269 15356 ct 
2285 15364 2302 15369 2320 15369 ct 2337 15369 2354 15364 2370 15356 ct 2385 15347 2398 15334 2407 15319 ct 
2415 15303 2420 15286 2420 15268 ct 2420 15268 l  p ef
gr
gs
0.210 0.324 0.414 c 3120 15468 m  3120 15450 3115 15433 3107 15417 ct 3098 15402 3085 15389 3070 15380 ct 
3054 15372 3037 15367 3020 15367 ct 3002 15367 2985 15372 2969 15380 ct 2954 15389 2941 15402 2932 15417 ct 
2924 15433 2919 15450 2919 15468 ct 2919 15485 2924 15502 2932 15518 ct 2941 15533 2954 15546 2969 15555 ct 
2985 15563 3002 15568 3019 15568 ct 3037 15568 3054 15563 3070 15555 ct 3085 15546 3098 15533 3107 15518 ct 
3115 15502 3120 15485 3120 15468 ct 3120 15468 l  p ef
gr
gs
0.210 0.324 0.414 c 4319 15369 m  4319 15351 4314 15334 4306 15318 ct 4297 15303 4284 15290 4269 15281 ct 
4253 15273 4236 15268 4219 15268 ct 4201 15268 4184 15273 4168 15281 ct 4153 15290 4140 15303 4131 15318 ct 
4123 15334 4118 15351 4118 15369 ct 4118 15386 4123 15403 4131 15419 ct 4140 15434 4153 15447 4168 15456 ct 
4184 15464 4201 15469 4219 15469 ct 4236 15469 4253 15464 4269 15456 ct 4284 15447 4297 15434 4306 15419 ct 
4314 15403 4319 15386 4319 15369 ct 4319 15369 l  p ef
gr
gs
0.210 0.324 0.414 c 5720 15367 m  5720 15350 5715 15333 5707 15317 ct 5698 15302 5685 15289 5670 15280 ct 
5654 15272 5637 15267 5620 15267 ct 5602 15267 5585 15272 5569 15280 ct 5554 15289 5541 15302 5532 15317 ct 
5524 15333 5519 15350 5519 15367 ct 5519 15385 5524 15402 5532 15418 ct 5541 15433 5554 15446 5569 15455 ct 
5585 15463 5602 15468 5620 15468 ct 5637 15468 5654 15463 5670 15455 ct 5685 15446 5698 15433 5707 15418 ct 
5715 15402 5720 15385 5720 15367 ct 5720 15367 l  p ef
gr
gs
0.210 0.324 0.414 c 2820 15168 m  2820 15150 2815 15133 2807 15117 ct 2798 15102 2785 15089 2770 15080 ct 
2754 15072 2737 15067 2720 15067 ct 2702 15067 2685 15072 2669 15080 ct 2654 15089 2641 15102 2632 15117 ct 
2624 15133 2619 15150 2619 15168 ct 2619 15185 2624 15202 2632 15218 ct 2641 15233 2654 15246 2669 15255 ct 
2685 15263 2702 15268 2720 15268 ct 2737 15268 2754 15263 2770 15255 ct 2785 15246 2798 15233 2807 15218 ct 
2815 15202 2820 15185 2820 15168 ct 2820 15168 l  p ef
gr
gs
0.210 0.324 0.414 c 3421 15267 m  3421 15249 3416 15232 3408 15216 ct 3399 15201 3386 15188 3371 15179 ct 
3355 15171 3338 15166 3321 15166 ct 3303 15166 3286 15171 3270 15179 ct 3255 15188 3242 15201 3233 15216 ct 
3225 15232 3220 15249 3220 15267 ct 3220 15284 3225 15301 3233 15317 ct 3242 15332 3255 15345 3270 15354 ct 
3286 15362 3303 15367 3321 15367 ct 3338 15367 3355 15362 3371 15354 ct 3386 15345 3399 15332 3408 15317 ct 
3416 15301 3421 15284 3421 15267 ct 3421 15267 l  p ef
gr
gs
0.210 0.324 0.414 c 4717 16070 m  4717 16052 4712 16035 4704 16019 ct 4695 16004 4682 15991 4667 15982 ct 
4651 15974 4634 15969 4617 15969 ct 4599 15969 4582 15974 4566 15982 ct 4551 15991 4538 16004 4529 16019 ct 
4521 16035 4516 16052 4516 16070 ct 4516 16087 4521 16104 4529 16120 ct 4538 16135 4551 16148 4566 16157 ct 
4582 16165 4599 16170 4617 16170 ct 4634 16170 4651 16165 4667 16157 ct 4682 16148 4695 16135 4704 16120 ct 
4712 16104 4717 16087 4717 16070 ct 4717 16070 l  p ef
gr
gs
0.210 0.324 0.414 c 6418 16069 m  6418 16051 6413 16034 6405 16018 ct 6396 16003 6383 15990 6368 15981 ct 
6352 15973 6335 15968 6317 15968 ct 6300 15968 6283 15973 6267 15981 ct 6252 15990 6239 16003 6230 16018 ct 
6222 16034 6217 16051 6217 16069 ct 6217 16086 6222 16103 6230 16119 ct 6239 16134 6252 16147 6267 16156 ct 
6283 16164 6300 16169 6317 16169 ct 6335 16169 6352 16164 6368 16156 ct 6383 16147 6396 16134 6405 16119 ct 
6413 16103 6418 16086 6418 16069 ct 6418 16069 l  p ef
gr
gs
0.210 0.324 0.414 c 3218 15869 m  3218 15851 3213 15834 3205 15818 ct 3196 15803 3183 15790 3168 15781 ct 
3152 15773 3135 15768 3118 15768 ct 3100 15768 3083 15773 3067 15781 ct 3052 15790 3039 15803 3030 15818 ct 
3022 15834 3017 15851 3017 15869 ct 3017 15886 3022 15903 3030 15919 ct 3039 15934 3052 15947 3067 15956 ct 
3083 15964 3100 15969 3118 15969 ct 3135 15969 3152 15964 3168 15956 ct 3183 15947 3196 15934 3205 15919 ct 
3213 15903 3218 15886 3218 15869 ct 3218 15869 l  p ef
gr
gs
0.210 0.324 0.414 c 4119 15768 m  4119 15750 4114 15733 4106 15717 ct 4097 15702 4084 15689 4069 15680 ct 
4053 15672 4036 15667 4019 15667 ct 4001 15667 3984 15672 3968 15680 ct 3953 15689 3940 15702 3931 15717 ct 
3923 15733 3918 15750 3918 15768 ct 3918 15785 3923 15802 3931 15818 ct 3940 15833 3953 15846 3968 15855 ct 
3984 15863 4001 15868 4018 15868 ct 4036 15868 4053 15863 4069 15855 ct 4084 15846 4097 15833 4106 15818 ct 
4114 15802 4119 15785 4119 15768 ct 4119 15768 l  p ef
gr
gs
0.210 0.324 0.414 c 5717 16569 m  5717 16551 5712 16534 5704 16518 ct 5695 16503 5682 16490 5667 16481 ct 
5651 16473 5634 16468 5617 16468 ct 5599 16468 5582 16473 5566 16481 ct 5551 16490 5538 16503 5529 16518 ct 
5521 16534 5516 16551 5516 16569 ct 5516 16586 5521 16603 5529 16619 ct 5538 16634 5551 16647 5566 16656 ct 
5582 16664 5599 16669 5617 16669 ct 5634 16669 5651 16664 5667 16656 ct 5682 16647 5695 16634 5704 16619 ct 
5712 16603 5717 16586 5717 16569 ct 5717 16569 l  p ef
gr
gs
0.210 0.324 0.414 c 3718 16568 m  3718 16550 3713 16533 3705 16517 ct 3696 16502 3683 16489 3668 16480 ct 
3652 16472 3635 16467 3618 16467 ct 3600 16467 3583 16472 3567 16480 ct 3552 16489 3539 16502 3530 16517 ct 
3522 16533 3517 16550 3517 16568 ct 3517 16585 3522 16602 3530 16618 ct 3539 16633 3552 16646 3567 16655 ct 
3583 16663 3600 16668 3618 16668 ct 3635 16668 3652 16663 3668 16655 ct 3683 16646 3696 16633 3705 16618 ct 
3713 16602 3718 16585 3718 16568 ct 3718 16568 l  p ef
gr
gs
0.210 0.324 0.414 c 4719 16566 m  4719 16549 4714 16532 4706 16516 ct 4697 16501 4684 16488 4669 16479 ct 
4653 16471 4636 16466 4618 16466 ct 4601 16466 4584 16471 4568 16479 ct 4553 16488 4540 16501 4531 16516 ct 
4523 16532 4518 16549 4518 16566 ct 4518 16584 4523 16601 4531 16617 ct 4540 16632 4553 16645 4568 16654 ct 
4584 16662 4601 16667 4618 16667 ct 4636 16667 4653 16662 4669 16654 ct 4684 16645 4697 16632 4706 16617 ct 
4714 16601 4719 16584 4719 16566 ct 4719 16566 l  p ef
gr
gs
0.210 0.324 0.414 c 5717 15765 m  5717 15748 5712 15731 5704 15715 ct 5695 15700 5682 15687 5667 15678 ct 
5651 15670 5634 15665 5617 15665 ct 5599 15665 5582 15670 5566 15678 ct 5551 15687 5538 15700 5529 15715 ct 
5521 15731 5516 15748 5516 15765 ct 5516 15783 5521 15800 5529 15816 ct 5538 15831 5551 15844 5566 15853 ct 
5582 15861 5599 15866 5617 15866 ct 5634 15866 5651 15861 5667 15853 ct 5682 15844 5695 15831 5704 15816 ct 
5712 15800 5717 15783 5717 15765 ct 5717 15765 l  p ef
gr
gs
0.210 0.324 0.414 c 6718 15765 m  6718 15747 6713 15730 6705 15714 ct 6696 15699 6683 15686 6668 15677 ct 
6652 15669 6635 15664 6618 15664 ct 6600 15664 6583 15669 6567 15677 ct 6552 15686 6539 15699 6530 15714 ct 
6522 15730 6517 15747 6517 15765 ct 6517 15782 6522 15799 6530 15815 ct 6539 15830 6552 15843 6567 15852 ct 
6583 15860 6600 15865 6618 15865 ct 6635 15865 6652 15860 6668 15852 ct 6683 15843 6696 15830 6705 15815 ct 
6713 15799 6718 15782 6718 15765 ct 6718 15765 l  p ef
gr
gs
0.210 0.324 0.414 c 3718 15765 m  3718 15747 3713 15730 3705 15714 ct 3696 15699 3683 15686 3668 15677 ct 
3652 15669 3635 15664 3618 15664 ct 3600 15664 3583 15669 3567 15677 ct 3552 15686 3539 15699 3530 15714 ct 
3522 15730 3517 15747 3517 15765 ct 3517 15782 3522 15799 3530 15815 ct 3539 15830 3552 15843 3567 15852 ct 
3583 15860 3600 15865 3617 15865 ct 3635 15865 3652 15860 3668 15852 ct 3683 15843 3696 15830 3705 15815 ct 
3713 15799 3718 15782 3718 15765 ct 3718 15765 l  p ef
gr
gs
0.210 0.324 0.414 c 4919 15364 m  4919 15346 4914 15329 4906 15313 ct 4897 15298 4884 15285 4869 15276 ct 
4853 15268 4836 15263 4819 15263 ct 4801 15263 4784 15268 4768 15276 ct 4753 15285 4740 15298 4731 15313 ct 
4723 15329 4718 15346 4718 15364 ct 4718 15381 4723 15398 4731 15414 ct 4740 15429 4753 15442 4768 15451 ct 
4784 15459 4801 15464 4819 15464 ct 4836 15464 4853 15459 4869 15451 ct 4884 15442 4897 15429 4906 15414 ct 
4914 15398 4919 15381 4919 15364 ct 4919 15364 l  p ef
gr
gs
0.210 0.324 0.414 c 4618 15669 m  4618 15651 4613 15634 4605 15618 ct 4596 15603 4583 15590 4568 15581 ct 
4552 15573 4535 15568 4518 15568 ct 4500 15568 4483 15573 4467 15581 ct 4452 15590 4439 15603 4430 15618 ct 
4422 15634 4417 15651 4417 15669 ct 4417 15686 4422 15703 4430 15719 ct 4439 15734 4452 15747 4467 15756 ct 
4483 15764 4500 15769 4518 15769 ct 4535 15769 4552 15764 4568 15756 ct 4583 15747 4596 15734 4605 15719 ct 
4613 15703 4618 15686 4618 15669 ct 4618 15669 l  p ef
gr
gs
0.210 0.324 0.414 c 5019 15667 m  5019 15650 5014 15633 5006 15617 ct 4997 15602 4984 15589 4969 15580 ct 
4953 15572 4936 15567 4919 15567 ct 4901 15567 4884 15572 4868 15580 ct 4853 15589 4840 15602 4831 15617 ct 
4823 15633 4818 15650 4818 15667 ct 4818 15685 4823 15702 4831 15718 ct 4840 15733 4853 15746 4868 15755 ct 
4884 15763 4901 15768 4919 15768 ct 4936 15768 4953 15763 4969 15755 ct 4984 15746 4997 15733 5006 15718 ct 
5014 15702 5019 15685 5019 15667 ct 5019 15667 l  p ef
gr
gs
0.210 0.324 0.414 c 5420 15568 m  5420 15550 5415 15533 5407 15517 ct 5398 15502 5385 15489 5370 15480 ct 
5354 15472 5337 15467 5320 15467 ct 5302 15467 5285 15472 5269 15480 ct 5254 15489 5241 15502 5232 15517 ct 
5224 15533 5219 15550 5219 15568 ct 5219 15585 5224 15602 5232 15618 ct 5241 15633 5254 15646 5269 15655 ct 
5285 15663 5302 15668 5320 15668 ct 5337 15668 5354 15663 5370 15655 ct 5385 15646 5398 15633 5407 15618 ct 
5415 15602 5420 15585 5420 15568 ct 5420 15568 l  p ef
gr
gs
0.210 0.324 0.414 c 5421 16167 m  5421 16150 5416 16133 5408 16117 ct 5399 16102 5386 16089 5371 16080 ct 
5355 16072 5338 16067 5321 16067 ct 5303 16067 5286 16072 5270 16080 ct 5255 16089 5242 16102 5233 16117 ct 
5225 16133 5220 16150 5220 16167 ct 5220 16185 5225 16202 5233 16218 ct 5242 16233 5255 16246 5270 16255 ct 
5286 16263 5303 16268 5321 16268 ct 5338 16268 5355 16263 5371 16255 ct 5386 16246 5399 16233 5408 16218 ct 
5416 16202 5421 16185 5421 16167 ct 5421 16167 l  p ef
gr
gs
0.210 0.324 0.414 c 6023 15567 m  6023 15549 6018 15532 6010 15516 ct 6001 15501 5988 15488 5973 15479 ct 
5957 15471 5940 15466 5923 15466 ct 5905 15466 5888 15471 5872 15479 ct 5857 15488 5844 15501 5835 15516 ct 
5827 15532 5822 15549 5822 15567 ct 5822 15584 5827 15601 5835 15617 ct 5844 15632 5857 15645 5872 15654 ct 
5888 15662 5905 15667 5923 15667 ct 5940 15667 5957 15662 5973 15654 ct 5988 15645 6001 15632 6010 15617 ct 
6018 15601 6023 15584 6023 15567 ct 6023 15567 l  p ef
gr
gs
0.210 0.324 0.414 c 6223 15265 m  6223 15248 6218 15231 6210 15215 ct 6201 15200 6188 15187 6173 15178 ct 
6157 15170 6140 15165 6122 15165 ct 6105 15165 6088 15170 6072 15178 ct 6057 15187 6044 15200 6035 15215 ct 
6027 15231 6022 15248 6022 15265 ct 6022 15283 6027 15300 6035 15316 ct 6044 15331 6057 15344 6072 15353 ct 
6088 15361 6105 15366 6122 15366 ct 6140 15366 6157 15361 6173 15353 ct 6188 15344 6201 15331 6210 15316 ct 
6218 15300 6223 15283 6223 15265 ct 6223 15265 l  p ef
gr
gs
0.210 0.324 0.414 c 6624 15364 m  6624 15347 6619 15330 6611 15314 ct 6602 15299 6589 15286 6574 15277 ct 
6558 15269 6541 15264 6524 15264 ct 6506 15264 6489 15269 6473 15277 ct 6458 15286 6445 15299 6436 15314 ct 
6428 15330 6423 15347 6423 15364 ct 6423 15382 6428 15399 6436 15415 ct 6445 15430 6458 15443 6473 15452 ct 
6489 15460 6506 15465 6524 15465 ct 6541 15465 6558 15460 6574 15452 ct 6589 15443 6602 15430 6611 15415 ct 
6619 15399 6624 15382 6624 15364 ct 6624 15364 l  p ef
gr
gs
0.210 0.324 0.414 c 6925 15464 m  6925 15446 6920 15429 6912 15413 ct 6903 15398 6890 15385 6875 15376 ct 
6859 15368 6842 15363 6825 15363 ct 6807 15363 6790 15368 6774 15376 ct 6759 15385 6746 15398 6737 15413 ct 
6729 15429 6724 15446 6724 15464 ct 6724 15481 6729 15498 6737 15514 ct 6746 15529 6759 15542 6774 15551 ct 
6790 15559 6807 15564 6825 15564 ct 6842 15564 6859 15559 6875 15551 ct 6890 15542 6903 15529 6912 15514 ct 
6920 15498 6925 15481 6925 15464 ct 6925 15464 l  p ef
gr
gs
0.210 0.324 0.414 c 6326 15642 m  6326 15625 6321 15608 6313 15592 ct 6304 15577 6291 15564 6276 15555 ct 
6260 15547 6243 15542 6226 15542 ct 6208 15542 6191 15547 6175 15555 ct 6160 15564 6147 15577 6138 15592 ct 
6130 15608 6125 15625 6125 15642 ct 6125 15660 6130 15677 6138 15693 ct 6147 15708 6160 15721 6175 15730 ct 
6191 15738 6208 15743 6226 15743 ct 6243 15743 6260 15738 6276 15730 ct 6291 15721 6304 15708 6313 15693 ct 
6321 15677 6326 15660 6326 15642 ct 6326 15642 l  p ef
gr
gs
0.210 0.324 0.414 c 5818 17266 m  5818 17249 5813 17232 5805 17216 ct 5796 17201 5783 17188 5768 17179 ct 
5752 17171 5735 17166 5718 17166 ct 5700 17166 5683 17171 5667 17179 ct 5652 17188 5639 17201 5630 17216 ct 
5622 17232 5617 17249 5617 17266 ct 5617 17284 5622 17301 5630 17317 ct 5639 17332 5652 17345 5667 17354 ct 
5683 17362 5700 17367 5718 17367 ct 5735 17367 5752 17362 5768 17354 ct 5783 17345 5796 17332 5805 17317 ct 
5813 17301 5818 17284 5818 17266 ct 5818 17266 l  p ef
gr
gs
0.210 0.324 0.414 c 5119 17266 m  5119 17248 5114 17231 5106 17215 ct 5097 17200 5084 17187 5069 17178 ct 
5053 17170 5036 17165 5019 17165 ct 5001 17165 4984 17170 4968 17178 ct 4953 17187 4940 17200 4931 17215 ct 
4923 17231 4918 17248 4918 17266 ct 4918 17283 4923 17300 4931 17316 ct 4940 17331 4953 17344 4968 17353 ct 
4984 17361 5001 17366 5019 17366 ct 5036 17366 5053 17361 5069 17353 ct 5084 17344 5097 17331 5106 17316 ct 
5114 17300 5119 17283 5119 17266 ct 5119 17266 l  p ef
gr
gs
0.210 0.324 0.414 c 5320 16865 m  5320 16848 5315 16831 5307 16815 ct 5298 16800 5285 16787 5270 16778 ct 
5254 16770 5237 16765 5219 16765 ct 5202 16765 5185 16770 5169 16778 ct 5154 16787 5141 16800 5132 16815 ct 
5124 16831 5119 16848 5119 16865 ct 5119 16883 5124 16900 5132 16916 ct 5141 16931 5154 16944 5169 16953 ct 
5185 16961 5202 16966 5219 16966 ct 5237 16966 5254 16961 5270 16953 ct 5285 16944 5298 16931 5307 16916 ct 
5315 16900 5320 16883 5320 16865 ct 5320 16865 l  p ef
gr
gs
0.210 0.324 0.414 c 4321 16865 m  4321 16847 4316 16830 4308 16814 ct 4299 16799 4286 16786 4271 16777 ct 
4255 16769 4238 16764 4220 16764 ct 4203 16764 4186 16769 4170 16777 ct 4155 16786 4142 16799 4133 16814 ct 
4125 16830 4120 16847 4120 16865 ct 4120 16882 4125 16899 4133 16915 ct 4142 16930 4155 16943 4170 16952 ct 
4186 16960 4203 16965 4220 16965 ct 4238 16965 4255 16960 4271 16952 ct 4286 16943 4299 16930 4308 16915 ct 
4316 16899 4321 16882 4321 16865 ct 4321 16865 l  p ef
gr
gs
0.210 0.324 0.414 c 4122 17262 m  4122 17245 4117 17228 4109 17212 ct 4100 17197 4087 17184 4072 17175 ct 
4056 17167 4039 17162 4021 17162 ct 4004 17162 3987 17167 3971 17175 ct 3956 17184 3943 17197 3934 17212 ct 
3926 17228 3921 17245 3921 17262 ct 3921 17280 3926 17297 3934 17313 ct 3943 17328 3956 17341 3971 17350 ct 
3987 17358 4004 17363 4021 17363 ct 4039 17363 4056 17358 4072 17350 ct 4087 17341 4100 17328 4109 17313 ct 
4117 17297 4122 17280 4122 17262 ct 4122 17262 l  p ef
gr
gs
0.210 0.324 0.414 c 4723 17462 m  4723 17444 4718 17427 4710 17411 ct 4701 17396 4688 17383 4673 17374 ct 
4657 17366 4640 17361 4623 17361 ct 4605 17361 4588 17366 4572 17374 ct 4557 17383 4544 17396 4535 17411 ct 
4527 17427 4522 17444 4522 17462 ct 4522 17479 4527 17496 4535 17512 ct 4544 17527 4557 17540 4572 17549 ct 
4588 17557 4605 17562 4623 17562 ct 4640 17562 4657 17557 4673 17549 ct 4688 17540 4701 17527 4710 17512 ct 
4718 17496 4723 17479 4723 17462 ct 4723 17462 l  p ef
gr
gs
0.210 0.324 0.414 c 4624 18061 m  4624 18043 4619 18026 4611 18010 ct 4602 17995 4589 17982 4574 17973 ct 
4558 17965 4541 17960 4524 17960 ct 4506 17960 4489 17965 4473 17973 ct 4458 17982 4445 17995 4436 18010 ct 
4428 18026 4423 18043 4423 18061 ct 4423 18078 4428 18095 4436 18111 ct 4445 18126 4458 18139 4473 18148 ct 
4489 18156 4506 18161 4524 18161 ct 4541 18161 4558 18156 4574 18148 ct 4589 18139 4602 18126 4611 18111 ct 
4619 18095 4624 18078 4624 18061 ct 4624 18061 l  p ef
gr
gs
0.210 0.324 0.414 c 2525 17961 m  2525 17943 2520 17926 2512 17910 ct 2503 17895 2491 17882 2476 17873 ct 
2460 17865 2443 17860 2426 17860 ct 2408 17860 2391 17865 2375 17873 ct 2360 17882 2347 17895 2338 17910 ct 
2330 17926 2325 17943 2325 17961 ct 2325 17978 2330 17995 2338 18011 ct 2347 18026 2360 18039 2375 18048 ct 
2391 18056 2408 18061 2425 18061 ct 2443 18061 2460 18056 2476 18048 ct 2491 18039 2503 18026 2512 18011 ct 
2520 17995 2525 17978 2525 17961 ct 2525 17961 l  p ef
gr
gs
0.210 0.324 0.414 c 3528 16259 m  3528 16241 3523 16224 3515 16208 ct 3506 16193 3493 16180 3478 16171 ct 
3462 16163 3445 16158 3428 16158 ct 3410 16158 3393 16163 3377 16171 ct 3362 16180 3349 16193 3340 16208 ct 
3332 16224 3327 16241 3327 16259 ct 3327 16276 3332 16293 3340 16309 ct 3349 16324 3362 16337 3377 16346 ct 
3393 16354 3410 16359 3428 16359 ct 3445 16359 3462 16354 3478 16346 ct 3493 16337 3506 16324 3515 16309 ct 
3523 16293 3528 16276 3528 16259 ct 3528 16259 l  p ef
gr
gs
0.210 0.324 0.414 c 4228 16359 m  4228 16341 4223 16324 4215 16308 ct 4206 16293 4193 16280 4178 16271 ct 
4162 16263 4145 16258 4128 16258 ct 4110 16258 4093 16263 4077 16271 ct 4062 16280 4049 16293 4040 16308 ct 
4032 16324 4027 16341 4027 16359 ct 4027 16376 4032 16393 4040 16409 ct 4049 16424 4062 16437 4077 16446 ct 
4093 16454 4110 16459 4128 16459 ct 4145 16459 4162 16454 4178 16446 ct 4193 16437 4206 16424 4215 16409 ct 
4223 16393 4228 16376 4228 16359 ct 4228 16359 l  p ef
gr
gs
0.210 0.324 0.414 c 3328 16958 m  3328 16940 3323 16923 3315 16907 ct 3306 16892 3293 16879 3278 16870 ct 
3262 16862 3245 16857 3228 16857 ct 3210 16857 3193 16862 3177 16870 ct 3162 16879 3149 16892 3140 16907 ct 
3132 16923 3127 16940 3127 16958 ct 3127 16975 3132 16991 3140 17007 ct 3149 17022 3162 17035 3177 17044 ct 
3193 17052 3210 17057 3227 17057 ct 3245 17057 3262 17052 3278 17044 ct 3293 17035 3306 17022 3315 17007 ct 
3323 16991 3328 16975 3328 16958 ct 3328 16958 l  p ef
gr
gs
0.210 0.324 0.414 c 2629 16757 m  2629 16739 2624 16722 2616 16706 ct 2607 16691 2594 16678 2579 16669 ct 
2563 16661 2546 16656 2529 16656 ct 2511 16656 2495 16661 2479 16669 ct 2464 16678 2451 16691 2442 16706 ct 
2434 16722 2429 16739 2429 16757 ct 2429 16774 2434 16791 2442 16807 ct 2451 16822 2464 16835 2479 16844 ct 
2495 16852 2511 16857 2529 16857 ct 2546 16857 2563 16852 2579 16844 ct 2594 16835 2607 16822 2616 16807 ct 
2624 16791 2629 16774 2629 16757 ct 2629 16757 l  p ef
gr
gs
0.210 0.324 0.414 c 2311 17055 m  2311 17037 2306 17020 2298 17004 ct 2289 16989 2276 16977 2261 16968 ct 
2245 16960 2228 16955 2211 16955 ct 2193 16955 2176 16960 2160 16968 ct 2145 16977 2132 16989 2123 17004 ct 
2115 17020 2110 17037 2110 17055 ct 2110 17072 2115 17089 2123 17105 ct 2132 17120 2145 17133 2160 17142 ct 
2176 17150 2193 17155 2211 17155 ct 2228 17155 2245 17150 2261 17142 ct 2276 17133 2289 17120 2298 17105 ct 
2306 17089 2311 17072 2311 17055 ct 2311 17055 l  p ef
gr
gs
0.210 0.324 0.414 c 2931 17454 m  2931 17436 2926 17419 2918 17403 ct 2909 17388 2896 17375 2881 17366 ct 
2865 17358 2848 17353 2831 17353 ct 2813 17353 2796 17358 2780 17366 ct 2765 17375 2752 17388 2743 17403 ct 
2735 17419 2730 17436 2730 17454 ct 2730 17471 2735 17488 2743 17504 ct 2752 17519 2765 17532 2780 17541 ct 
2796 17549 2813 17554 2831 17554 ct 2848 17554 2865 17549 2881 17541 ct 2896 17532 2909 17519 2918 17504 ct 
2926 17488 2931 17471 2931 17454 ct 2931 17454 l  p ef
gr
gs
0.109 0.609 0.949 c 3311 17764 m  3310 17789 l  3308 17815 l  3304 17841 l 
3300 17866 l  3294 17891 l  3286 17916 l  3278 17941 l  3268 17965 l  3257 17988 l 
3245 18011 l  3231 18033 l  3217 18055 l  3202 18075 l  3185 18095 l  3168 18114 l 
3149 18132 l  3130 18150 l  3110 18166 l  3089 18181 l  3067 18195 l  3045 18208 l 
3022 18220 l  2998 18231 l  2974 18240 l  2950 18248 l  2925 18255 l  2900 18261 l 
2874 18265 l  2848 18269 l  2823 18270 l  2797 18271 l  2771 18270 l  2745 18268 l 
2719 18265 l  2694 18260 l  2669 18254 l  2644 18247 l  2620 18239 l  2596 18229 l 
2572 18218 l  2549 18206 l  2527 18193 l  2505 18178 l  2486 18163 l  2466 18147 l 
2446 18129 l  2428 18111 l  2411 18092 l  2395 18072 l  2379 18051 l  2365 18029 l 
2352 18007 l  2340 17984 l  2329 17960 l  2320 17936 l  2311 17912 l  2304 17887 l 
2298 17862 l  2294 17836 l  2291 17811 l  2289 17785 l  2288 17759 l  2200 17759 l 
2201 17789 l  2203 17820 l  2207 17850 l  2212 17879 l  2219 17909 l  2227 17938 l 
2237 17967 l  2248 17995 l  2261 18023 l  2275 18049 l  2290 18076 l  2307 18101 l 
2325 18125 l  2344 18149 l  2364 18172 l  2386 18193 l  2408 18213 l  2432 18233 l 
2456 18251 l  2481 18267 l  2506 18283 l  2533 18297 l  2561 18310 l  2589 18321 l 
2617 18331 l  2647 18339 l  2676 18346 l  2706 18352 l  2736 18356 l  2766 18358 l 
2797 18359 l  2827 18358 l  2857 18356 l  2887 18352 l  2917 18347 l  2947 18341 l 
2976 18332 l  3005 18323 l  3033 18312 l  3060 18299 l  3087 18285 l  3113 18270 l 
3139 18253 l  3163 18236 l  3187 18217 l  3210 18196 l  3231 18175 l  3252 18153 l 
3271 18129 l  3289 18105 l  3306 18080 l  3322 18054 l  3336 18027 l  3349 18000 l 
3360 17972 l  3370 17943 l  3379 17914 l  3386 17884 l  3391 17855 l  3395 17825 l 
3398 17794 l  3399 17764 l  3550 17766 l  3357 17569 l  3160 17762 l  3311 17764 l 
p ef
gr
gs
0.210 0.324 0.414 c 3632 17753 m  3632 17735 3627 17718 3619 17702 ct 3610 17687 3597 17674 3582 17665 ct 
3566 17657 3549 17652 3532 17652 ct 3514 17652 3497 17657 3481 17665 ct 3466 17674 3453 17687 3444 17702 ct 
3436 17718 3431 17735 3431 17753 ct 3431 17770 3436 17787 3444 17803 ct 3453 17818 3466 17831 3481 17840 ct 
3497 17848 3514 17853 3532 17853 ct 3549 17853 3566 17848 3582 17840 ct 3597 17831 3610 17818 3619 17803 ct 
3627 17787 3632 17770 3632 17753 ct 3632 17753 l  p ef
gr
gs
0.210 0.324 0.414 c 6433 17752 m  6433 17734 6428 17717 6420 17701 ct 6411 17686 6398 17673 6383 17664 ct 
6367 17656 6350 17651 6333 17651 ct 6315 17651 6298 17656 6282 17664 ct 6267 17673 6254 17686 6245 17701 ct 
6237 17717 6232 17734 6232 17752 ct 6232 17769 6237 17786 6245 17802 ct 6254 17817 6267 17830 6282 17839 ct 
6298 17847 6315 17852 6333 17852 ct 6350 17852 6367 17847 6383 17839 ct 6398 17830 6411 17817 6420 17802 ct 
6428 17786 6433 17769 6433 17752 ct 6433 17752 l  p ef
gr
gs
0.109 0.609 0.949 c 6711 17774 m  6710 17799 l  6708 17825 l  6704 17851 l 
6700 17876 l  6694 17901 l  6686 17926 l  6678 17951 l  6668 17975 l  6657 17998 l 
6645 18021 l  6631 18043 l  6617 18065 l  6602 18085 l  6585 18105 l  6568 18124 l 
6549 18142 l  6530 18160 l  6510 18176 l  6489 18191 l  6467 18205 l  6445 18218 l 
6422 18230 l  6398 18241 l  6374 18250 l  6350 18258 l  6325 18265 l  6300 18271 l 
6274 18275 l  6248 18279 l  6223 18280 l  6197 18281 l  6171 18280 l  6145 18278 l 
6119 18275 l  6094 18270 l  6069 18264 l  6044 18257 l  6020 18249 l  5996 18239 l 
5972 18228 l  5949 18216 l  5927 18203 l  5905 18188 l  5885 18173 l  5865 18157 l 
5845 18139 l  5827 18121 l  5810 18102 l  5794 18082 l  5778 18061 l  5764 18039 l 
5751 18017 l  5739 17994 l  5728 17970 l  5719 17946 l  5710 17922 l  5703 17897 l 
5697 17872 l  5693 17846 l  5690 17821 l  5688 17795 l  5687 17769 l  5599 17769 l 
5600 17799 l  5602 17830 l  5606 17860 l  5611 17889 l  5618 17919 l  5626 17948 l 
5636 17977 l  5647 18005 l  5660 18033 l  5674 18059 l  5689 18086 l  5706 18111 l 
5724 18135 l  5743 18159 l  5763 18182 l  5785 18203 l  5807 18223 l  5831 18243 l 
5855 18261 l  5880 18277 l  5906 18293 l  5933 18307 l  5961 18320 l  5989 18331 l 
6017 18341 l  6047 18349 l  6076 18356 l  6106 18362 l  6136 18366 l  6166 18368 l 
6197 18369 l  6227 18368 l  6257 18366 l  6287 18362 l  6317 18357 l  6347 18351 l 
6376 18342 l  6405 18333 l  6433 18322 l  6460 18309 l  6487 18295 l  6513 18280 l 
6539 18263 l  6563 18246 l  6587 18227 l  6610 18206 l  6631 18185 l  6652 18163 l 
6671 18139 l  6689 18115 l  6706 18090 l  6722 18064 l  6736 18037 l  6749 18010 l 
6760 17982 l  6770 17953 l  6779 17924 l  6786 17894 l  6791 17865 l  6795 17835 l 
6798 17804 l  6799 17774 l  6950 17776 l  6757 17579 l  6560 17772 l  6711 17774 l 
p ef
gr
gs
0.210 0.324 0.414 c 5734 18050 m  5734 18033 5729 18016 5721 18000 ct 5712 17985 5699 17972 5684 17963 ct 
5668 17955 5651 17950 5634 17950 ct 5616 17950 5599 17955 5583 17963 ct 5568 17972 5555 17985 5546 18000 ct 
5538 18016 5533 18033 5533 18050 ct 5533 18068 5538 18085 5546 18101 ct 5555 18116 5568 18129 5583 18138 ct 
5599 18146 5616 18151 5634 18151 ct 5651 18151 5668 18146 5684 18138 ct 5699 18129 5712 18116 5721 18101 ct 
5729 18085 5734 18068 5734 18050 ct 5734 18050 l  p ef
gr
gs
0.210 0.324 0.414 c 5029 15059 m  5029 15041 5024 15024 5016 15008 ct 5007 14993 4994 14980 4979 14971 ct 
4963 14963 4946 14958 4929 14958 ct 4911 14958 4894 14963 4878 14971 ct 4863 14980 4850 14993 4841 15008 ct 
4833 15024 4828 15041 4828 15059 ct 4828 15076 4833 15093 4841 15109 ct 4850 15124 4863 15137 4878 15146 ct 
4894 15154 4911 15159 4929 15159 ct 4946 15159 4963 15154 4979 15146 ct 4994 15137 5007 15124 5016 15109 ct 
5024 15093 5029 15076 5029 15059 ct 5029 15059 l  p ef
gr
gs
0.210 0.324 0.414 c 5620 15068 m  5620 15050 5615 15033 5607 15017 ct 5598 15002 5585 14989 5570 14980 ct 
5554 14972 5537 14967 5519 14967 ct 5502 14967 5485 14972 5469 14980 ct 5454 14989 5441 15002 5432 15017 ct 
5424 15033 5419 15050 5419 15068 ct 5419 15085 5424 15102 5432 15118 ct 5441 15133 5454 15146 5469 15155 ct 
5485 15163 5502 15168 5519 15168 ct 5537 15168 5554 15163 5570 15155 ct 5585 15146 5598 15133 5607 15118 ct 
5615 15102 5620 15085 5620 15068 ct 5620 15068 l  p ef
gr
pum
4186 14400 t
1.000 1.000 1.000 c 34 -19 m  19 -35 12 -54 12 -76 ct 12 -99 19 -118 34 -134 ct 
49 -150 67 -158 89 -158 ct 103 -158 116 -155 126 -148 ct 137 -141 143 -132 143 -120 ct 
143 -115 141 -111 138 -108 ct 135 -105 131 -104 126 -104 ct 121 -104 117 -105 115 -108 ct 
112 -111 110 -115 110 -120 ct 110 -122 110 -124 111 -126 ct 112 -128 114 -130 116 -133 ct 
119 -135 122 -136 127 -136 ct 118 -145 106 -149 89 -149 ct 77 -149 66 -144 56 -132 ct 
46 -121 41 -103 41 -77 ct 41 -64 43 -52 46 -42 ct 50 -32 54 -25 59 -20 ct 65 -15 70 -11 75 -8 ct 
81 -6 86 -5 91 -5 ct 114 -5 130 -17 137 -42 ct 138 -44 140 -46 142 -46 ct 145 -46 146 -44 146 -42 ct 
146 -41 146 -39 145 -36 ct 144 -33 142 -29 139 -24 ct 137 -20 133 -15 129 -11 ct 
125 -7 119 -3 112 -1 ct 105 2 97 4 88 4 ct 67 4 49 -4 34 -19 ct p ef
190 -19 m  175 -34 167 -53 167 -76 ct 167 -98 174 -117 190 -134 ct 205 -150 223 -158 245 -158 ct 
267 -158 285 -150 300 -134 ct 316 -118 323 -98 323 -76 ct 323 -53 316 -35 300 -19 ct 
285 -4 266 4 245 4 ct 224 4 206 -4 190 -19 ct p
196 -78 m  196 -56 199 -39 205 -29 ct 214 -13 228 -5 245 -5 ct 254 -5 262 -7 269 -12 ct 
277 -17 282 -23 286 -31 ct 291 -41 294 -57 294 -78 ct 294 -101 291 -117 285 -127 ct 
276 -143 262 -150 245 -150 ct 237 -150 230 -148 222 -144 ct 215 -140 209 -134 205 -127 ct 
199 -116 196 -100 196 -78 ct p ef
346 0 m  346 -11 l  358 -11 366 -12 369 -13 ct 372 -15 373 -19 373 -27 ct 373 -210 l 
373 -219 372 -225 369 -227 ct 366 -229 358 -230 346 -230 ct 346 -241 l  396 -245 l 
396 -27 l  396 -19 398 -15 401 -13 ct 404 -12 412 -11 424 -11 ct 424 0 l  421 0 417 0 411 0 ct 
405 -1 400 -1 395 -1 ct 391 -1 387 -1 385 -1 ct 382 -1 369 -1 346 0 ct p ef
444 -76 m  444 -98 452 -117 467 -133 ct 483 -148 502 -156 523 -156 ct 541 -156 555 -149 567 -134 ct 
567 -210 l  567 -219 566 -225 563 -227 ct 560 -229 552 -230 540 -230 ct 540 -241 l 
590 -245 l  590 -31 l  590 -22 592 -17 595 -14 ct 598 -12 606 -11 618 -11 ct 
618 0 l  566 4 l  566 -19 l  554 -4 538 4 519 4 ct 499 4 481 -4 466 -19 ct 451 -35 444 -54 444 -76 ct 
p
473 -76 m  473 -54 477 -37 484 -26 ct 493 -11 505 -4 521 -4 ct 538 -4 552 -12 562 -29 ct 
565 -33 566 -37 566 -42 ct 566 -114 l  566 -119 565 -123 562 -127 ct 553 -141 540 -148 524 -148 ct 
508 -148 494 -141 484 -126 ct 477 -114 473 -98 473 -76 ct p ef
pom
pum
4245 18899 t
11 0 m  11 -11 l  24 -11 31 -12 34 -13 ct 37 -15 39 -19 39 -27 ct 39 -210 l 
39 -219 37 -225 34 -227 ct 31 -229 24 -230 11 -230 ct 11 -241 l  62 -245 l  62 -122 l 
62 -122 l  66 -131 72 -138 81 -145 ct 89 -152 100 -156 113 -156 ct 131 -156 143 -152 150 -143 ct 
156 -137 159 -131 160 -124 ct 161 -118 161 -106 161 -89 ct 161 -22 l  162 -17 164 -14 167 -13 ct 
171 -11 178 -11 189 -11 ct 189 0 l  165 -1 152 -1 149 -1 ct 147 -1 134 -1 109 0 ct 
109 -11 l  122 -11 130 -12 133 -13 ct 135 -15 137 -19 137 -27 ct 137 -109 l 
137 -121 135 -131 131 -138 ct 128 -145 121 -148 111 -148 ct 99 -148 88 -143 78 -133 ct 
68 -123 63 -109 63 -92 ct 63 -27 l  63 -19 65 -15 68 -13 ct 71 -12 78 -11 91 -11 ct 
91 0 l  67 -1 54 -1 51 -1 ct 49 -1 36 -1 11 0 ct p ef
228 -19 m  213 -34 205 -53 205 -76 ct 205 -98 212 -117 228 -134 ct 243 -150 261 -158 283 -158 ct 
305 -158 323 -150 338 -134 ct 354 -118 361 -98 361 -76 ct 361 -53 354 -35 338 -19 ct 
323 -4 304 4 283 4 ct 262 4 244 -4 228 -19 ct p
234 -78 m  234 -56 237 -39 243 -29 ct 252 -13 266 -5 283 -5 ct 292 -5 300 -7 307 -12 ct 
315 -17 320 -23 324 -31 ct 329 -41 332 -57 332 -78 ct 332 -101 329 -117 323 -127 ct 
314 -143 300 -150 283 -150 ct 275 -150 268 -148 260 -144 ct 253 -140 247 -134 243 -127 ct 
237 -116 234 -100 234 -78 ct p ef
380 -141 m  380 -149 l  391 -149 400 -153 407 -161 ct 414 -169 419 -177 421 -187 ct 
424 -196 425 -206 425 -217 ct 434 -217 l  434 -152 l  485 -152 l  485 -141 l 
434 -141 l  434 -43 l  434 -18 442 -5 458 -5 ct 465 -5 470 -8 475 -15 ct 479 -22 481 -32 481 -44 ct 
481 -64 l  490 -64 l  490 -44 l  490 -31 487 -20 481 -10 ct 475 -1 467 4 455 4 ct 
451 4 447 3 443 2 ct 438 1 433 -1 428 -4 ct 423 -6 418 -11 415 -18 ct 411 -25 410 -34 410 -44 ct 
410 -141 l  p ef
pom
gs
2344 17280 m  2344 16262 l  2100 16262 l  2689 15722 l  3280 16262 l  3035 16262 l 
3035 17280 l  2344 17280 l  p ef
gr
gs
2315 16210 m 3067 16210 l 3067 16625 l 2315 16625 l 2315 16210 l eoclip newpath
pum
2427 16547 t
0.003 0.003 0.003 c 139 32 m  0 -281 l  297 -281 l  p
154 -39 m  268 -263 l  54 -263 l  p ef
pom
pum
2786 16547 t
39 -54 m  39 -80 48 -103 67 -124 ct 85 -145 105 -155 127 -155 ct 138 -155 147 -152 154 -147 ct 
161 -141 165 -134 165 -125 ct 165 -119 163 -114 160 -110 ct 156 -106 152 -104 147 -104 ct 
143 -104 140 -105 138 -107 ct 136 -109 135 -112 135 -115 ct 135 -116 135 -116 135 -117 ct 
135 -118 136 -119 136 -121 ct 137 -123 138 -124 139 -126 ct 140 -127 142 -128 144 -130 ct 
147 -131 149 -132 153 -132 ct 149 -142 141 -147 128 -147 ct 120 -147 111 -144 103 -138 ct 
95 -132 88 -124 82 -112 ct 77 -104 73 -92 69 -77 ct 65 -62 63 -49 63 -40 ct 63 -29 66 -21 70 -14 ct 
75 -7 82 -4 91 -4 ct 95 -4 99 -4 104 -5 ct 109 -6 117 -9 127 -15 ct 137 -21 146 -28 154 -38 ct 
156 -41 158 -42 159 -42 ct 160 -42 161 -41 163 -40 ct 164 -39 164 -37 164 -37 ct 
164 -34 161 -30 156 -24 ct 150 -18 141 -12 129 -5 ct 117 1 104 4 90 4 ct 75 4 62 -1 53 -12 ct 
43 -23 39 -37 39 -54 ct p ef
pom
gr
gs
5976 15724 m  5976 16743 l  5732 16743 l  6322 17282 l  6913 16743 l  6668 16743 l 
6668 15724 l  5976 15724 l  p ef
gr
gs
5889 16200 m 6761 16200 l 6761 16615 l 5889 16615 l 5889 16200 l eoclip newpath
pum
6001 16537 t
0.003 0.003 0.003 c 139 32 m  0 -281 l  297 -281 l  p
154 -39 m  268 -263 l  54 -263 l  p ef
pom
pum
6361 16537 t
61 -163 m  61 -163 62 -165 63 -168 ct 84 -231 l  85 -234 86 -236 87 -237 ct 
88 -237 90 -238 94 -238 ct 274 -238 l  276 -238 278 -238 279 -237 ct 280 -237 281 -237 282 -236 ct 
282 -236 283 -235 283 -233 ct 283 -231 283 -230 283 -229 ct 272 -166 l  272 -163 271 -161 270 -160 ct 
270 -159 268 -159 266 -159 ct 262 -159 260 -160 260 -163 ct 260 -164 261 -166 261 -168 ct 
263 -182 265 -193 265 -200 ct 265 -211 262 -218 256 -222 ct 250 -225 238 -227 220 -227 ct 
210 -227 204 -227 202 -226 ct 198 -226 195 -222 194 -214 ct 147 -26 l  146 -22 145 -20 145 -19 ct 
145 -16 146 -15 147 -14 ct 149 -13 152 -12 157 -12 ct 157 -12 158 -12 160 -11 ct 
163 -11 165 -11 168 -11 ct 171 -11 173 -11 174 -11 ct 180 -11 l  186 -11 188 -10 188 -7 ct 
188 -2 186 0 181 0 ct 175 0 166 0 154 -1 ct 141 -1 132 -1 126 -1 ct 120 -1 111 -1 99 -1 ct 
87 0 78 0 72 0 ct 68 0 66 -1 66 -4 ct 66 -7 66 -9 68 -10 ct 69 -11 72 -11 75 -11 ct 
81 -11 l  96 -11 105 -12 110 -14 ct 114 -16 117 -20 118 -27 ct 165 -215 l  166 -218 167 -221 167 -223 ct 
167 -224 167 -225 166 -225 ct 166 -225 165 -226 164 -226 ct 163 -227 161 -227 159 -227 ct 
147 -227 l  124 -227 108 -223 100 -217 ct 92 -210 83 -194 75 -170 ct 73 -164 71 -160 71 -160 ct 
70 -159 69 -159 67 -159 ct 63 -159 61 -160 61 -163 ct p ef
pom
gr
gs
0.210 0.324 0.414 c 2420 15667 m  2420 15650 2415 15633 2407 15617 ct 2398 15602 2385 15589 2370 15580 ct 
2354 15572 2337 15567 2319 15567 ct 2302 15567 2285 15572 2269 15580 ct 2254 15589 2241 15602 2232 15617 ct 
2224 15633 2219 15650 2219 15667 ct 2219 15685 2224 15702 2232 15718 ct 2241 15733 2254 15746 2269 15755 ct 
2285 15763 2302 15768 2319 15768 ct 2337 15768 2354 15763 2370 15755 ct 2385 15746 2398 15733 2407 15718 ct 
2415 15702 2420 15685 2420 15667 ct 2420 15667 l  p ef
gr
gs
0.210 0.324 0.414 c 2720 15467 m  2720 15449 2715 15432 2707 15416 ct 2698 15401 2685 15388 2670 15379 ct 
2654 15371 2637 15366 2620 15366 ct 2602 15366 2585 15371 2569 15379 ct 2554 15388 2541 15401 2532 15416 ct 
2524 15432 2519 15449 2519 15466 ct 2519 15484 2524 15501 2532 15517 ct 2541 15532 2554 15545 2569 15554 ct 
2585 15562 2602 15567 2619 15567 ct 2637 15567 2654 15562 2670 15554 ct 2685 15545 2698 15532 2707 15517 ct 
2715 15501 2720 15484 2720 15467 ct 2720 15467 l  p ef
gr
pum
4186 18955 t
34 -19 m  19 -35 12 -54 12 -76 ct 12 -99 19 -118 34 -134 ct 49 -150 67 -158 89 -158 ct 
103 -158 116 -155 126 -148 ct 137 -141 143 -132 143 -120 ct 143 -115 141 -111 138 -108 ct 
135 -105 131 -104 126 -104 ct 121 -104 117 -105 115 -108 ct 112 -111 110 -115 110 -120 ct 
110 -122 110 -124 111 -126 ct 112 -128 114 -130 116 -133 ct 119 -135 122 -136 127 -136 ct 
118 -145 106 -149 89 -149 ct 77 -149 66 -144 56 -132 ct 46 -121 41 -103 41 -77 ct 
41 -64 43 -52 46 -42 ct 50 -32 54 -25 59 -20 ct 65 -15 70 -11 75 -8 ct 81 -6 86 -5 91 -5 ct 
114 -5 130 -17 137 -42 ct 138 -44 140 -46 142 -46 ct 145 -46 146 -44 146 -42 ct 
146 -41 146 -39 145 -36 ct 144 -33 142 -29 139 -24 ct 137 -20 133 -15 129 -11 ct 
125 -7 119 -3 112 -1 ct 105 2 97 4 88 4 ct 67 4 49 -4 34 -19 ct p ef
190 -19 m  175 -34 167 -53 167 -76 ct 167 -98 174 -117 190 -134 ct 205 -150 223 -158 245 -158 ct 
267 -158 285 -150 300 -134 ct 316 -118 323 -98 323 -76 ct 323 -53 316 -35 300 -19 ct 
285 -4 266 4 245 4 ct 224 4 206 -4 190 -19 ct p
196 -78 m  196 -56 199 -39 205 -29 ct 214 -13 228 -5 245 -5 ct 254 -5 262 -7 269 -12 ct 
277 -17 282 -23 286 -31 ct 291 -41 294 -57 294 -78 ct 294 -101 291 -117 285 -127 ct 
276 -143 262 -150 245 -150 ct 237 -150 230 -148 222 -144 ct 215 -140 209 -134 205 -127 ct 
199 -116 196 -100 196 -78 ct p ef
346 0 m  346 -11 l  358 -11 366 -12 369 -13 ct 372 -15 373 -19 373 -27 ct 373 -210 l 
373 -219 372 -225 369 -227 ct 366 -229 358 -230 346 -230 ct 346 -241 l  396 -245 l 
396 -27 l  396 -19 398 -15 401 -13 ct 404 -12 412 -11 424 -11 ct 424 0 l  421 0 417 0 411 0 ct 
405 -1 400 -1 395 -1 ct 391 -1 387 -1 385 -1 ct 382 -1 369 -1 346 0 ct p ef
444 -76 m  444 -98 452 -117 467 -133 ct 483 -148 502 -156 523 -156 ct 541 -156 555 -149 567 -134 ct 
567 -210 l  567 -219 566 -225 563 -227 ct 560 -229 552 -230 540 -230 ct 540 -241 l 
590 -245 l  590 -31 l  590 -22 592 -17 595 -14 ct 598 -12 606 -11 618 -11 ct 
618 0 l  566 4 l  566 -19 l  554 -4 538 4 519 4 ct 499 4 481 -4 466 -19 ct 451 -35 444 -54 444 -76 ct 
p
473 -76 m  473 -54 477 -37 484 -26 ct 493 -11 505 -4 521 -4 ct 538 -4 552 -12 562 -29 ct 
565 -33 566 -37 566 -42 ct 566 -114 l  566 -119 565 -123 562 -127 ct 553 -141 540 -148 524 -148 ct 
508 -148 494 -141 484 -126 ct 477 -114 473 -98 473 -76 ct p ef
pom
0 5225 t 
pom
count op_count sub {pop} repeat countdictstack dict_count sub {end} repeat b4_inc_state restore
%%PageTrailer
%%Trailer
%%EOF
