%!PS-Adobe-3.0 EPSF-3.0 
%%BoundingBox: 0 0 142 147
%%Pages: 0
%%Creator: LibreOffice 6.4
%%Title: none
%%CreationDate: none
%%LanguageLevel: 2
%%EndComments
%%BeginProlog
%%BeginResource: procset SDRes-Prolog 1.0 0
/b4_inc_state save def
/dict_count countdictstack def
/op_count count 1 sub def
userdict begin
0 setgray 0 setlinecap 1 setlinewidth 0 setlinejoin 10 setmiterlimit[] 0 setdash newpath
/languagelevel where {pop languagelevel 1 ne {false setstrokeadjust false setoverprint} if} if
/bdef {bind def} bind def
/c {setrgbcolor} bdef
/l {neg lineto} bdef
/rl {neg rlineto} bdef
/lc {setlinecap} bdef
/lj {setlinejoin} bdef
/lw {setlinewidth} bdef
/ml {setmiterlimit} bdef
/ld {setdash} bdef
/m {neg moveto} bdef
/ct {6 2 roll neg 6 2 roll neg 6 2 roll neg curveto} bdef
/r {rotate} bdef
/t {neg translate} bdef
/s {scale} bdef
/sw {show} bdef
/gs {gsave} bdef
/gr {grestore} bdef
/f {findfont dup length dict begin
{1 index /FID ne {def} {pop pop} ifelse} forall /Encoding ISOLatin1Encoding def
currentdict end /NFont exch definefont pop /NFont findfont} bdef
/p {closepath} bdef
/sf {scalefont setfont} bdef
/ef {eofill}bdef
/pc {closepath stroke}bdef
/ps {stroke}bdef
/pum {matrix currentmatrix}bdef
/pom {setmatrix}bdef
/bs {/aString exch def /nXOfs exch def /nWidth exch def currentpoint nXOfs 0 rmoveto pum nWidth aString stringwidth pop div 1 scale aString show pom moveto} bdef
%%EndResource
%%EndProlog
%%BeginSetup
%%EndSetup
%%Page: 1 1
%%BeginPageSetup
%%EndPageSetup
pum
0.0284 0.02843 s 
0 -5170 t
/tm matrix currentmatrix def
tm setmatrix
-2000 -7948 t 
1 1 s 
gs
4499 12507 m  1999 12507 l  1999 8508 l  6998 8508 l  6998 12507 l  4499 12507 l 
eoclip newpath
gs
2000 8508 m 6999 8508 l 6999 12508 l 2000 12508 l 2000 8508 l eoclip newpath
0.707 0.781 0.863 c 1999 8507 m  7000 8507 l  7000 8543 l  1999 8543 l 
p ef
0.707 0.777 0.855 c 1999 8543 m  7000 8543 l  7000 8579 l  1999 8579 l 
p ef
0.710 0.773 0.851 c 1999 8579 m  7000 8579 l  7000 8615 l  1999 8615 l 
p ef
0.714 0.769 0.847 c 1999 8615 m  7000 8615 l  7000 8651 l  1999 8651 l 
p ef
0.714 0.765 0.843 c 1999 8651 m  7000 8651 l  7000 8687 l  1999 8687 l 
p ef
0.718 0.761 0.839 c 1999 8687 m  7000 8687 l  7000 8723 l  1999 8723 l 
p ef
0.722 0.761 0.835 c 1999 8723 m  7000 8723 l  7000 8759 l  1999 8759 l 
p ef
0.722 0.757 0.832 c 1999 8759 m  7000 8759 l  7000 8795 l  1999 8795 l 
p ef
0.726 0.753 0.828 c 1999 8795 m  7000 8795 l  7000 8831 l  1999 8831 l 
p ef
0.730 0.750 0.824 c 1999 8831 m  7000 8831 l  7000 8867 l  1999 8867 l 
p ef
0.730 0.746 0.820 c 1999 8867 m  7000 8867 l  7000 8903 l  1999 8903 l 
p ef
0.734 0.746 0.816 c 1999 8903 m  7000 8903 l  7000 8939 l  1999 8939 l 
p ef
0.738 0.742 0.812 c 1999 8939 m  7000 8939 l  7000 8975 l  1999 8975 l 
p ef
0.738 0.738 0.808 c 1999 8975 m  7000 8975 l  7000 9011 l  1999 9011 l 
p ef
0.742 0.734 0.804 c 1999 9011 m  7000 9011 l  7000 9047 l  1999 9047 l 
p ef
0.746 0.730 0.800 c 1999 9047 m  7000 9047 l  7000 9084 l  1999 9084 l 
p ef
0.746 0.726 0.796 c 1999 9084 m  7000 9084 l  7000 9120 l  1999 9120 l 
p ef
0.750 0.726 0.792 c 1999 9120 m  7000 9120 l  7000 9156 l  1999 9156 l 
p ef
0.753 0.722 0.789 c 1999 9156 m  7000 9156 l  7000 9192 l  1999 9192 l 
p ef
0.753 0.718 0.785 c 1999 9192 m  7000 9192 l  7000 9228 l  1999 9228 l 
p ef
0.757 0.714 0.781 c 1999 9228 m  7000 9228 l  7000 9264 l  1999 9264 l 
p ef
0.761 0.710 0.777 c 1999 9264 m  7000 9264 l  7000 9300 l  1999 9300 l 
p ef
0.765 0.710 0.773 c 1999 9300 m  7000 9300 l  7000 9336 l  1999 9336 l 
p ef
0.765 0.707 0.769 c 1999 9336 m  7000 9336 l  7000 9372 l  1999 9372 l 
p ef
0.769 0.703 0.765 c 1999 9372 m  7000 9372 l  7000 9408 l  1999 9408 l 
p ef
0.773 0.699 0.761 c 1999 9408 m  7000 9408 l  7000 9444 l  1999 9444 l 
p ef
0.773 0.695 0.757 c 1999 9444 m  7000 9444 l  7000 9480 l  1999 9480 l 
p ef
0.777 0.691 0.753 c 1999 9480 m  7000 9480 l  7000 9516 l  1999 9516 l 
p ef
0.781 0.691 0.750 c 1999 9516 m  7000 9516 l  7000 9552 l  1999 9552 l 
p ef
0.781 0.687 0.746 c 1999 9552 m  7000 9552 l  7000 9588 l  1999 9588 l 
p ef
0.785 0.683 0.742 c 1999 9588 m  7000 9588 l  7000 9624 l  1999 9624 l 
p ef
0.789 0.679 0.738 c 1999 9624 m  7000 9624 l  7000 9661 l  1999 9661 l 
p ef
0.789 0.675 0.734 c 1999 9661 m  7000 9661 l  7000 9697 l  1999 9697 l 
p ef
0.792 0.671 0.730 c 1999 9697 m  7000 9697 l  7000 9733 l  1999 9733 l 
p ef
0.796 0.671 0.726 c 1999 9733 m  7000 9733 l  7000 9769 l  1999 9769 l 
p ef
0.796 0.667 0.722 c 1999 9769 m  7000 9769 l  7000 9805 l  1999 9805 l 
p ef
0.800 0.664 0.718 c 1999 9805 m  7000 9805 l  7000 9841 l  1999 9841 l 
p ef
0.804 0.660 0.714 c 1999 9841 m  7000 9841 l  7000 9877 l  1999 9877 l 
p ef
0.804 0.656 0.710 c 1999 9877 m  7000 9877 l  7000 9913 l  1999 9913 l 
p ef
0.808 0.656 0.707 c 1999 9913 m  7000 9913 l  7000 9949 l  1999 9949 l 
p ef
0.812 0.652 0.703 c 1999 9949 m  7000 9949 l  7000 9985 l  1999 9985 l 
p ef
0.812 0.648 0.699 c 1999 9985 m  7000 9985 l  7000 10021 l  1999 10021 l 
p ef
0.816 0.644 0.695 c 1999 10021 m  7000 10021 l  7000 10057 l  1999 10057 l 
p ef
0.820 0.640 0.691 c 1999 10057 m  7000 10057 l  7000 10093 l  1999 10093 l 
p ef
0.824 0.640 0.687 c 1999 10093 m  7000 10093 l  7000 10129 l  1999 10129 l 
p ef
0.824 0.636 0.683 c 1999 10129 m  7000 10129 l  7000 10165 l  1999 10165 l 
p ef
0.828 0.632 0.679 c 1999 10165 m  7000 10165 l  7000 10201 l  1999 10201 l 
p ef
0.832 0.628 0.675 c 1999 10201 m  7000 10201 l  7000 10238 l  1999 10238 l 
p ef
0.832 0.625 0.671 c 1999 10238 m  7000 10238 l  7000 10274 l  1999 10274 l 
p ef
0.835 0.621 0.667 c 1999 10274 m  7000 10274 l  7000 10310 l  1999 10310 l 
p ef
0.839 0.621 0.664 c 1999 10310 m  7000 10310 l  7000 10346 l  1999 10346 l 
p ef
0.839 0.617 0.660 c 1999 10346 m  7000 10346 l  7000 10382 l  1999 10382 l 
p ef
0.843 0.613 0.656 c 1999 10382 m  7000 10382 l  7000 10418 l  1999 10418 l 
p ef
0.847 0.609 0.652 c 1999 10418 m  7000 10418 l  7000 10454 l  1999 10454 l 
p ef
0.847 0.605 0.648 c 1999 10454 m  7000 10454 l  7000 10490 l  1999 10490 l 
p ef
0.851 0.605 0.644 c 1999 10490 m  7000 10490 l  7000 10526 l  1999 10526 l 
p ef
0.855 0.601 0.640 c 1999 10526 m  7000 10526 l  7000 10562 l  1999 10562 l 
p ef
0.855 0.597 0.636 c 1999 10562 m  7000 10562 l  7000 10598 l  1999 10598 l 
p ef
0.859 0.593 0.632 c 1999 10598 m  7000 10598 l  7000 10634 l  1999 10634 l 
p ef
0.863 0.589 0.628 c 1999 10634 m  7000 10634 l  7000 10670 l  1999 10670 l 
p ef
0.863 0.585 0.625 c 1999 10670 m  7000 10670 l  7000 10706 l  1999 10706 l 
p ef
0.867 0.585 0.621 c 1999 10706 m  7000 10706 l  7000 10742 l  1999 10742 l 
p ef
0.871 0.582 0.617 c 1999 10742 m  7000 10742 l  7000 10778 l  1999 10778 l 
p ef
0.871 0.578 0.613 c 1999 10778 m  7000 10778 l  7000 10815 l  1999 10815 l 
p ef
0.875 0.574 0.609 c 1999 10815 m  7000 10815 l  7000 10851 l  1999 10851 l 
p ef
0.878 0.570 0.605 c 1999 10851 m  7000 10851 l  7000 10887 l  1999 10887 l 
p ef
0.882 0.570 0.601 c 1999 10887 m  7000 10887 l  7000 10923 l  1999 10923 l 
p ef
0.882 0.566 0.597 c 1999 10923 m  7000 10923 l  7000 10959 l  1999 10959 l 
p ef
0.886 0.562 0.593 c 1999 10959 m  7000 10959 l  7000 10995 l  1999 10995 l 
p ef
0.890 0.558 0.589 c 1999 10995 m  7000 10995 l  7000 11031 l  1999 11031 l 
p ef
0.890 0.554 0.585 c 1999 11031 m  7000 11031 l  7000 11067 l  1999 11067 l 
p ef
0.894 0.550 0.582 c 1999 11067 m  7000 11067 l  7000 11103 l  1999 11103 l 
p ef
0.898 0.550 0.578 c 1999 11103 m  7000 11103 l  7000 11139 l  1999 11139 l 
p ef
0.898 0.546 0.574 c 1999 11139 m  7000 11139 l  7000 11175 l  1999 11175 l 
p ef
0.902 0.542 0.570 c 1999 11175 m  7000 11175 l  7000 11211 l  1999 11211 l 
p ef
0.906 0.539 0.566 c 1999 11211 m  7000 11211 l  7000 11247 l  1999 11247 l 
p ef
0.906 0.535 0.562 c 1999 11247 m  7000 11247 l  7000 11283 l  1999 11283 l 
p ef
0.910 0.535 0.558 c 1999 11283 m  7000 11283 l  7000 11319 l  1999 11319 l 
p ef
0.914 0.531 0.554 c 1999 11319 m  7000 11319 l  7000 11355 l  1999 11355 l 
p ef
0.914 0.527 0.550 c 1999 11355 m  7000 11355 l  7000 11392 l  1999 11392 l 
p ef
0.917 0.523 0.546 c 1999 11392 m  7000 11392 l  7000 11428 l  1999 11428 l 
p ef
0.921 0.519 0.542 c 1999 11428 m  7000 11428 l  7000 11464 l  1999 11464 l 
p ef
0.921 0.515 0.539 c 1999 11464 m  7000 11464 l  7000 11500 l  1999 11500 l 
p ef
0.925 0.515 0.535 c 1999 11500 m  7000 11500 l  7000 11536 l  1999 11536 l 
p ef
0.929 0.511 0.531 c 1999 11536 m  7000 11536 l  7000 11572 l  1999 11572 l 
p ef
0.929 0.507 0.527 c 1999 11572 m  7000 11572 l  7000 11608 l  1999 11608 l 
p ef
0.933 0.503 0.523 c 1999 11608 m  7000 11608 l  7000 11644 l  1999 11644 l 
p ef
0.937 0.500 0.519 c 1999 11644 m  7000 11644 l  7000 11680 l  1999 11680 l 
p ef
0.941 0.500 0.515 c 1999 11680 m  7000 11680 l  7000 11716 l  1999 11716 l 
p ef
0.941 0.496 0.511 c 1999 11716 m  7000 11716 l  7000 11752 l  1999 11752 l 
p ef
0.945 0.492 0.507 c 1999 11752 m  7000 11752 l  7000 11788 l  1999 11788 l 
p ef
0.949 0.488 0.503 c 1999 11788 m  7000 11788 l  7000 11824 l  1999 11824 l 
p ef
0.949 0.484 0.500 c 1999 11824 m  7000 11824 l  7000 11860 l  1999 11860 l 
p ef
0.953 0.480 0.496 c 1999 11860 m  7000 11860 l  7000 11896 l  1999 11896 l 
p ef
0.957 0.480 0.492 c 1999 11896 m  7000 11896 l  7000 11932 l  1999 11932 l 
p ef
0.957 0.476 0.488 c 1999 11932 m  7000 11932 l  7000 11969 l  1999 11969 l 
p ef
0.960 0.472 0.484 c 1999 11969 m  7000 11969 l  7000 12005 l  1999 12005 l 
p ef
0.964 0.468 0.480 c 1999 12005 m  7000 12005 l  7000 12041 l  1999 12041 l 
p ef
0.964 0.464 0.476 c 1999 12041 m  7000 12041 l  7000 12077 l  1999 12077 l 
p ef
0.968 0.464 0.472 c 1999 12077 m  7000 12077 l  7000 12113 l  1999 12113 l 
p ef
0.972 0.460 0.468 c 1999 12113 m  7000 12113 l  7000 12149 l  1999 12149 l 
p ef
0.972 0.457 0.464 c 1999 12149 m  7000 12149 l  7000 12185 l  1999 12185 l 
p ef
0.976 0.453 0.460 c 1999 12185 m  7000 12185 l  7000 12221 l  1999 12221 l 
p ef
0.980 0.449 0.457 c 1999 12221 m  7000 12221 l  7000 12257 l  1999 12257 l 
p ef
0.980 0.445 0.453 c 1999 12257 m  7000 12257 l  7000 12293 l  1999 12293 l 
p ef
0.984 0.445 0.449 c 1999 12293 m  7000 12293 l  7000 12329 l  1999 12329 l 
p ef
0.988 0.441 0.445 c 1999 12329 m  7000 12329 l  7000 12365 l  1999 12365 l 
p ef
0.988 0.437 0.441 c 1999 12365 m  7000 12365 l  7000 12401 l  1999 12401 l 
p ef
0.992 0.433 0.437 c 1999 12401 m  7000 12401 l  7000 12437 l  1999 12437 l 
p ef
0.996 0.429 0.433 c 1999 12437 m  7000 12437 l  7000 12473 l  1999 12473 l 
p ef
1.000 0.429 0.429 c 1999 12473 m  7000 12473 l  7000 12510 l  1999 12510 l 
p ef
gr
gr
gs
0.503 0.503 0.503 c 4499 8508 m  2000 8508 l  2000 8008 l  6999 8008 l 
6999 8508 l  4499 8508 l  p ef
gr
gs
0.503 0.503 0.503 c 4499 13007 m  2000 13007 l  2000 12508 l  6999 12508 l 
6999 13007 l  4499 13007 l  p ef
gr
gs
0.210 0.324 0.414 c 4818 12261 m  4818 12278 4813 12295 4805 12311 ct 4796 12326 4783 12339 4768 12348 ct 
4752 12356 4735 12361 4718 12361 ct 4700 12361 4683 12356 4667 12348 ct 4652 12339 4639 12326 4630 12311 ct 
4622 12295 4617 12278 4617 12261 ct 4617 12243 4622 12226 4630 12210 ct 4639 12195 4652 12182 4667 12173 ct 
4683 12165 4700 12160 4718 12160 ct 4735 12160 4752 12165 4768 12173 ct 4783 12182 4796 12195 4805 12210 ct 
4813 12226 4818 12243 4818 12261 ct 4818 12261 l  p ef
gr
gs
0.210 0.324 0.414 c 5819 12362 m  5819 12379 5814 12396 5806 12412 ct 5797 12427 5784 12440 5769 12449 ct 
5753 12457 5736 12462 5719 12462 ct 5701 12462 5684 12457 5668 12449 ct 5653 12440 5640 12427 5631 12412 ct 
5623 12396 5618 12379 5618 12362 ct 5618 12344 5623 12327 5631 12311 ct 5640 12296 5653 12283 5668 12274 ct 
5684 12266 5701 12261 5719 12261 ct 5736 12261 5753 12266 5769 12274 ct 5784 12283 5797 12296 5806 12311 ct 
5814 12327 5819 12344 5819 12362 ct 5819 12362 l  p ef
gr
gs
0.210 0.324 0.414 c 2819 12262 m  2819 12279 2814 12296 2806 12312 ct 2797 12327 2784 12340 2769 12349 ct 
2753 12357 2736 12362 2719 12362 ct 2701 12362 2684 12357 2668 12349 ct 2653 12340 2640 12327 2631 12312 ct 
2623 12296 2618 12279 2618 12262 ct 2618 12244 2623 12227 2631 12211 ct 2640 12196 2653 12183 2668 12174 ct 
2684 12166 2701 12161 2719 12161 ct 2736 12161 2753 12166 2769 12174 ct 2784 12183 2797 12196 2806 12211 ct 
2814 12227 2819 12244 2819 12262 ct 2819 12262 l  p ef
gr
gs
0.210 0.324 0.414 c 3820 12363 m  3820 12380 3815 12397 3807 12413 ct 3798 12428 3785 12441 3770 12450 ct 
3754 12458 3737 12463 3720 12463 ct 3702 12463 3685 12458 3669 12450 ct 3654 12441 3641 12428 3632 12413 ct 
3624 12397 3619 12380 3619 12363 ct 3619 12345 3624 12328 3632 12312 ct 3641 12297 3654 12284 3669 12275 ct 
3685 12267 3702 12262 3720 12262 ct 3737 12262 3754 12267 3770 12275 ct 3785 12284 3798 12297 3807 12312 ct 
3815 12328 3820 12345 3820 12363 ct 3820 12363 l  p ef
gr
gs
0.210 0.324 0.414 c 5119 12262 m  5119 12279 5114 12296 5106 12312 ct 5097 12327 5084 12340 5069 12349 ct 
5053 12357 5036 12362 5019 12362 ct 5001 12362 4984 12357 4968 12349 ct 4953 12340 4940 12327 4931 12312 ct 
4923 12296 4918 12279 4918 12262 ct 4918 12244 4923 12227 4931 12211 ct 4940 12196 4953 12183 4968 12174 ct 
4984 12166 5001 12161 5019 12161 ct 5036 12161 5053 12166 5069 12174 ct 5084 12183 5097 12196 5106 12211 ct 
5114 12227 5119 12244 5119 12262 ct 5119 12262 l  p ef
gr
gs
0.210 0.324 0.414 c 6220 12263 m  6220 12280 6215 12297 6207 12313 ct 6198 12328 6185 12341 6170 12350 ct 
6154 12358 6137 12363 6120 12363 ct 6102 12363 6085 12358 6069 12350 ct 6054 12341 6041 12328 6032 12313 ct 
6024 12297 6019 12280 6019 12263 ct 6019 12245 6024 12228 6032 12212 ct 6041 12197 6054 12184 6069 12175 ct 
6085 12167 6102 12162 6120 12162 ct 6137 12162 6154 12167 6170 12175 ct 6185 12184 6198 12197 6207 12212 ct 
6215 12228 6220 12245 6220 12263 ct 6220 12263 l  p ef
gr
gs
0.210 0.324 0.414 c 3220 12263 m  3220 12280 3215 12297 3207 12313 ct 3198 12328 3185 12341 3170 12350 ct 
3154 12358 3137 12363 3120 12363 ct 3102 12363 3085 12358 3069 12350 ct 3054 12341 3041 12328 3032 12313 ct 
3024 12297 3019 12280 3019 12263 ct 3019 12245 3024 12228 3032 12212 ct 3041 12197 3054 12184 3069 12175 ct 
3085 12167 3102 12162 3120 12162 ct 3137 12162 3154 12167 3170 12175 ct 3185 12184 3198 12197 3207 12212 ct 
3215 12228 3220 12245 3220 12263 ct 3220 12263 l  p ef
gr
gs
0.210 0.324 0.414 c 4221 12264 m  4221 12281 4216 12298 4208 12314 ct 4199 12329 4186 12342 4171 12351 ct 
4155 12359 4138 12364 4121 12364 ct 4103 12364 4086 12359 4070 12351 ct 4055 12342 4042 12329 4033 12314 ct 
4025 12298 4020 12281 4020 12264 ct 4020 12246 4025 12229 4033 12213 ct 4042 12198 4055 12185 4070 12176 ct 
4086 12168 4103 12163 4121 12163 ct 4138 12163 4155 12168 4171 12176 ct 4186 12185 4199 12198 4208 12213 ct 
4216 12229 4221 12246 4221 12264 ct 4221 12264 l  p ef
gr
gs
0.210 0.324 0.414 c 5520 12263 m  5520 12280 5515 12297 5507 12313 ct 5498 12328 5485 12341 5470 12350 ct 
5454 12358 5437 12363 5420 12363 ct 5402 12363 5385 12358 5369 12350 ct 5354 12341 5341 12328 5332 12313 ct 
5324 12297 5319 12280 5319 12263 ct 5319 12245 5324 12228 5332 12212 ct 5341 12197 5354 12184 5369 12175 ct 
5385 12167 5402 12162 5420 12162 ct 5437 12162 5454 12167 5470 12175 ct 5485 12184 5498 12197 5507 12212 ct 
5515 12228 5520 12245 5520 12263 ct 5520 12263 l  p ef
gr
gs
0.210 0.324 0.414 c 3521 12164 m  3521 12181 3516 12198 3508 12214 ct 3499 12229 3486 12242 3471 12251 ct 
3455 12259 3438 12264 3421 12264 ct 3403 12264 3386 12259 3370 12251 ct 3355 12242 3342 12229 3333 12214 ct 
3325 12198 3320 12181 3320 12164 ct 3320 12146 3325 12129 3333 12113 ct 3342 12098 3355 12085 3370 12076 ct 
3386 12068 3403 12063 3421 12063 ct 3438 12063 3455 12068 3471 12076 ct 3486 12085 3499 12098 3508 12113 ct 
3516 12129 3521 12146 3521 12164 ct 3521 12164 l  p ef
gr
gs
0.210 0.324 0.414 c 4519 12362 m  4519 12379 4514 12396 4506 12412 ct 4497 12427 4484 12440 4469 12449 ct 
4453 12457 4436 12462 4418 12462 ct 4401 12462 4384 12457 4368 12449 ct 4353 12440 4340 12427 4331 12412 ct 
4323 12396 4318 12379 4318 12362 ct 4318 12344 4323 12327 4331 12311 ct 4340 12296 4353 12283 4368 12274 ct 
4384 12266 4401 12261 4418 12261 ct 4436 12261 4453 12266 4469 12274 ct 4484 12283 4497 12296 4506 12311 ct 
4514 12327 4519 12344 4519 12362 ct 4519 12362 l  p ef
gr
gs
0.210 0.324 0.414 c 6020 12063 m  6020 12080 6015 12097 6007 12113 ct 5998 12128 5985 12141 5970 12150 ct 
5954 12158 5937 12163 5920 12163 ct 5902 12163 5885 12158 5869 12150 ct 5854 12141 5841 12128 5832 12113 ct 
5824 12097 5819 12080 5819 12063 ct 5819 12045 5824 12028 5832 12012 ct 5841 11997 5854 11984 5869 11975 ct 
5885 11967 5902 11962 5920 11962 ct 5937 11962 5954 11967 5970 11975 ct 5985 11984 5998 11997 6007 12012 ct 
6015 12028 6020 12045 6020 12063 ct 6020 12063 l  p ef
gr
gs
0.210 0.324 0.414 c 6521 12064 m  6521 12081 6516 12098 6508 12114 ct 6499 12129 6486 12142 6471 12151 ct 
6455 12159 6438 12164 6421 12164 ct 6403 12164 6386 12159 6370 12151 ct 6355 12142 6342 12129 6333 12114 ct 
6325 12098 6320 12081 6320 12064 ct 6320 12046 6325 12029 6333 12013 ct 6342 11998 6355 11985 6370 11976 ct 
6386 11968 6403 11963 6421 11963 ct 6438 11963 6455 11968 6471 11976 ct 6486 11985 6499 11998 6508 12013 ct 
6516 12029 6521 12046 6521 12064 ct 6521 12064 l  p ef
gr
gs
0.210 0.324 0.414 c 6522 12365 m  6522 12382 6517 12399 6509 12415 ct 6500 12430 6487 12443 6472 12452 ct 
6456 12460 6439 12465 6422 12465 ct 6404 12465 6387 12460 6371 12452 ct 6356 12443 6343 12430 6334 12415 ct 
6326 12399 6321 12382 6321 12365 ct 6321 12347 6326 12330 6334 12314 ct 6343 12299 6356 12286 6371 12277 ct 
6387 12269 6404 12264 6422 12264 ct 6439 12264 6456 12269 6472 12277 ct 6487 12286 6500 12299 6509 12314 ct 
6517 12330 6522 12347 6522 12365 ct 6522 12365 l  p ef
gr
gs
0.210 0.324 0.414 c 6823 12266 m  6823 12283 6818 12300 6810 12316 ct 6801 12331 6788 12344 6773 12353 ct 
6757 12361 6740 12366 6723 12366 ct 6705 12366 6688 12361 6672 12353 ct 6657 12344 6644 12331 6635 12316 ct 
6627 12300 6622 12283 6622 12266 ct 6622 12248 6627 12231 6635 12215 ct 6644 12200 6657 12187 6672 12178 ct 
6688 12170 6705 12165 6723 12165 ct 6740 12165 6757 12170 6773 12178 ct 6788 12187 6801 12200 6810 12215 ct 
6818 12231 6823 12248 6823 12266 ct 6823 12266 l  p ef
gr
gs
0.210 0.324 0.414 c 6824 11967 m  6824 11984 6819 12001 6811 12017 ct 6802 12032 6789 12045 6774 12054 ct 
6758 12062 6741 12067 6724 12067 ct 6706 12067 6689 12062 6673 12054 ct 6658 12045 6645 12032 6636 12017 ct 
6628 12001 6623 11984 6623 11967 ct 6623 11949 6628 11932 6636 11916 ct 6645 11901 6658 11888 6673 11879 ct 
6689 11871 6706 11866 6724 11866 ct 6741 11866 6758 11871 6774 11879 ct 6789 11888 6802 11901 6811 11916 ct 
6819 11932 6824 11949 6824 11967 ct 6824 11967 l  p ef
gr
gs
0.210 0.324 0.414 c 2326 12368 m  2326 12385 2321 12402 2313 12418 ct 2304 12433 2291 12446 2276 12455 ct 
2260 12463 2243 12468 2226 12468 ct 2208 12468 2191 12463 2175 12455 ct 2160 12446 2147 12433 2138 12418 ct 
2130 12402 2125 12385 2125 12368 ct 2125 12350 2130 12333 2138 12317 ct 2147 12302 2160 12289 2175 12280 ct 
2191 12272 2208 12267 2226 12267 ct 2243 12267 2260 12272 2276 12280 ct 2291 12289 2304 12302 2313 12317 ct 
2321 12333 2326 12350 2326 12368 ct 2326 12368 l  p ef
gr
gs
0.210 0.324 0.414 c 2525 12169 m  2525 12186 2520 12203 2512 12219 ct 2503 12234 2491 12247 2476 12256 ct 
2460 12264 2443 12269 2426 12269 ct 2408 12269 2391 12264 2375 12256 ct 2360 12247 2347 12234 2338 12219 ct 
2330 12203 2325 12186 2325 12169 ct 2325 12151 2330 12134 2338 12118 ct 2347 12103 2360 12090 2375 12081 ct 
2391 12073 2408 12068 2426 12068 ct 2443 12068 2460 12073 2476 12081 ct 2491 12090 2503 12103 2512 12118 ct 
2520 12134 2525 12151 2525 12169 ct 2525 12169 l  p ef
gr
gs
0.210 0.324 0.414 c 2227 12069 m  2227 12087 2222 12104 2214 12120 ct 2205 12135 2192 12148 2177 12157 ct 
2161 12165 2144 12170 2127 12170 ct 2109 12170 2092 12165 2076 12157 ct 2061 12148 2048 12135 2039 12120 ct 
2031 12104 2026 12087 2026 12069 ct 2026 12052 2031 12035 2039 12019 ct 2048 12004 2061 11991 2076 11982 ct 
2092 11974 2109 11969 2127 11969 ct 2144 11969 2161 11974 2177 11982 ct 2192 11991 2205 12004 2214 12019 ct 
2222 12035 2227 12052 2227 12069 ct 2227 12069 l  p ef
gr
gs
0.210 0.324 0.414 c 3027 12071 m  3027 12088 3022 12105 3014 12121 ct 3005 12136 2992 12149 2977 12158 ct 
2961 12166 2944 12171 2927 12171 ct 2909 12171 2892 12166 2876 12158 ct 2861 12149 2848 12136 2839 12121 ct 
2831 12105 2826 12088 2826 12071 ct 2826 12053 2831 12036 2839 12020 ct 2848 12005 2861 11992 2876 11983 ct 
2892 11975 2909 11970 2927 11970 ct 2944 11970 2961 11975 2977 11983 ct 2992 11992 3005 12005 3014 12020 ct 
3022 12036 3027 12053 3027 12071 ct 3027 12071 l  p ef
gr
gs
0.210 0.324 0.414 c 3928 12071 m  3928 12089 3923 12106 3915 12122 ct 3906 12137 3893 12150 3878 12159 ct 
3862 12167 3845 12172 3828 12172 ct 3810 12172 3793 12167 3777 12159 ct 3762 12150 3749 12137 3740 12122 ct 
3732 12106 3727 12089 3727 12071 ct 3727 12054 3732 12037 3740 12021 ct 3749 12006 3762 11993 3777 11984 ct 
3793 11976 3810 11971 3828 11971 ct 3845 11971 3862 11976 3878 11984 ct 3893 11993 3906 12006 3915 12021 ct 
3923 12037 3928 12054 3928 12071 ct 3928 12071 l  p ef
gr
gs
0.210 0.324 0.414 c 4228 11972 m  4228 11989 4223 12006 4215 12022 ct 4206 12037 4193 12050 4178 12059 ct 
4162 12067 4145 12072 4128 12072 ct 4110 12072 4093 12067 4077 12059 ct 4062 12050 4049 12037 4040 12022 ct 
4032 12006 4027 11989 4027 11972 ct 4027 11954 4032 11937 4040 11921 ct 4049 11906 4062 11893 4077 11884 ct 
4093 11876 4110 11871 4128 11871 ct 4145 11871 4162 11876 4178 11884 ct 4193 11893 4206 11906 4215 11921 ct 
4223 11937 4228 11954 4228 11972 ct 4228 11972 l  p ef
gr
gs
0.210 0.324 0.414 c 4629 12071 m  4629 12089 4624 12106 4616 12122 ct 4607 12137 4594 12150 4579 12159 ct 
4563 12167 4546 12172 4529 12172 ct 4511 12172 4494 12167 4478 12159 ct 4463 12150 4450 12137 4441 12122 ct 
4433 12106 4428 12089 4428 12071 ct 4428 12054 4433 12037 4441 12021 ct 4450 12006 4463 11993 4478 11984 ct 
4494 11976 4511 11971 4529 11971 ct 4546 11971 4563 11976 4579 11984 ct 4594 11993 4607 12006 4616 12021 ct 
4624 12037 4629 12054 4629 12071 ct 4629 12071 l  p ef
gr
gs
0.210 0.324 0.414 c 3818 11661 m  3818 11678 3813 11695 3805 11711 ct 3796 11726 3783 11739 3768 11748 ct 
3752 11756 3735 11761 3718 11761 ct 3700 11761 3683 11756 3667 11748 ct 3652 11739 3639 11726 3630 11711 ct 
3622 11695 3617 11678 3617 11661 ct 3617 11643 3622 11626 3630 11610 ct 3639 11595 3652 11582 3667 11573 ct 
3683 11565 3700 11560 3718 11560 ct 3735 11560 3752 11565 3768 11573 ct 3783 11582 3796 11595 3805 11610 ct 
3813 11626 3818 11643 3818 11661 ct 3818 11661 l  p ef
gr
gs
0.210 0.324 0.414 c 5319 11862 m  5319 11879 5314 11896 5306 11912 ct 5297 11927 5284 11940 5269 11949 ct 
5253 11957 5236 11962 5219 11962 ct 5201 11962 5184 11957 5168 11949 ct 5153 11940 5140 11927 5131 11912 ct 
5123 11896 5118 11879 5118 11862 ct 5118 11844 5123 11827 5131 11811 ct 5140 11796 5153 11783 5168 11774 ct 
5184 11766 5201 11761 5219 11761 ct 5236 11761 5253 11766 5269 11774 ct 5284 11783 5297 11796 5306 11811 ct 
5314 11827 5319 11844 5319 11862 ct 5319 11862 l  p ef
gr
gs
0.210 0.324 0.414 c 2420 11762 m  2420 11779 2415 11796 2407 11812 ct 2398 11827 2385 11840 2370 11849 ct 
2354 11857 2337 11862 2319 11862 ct 2302 11862 2285 11857 2269 11849 ct 2254 11840 2241 11827 2232 11812 ct 
2224 11796 2219 11779 2219 11762 ct 2219 11744 2224 11727 2232 11711 ct 2241 11696 2254 11683 2269 11674 ct 
2285 11666 2302 11661 2319 11661 ct 2337 11661 2354 11666 2370 11674 ct 2385 11683 2398 11696 2407 11711 ct 
2415 11727 2420 11744 2420 11762 ct 2420 11762 l  p ef
gr
gs
0.210 0.324 0.414 c 3120 11563 m  3120 11580 3115 11597 3107 11613 ct 3098 11628 3085 11641 3070 11650 ct 
3054 11658 3037 11663 3020 11663 ct 3002 11663 2985 11658 2969 11650 ct 2954 11641 2941 11628 2932 11613 ct 
2924 11597 2919 11580 2919 11563 ct 2919 11545 2924 11528 2932 11512 ct 2941 11497 2954 11484 2969 11475 ct 
2985 11467 3002 11462 3020 11462 ct 3037 11462 3054 11467 3070 11475 ct 3085 11484 3098 11497 3107 11512 ct 
3115 11528 3120 11545 3120 11563 ct 3120 11563 l  p ef
gr
gs
0.210 0.324 0.414 c 4319 11662 m  4319 11679 4314 11696 4306 11712 ct 4297 11727 4284 11740 4269 11749 ct 
4253 11757 4236 11762 4218 11762 ct 4201 11762 4184 11757 4168 11749 ct 4153 11740 4140 11727 4131 11712 ct 
4123 11696 4118 11679 4118 11662 ct 4118 11644 4123 11627 4131 11611 ct 4140 11596 4153 11583 4168 11574 ct 
4184 11566 4201 11561 4218 11561 ct 4236 11561 4253 11566 4269 11574 ct 4284 11583 4297 11596 4306 11611 ct 
4314 11627 4319 11644 4319 11662 ct 4319 11662 l  p ef
gr
gs
0.210 0.324 0.414 c 5720 11663 m  5720 11680 5715 11697 5707 11713 ct 5698 11728 5685 11741 5670 11750 ct 
5654 11758 5637 11763 5620 11763 ct 5602 11763 5585 11758 5569 11750 ct 5554 11741 5541 11728 5532 11713 ct 
5524 11697 5519 11680 5519 11663 ct 5519 11645 5524 11628 5532 11612 ct 5541 11597 5554 11584 5569 11575 ct 
5585 11567 5602 11562 5620 11562 ct 5637 11562 5654 11567 5670 11575 ct 5685 11584 5698 11597 5707 11612 ct 
5715 11628 5720 11645 5720 11663 ct 5720 11663 l  p ef
gr
gs
0.210 0.324 0.414 c 2820 11863 m  2820 11880 2815 11897 2807 11913 ct 2798 11928 2785 11941 2770 11950 ct 
2754 11958 2737 11963 2720 11963 ct 2702 11963 2685 11958 2669 11950 ct 2654 11941 2641 11928 2632 11913 ct 
2624 11897 2619 11880 2619 11863 ct 2619 11845 2624 11828 2632 11812 ct 2641 11797 2654 11784 2669 11775 ct 
2685 11767 2702 11762 2720 11762 ct 2737 11762 2754 11767 2770 11775 ct 2785 11784 2798 11797 2807 11812 ct 
2815 11828 2820 11845 2820 11863 ct 2820 11863 l  p ef
gr
gs
0.210 0.324 0.414 c 3421 11764 m  3421 11781 3416 11798 3408 11814 ct 3399 11829 3386 11842 3371 11851 ct 
3355 11859 3338 11864 3321 11864 ct 3303 11864 3286 11859 3270 11851 ct 3255 11842 3242 11829 3233 11814 ct 
3225 11798 3220 11781 3220 11764 ct 3220 11746 3225 11729 3233 11713 ct 3242 11698 3255 11685 3270 11676 ct 
3286 11668 3303 11663 3321 11663 ct 3338 11663 3355 11668 3371 11676 ct 3386 11685 3399 11698 3408 11713 ct 
3416 11729 3421 11746 3421 11764 ct 3421 11764 l  p ef
gr
gs
0.210 0.324 0.414 c 4717 10961 m  4717 10978 4712 10995 4704 11011 ct 4695 11026 4682 11039 4667 11048 ct 
4651 11056 4634 11061 4617 11061 ct 4599 11061 4582 11056 4566 11048 ct 4551 11039 4538 11026 4529 11011 ct 
4521 10995 4516 10978 4516 10961 ct 4516 10943 4521 10926 4529 10910 ct 4538 10895 4551 10882 4566 10873 ct 
4582 10865 4599 10860 4617 10860 ct 4634 10860 4651 10865 4667 10873 ct 4682 10882 4695 10895 4704 10910 ct 
4712 10926 4717 10943 4717 10961 ct 4717 10961 l  p ef
gr
gs
0.210 0.324 0.414 c 6418 10962 m  6418 10979 6413 10996 6405 11012 ct 6396 11027 6383 11040 6368 11049 ct 
6352 11057 6335 11062 6318 11062 ct 6300 11062 6283 11057 6267 11049 ct 6252 11040 6239 11027 6230 11012 ct 
6222 10996 6217 10979 6217 10962 ct 6217 10944 6222 10927 6230 10911 ct 6239 10896 6252 10883 6267 10874 ct 
6283 10866 6300 10861 6318 10861 ct 6335 10861 6352 10866 6368 10874 ct 6383 10883 6396 10896 6405 10911 ct 
6413 10927 6418 10944 6418 10962 ct 6418 10962 l  p ef
gr
gs
0.210 0.324 0.414 c 3218 11162 m  3218 11179 3213 11196 3205 11212 ct 3196 11227 3183 11240 3168 11249 ct 
3152 11257 3135 11262 3118 11262 ct 3100 11262 3083 11257 3067 11249 ct 3052 11240 3039 11227 3030 11212 ct 
3022 11196 3017 11179 3017 11162 ct 3017 11144 3022 11127 3030 11111 ct 3039 11096 3052 11083 3067 11074 ct 
3083 11066 3100 11061 3118 11061 ct 3135 11061 3152 11066 3168 11074 ct 3183 11083 3196 11096 3205 11111 ct 
3213 11127 3218 11144 3218 11162 ct 3218 11162 l  p ef
gr
gs
0.210 0.324 0.414 c 4119 11263 m  4119 11280 4114 11297 4106 11313 ct 4097 11328 4084 11341 4069 11350 ct 
4053 11358 4036 11363 4018 11363 ct 4001 11363 3984 11358 3968 11350 ct 3953 11341 3940 11328 3931 11313 ct 
3923 11297 3918 11280 3918 11263 ct 3918 11245 3923 11228 3931 11212 ct 3940 11197 3953 11184 3968 11175 ct 
3984 11167 4001 11162 4018 11162 ct 4036 11162 4053 11167 4069 11175 ct 4084 11184 4097 11197 4106 11212 ct 
4114 11228 4119 11245 4119 11263 ct 4119 11263 l  p ef
gr
gs
0.210 0.324 0.414 c 5717 10461 m  5717 10479 5712 10496 5704 10512 ct 5695 10527 5682 10540 5667 10549 ct 
5651 10557 5634 10562 5617 10562 ct 5599 10562 5582 10557 5566 10549 ct 5551 10540 5538 10527 5529 10512 ct 
5521 10496 5516 10479 5516 10461 ct 5516 10444 5521 10427 5529 10411 ct 5538 10396 5551 10383 5566 10374 ct 
5582 10366 5599 10361 5617 10361 ct 5634 10361 5651 10366 5667 10374 ct 5682 10383 5695 10396 5704 10411 ct 
5712 10427 5717 10444 5717 10461 ct 5717 10461 l  p ef
gr
gs
0.210 0.324 0.414 c 3718 10463 m  3718 10480 3713 10497 3705 10513 ct 3696 10528 3683 10541 3668 10550 ct 
3652 10558 3635 10563 3618 10563 ct 3600 10563 3583 10558 3567 10550 ct 3552 10541 3539 10528 3530 10513 ct 
3522 10497 3517 10480 3517 10463 ct 3517 10445 3522 10428 3530 10412 ct 3539 10397 3552 10384 3567 10375 ct 
3583 10367 3600 10362 3618 10362 ct 3635 10362 3652 10367 3668 10375 ct 3683 10384 3696 10397 3705 10412 ct 
3713 10428 3718 10445 3718 10463 ct 3718 10463 l  p ef
gr
gs
0.210 0.324 0.414 c 4719 10463 m  4719 10481 4714 10498 4706 10514 ct 4697 10529 4684 10542 4669 10551 ct 
4653 10559 4636 10564 4618 10564 ct 4601 10564 4584 10559 4568 10551 ct 4553 10542 4540 10529 4531 10514 ct 
4523 10498 4518 10481 4518 10463 ct 4518 10446 4523 10429 4531 10413 ct 4540 10398 4553 10385 4568 10376 ct 
4584 10368 4601 10363 4618 10363 ct 4636 10363 4653 10368 4669 10376 ct 4684 10385 4697 10398 4706 10413 ct 
4714 10429 4719 10446 4719 10463 ct 4719 10463 l  p ef
gr
gs
0.210 0.324 0.414 c 5717 11265 m  5717 11282 5712 11299 5704 11315 ct 5695 11330 5682 11343 5667 11352 ct 
5651 11360 5634 11365 5617 11365 ct 5599 11365 5582 11360 5566 11352 ct 5551 11343 5538 11330 5529 11315 ct 
5521 11299 5516 11282 5516 11265 ct 5516 11247 5521 11230 5529 11214 ct 5538 11199 5551 11186 5566 11177 ct 
5582 11169 5599 11164 5617 11164 ct 5634 11164 5651 11169 5667 11177 ct 5682 11186 5695 11199 5704 11214 ct 
5712 11230 5717 11247 5717 11265 ct 5717 11265 l  p ef
gr
gs
0.210 0.324 0.414 c 6718 11265 m  6718 11283 6713 11300 6705 11316 ct 6696 11331 6683 11344 6668 11353 ct 
6652 11361 6635 11366 6618 11366 ct 6600 11366 6583 11361 6567 11353 ct 6552 11344 6539 11331 6530 11316 ct 
6522 11300 6517 11283 6517 11265 ct 6517 11248 6522 11231 6530 11215 ct 6539 11200 6552 11187 6567 11178 ct 
6583 11170 6600 11165 6618 11165 ct 6635 11165 6652 11170 6668 11178 ct 6683 11187 6696 11200 6705 11215 ct 
6713 11231 6718 11248 6718 11265 ct 6718 11265 l  p ef
gr
gs
0.210 0.324 0.414 c 3718 11265 m  3718 11283 3713 11300 3705 11316 ct 3696 11331 3683 11344 3668 11353 ct 
3652 11361 3635 11366 3618 11366 ct 3600 11366 3583 11361 3567 11353 ct 3552 11344 3539 11331 3530 11316 ct 
3522 11300 3517 11283 3517 11265 ct 3517 11248 3522 11231 3530 11215 ct 3539 11200 3552 11187 3567 11178 ct 
3583 11170 3600 11165 3618 11165 ct 3635 11165 3652 11170 3668 11178 ct 3683 11187 3696 11200 3705 11215 ct 
3713 11231 3718 11248 3718 11265 ct 3718 11265 l  p ef
gr
gs
0.210 0.324 0.414 c 4919 11667 m  4919 11684 4914 11701 4906 11717 ct 4897 11732 4884 11745 4869 11754 ct 
4853 11762 4836 11767 4818 11767 ct 4801 11767 4784 11762 4768 11754 ct 4753 11745 4740 11732 4731 11717 ct 
4723 11701 4718 11684 4718 11667 ct 4718 11649 4723 11632 4731 11616 ct 4740 11601 4753 11588 4768 11579 ct 
4784 11571 4801 11566 4818 11566 ct 4836 11566 4853 11571 4869 11579 ct 4884 11588 4897 11601 4906 11616 ct 
4914 11632 4919 11649 4919 11667 ct 4919 11667 l  p ef
gr
gs
0.210 0.324 0.414 c 4618 11362 m  4618 11379 4613 11396 4605 11412 ct 4596 11427 4583 11440 4568 11449 ct 
4552 11457 4535 11462 4518 11462 ct 4500 11462 4483 11457 4467 11449 ct 4452 11440 4439 11427 4430 11412 ct 
4422 11396 4417 11379 4417 11362 ct 4417 11344 4422 11327 4430 11311 ct 4439 11296 4452 11283 4467 11274 ct 
4483 11266 4500 11261 4518 11261 ct 4535 11261 4552 11266 4568 11274 ct 4583 11283 4596 11296 4605 11311 ct 
4613 11327 4618 11344 4618 11362 ct 4618 11362 l  p ef
gr
gs
0.210 0.324 0.414 c 5019 11363 m  5019 11380 5014 11397 5006 11413 ct 4997 11428 4984 11441 4969 11450 ct 
4953 11458 4936 11463 4919 11463 ct 4901 11463 4884 11458 4868 11450 ct 4853 11441 4840 11428 4831 11413 ct 
4823 11397 4818 11380 4818 11363 ct 4818 11345 4823 11328 4831 11312 ct 4840 11297 4853 11284 4868 11275 ct 
4884 11267 4901 11262 4919 11262 ct 4936 11262 4953 11267 4969 11275 ct 4984 11284 4997 11297 5006 11312 ct 
5014 11328 5019 11345 5019 11363 ct 5019 11363 l  p ef
gr
gs
0.210 0.324 0.414 c 5420 11463 m  5420 11480 5415 11497 5407 11513 ct 5398 11528 5385 11541 5370 11550 ct 
5354 11558 5337 11563 5320 11563 ct 5302 11563 5285 11558 5269 11550 ct 5254 11541 5241 11528 5232 11513 ct 
5224 11497 5219 11480 5219 11463 ct 5219 11445 5224 11428 5232 11412 ct 5241 11397 5254 11384 5269 11375 ct 
5285 11367 5302 11362 5320 11362 ct 5337 11362 5354 11367 5370 11375 ct 5385 11384 5398 11397 5407 11412 ct 
5415 11428 5420 11445 5420 11463 ct 5420 11463 l  p ef
gr
gs
0.210 0.324 0.414 c 5421 10863 m  5421 10880 5416 10897 5408 10913 ct 5399 10928 5386 10941 5371 10950 ct 
5355 10958 5338 10963 5321 10963 ct 5303 10963 5286 10958 5270 10950 ct 5255 10941 5242 10928 5233 10913 ct 
5225 10897 5220 10880 5220 10863 ct 5220 10845 5225 10828 5233 10812 ct 5242 10797 5255 10784 5270 10775 ct 
5286 10767 5303 10762 5321 10762 ct 5338 10762 5355 10767 5371 10775 ct 5386 10784 5399 10797 5408 10812 ct 
5416 10828 5421 10845 5421 10863 ct 5421 10863 l  p ef
gr
gs
0.210 0.324 0.414 c 6023 11464 m  6023 11481 6018 11498 6010 11514 ct 6001 11529 5988 11542 5973 11551 ct 
5957 11559 5940 11564 5923 11564 ct 5905 11564 5888 11559 5872 11551 ct 5857 11542 5844 11529 5835 11514 ct 
5827 11498 5822 11481 5822 11464 ct 5822 11446 5827 11429 5835 11413 ct 5844 11398 5857 11385 5872 11376 ct 
5888 11368 5905 11363 5923 11363 ct 5940 11363 5957 11368 5973 11376 ct 5988 11385 6001 11398 6010 11413 ct 
6018 11429 6023 11446 6023 11464 ct 6023 11464 l  p ef
gr
gs
0.210 0.324 0.414 c 6223 11765 m  6223 11782 6218 11799 6210 11815 ct 6201 11830 6188 11843 6173 11852 ct 
6157 11860 6140 11865 6123 11865 ct 6105 11865 6088 11860 6072 11852 ct 6057 11843 6044 11830 6035 11815 ct 
6027 11799 6022 11782 6022 11765 ct 6022 11747 6027 11730 6035 11714 ct 6044 11699 6057 11686 6072 11677 ct 
6088 11669 6105 11664 6123 11664 ct 6140 11664 6157 11669 6173 11677 ct 6188 11686 6201 11699 6210 11714 ct 
6218 11730 6223 11747 6223 11765 ct 6223 11765 l  p ef
gr
gs
0.210 0.324 0.414 c 6624 11665 m  6624 11683 6619 11700 6611 11716 ct 6602 11731 6589 11744 6574 11753 ct 
6558 11761 6541 11766 6524 11766 ct 6506 11766 6489 11761 6473 11753 ct 6458 11744 6445 11731 6436 11716 ct 
6428 11700 6423 11683 6423 11665 ct 6423 11648 6428 11631 6436 11615 ct 6445 11600 6458 11587 6473 11578 ct 
6489 11570 6506 11565 6524 11565 ct 6541 11565 6558 11570 6574 11578 ct 6589 11587 6602 11600 6611 11615 ct 
6619 11631 6624 11648 6624 11665 ct 6624 11665 l  p ef
gr
gs
0.210 0.324 0.414 c 6925 11567 m  6925 11584 6920 11601 6912 11617 ct 6903 11632 6890 11645 6875 11654 ct 
6859 11662 6842 11667 6825 11667 ct 6807 11667 6790 11662 6774 11654 ct 6759 11645 6746 11632 6737 11617 ct 
6729 11601 6724 11584 6724 11567 ct 6724 11549 6729 11532 6737 11516 ct 6746 11501 6759 11488 6774 11479 ct 
6790 11471 6807 11466 6825 11466 ct 6842 11466 6859 11471 6875 11479 ct 6890 11488 6903 11501 6912 11516 ct 
6920 11532 6925 11549 6925 11567 ct 6925 11567 l  p ef
gr
gs
0.210 0.324 0.414 c 6326 11388 m  6326 11405 6321 11422 6313 11438 ct 6304 11453 6291 11466 6276 11475 ct 
6260 11483 6243 11488 6225 11488 ct 6208 11488 6191 11483 6175 11475 ct 6160 11466 6147 11453 6138 11438 ct 
6130 11422 6125 11405 6125 11388 ct 6125 11370 6130 11353 6138 11337 ct 6147 11322 6160 11309 6175 11300 ct 
6191 11292 6208 11287 6225 11287 ct 6243 11287 6260 11292 6276 11300 ct 6291 11309 6304 11322 6313 11337 ct 
6321 11353 6326 11370 6326 11388 ct 6326 11388 l  p ef
gr
gs
0.210 0.324 0.414 c 5818 9763 m  5818 9780 5813 9797 5805 9813 ct 5796 9828 5783 9841 5768 9850 ct 
5752 9858 5735 9863 5718 9863 ct 5700 9863 5683 9858 5667 9850 ct 5652 9841 5639 9828 5630 9813 ct 
5622 9797 5617 9780 5617 9763 ct 5617 9745 5622 9728 5630 9712 ct 5639 9697 5652 9684 5667 9675 ct 
5683 9667 5700 9662 5718 9662 ct 5735 9662 5752 9667 5768 9675 ct 5783 9684 5796 9697 5805 9712 ct 
5813 9728 5818 9745 5818 9763 ct 5818 9763 l  p ef
gr
gs
0.210 0.324 0.414 c 5119 9764 m  5119 9781 5114 9798 5106 9814 ct 5097 9829 5084 9842 5069 9851 ct 
5053 9859 5036 9864 5019 9864 ct 5001 9864 4984 9859 4968 9851 ct 4953 9842 4940 9829 4931 9814 ct 
4923 9798 4918 9781 4918 9764 ct 4918 9746 4923 9729 4931 9713 ct 4940 9698 4953 9685 4968 9676 ct 
4984 9668 5001 9663 5019 9663 ct 5036 9663 5053 9668 5069 9676 ct 5084 9685 5097 9698 5106 9713 ct 
5114 9729 5119 9746 5119 9764 ct 5119 9764 l  p ef
gr
gs
0.210 0.324 0.414 c 5320 10165 m  5320 10182 5315 10199 5307 10215 ct 5298 10230 5285 10243 5270 10252 ct 
5254 10260 5237 10265 5219 10265 ct 5202 10265 5185 10260 5169 10252 ct 5154 10243 5141 10230 5132 10215 ct 
5124 10199 5119 10182 5119 10165 ct 5119 10147 5124 10130 5132 10114 ct 5141 10099 5154 10086 5169 10077 ct 
5185 10069 5202 10064 5219 10064 ct 5237 10064 5254 10069 5270 10077 ct 5285 10086 5298 10099 5307 10114 ct 
5315 10130 5320 10147 5320 10165 ct 5320 10165 l  p ef
gr
gs
0.210 0.324 0.414 c 4321 10166 m  4321 10183 4316 10200 4308 10216 ct 4299 10231 4286 10244 4271 10253 ct 
4255 10261 4238 10266 4221 10266 ct 4203 10266 4186 10261 4170 10253 ct 4155 10244 4142 10231 4133 10216 ct 
4125 10200 4120 10183 4120 10166 ct 4120 10148 4125 10131 4133 10115 ct 4142 10100 4155 10087 4170 10078 ct 
4186 10070 4203 10065 4221 10065 ct 4238 10065 4255 10070 4271 10078 ct 4286 10087 4299 10100 4308 10115 ct 
4316 10131 4321 10148 4321 10166 ct 4321 10166 l  p ef
gr
gs
0.210 0.324 0.414 c 4122 9767 m  4122 9784 4117 9801 4109 9817 ct 4100 9832 4087 9845 4072 9854 ct 
4056 9862 4039 9867 4022 9867 ct 4004 9867 3987 9862 3971 9854 ct 3956 9845 3943 9832 3934 9817 ct 
3926 9801 3921 9784 3921 9767 ct 3921 9749 3926 9732 3934 9716 ct 3943 9701 3956 9688 3971 9679 ct 
3987 9671 4004 9666 4022 9666 ct 4039 9666 4056 9671 4072 9679 ct 4087 9688 4100 9701 4109 9716 ct 
4117 9732 4122 9749 4122 9767 ct 4122 9767 l  p ef
gr
gs
0.210 0.324 0.414 c 4723 9568 m  4723 9585 4718 9602 4710 9618 ct 4701 9633 4688 9646 4673 9655 ct 
4657 9663 4640 9668 4623 9668 ct 4605 9668 4588 9663 4572 9655 ct 4557 9646 4544 9633 4535 9618 ct 
4527 9602 4522 9585 4522 9568 ct 4522 9550 4527 9533 4535 9517 ct 4544 9502 4557 9489 4572 9480 ct 
4588 9472 4605 9467 4623 9467 ct 4640 9467 4657 9472 4673 9480 ct 4688 9489 4701 9502 4710 9517 ct 
4718 9533 4723 9550 4723 9568 ct 4723 9568 l  p ef
gr
gs
0.210 0.324 0.414 c 4624 8969 m  4624 8986 4619 9003 4611 9019 ct 4602 9034 4589 9047 4574 9056 ct 
4558 9064 4541 9069 4524 9069 ct 4506 9069 4489 9064 4473 9056 ct 4458 9047 4445 9034 4436 9019 ct 
4428 9003 4423 8986 4423 8969 ct 4423 8951 4428 8934 4436 8918 ct 4445 8903 4458 8890 4473 8881 ct 
4489 8873 4506 8868 4524 8868 ct 4541 8868 4558 8873 4574 8881 ct 4589 8890 4602 8903 4611 8918 ct 
4619 8934 4624 8951 4624 8969 ct 4624 8969 l  p ef
gr
gs
0.210 0.324 0.414 c 2525 9069 m  2525 9086 2520 9103 2512 9119 ct 2503 9134 2491 9147 2476 9156 ct 
2460 9164 2443 9169 2426 9169 ct 2408 9169 2391 9164 2375 9156 ct 2360 9147 2347 9134 2338 9119 ct 
2330 9103 2325 9086 2325 9069 ct 2325 9051 2330 9034 2338 9018 ct 2347 9003 2360 8990 2375 8981 ct 
2391 8973 2408 8968 2426 8968 ct 2443 8968 2460 8973 2476 8981 ct 2491 8990 2503 9003 2512 9018 ct 
2520 9034 2525 9051 2525 9069 ct 2525 9069 l  p ef
gr
gs
0.210 0.324 0.414 c 3528 10772 m  3528 10789 3523 10806 3515 10822 ct 3506 10837 3493 10850 3478 10859 ct 
3462 10867 3445 10872 3428 10872 ct 3410 10872 3393 10867 3377 10859 ct 3362 10850 3349 10837 3340 10822 ct 
3332 10806 3327 10789 3327 10772 ct 3327 10754 3332 10737 3340 10721 ct 3349 10706 3362 10693 3377 10684 ct 
3393 10676 3410 10671 3428 10671 ct 3445 10671 3462 10676 3478 10684 ct 3493 10693 3506 10706 3515 10721 ct 
3523 10737 3528 10754 3528 10772 ct 3528 10772 l  p ef
gr
gs
0.210 0.324 0.414 c 4228 10672 m  4228 10689 4223 10706 4215 10722 ct 4206 10737 4193 10750 4178 10759 ct 
4162 10767 4145 10772 4128 10772 ct 4110 10772 4093 10767 4077 10759 ct 4062 10750 4049 10737 4040 10722 ct 
4032 10706 4027 10689 4027 10672 ct 4027 10654 4032 10637 4040 10621 ct 4049 10606 4062 10593 4077 10584 ct 
4093 10576 4110 10571 4128 10571 ct 4145 10571 4162 10576 4178 10584 ct 4193 10593 4206 10606 4215 10621 ct 
4223 10637 4228 10654 4228 10672 ct 4228 10672 l  p ef
gr
gs
0.210 0.324 0.414 c 3328 10073 m  3328 10090 3323 10107 3315 10123 ct 3306 10138 3293 10151 3278 10160 ct 
3262 10168 3245 10173 3228 10173 ct 3210 10173 3193 10168 3177 10160 ct 3162 10151 3149 10138 3140 10123 ct 
3132 10107 3127 10090 3127 10073 ct 3127 10055 3132 10038 3140 10022 ct 3149 10007 3162 9994 3177 9985 ct 
3193 9977 3210 9972 3228 9972 ct 3245 9972 3262 9977 3278 9985 ct 3293 9994 3306 10007 3315 10022 ct 
3323 10038 3328 10055 3328 10073 ct 3328 10073 l  p ef
gr
gs
0.210 0.324 0.414 c 2629 10274 m  2629 10291 2624 10308 2616 10324 ct 2607 10339 2594 10352 2579 10361 ct 
2563 10369 2546 10374 2529 10374 ct 2511 10374 2495 10369 2479 10361 ct 2464 10352 2451 10339 2442 10324 ct 
2434 10308 2429 10291 2429 10274 ct 2429 10256 2434 10239 2442 10223 ct 2451 10208 2464 10195 2479 10186 ct 
2495 10178 2511 10173 2529 10173 ct 2546 10173 2563 10178 2579 10186 ct 2594 10195 2607 10208 2616 10223 ct 
2624 10239 2629 10256 2629 10274 ct 2629 10274 l  p ef
gr
gs
0.210 0.324 0.414 c 2311 9975 m  2311 9992 2306 10009 2298 10025 ct 2289 10040 2276 10053 2261 10062 ct 
2245 10070 2228 10075 2211 10075 ct 2193 10075 2176 10070 2160 10062 ct 2145 10053 2132 10040 2123 10025 ct 
2115 10009 2110 9992 2110 9975 ct 2110 9957 2115 9940 2123 9924 ct 2132 9909 2145 9896 2160 9887 ct 
2176 9879 2193 9874 2211 9874 ct 2228 9874 2245 9879 2261 9887 ct 2276 9896 2289 9909 2298 9924 ct 
2306 9940 2311 9957 2311 9975 ct 2311 9975 l  p ef
gr
gs
0.210 0.324 0.414 c 2931 9575 m  2931 9593 2926 9610 2918 9626 ct 2909 9641 2896 9654 2881 9663 ct 
2865 9671 2848 9676 2831 9676 ct 2813 9676 2796 9671 2780 9663 ct 2765 9654 2752 9641 2743 9626 ct 
2735 9610 2730 9593 2730 9575 ct 2730 9558 2735 9541 2743 9525 ct 2752 9510 2765 9497 2780 9488 ct 
2796 9480 2813 9475 2831 9475 ct 2848 9475 2865 9480 2881 9488 ct 2896 9497 2909 9510 2918 9525 ct 
2926 9541 2931 9558 2931 9575 ct 2931 9575 l  p ef
gr
gs
0.210 0.324 0.414 c 3632 9277 m  3632 9294 3627 9311 3619 9327 ct 3610 9342 3597 9355 3582 9364 ct 
3566 9372 3549 9377 3532 9377 ct 3514 9377 3497 9372 3481 9364 ct 3466 9355 3453 9342 3444 9327 ct 
3436 9311 3431 9294 3431 9277 ct 3431 9259 3436 9242 3444 9226 ct 3453 9211 3466 9198 3481 9189 ct 
3497 9181 3514 9176 3532 9176 ct 3549 9176 3566 9181 3582 9189 ct 3597 9198 3610 9211 3619 9226 ct 
3627 9242 3632 9259 3632 9277 ct 3632 9277 l  p ef
gr
gs
0.210 0.324 0.414 c 6433 9278 m  6433 9295 6428 9312 6420 9328 ct 6411 9343 6398 9356 6383 9365 ct 
6367 9373 6350 9378 6333 9378 ct 6315 9378 6298 9373 6282 9365 ct 6267 9356 6254 9343 6245 9328 ct 
6237 9312 6232 9295 6232 9278 ct 6232 9260 6237 9243 6245 9227 ct 6254 9212 6267 9199 6282 9190 ct 
6298 9182 6315 9177 6333 9177 ct 6350 9177 6367 9182 6383 9190 ct 6398 9199 6411 9212 6420 9227 ct 
6428 9243 6433 9260 6433 9278 ct 6433 9278 l  p ef
gr
gs
0.210 0.324 0.414 c 5734 8978 m  5734 8996 5729 9013 5721 9029 ct 5712 9044 5699 9057 5684 9066 ct 
5668 9074 5651 9079 5634 9079 ct 5616 9079 5599 9074 5583 9066 ct 5568 9057 5555 9044 5546 9029 ct 
5538 9013 5533 8996 5533 8978 ct 5533 8961 5538 8944 5546 8928 ct 5555 8913 5568 8900 5583 8891 ct 
5599 8883 5616 8878 5634 8878 ct 5651 8878 5668 8883 5684 8891 ct 5699 8900 5712 8913 5721 8928 ct 
5729 8944 5734 8961 5734 8978 ct 5734 8978 l  p ef
gr
gs
0.210 0.324 0.414 c 5029 11972 m  5029 11989 5024 12006 5016 12022 ct 5007 12037 4994 12050 4979 12059 ct 
4963 12067 4946 12072 4929 12072 ct 4911 12072 4894 12067 4878 12059 ct 4863 12050 4850 12037 4841 12022 ct 
4833 12006 4828 11989 4828 11972 ct 4828 11954 4833 11937 4841 11921 ct 4850 11906 4863 11893 4878 11884 ct 
4894 11876 4911 11871 4929 11871 ct 4946 11871 4963 11876 4979 11884 ct 4994 11893 5007 11906 5016 11921 ct 
5024 11937 5029 11954 5029 11972 ct 5029 11972 l  p ef
gr
gs
0.210 0.324 0.414 c 5620 11963 m  5620 11980 5615 11997 5607 12013 ct 5598 12028 5585 12041 5570 12050 ct 
5554 12058 5537 12063 5520 12063 ct 5502 12063 5485 12058 5469 12050 ct 5454 12041 5441 12028 5432 12013 ct 
5424 11997 5419 11980 5419 11963 ct 5419 11945 5424 11928 5432 11912 ct 5441 11897 5454 11884 5469 11875 ct 
5485 11867 5502 11862 5520 11862 ct 5537 11862 5554 11867 5570 11875 ct 5585 11884 5598 11897 5607 11912 ct 
5615 11928 5620 11945 5620 11963 ct 5620 11963 l  p ef
gr
pum
4186 8404 t
1.000 1.000 1.000 c 34 -19 m  19 -35 12 -54 12 -76 ct 12 -99 19 -118 34 -134 ct 
49 -150 67 -158 89 -158 ct 103 -158 116 -155 126 -148 ct 137 -141 143 -132 143 -120 ct 
143 -115 141 -111 138 -108 ct 135 -105 131 -104 126 -104 ct 121 -104 117 -105 115 -108 ct 
112 -111 110 -115 110 -120 ct 110 -122 110 -124 111 -126 ct 112 -128 114 -130 116 -133 ct 
119 -135 122 -136 127 -136 ct 118 -145 106 -149 89 -149 ct 77 -149 66 -144 56 -132 ct 
46 -121 41 -103 41 -77 ct 41 -64 43 -52 46 -42 ct 50 -32 54 -25 59 -20 ct 65 -15 70 -11 75 -8 ct 
81 -6 86 -5 91 -5 ct 114 -5 130 -17 137 -42 ct 138 -44 140 -46 142 -46 ct 145 -46 146 -44 146 -42 ct 
146 -41 146 -39 145 -36 ct 144 -33 142 -29 139 -24 ct 137 -20 133 -15 129 -11 ct 
125 -7 119 -3 112 -1 ct 105 2 97 4 88 4 ct 67 4 49 -4 34 -19 ct p ef
190 -19 m  175 -34 167 -53 167 -76 ct 167 -98 174 -117 190 -134 ct 205 -150 223 -158 245 -158 ct 
267 -158 285 -150 300 -134 ct 316 -118 323 -98 323 -76 ct 323 -53 316 -35 300 -19 ct 
285 -4 266 4 245 4 ct 224 4 206 -4 190 -19 ct p
196 -78 m  196 -56 199 -39 205 -29 ct 214 -13 228 -5 245 -5 ct 254 -5 262 -7 269 -12 ct 
277 -17 282 -23 286 -31 ct 291 -41 294 -57 294 -78 ct 294 -101 291 -117 285 -127 ct 
276 -143 262 -150 245 -150 ct 237 -150 230 -148 222 -144 ct 215 -140 209 -134 205 -127 ct 
199 -116 196 -100 196 -78 ct p ef
346 0 m  346 -11 l  358 -11 366 -12 369 -13 ct 372 -15 373 -19 373 -27 ct 373 -210 l 
373 -219 372 -225 369 -227 ct 366 -229 358 -230 346 -230 ct 346 -241 l  396 -245 l 
396 -27 l  396 -19 398 -15 401 -13 ct 404 -12 412 -11 424 -11 ct 424 0 l  421 0 417 0 411 0 ct 
405 -1 400 -1 395 -1 ct 391 -1 387 -1 385 -1 ct 382 -1 369 -1 346 0 ct p ef
444 -76 m  444 -98 452 -117 467 -133 ct 483 -148 502 -156 523 -156 ct 541 -156 555 -149 567 -134 ct 
567 -210 l  567 -219 566 -225 563 -227 ct 560 -229 552 -230 540 -230 ct 540 -241 l 
590 -245 l  590 -31 l  590 -22 592 -17 595 -14 ct 598 -12 606 -11 618 -11 ct 
618 0 l  566 4 l  566 -19 l  554 -4 538 4 519 4 ct 499 4 481 -4 466 -19 ct 451 -35 444 -54 444 -76 ct 
p
473 -76 m  473 -54 477 -37 484 -26 ct 493 -11 505 -4 521 -4 ct 538 -4 552 -12 562 -29 ct 
565 -33 566 -37 566 -42 ct 566 -114 l  566 -119 565 -123 562 -127 ct 553 -141 540 -148 524 -148 ct 
508 -148 494 -141 484 -126 ct 477 -114 473 -98 473 -76 ct p ef
pom
pum
4245 12904 t
11 0 m  11 -11 l  24 -11 31 -12 34 -13 ct 37 -15 39 -19 39 -27 ct 39 -210 l 
39 -219 37 -225 34 -227 ct 31 -229 24 -230 11 -230 ct 11 -241 l  62 -245 l  62 -122 l 
62 -122 l  66 -131 72 -138 81 -145 ct 89 -152 100 -156 113 -156 ct 131 -156 143 -152 150 -143 ct 
156 -137 159 -131 160 -124 ct 161 -118 161 -106 161 -89 ct 161 -22 l  162 -17 164 -14 167 -13 ct 
171 -11 178 -11 189 -11 ct 189 0 l  165 -1 152 -1 149 -1 ct 147 -1 134 -1 109 0 ct 
109 -11 l  122 -11 130 -12 133 -13 ct 135 -15 137 -19 137 -27 ct 137 -109 l 
137 -121 135 -131 131 -138 ct 128 -145 121 -148 111 -148 ct 99 -148 88 -143 78 -133 ct 
68 -123 63 -109 63 -92 ct 63 -27 l  63 -19 65 -15 68 -13 ct 71 -12 78 -11 91 -11 ct 
91 0 l  67 -1 54 -1 51 -1 ct 49 -1 36 -1 11 0 ct p ef
228 -19 m  213 -34 205 -53 205 -76 ct 205 -98 212 -117 228 -134 ct 243 -150 261 -158 283 -158 ct 
305 -158 323 -150 338 -134 ct 354 -118 361 -98 361 -76 ct 361 -53 354 -35 338 -19 ct 
323 -4 304 4 283 4 ct 262 4 244 -4 228 -19 ct p
234 -78 m  234 -56 237 -39 243 -29 ct 252 -13 266 -5 283 -5 ct 292 -5 300 -7 307 -12 ct 
315 -17 320 -23 324 -31 ct 329 -41 332 -57 332 -78 ct 332 -101 329 -117 323 -127 ct 
314 -143 300 -150 283 -150 ct 275 -150 268 -148 260 -144 ct 253 -140 247 -134 243 -127 ct 
237 -116 234 -100 234 -78 ct p ef
380 -141 m  380 -149 l  391 -149 400 -153 407 -161 ct 414 -169 419 -177 421 -187 ct 
424 -196 425 -206 425 -217 ct 434 -217 l  434 -152 l  485 -152 l  485 -141 l 
434 -141 l  434 -43 l  434 -18 442 -5 458 -5 ct 465 -5 470 -8 475 -15 ct 479 -22 481 -32 481 -44 ct 
481 -64 l  490 -64 l  490 -44 l  490 -31 487 -20 481 -10 ct 475 -1 467 4 455 4 ct 
451 4 447 3 443 2 ct 438 1 433 -1 428 -4 ct 423 -6 418 -11 415 -18 ct 411 -25 410 -34 410 -44 ct 
410 -141 l  p ef
pom
gs
2344 9728 m  2344 10747 l  2100 10747 l  2689 11287 l  3280 10747 l  3035 10747 l 
3035 9728 l  2344 9728 l  p ef
gr
gs
2315 10214 m 3067 10214 l 3067 10629 l 2315 10629 l 2315 10214 l eoclip newpath
pum
2427 10551 t
0.003 0.003 0.003 c 139 32 m  0 -281 l  297 -281 l  p
154 -39 m  268 -263 l  54 -263 l  p ef
pom
pum
2786 10551 t
39 -54 m  39 -80 48 -103 67 -124 ct 85 -145 105 -155 127 -155 ct 138 -155 147 -152 154 -147 ct 
161 -141 165 -134 165 -125 ct 165 -119 163 -114 160 -110 ct 156 -106 152 -104 147 -104 ct 
143 -104 140 -105 138 -107 ct 136 -109 135 -112 135 -115 ct 135 -116 135 -116 135 -117 ct 
135 -118 136 -119 136 -121 ct 137 -123 138 -124 139 -126 ct 140 -127 142 -128 144 -130 ct 
147 -131 149 -132 153 -132 ct 149 -142 141 -147 128 -147 ct 120 -147 111 -144 103 -138 ct 
95 -132 88 -124 82 -112 ct 77 -104 73 -92 69 -77 ct 65 -62 63 -49 63 -40 ct 63 -29 66 -21 70 -14 ct 
75 -7 82 -4 91 -4 ct 95 -4 99 -4 104 -5 ct 109 -6 117 -9 127 -15 ct 137 -21 146 -28 154 -38 ct 
156 -41 158 -42 159 -42 ct 160 -42 161 -41 163 -40 ct 164 -39 164 -37 164 -37 ct 
164 -34 161 -30 156 -24 ct 150 -18 141 -12 129 -5 ct 117 1 104 4 90 4 ct 75 4 62 -1 53 -12 ct 
43 -23 39 -37 39 -54 ct p ef
pom
gr
gs
5976 9728 m  5976 10747 l  5732 10747 l  6322 11287 l  6913 10747 l  6668 10747 l 
6668 9728 l  5976 9728 l  p ef
gr
gs
5889 10204 m 6761 10204 l 6761 10619 l 5889 10619 l 5889 10204 l eoclip newpath
pum
6001 10541 t
0.003 0.003 0.003 c 139 32 m  0 -281 l  297 -281 l  p
154 -39 m  268 -263 l  54 -263 l  p ef
pom
pum
6361 10541 t
61 -163 m  61 -163 62 -165 63 -168 ct 84 -231 l  85 -234 86 -236 87 -237 ct 
88 -237 90 -238 94 -238 ct 274 -238 l  276 -238 278 -238 279 -237 ct 280 -237 281 -237 282 -236 ct 
282 -236 283 -235 283 -233 ct 283 -231 283 -230 283 -229 ct 272 -166 l  272 -163 271 -161 270 -160 ct 
270 -159 268 -159 266 -159 ct 262 -159 260 -160 260 -163 ct 260 -164 261 -166 261 -168 ct 
263 -182 265 -193 265 -200 ct 265 -211 262 -218 256 -222 ct 250 -225 238 -227 220 -227 ct 
210 -227 204 -227 202 -226 ct 198 -226 195 -222 194 -214 ct 147 -26 l  146 -22 145 -20 145 -19 ct 
145 -16 146 -15 147 -14 ct 149 -13 152 -12 157 -12 ct 157 -12 158 -12 160 -11 ct 
163 -11 165 -11 168 -11 ct 171 -11 173 -11 174 -11 ct 180 -11 l  186 -11 188 -10 188 -7 ct 
188 -2 186 0 181 0 ct 175 0 166 0 154 -1 ct 141 -1 132 -1 126 -1 ct 120 -1 111 -1 99 -1 ct 
87 0 78 0 72 0 ct 68 0 66 -1 66 -4 ct 66 -7 66 -9 68 -10 ct 69 -11 72 -11 75 -11 ct 
81 -11 l  96 -11 105 -12 110 -14 ct 114 -16 117 -20 118 -27 ct 165 -215 l  166 -218 167 -221 167 -223 ct 
167 -224 167 -225 166 -225 ct 166 -225 165 -226 164 -226 ct 163 -227 161 -227 159 -227 ct 
147 -227 l  124 -227 108 -223 100 -217 ct 92 -210 83 -194 75 -170 ct 73 -164 71 -160 71 -160 ct 
70 -159 69 -159 67 -159 ct 63 -159 61 -160 61 -163 ct p ef
pom
gr
gs
0.210 0.324 0.414 c 2420 11363 m  2420 11380 2415 11397 2407 11413 ct 2398 11428 2385 11441 2370 11450 ct 
2354 11458 2337 11463 2319 11463 ct 2302 11463 2285 11458 2269 11450 ct 2254 11441 2241 11428 2232 11413 ct 
2224 11397 2219 11380 2219 11363 ct 2219 11345 2224 11328 2232 11312 ct 2241 11297 2254 11284 2269 11275 ct 
2285 11267 2302 11262 2319 11262 ct 2337 11262 2354 11267 2370 11275 ct 2385 11284 2398 11297 2407 11312 ct 
2415 11328 2420 11345 2420 11363 ct 2420 11363 l  p ef
gr
gs
0.210 0.324 0.414 c 2720 11564 m  2720 11581 2715 11598 2707 11614 ct 2698 11629 2685 11642 2670 11651 ct 
2654 11659 2637 11664 2619 11664 ct 2602 11664 2585 11659 2569 11651 ct 2554 11642 2541 11629 2532 11614 ct 
2524 11598 2519 11581 2519 11564 ct 2519 11546 2524 11529 2532 11513 ct 2541 11498 2554 11485 2569 11476 ct 
2585 11468 2602 11463 2619 11463 ct 2637 11463 2654 11468 2670 11476 ct 2685 11485 2698 11498 2707 11513 ct 
2715 11529 2720 11546 2720 11564 ct 2720 11564 l  p ef
gr
0 5170 t 
pom
count op_count sub {pop} repeat countdictstack dict_count sub {end} repeat b4_inc_state restore
%%PageTrailer
%%Trailer
%%EOF
