%!PS-Adobe-3.0 EPSF-3.0 
%%BoundingBox: 0 0 203 131
%%Pages: 0
%%Creator: LibreOffice 6.4
%%Title: none
%%CreationDate: none
%%LanguageLevel: 2
%%EndComments
%%BeginProlog
%%BeginResource: procset SDRes-Prolog 1.0 0
/b4_inc_state save def
/dict_count countdictstack def
/op_count count 1 sub def
userdict begin
0 setgray 0 setlinecap 1 setlinewidth 0 setlinejoin 10 setmiterlimit[] 0 setdash newpath
/languagelevel where {pop languagelevel 1 ne {false setstrokeadjust false setoverprint} if} if
/bdef {bind def} bind def
/c {setrgbcolor} bdef
/l {neg lineto} bdef
/rl {neg rlineto} bdef
/lc {setlinecap} bdef
/lj {setlinejoin} bdef
/lw {setlinewidth} bdef
/ml {setmiterlimit} bdef
/ld {setdash} bdef
/m {neg moveto} bdef
/ct {6 2 roll neg 6 2 roll neg 6 2 roll neg curveto} bdef
/r {rotate} bdef
/t {neg translate} bdef
/s {scale} bdef
/sw {show} bdef
/gs {gsave} bdef
/gr {grestore} bdef
/f {findfont dup length dict begin
{1 index /FID ne {def} {pop pop} ifelse} forall /Encoding ISOLatin1Encoding def
currentdict end /NFont exch definefont pop /NFont findfont} bdef
/p {closepath} bdef
/sf {scalefont setfont} bdef
/ef {eofill}bdef
/pc {closepath stroke}bdef
/ps {stroke}bdef
/pum {matrix currentmatrix}bdef
/pom {setmatrix}bdef
/bs {/aString exch def /nXOfs exch def /nWidth exch def currentpoint nXOfs 0 rmoveto pum nWidth aString stringwidth pop div 1 scale aString show pom moveto} bdef
%%EndResource
%%EndProlog
%%BeginSetup
%%EndSetup
%%Page: 1 1
%%BeginPageSetup
%%EndPageSetup
pum
0.02841 0.02836 s 
0 -4618 t
/tm matrix currentmatrix def
tm setmatrix
-5779 -18473 t 
1 1 s 
gs
1.000 1.000 1.000 c 8798 20490 m  8798 18491 l  9797 18491 l  9797 22489 l 
8798 22489 l  8798 20490 l  p ef
gr
gs
34.98752 lw 1 lj 0.003 0.003 0.003 c 8797 20490 m  8797 18490 l  9797 18490 l 
9797 22489 l  8797 22489 l  8797 20490 l  pc
gr
gs
36 lw 1 lj 0.003 0.003 0.003 c 5798 20476 m  9039 20476 l  ps
gr
gs
0.003 0.003 0.003 c 9297 20475 m  9016 20300 l  9016 20652 l  9297 20475 l 
p ef
gr
gs
0 lw 1 lj [ 26.95 26.95 ] 0 ld
0.003 0.003 0.003 c 12796 20476 m  9288 20476 l  ps
gr
gs
34.98752 lw 1 lj 0.003 0.003 0.003 c 10484 20478 m  10503 20411 10501 20337 10470 20276 ct 
ps
gr
pum
10909 20450 t
0.003 0.003 0.003 c 211 -134 m  202 -92 188 -59 167 -34 ct 146 -9 122 4 95 4 ct 
68 4 49 -9 38 -34 ct 27 -59 25 -93 34 -134 ct 41 -176 56 -209 77 -234 ct 98 -260 122 -272 149 -272 ct 
175 -272 195 -260 206 -234 ct 217 -210 219 -176 211 -134 ct p
172 -125 m  69 -125 l  62 -88 61 -61 66 -42 ct 70 -21 81 -11 98 -11 ct 115 -11 130 -21 142 -42 ct 
154 -60 163 -88 172 -125 ct p
179 -227 m  174 -248 163 -259 146 -258 ct 129 -258 114 -248 102 -227 ct 90 -208 80 -180 72 -143 ct 
175 -143 l  181 -180 183 -208 179 -227 ct p ef
pom
gs
36 lw 1 lj 9297 20476 m  12476 19840 l  ps
gr
gs
12728 19789 m  12419 19672 l  12488 20017 l  12728 19789 l  p ef
gr
gs
19 lw 1 lj 5789 20476 m  5806 20472 l  ps
5824 20469 m  5842 20465 l  ps
5859 20462 m  5877 20458 l  ps
5895 20455 m  5912 20451 l  ps
5930 20447 m  5948 20444 l  ps
5965 20440 m  5983 20437 l  ps
6001 20433 m  6018 20430 l  ps
6036 20426 m  6053 20423 l  ps
6071 20419 m  6089 20416 l  ps
6106 20412 m  6124 20409 l  ps
6142 20405 m  6159 20402 l  ps
6177 20398 m  6195 20395 l  ps
6212 20391 m  6230 20388 l  ps
6248 20384 m  6265 20380 l  ps
6283 20377 m  6301 20373 l  ps
6318 20370 m  6336 20366 l  ps
6354 20363 m  6371 20359 l  ps
6389 20356 m  6406 20352 l  ps
6424 20349 m  6442 20345 l  ps
6459 20342 m  6477 20338 l  ps
6495 20335 m  6512 20331 l  ps
6530 20328 m  6548 20324 l  ps
6565 20320 m  6583 20317 l  ps
6601 20313 m  6618 20310 l  ps
6636 20306 m  6654 20303 l  ps
6671 20299 m  6689 20296 l  ps
6707 20292 m  6724 20289 l  ps
6742 20285 m  6760 20282 l  ps
6777 20278 m  6795 20275 l  ps
6812 20271 m  6830 20268 l  ps
6848 20264 m  6865 20260 l  ps
6883 20257 m  6901 20253 l  ps
6918 20250 m  6936 20246 l  ps
6954 20243 m  6971 20239 l  ps
6989 20236 m  7007 20232 l  ps
7024 20229 m  7042 20225 l  ps
7060 20222 m  7077 20218 l  ps
7095 20215 m  7113 20211 l  ps
7130 20208 m  7148 20204 l  ps
7165 20201 m  7183 20197 l  ps
7201 20193 m  7218 20190 l  ps
7236 20186 m  7254 20183 l  ps
7271 20179 m  7289 20176 l  ps
7307 20172 m  7324 20169 l  ps
7342 20165 m  7360 20162 l  ps
7377 20158 m  7395 20155 l  ps
7413 20151 m  7430 20148 l  ps
7448 20144 m  7466 20141 l  ps
7483 20137 m  7501 20133 l  ps
7518 20130 m  7536 20126 l  ps
7554 20123 m  7571 20119 l  ps
7589 20116 m  7607 20112 l  ps
7624 20109 m  7642 20105 l  ps
7660 20102 m  7677 20098 l  ps
7695 20095 m  7713 20091 l  ps
7730 20088 m  7748 20084 l  ps
7766 20081 m  7783 20077 l  ps
7801 20074 m  7819 20070 l  ps
7836 20066 m  7854 20063 l  ps
7872 20059 m  7889 20056 l  ps
7907 20052 m  7924 20049 l  ps
7942 20045 m  7960 20042 l  ps
7977 20038 m  7995 20035 l  ps
8013 20031 m  8030 20028 l  ps
8048 20024 m  8066 20021 l  ps
8083 20017 m  8101 20014 l  ps
8119 20010 m  8136 20006 l  ps
8154 20003 m  8172 19999 l  ps
8189 19996 m  8207 19992 l  ps
8225 19989 m  8242 19985 l  ps
8260 19982 m  8277 19978 l  ps
8295 19975 m  8313 19971 l  ps
8330 19968 m  8348 19964 l  ps
8366 19961 m  8383 19957 l  ps
8401 19954 m  8419 19950 l  ps
8436 19946 m  8454 19943 l  ps
8472 19939 m  8489 19936 l  ps
8507 19932 m  8525 19929 l  ps
8542 19925 m  8560 19922 l  ps
8578 19918 m  8595 19915 l  ps
8613 19911 m  8630 19908 l  ps
8648 19904 m  8666 19901 l  ps
8683 19897 m  8701 19894 l  ps
8719 19890 m  8736 19887 l  ps
8754 19883 m  8772 19879 l  ps
8789 19876 m  8807 19872 l  ps
8825 19869 m  8842 19865 l  ps
8860 19862 m  8878 19858 l  ps
8895 19855 m  8913 19851 l  ps
8931 19848 m  8947 19844 l  ps
8965 19841 m  8983 19837 l  ps
9000 19834 m  9018 19830 l  ps
9035 19827 m  9053 19823 l  ps
9071 19819 m  9088 19816 l  ps
9106 19812 m  9124 19809 l  ps
9141 19805 m  9159 19802 l  ps
9177 19798 m  9194 19795 l  ps
9212 19791 m  9220 19790 l  ps
gr
gs
19 lw 1 lj 9237 19787 m  9255 19787 l  ps
9273 19787 m  9291 19787 l  ps
9309 19787 m  9327 19787 l  ps
9345 19787 m  9363 19787 l  ps
9381 19787 m  9399 19787 l  ps
9417 19787 m  9435 19787 l  ps
9453 19787 m  9471 19787 l  ps
9489 19787 m  9507 19787 l  ps
9525 19787 m  9543 19787 l  ps
9561 19787 m  9579 19787 l  ps
9597 19787 m  9615 19787 l  ps
9633 19787 m  9651 19787 l  ps
9669 19787 m  9687 19787 l  ps
9705 19787 m  9723 19787 l  ps
9741 19787 m  9759 19787 l  ps
9777 19787 m  9795 19787 l  ps
9813 19787 m  9831 19787 l  ps
9849 19787 m  9867 19787 l  ps
9885 19787 m  9903 19787 l  ps
9921 19787 m  9939 19787 l  ps
9957 19787 m  9975 19787 l  ps
9993 19787 m  10011 19787 l  ps
10029 19787 m  10047 19787 l  ps
10065 19787 m  10083 19787 l  ps
10101 19787 m  10119 19787 l  ps
10137 19787 m  10155 19787 l  ps
10173 19787 m  10191 19787 l  ps
10209 19787 m  10227 19787 l  ps
10245 19787 m  10263 19787 l  ps
10281 19787 m  10299 19787 l  ps
10317 19787 m  10335 19787 l  ps
10353 19787 m  10371 19787 l  ps
10389 19787 m  10407 19787 l  ps
10425 19787 m  10443 19787 l  ps
10461 19787 m  10479 19787 l  ps
10497 19787 m  10515 19787 l  ps
10533 19787 m  10551 19787 l  ps
10569 19787 m  10587 19787 l  ps
10605 19787 m  10623 19787 l  ps
10641 19787 m  10659 19787 l  ps
10677 19787 m  10695 19787 l  ps
10713 19787 m  10731 19787 l  ps
10749 19787 m  10767 19787 l  ps
10785 19787 m  10803 19787 l  ps
10821 19787 m  10839 19787 l  ps
10857 19787 m  10875 19787 l  ps
10893 19787 m  10911 19787 l  ps
10929 19787 m  10947 19787 l  ps
10965 19787 m  10983 19787 l  ps
11001 19787 m  11019 19787 l  ps
11037 19787 m  11055 19787 l  ps
11073 19787 m  11091 19787 l  ps
11109 19787 m  11127 19787 l  ps
11145 19787 m  11163 19787 l  ps
11181 19787 m  11199 19787 l  ps
11217 19787 m  11235 19787 l  ps
11253 19787 m  11271 19787 l  ps
11289 19787 m  11307 19787 l  ps
11325 19787 m  11343 19787 l  ps
11361 19787 m  11379 19787 l  ps
11397 19787 m  11415 19787 l  ps
11433 19787 m  11451 19787 l  ps
11469 19787 m  11487 19787 l  ps
11505 19787 m  11523 19787 l  ps
11541 19787 m  11559 19787 l  ps
11577 19787 m  11595 19787 l  ps
11613 19787 m  11631 19787 l  ps
11649 19787 m  11667 19787 l  ps
11685 19787 m  11703 19787 l  ps
11721 19787 m  11739 19787 l  ps
11757 19787 m  11775 19787 l  ps
11793 19787 m  11811 19787 l  ps
11829 19787 m  11847 19787 l  ps
11865 19787 m  11883 19787 l  ps
11901 19787 m  11919 19787 l  ps
11937 19787 m  11955 19787 l  ps
11973 19787 m  11991 19787 l  ps
12009 19787 m  12027 19787 l  ps
12045 19787 m  12063 19787 l  ps
12081 19787 m  12099 19787 l  ps
12117 19787 m  12135 19787 l  ps
12153 19787 m  12171 19787 l  ps
12189 19787 m  12207 19787 l  ps
12225 19787 m  12243 19787 l  ps
12261 19787 m  12279 19787 l  ps
12297 19787 m  12315 19787 l  ps
12333 19787 m  12351 19787 l  ps
12369 19787 m  12387 19787 l  ps
12405 19787 m  12423 19787 l  ps
12441 19787 m  12459 19787 l  ps
12477 19787 m  12495 19787 l  ps
12512 19787 m  12530 19787 l  ps
12548 19787 m  12566 19787 l  ps
12584 19787 m  12602 19787 l  ps
12620 19787 m  12638 19787 l  ps
12656 19787 m  12674 19787 l  ps
12692 19787 m  12710 19787 l  ps
12728 19787 m  12736 19787 l  ps
gr
gs
36 lw 1 lj 9297 20476 m  9240 19973 l  ps
gr
gs
9219 19790 m  9117 20003 l  9367 19975 l  9219 19790 l  p ef
gr
pum
8742 22875 t
20 -1 m  20 -71 l  20 -74 20 -76 20 -77 ct 20 -78 20 -78 21 -79 ct 22 -80 23 -80 24 -80 ct 
27 -80 28 -79 29 -77 ct 29 -53 37 -35 50 -22 ct 64 -10 83 -3 106 -3 ct 120 -3 132 -8 140 -18 ct 
149 -28 154 -40 154 -54 ct 154 -66 150 -77 143 -86 ct 140 -90 136 -93 132 -96 ct 
128 -99 125 -100 123 -101 ct 120 -102 117 -103 113 -104 ct 83 -111 68 -115 66 -116 ct 
52 -120 41 -129 32 -141 ct 24 -153 20 -166 20 -180 ct 20 -199 26 -215 40 -229 ct 
53 -242 69 -249 89 -249 ct 98 -249 107 -247 115 -244 ct 123 -241 129 -238 132 -236 ct 
136 -233 140 -229 145 -224 ct 157 -244 l  159 -247 161 -249 163 -249 ct 165 -249 166 -248 166 -247 ct 
166 -246 167 -244 167 -240 ct 167 -169 l  167 -167 167 -165 166 -164 ct 166 -163 166 -162 165 -162 ct 
164 -161 163 -161 162 -161 ct 160 -161 158 -162 158 -165 ct 151 -214 128 -239 89 -239 ct 
76 -239 64 -234 56 -225 ct 47 -216 42 -205 42 -193 ct 42 -182 46 -173 52 -164 ct 
59 -156 67 -150 78 -148 ct 123 -137 l  138 -133 151 -125 161 -112 ct 171 -98 176 -83 176 -66 ct 
176 -46 170 -28 157 -14 ct 143 1 127 8 107 8 ct 92 8 79 5 68 1 ct 56 -4 48 -10 42 -17 ct 
37 -9 33 -3 30 1 ct 29 3 l  27 6 25 8 24 8 ct 22 8 21 7 20 6 ct 20 5 20 3 20 -1 ct 
p ef
210 -34 m  210 -54 222 -69 245 -79 ct 259 -86 281 -90 310 -92 ct 310 -105 l 
310 -120 306 -131 299 -139 ct 291 -146 282 -150 273 -150 ct 255 -150 243 -145 235 -134 ct 
242 -134 246 -132 249 -128 ct 251 -125 253 -121 253 -118 ct 253 -113 251 -109 248 -106 ct 
245 -103 241 -102 236 -102 ct 232 -102 228 -103 225 -106 ct 222 -109 220 -113 220 -118 ct 
220 -130 225 -139 236 -147 ct 246 -154 259 -158 273 -158 ct 293 -158 309 -152 322 -139 ct 
326 -135 329 -130 331 -125 ct 333 -120 334 -115 334 -112 ct 334 -109 334 -104 334 -97 ct 
334 -26 l  334 -25 335 -23 335 -21 ct 336 -19 337 -16 339 -13 ct 341 -10 344 -9 347 -9 ct 
356 -9 360 -16 360 -31 ct 360 -51 l  369 -51 l  369 -31 l  369 -19 366 -10 359 -5 ct 
353 0 346 2 340 2 ct 332 2 326 -1 321 -7 ct 316 -12 313 -19 313 -27 ct 309 -18 303 -11 295 -5 ct 
287 1 277 4 266 4 ct 258 4 250 3 242 1 ct 234 -1 226 -5 220 -11 ct 213 -17 210 -25 210 -34 ct 
p
237 -34 m  237 -25 240 -18 246 -12 ct 253 -7 260 -4 269 -4 ct 279 -4 288 -8 297 -15 ct 
306 -23 310 -34 310 -49 ct 310 -85 l  284 -84 265 -78 254 -68 ct 243 -57 237 -46 237 -34 ct 
p ef
384 0 m  384 -11 l  397 -11 404 -12 407 -13 ct 410 -15 412 -19 412 -27 ct 412 -121 l 
412 -130 410 -136 407 -138 ct 404 -140 397 -141 384 -141 ct 384 -152 l  434 -156 l 
434 -119 l  445 -144 463 -156 486 -156 ct 514 -156 529 -144 533 -121 ct 537 -130 543 -138 552 -145 ct 
560 -152 571 -156 584 -156 ct 602 -156 614 -152 622 -143 ct 627 -137 630 -131 631 -124 ct 
632 -118 632 -106 632 -89 ct 632 -22 l  633 -17 635 -14 638 -13 ct 642 -11 649 -11 660 -11 ct 
660 0 l  636 -1 623 -1 620 -1 ct 619 -1 605 -1 581 0 ct 581 -11 l  593 -11 601 -12 604 -13 ct 
607 -15 608 -19 608 -27 ct 608 -109 l  608 -121 606 -131 603 -138 ct 599 -145 592 -148 582 -148 ct 
570 -148 559 -143 549 -133 ct 539 -123 534 -109 534 -92 ct 534 -27 l  534 -19 536 -15 539 -13 ct 
542 -12 549 -11 562 -11 ct 562 0 l  538 -1 525 -1 522 -1 ct 520 -1 507 -1 482 0 ct 
482 -11 l  495 -11 503 -12 506 -13 ct 508 -15 510 -19 510 -27 ct 510 -109 l 
510 -121 508 -131 504 -138 ct 501 -145 494 -148 484 -148 ct 472 -148 461 -143 451 -133 ct 
441 -123 436 -109 436 -92 ct 436 -27 l  436 -19 438 -15 441 -13 ct 444 -12 451 -11 464 -11 ct 
464 0 l  440 -1 427 -1 424 -1 ct 422 -1 409 -1 384 0 ct p ef
675 58 m  687 58 695 57 698 55 ct 701 54 702 49 702 42 ct 702 -124 l  702 -131 701 -136 698 -138 ct 
695 -140 687 -141 675 -141 ct 675 -152 l  726 -156 l  726 -133 l  740 -148 756 -156 775 -156 ct 
795 -156 812 -148 827 -133 ct 842 -117 849 -98 849 -76 ct 849 -54 841 -35 826 -19 ct 
810 -4 792 4 770 4 ct 758 4 749 1 741 -5 ct 733 -11 728 -16 727 -21 ct 727 -18 l 
727 42 l  727 49 728 54 731 55 ct 734 57 742 58 754 58 ct 754 68 l  730 68 716 67 714 67 ct 
712 67 699 68 675 68 ct p
727 -40 m  727 -37 727 -34 727 -33 ct 728 -32 729 -29 732 -25 ct 741 -11 753 -4 769 -4 ct 
782 -4 794 -11 804 -25 ct 814 -38 820 -56 820 -76 ct 820 -96 815 -113 806 -127 ct 
796 -140 785 -147 772 -147 ct 763 -147 755 -145 747 -140 ct 739 -135 732 -128 727 -119 ct 
p ef
871 0 m  871 -11 l  883 -11 891 -12 894 -13 ct 897 -15 898 -19 898 -27 ct 898 -210 l 
898 -219 897 -225 894 -227 ct 891 -229 883 -230 871 -230 ct 871 -241 l  921 -245 l 
921 -27 l  921 -19 923 -15 926 -13 ct 929 -12 937 -11 949 -11 ct 949 0 l  946 0 942 0 936 0 ct 
930 -1 925 -1 920 -1 ct 916 -1 912 -1 910 -1 ct 907 -1 894 -1 871 0 ct p ef
967 -78 m  967 -100 974 -119 988 -134 ct 1002 -150 1020 -158 1040 -158 ct 1061 -158 1077 -151 1087 -138 ct 
1098 -125 1103 -108 1103 -89 ct 1103 -85 1103 -83 1102 -83 ct 1101 -82 1099 -82 1095 -82 ct 
996 -82 l  996 -58 1000 -40 1007 -29 ct 1017 -13 1030 -5 1047 -5 ct 1049 -5 1052 -5 1054 -6 ct 
1057 -6 1061 -7 1067 -9 ct 1072 -11 1078 -15 1083 -20 ct 1088 -26 1091 -33 1094 -41 ct 
1095 -45 1097 -46 1099 -46 ct 1102 -46 1103 -45 1103 -42 ct 1103 -40 1102 -37 1100 -32 ct 
1098 -27 1095 -22 1090 -17 ct 1086 -11 1080 -6 1072 -2 ct 1063 2 1054 4 1045 4 ct 
1024 4 1006 -4 990 -20 ct 975 -35 967 -55 967 -78 ct p
997 -89 m  1080 -89 l  1080 -94 1080 -99 1079 -105 ct 1078 -110 1076 -117 1074 -124 ct 
1072 -132 1067 -138 1062 -143 ct 1056 -148 1049 -150 1040 -150 ct 1037 -150 1033 -150 1028 -148 ct 
1024 -146 1020 -143 1015 -140 ct 1010 -136 1006 -129 1002 -121 ct 999 -112 997 -101 997 -89 ct 
p ef
pom
gs
12042 19903 m 12536 19903 l 12536 20422 l 12042 20422 l 12042 19903 l eoclip newpath
pum
12154 20195 t
24 -225 m  24 -244 l  168 -244 l  158 -270 l  252 -234 l  158 -199 l  168 -225 l 
p ef
pom
pum
12132 20285 t
26 -5 m  26 -7 27 -9 27 -10 ct 79 -217 l  79 -217 79 -218 79 -220 ct 80 -221 80 -222 80 -223 ct 
80 -224 80 -225 79 -226 ct 79 -227 77 -227 75 -228 ct 72 -229 68 -229 62 -229 ct 
57 -229 54 -230 54 -233 ct 54 -235 54 -236 55 -237 ct 56 -239 57 -239 58 -239 ct 
59 -240 60 -240 62 -240 ct 97 -243 l  98 -243 100 -244 102 -244 ct 106 -244 107 -242 107 -239 ct 
107 -238 107 -237 106 -235 ct 71 -92 l  77 -94 82 -98 86 -102 ct 91 -106 98 -114 108 -126 ct 
125 -146 140 -155 154 -155 ct 161 -155 167 -153 171 -149 ct 174 -144 176 -139 176 -134 ct 
176 -128 174 -123 171 -120 ct 167 -116 163 -114 159 -114 ct 154 -114 151 -116 149 -118 ct 
147 -120 146 -123 146 -126 ct 146 -127 147 -129 147 -131 ct 148 -133 149 -135 152 -138 ct 
155 -141 158 -143 163 -143 ct 160 -146 157 -147 153 -147 ct 148 -147 142 -145 136 -142 ct 
130 -138 125 -134 122 -130 ct 118 -126 112 -120 104 -111 ct 94 -99 86 -92 79 -87 ct 
110 -83 126 -71 126 -51 ct 126 -48 125 -44 124 -39 ct 122 -29 121 -23 121 -19 ct 
121 -9 124 -4 131 -4 ct 135 -4 138 -5 141 -8 ct 144 -10 147 -14 149 -18 ct 151 -23 153 -27 154 -31 ct 
155 -35 157 -40 158 -46 ct 159 -49 160 -52 160 -52 ct 161 -53 163 -54 165 -54 ct 
168 -54 170 -53 170 -50 ct 170 -49 169 -47 168 -44 ct 168 -40 166 -35 164 -29 ct 
162 -23 160 -18 157 -14 ct 150 -2 141 4 130 4 ct 122 4 116 1 110 -5 ct 104 -10 101 -19 101 -30 ct 
101 -34 101 -38 102 -42 ct 103 -45 103 -48 103 -51 ct 103 -57 101 -63 97 -67 ct 
92 -71 88 -75 83 -77 ct 78 -78 73 -80 68 -80 ct 50 -9 l  48 0 43 4 36 4 ct 33 4 31 3 29 1 ct 
27 -1 26 -3 26 -5 ct p ef
pom
pum
12334 20375 t
16 -18 m  16 -22 17 -26 19 -28 ct 21 -30 24 -31 27 -31 ct 29 -31 31 -30 32 -29 ct 
33 -28 34 -26 34 -24 ct 34 -24 34 -23 33 -22 ct 33 -20 32 -19 31 -17 ct 29 -15 26 -14 23 -14 ct 
26 -6 32 -2 43 -2 ct 47 -2 51 -3 54 -4 ct 58 -5 60 -7 62 -9 ct 64 -10 66 -12 67 -15 ct 
68 -17 69 -19 70 -21 ct 70 -23 71 -24 71 -26 ct 71 -28 70 -31 69 -33 ct 68 -35 67 -36 64 -37 ct 
62 -38 61 -39 59 -40 ct 57 -40 55 -41 52 -41 ct 50 -42 49 -42 47 -42 ct 46 -43 45 -43 43 -44 ct 
40 -45 39 -47 37 -48 ct 36 -49 35 -51 34 -54 ct 33 -56 32 -59 32 -62 ct 32 -69 35 -76 41 -83 ct 
46 -89 55 -93 66 -93 ct 72 -93 78 -91 82 -88 ct 86 -84 88 -80 88 -75 ct 88 -71 87 -68 85 -66 ct 
83 -64 81 -63 79 -63 ct 77 -63 75 -64 74 -65 ct 73 -66 73 -68 73 -69 ct 73 -71 73 -73 75 -74 ct 
76 -76 78 -77 81 -78 ct 79 -85 74 -88 65 -88 ct 58 -88 53 -86 49 -81 ct 46 -77 44 -73 44 -69 ct 
44 -66 45 -64 47 -62 ct 48 -60 50 -59 51 -59 ct 53 -58 55 -57 58 -57 ct 60 -56 62 -56 64 -55 ct 
65 -55 67 -54 70 -53 ct 73 -52 75 -50 76 -49 ct 78 -47 79 -45 81 -42 ct 82 -40 83 -36 83 -33 ct 
83 -31 82 -28 81 -26 ct 81 -23 79 -20 78 -16 ct 76 -13 73 -10 71 -7 ct 68 -5 64 -2 59 0 ct 
54 1 49 2 43 2 ct 35 2 29 0 24 -3 ct 19 -7 16 -12 16 -18 ct p ef
pom
gr
gs
7143 20603 m 7668 20603 l 7668 21122 l 7143 21122 l 7143 20603 l eoclip newpath
pum
7255 20895 t
27 -225 m  27 -244 l  190 -244 l  179 -270 l  285 -234 l  179 -199 l  190 -225 l 
p ef
pom
pum
7233 20985 t
26 -5 m  26 -7 27 -9 27 -10 ct 79 -217 l  79 -217 79 -218 79 -220 ct 80 -221 80 -222 80 -223 ct 
80 -224 80 -225 79 -226 ct 79 -227 77 -227 75 -228 ct 72 -229 68 -229 62 -229 ct 
57 -229 54 -230 54 -233 ct 54 -235 54 -236 55 -237 ct 56 -239 57 -239 58 -239 ct 
59 -240 60 -240 62 -240 ct 97 -243 l  98 -243 100 -244 102 -244 ct 106 -244 107 -242 107 -239 ct 
107 -238 107 -237 106 -235 ct 71 -92 l  77 -94 82 -98 86 -102 ct 91 -106 98 -114 108 -126 ct 
125 -146 140 -155 154 -155 ct 161 -155 167 -153 171 -149 ct 174 -144 176 -139 176 -134 ct 
176 -128 174 -123 171 -120 ct 167 -116 163 -114 159 -114 ct 154 -114 151 -116 149 -118 ct 
147 -120 146 -123 146 -126 ct 146 -127 147 -129 147 -131 ct 148 -133 149 -135 152 -138 ct 
155 -141 158 -143 163 -143 ct 160 -146 157 -147 153 -147 ct 148 -147 142 -145 136 -142 ct 
130 -138 125 -134 122 -130 ct 118 -126 112 -120 104 -111 ct 94 -99 86 -92 79 -87 ct 
110 -83 126 -71 126 -51 ct 126 -48 125 -44 124 -39 ct 122 -29 121 -23 121 -19 ct 
121 -9 124 -4 131 -4 ct 135 -4 138 -5 141 -8 ct 144 -10 147 -14 149 -18 ct 151 -23 153 -27 154 -31 ct 
155 -35 157 -40 158 -46 ct 159 -49 160 -52 160 -52 ct 161 -53 163 -54 165 -54 ct 
168 -54 170 -53 170 -50 ct 170 -49 169 -47 168 -44 ct 168 -40 166 -35 164 -29 ct 
162 -23 160 -18 157 -14 ct 150 -2 141 4 130 4 ct 122 4 116 1 110 -5 ct 104 -10 101 -19 101 -30 ct 
101 -34 101 -38 102 -42 ct 103 -45 103 -48 103 -51 ct 103 -57 101 -63 97 -67 ct 
92 -71 88 -75 83 -77 ct 78 -78 73 -80 68 -80 ct 50 -9 l  48 0 43 4 36 4 ct 33 4 31 3 29 1 ct 
27 -1 26 -3 26 -5 ct p ef
pom
pum
7435 21075 t
24 -31 m  24 -38 25 -46 27 -57 ct 29 -68 33 -81 39 -95 ct 44 -109 51 -119 58 -126 ct 
67 -135 77 -140 88 -140 ct 92 -140 95 -139 98 -138 ct 101 -138 104 -136 107 -134 ct 
110 -131 112 -127 114 -122 ct 116 -117 117 -111 117 -104 ct 117 -100 116 -94 115 -86 ct 
114 -79 112 -70 109 -59 ct 105 -48 102 -38 97 -29 ct 93 -20 87 -12 79 -5 ct 71 1 62 5 53 5 ct 
49 5 46 4 43 3 ct 40 2 37 1 34 -2 ct 31 -4 29 -8 27 -13 ct 25 -18 24 -24 24 -31 ct 
p
38 -20 m  38 -13 39 -8 43 -5 ct 46 -2 50 0 54 0 ct 56 0 58 -1 61 -2 ct 64 -2 67 -5 71 -8 ct 
75 -12 78 -16 80 -22 ct 84 -30 89 -46 95 -69 ct 101 -91 104 -107 104 -115 ct 104 -121 102 -126 99 -130 ct 
96 -133 92 -135 87 -135 ct 79 -135 72 -131 66 -123 ct 60 -116 54 -99 48 -74 ct 
41 -46 38 -29 38 -20 ct p ef
pom
gr
gs
9297 19848 m 9692 19848 l 9692 20263 l 9297 20263 l 9297 19848 l eoclip newpath
pum
9409 20185 t
14 -225 m  14 -244 l  99 -244 l  94 -270 l  149 -234 l  94 -199 l  99 -225 l 
p ef
pom
pum
9387 20185 t
38 -51 m  38 -76 46 -100 64 -122 ct 81 -144 99 -155 118 -155 ct 132 -155 142 -148 148 -133 ct 
151 -138 155 -143 160 -147 ct 165 -152 169 -155 171 -155 ct 173 -155 174 -154 174 -151 ct 
174 -150 174 -148 173 -146 ct 125 45 l  125 48 l  124 49 124 51 124 52 ct 124 53 124 54 125 55 ct 
125 55 127 56 130 57 ct 132 57 137 57 142 57 ct 148 57 151 59 151 61 ct 151 66 148 68 144 68 ct 
140 68 134 68 126 68 ct 118 67 112 67 108 67 ct 104 67 99 67 91 68 ct 83 68 77 68 73 68 ct 
70 68 69 67 69 64 ct 69 61 69 59 71 58 ct 72 58 74 57 77 57 ct 88 57 95 56 97 54 ct 
100 53 102 48 104 40 ct 118 -15 l  105 -2 92 4 80 4 ct 68 4 57 -1 49 -12 ct 42 -22 38 -35 38 -51 ct 
p
62 -35 m  62 -27 63 -20 66 -14 ct 69 -7 74 -4 81 -4 ct 90 -4 99 -9 108 -18 ct 117 -28 123 -36 125 -43 ct 
141 -110 l  142 -112 143 -114 143 -115 ct 143 -122 140 -130 135 -137 ct 131 -144 125 -147 118 -147 ct 
111 -147 104 -144 97 -136 ct 89 -129 83 -119 79 -108 ct 75 -100 72 -88 68 -72 ct 
64 -56 62 -43 62 -35 ct p ef
pom
gr
gs
12541 20503 m 12923 20503 l 12923 20918 l 12541 20918 l 12541 20503 l eoclip newpath
pum
12676 20818 t
114 -191 m  108 -190 l  62 -226 l  13 -189 l  6 -191 l  62 -256 l  p ef
pom
pum
12631 20840 t
22 0 m  22 -2 26 -8 33 -19 ct 41 -30 49 -40 58 -48 ct 116 -106 l  118 -108 123 -113 130 -121 ct 
124 -121 117 -123 109 -126 ct 100 -131 93 -133 88 -133 ct 82 -133 77 -131 72 -128 ct 
67 -124 64 -120 62 -116 ct 61 -114 60 -113 60 -112 ct 59 -112 58 -111 56 -111 ct 
52 -111 51 -113 51 -115 ct 51 -121 55 -129 63 -140 ct 71 -150 80 -155 92 -155 ct 
99 -155 106 -151 113 -141 ct 119 -133 125 -129 130 -129 ct 133 -129 136 -130 139 -133 ct 
142 -136 146 -141 151 -151 ct 152 -153 153 -154 154 -154 ct 154 -155 156 -155 158 -155 ct 
161 -155 163 -154 163 -152 ct 163 -150 161 -147 158 -142 ct 155 -137 150 -130 144 -122 ct 
138 -115 132 -108 125 -101 ct 74 -51 l  69 -46 63 -39 55 -30 ct 56 -30 58 -30 61 -30 ct 
66 -30 74 -28 83 -24 ct 91 -20 98 -19 102 -19 ct 110 -19 118 -21 125 -27 ct 133 -32 138 -39 141 -48 ct 
141 -50 142 -52 143 -53 ct 143 -53 145 -54 147 -54 ct 150 -54 152 -53 152 -50 ct 
152 -46 150 -41 146 -32 ct 142 -24 136 -16 127 -8 ct 119 0 109 4 99 4 ct 96 4 93 3 90 2 ct 
87 0 85 -1 83 -3 ct 82 -5 80 -7 77 -10 ct 74 -15 71 -18 69 -20 ct 67 -22 64 -22 60 -22 ct 
57 -22 54 -22 52 -20 ct 49 -19 46 -17 43 -13 ct 40 -10 38 -8 38 -6 ct 37 -5 35 -3 33 1 ct 
31 3 30 4 27 4 ct 24 4 22 3 22 0 ct p ef
pom
gr
0 4618 t 
pom
count op_count sub {pop} repeat countdictstack dict_count sub {end} repeat b4_inc_state restore
%%PageTrailer
%%Trailer
%%EOF
