<?xml version="1.0" encoding="UTF-8"?>
<!DOCTYPE svg PUBLIC "-//W3C//DTD SVG 1.1//EN" "http://www.w3.org/Graphics/SVG/1.1/DTD/svg11.dtd">
<svg version="1.2" width="140.15mm" height="30.05mm" viewBox="3488 13394 14015 3005" preserveAspectRatio="xMidYMid" fill-rule="evenodd" stroke-width="28.222" stroke-linejoin="round" xmlns="http://www.w3.org/2000/svg" xmlns:ooo="http://xml.openoffice.org/svg/export" xmlns:xlink="http://www.w3.org/1999/xlink" xmlns:presentation="http://sun.com/xmlns/staroffice/presentation" xmlns:smil="http://www.w3.org/2001/SMIL20/" xmlns:anim="urn:oasis:names:tc:opendocument:xmlns:animation:1.0" xml:space="preserve">
 <defs class="ClipPathGroup">
  <clipPath id="presentation_clip_path" clipPathUnits="userSpaceOnUse">
   <rect x="3488" y="13394" width="14015" height="3005"/>
  </clipPath>
  <clipPath id="presentation_clip_path_shrink" clipPathUnits="userSpaceOnUse">
   <rect x="3502" y="13397" width="13987" height="2999"/>
  </clipPath>
 </defs>
 <defs class="TextShapeIndex">
  <g ooo:slide="id1" ooo:id-list="id3 id4 id5 id6 id7 id8 id9 id10 id11 id12 id13 id14 id15 id16 id17 id18 id19 id20 id21 id22 id23 id24 id25"/>
 </defs>
 <defs class="EmbeddedBulletChars">
  <g id="bullet-char-template-57356" transform="scale(0.00048828125,-0.00048828125)">
   <path d="M 580,1141 L 1163,571 580,0 -4,571 580,1141 Z"/>
  </g>
  <g id="bullet-char-template-57354" transform="scale(0.00048828125,-0.00048828125)">
   <path d="M 8,1128 L 1137,1128 1137,0 8,0 8,1128 Z"/>
  </g>
  <g id="bullet-char-template-10146" transform="scale(0.00048828125,-0.00048828125)">
   <path d="M 174,0 L 602,739 174,1481 1456,739 174,0 Z M 1358,739 L 309,1346 659,739 1358,739 Z"/>
  </g>
  <g id="bullet-char-template-10132" transform="scale(0.00048828125,-0.00048828125)">
   <path d="M 2015,739 L 1276,0 717,0 1260,543 174,543 174,936 1260,936 717,1481 1274,1481 2015,739 Z"/>
  </g>
  <g id="bullet-char-template-10007" transform="scale(0.00048828125,-0.00048828125)">
   <path d="M 0,-2 C -7,14 -16,27 -25,37 L 356,567 C 262,823 215,952 215,954 215,979 228,992 255,992 264,992 276,990 289,987 310,991 331,999 354,1012 L 381,999 492,748 772,1049 836,1024 860,1049 C 881,1039 901,1025 922,1006 886,937 835,863 770,784 769,783 710,716 594,584 L 774,223 C 774,196 753,168 711,139 L 727,119 C 717,90 699,76 672,76 641,76 570,178 457,381 L 164,-76 C 142,-110 111,-127 72,-127 30,-127 9,-110 8,-76 1,-67 -2,-52 -2,-32 -2,-23 -1,-13 0,-2 Z"/>
  </g>
  <g id="bullet-char-template-10004" transform="scale(0.00048828125,-0.00048828125)">
   <path d="M 285,-33 C 182,-33 111,30 74,156 52,228 41,333 41,471 41,549 55,616 82,672 116,743 169,778 240,778 293,778 328,747 346,684 L 369,508 C 377,444 397,411 428,410 L 1163,1116 C 1174,1127 1196,1133 1229,1133 1271,1133 1292,1118 1292,1087 L 1292,965 C 1292,929 1282,901 1262,881 L 442,47 C 390,-6 338,-33 285,-33 Z"/>
  </g>
  <g id="bullet-char-template-9679" transform="scale(0.00048828125,-0.00048828125)">
   <path d="M 813,0 C 632,0 489,54 383,161 276,268 223,411 223,592 223,773 276,916 383,1023 489,1130 632,1184 813,1184 992,1184 1136,1130 1245,1023 1353,916 1407,772 1407,592 1407,412 1353,268 1245,161 1136,54 992,0 813,0 Z"/>
  </g>
  <g id="bullet-char-template-8226" transform="scale(0.00048828125,-0.00048828125)">
   <path d="M 346,457 C 273,457 209,483 155,535 101,586 74,649 74,723 74,796 101,859 155,911 209,963 273,989 346,989 419,989 480,963 531,910 582,859 608,796 608,723 608,648 583,586 532,535 482,483 420,457 346,457 Z"/>
  </g>
  <g id="bullet-char-template-8211" transform="scale(0.00048828125,-0.00048828125)">
   <path d="M -4,459 L 1135,459 1135,606 -4,606 -4,459 Z"/>
  </g>
  <g id="bullet-char-template-61548" transform="scale(0.00048828125,-0.00048828125)">
   <path d="M 173,740 C 173,903 231,1043 346,1159 462,1274 601,1332 765,1332 928,1332 1067,1274 1183,1159 1299,1043 1357,903 1357,740 1357,577 1299,437 1183,322 1067,206 928,148 765,148 601,148 462,206 346,322 231,437 173,577 173,740 Z"/>
  </g>
 </defs>
 <defs class="TextEmbeddedBitmaps"/>
 <g class="SlideGroup">
  <g>
   <g id="container-id1">
    <g id="id1" class="Slide" clip-path="url(#presentation_clip_path)">
     <g class="Page">
      <g class="Group">
       <g class="com.sun.star.drawing.ClosedBezierShape">
        <g id="id3">
         <rect class="BoundingBox" stroke="none" fill="none" x="3488" y="14027" width="335" height="1254"/>
         <path fill="rgb(0,0,0)" stroke="none" d="M 3488,14653 C 3589,14445 3691,14236 3792,14027 3802,14032 3811,14037 3821,14042 3722,14246 3623,14450 3525,14653 3623,14857 3722,15061 3821,15264 3811,15269 3802,15275 3792,15280 L 3488,14653 Z"/>
        </g>
       </g>
       <g class="com.sun.star.drawing.ClosedBezierShape">
        <g id="id4">
         <rect class="BoundingBox" stroke="none" fill="none" x="4080" y="14018" width="63" height="1274"/>
         <path fill="rgb(0,0,0)" stroke="none" d="M 4081,15291 C 4081,14867 4081,14443 4081,14018 4101,14018 4121,14018 4141,14018 4141,14443 4141,14867 4141,15291 L 4081,15291 Z"/>
        </g>
       </g>
       <g class="com.sun.star.drawing.ClosedBezierShape">
        <g id="id5">
         <rect class="BoundingBox" stroke="none" fill="none" x="4450" y="14130" width="550" height="902"/>
         <path fill="rgb(0,0,0)" stroke="none" d="M 4685,14994 C 4733,14994 4773,14977 4804,14943 4834,14909 4857,14858 4871,14790 4889,14705 4887,14636 4867,14584 4847,14531 4812,14505 4761,14505 4716,14505 4678,14524 4645,14561 4613,14598 4589,14650 4575,14717 4559,14798 4560,14865 4581,14916 4601,14968 4636,14994 4685,14994 Z M 4807,14475 L 4795,14465 C 4685,14380 4636,14308 4648,14251 4655,14216 4674,14187 4704,14164 4734,14142 4769,14130 4808,14130 4853,14130 4891,14145 4921,14174 4952,14203 4968,14238 4969,14280 L 4940,14280 C 4933,14244 4917,14215 4892,14193 4867,14171 4837,14160 4802,14160 4779,14160 4761,14165 4746,14175 4731,14185 4722,14199 4718,14217 4711,14253 4737,14293 4797,14337 4797,14337 4813,14349 4844,14372 4908,14425 4952,14482 4976,14542 5000,14603 5005,14669 4990,14742 4972,14829 4933,14899 4873,14951 4813,15004 4741,15030 4659,15030 4583,15030 4527,15005 4489,14954 4452,14903 4442,14838 4458,14758 4475,14675 4513,14607 4572,14554 4630,14502 4697,14475 4773,14475 4779,14475 4784,14476 4789,14477 4794,14478 4799,14479 4804,14480 4805,14481 4806,14480 4807,14479 4808,14477 4808,14476 4807,14475 Z"/>
        </g>
       </g>
       <g class="com.sun.star.drawing.ClosedBezierShape">
        <g id="id6">
         <rect class="BoundingBox" stroke="none" fill="none" x="5506" y="14351" width="571" height="687"/>
         <path fill="rgb(0,0,0)" stroke="none" d="M 5926,14783 L 6036,14795 C 6009,14877 5969,14937 5918,14977 5867,15017 5809,15037 5743,15037 5673,15037 5616,15014 5572,14968 5528,14922 5506,14857 5506,14774 5506,14703 5520,14632 5548,14563 5577,14494 5617,14441 5669,14405 5722,14369 5781,14351 5849,14351 5918,14351 5974,14371 6014,14411 6055,14451 6075,14503 6075,14569 L 5967,14576 C 5966,14534 5954,14502 5931,14478 5907,14455 5877,14443 5838,14443 5794,14443 5755,14457 5723,14486 5690,14514 5665,14557 5646,14615 5627,14673 5618,14729 5618,14782 5618,14838 5630,14880 5655,14908 5679,14936 5709,14950 5745,14950 5781,14950 5816,14937 5848,14909 5881,14881 5907,14839 5926,14783 Z"/>
        </g>
       </g>
       <g class="com.sun.star.drawing.ClosedBezierShape">
        <g id="id7">
         <rect class="BoundingBox" stroke="none" fill="none" x="6463" y="13927" width="247" height="1392"/>
         <path fill="rgb(0,0,0)" stroke="none" d="M 6708,15287 L 6708,15317 C 6545,15179 6463,14948 6463,14623 6463,14295 6545,14063 6708,13928 L 6708,13959 C 6589,14078 6530,14299 6530,14623 6530,14950 6589,15172 6708,15287 Z"/>
        </g>
       </g>
       <g class="com.sun.star.drawing.ClosedBezierShape">
        <g id="id8">
         <rect class="BoundingBox" stroke="none" fill="none" x="6961" y="14351" width="636" height="924"/>
         <path fill="rgb(0,0,0)" stroke="none" d="M 7363,14948 C 7299,15007 7238,15037 7179,15037 7118,15037 7067,15014 7025,14967 6983,14921 6962,14855 6962,14770 6962,14688 6978,14615 7010,14549 7042,14483 7082,14434 7132,14401 7182,14368 7233,14351 7286,14351 7325,14351 7362,14362 7395,14385 7427,14407 7454,14441 7474,14486 L 7499,14366 7596,14366 7407,15273 7295,15273 7363,14948 Z M 7072,14755 C 7072,14820 7086,14868 7113,14899 7139,14930 7173,14945 7213,14945 7246,14945 7280,14931 7315,14903 7349,14875 7377,14833 7399,14777 7422,14721 7433,14667 7433,14615 7433,14561 7419,14519 7391,14489 7364,14458 7330,14443 7290,14443 7251,14443 7217,14456 7187,14482 7149,14514 7119,14562 7097,14624 7081,14672 7072,14716 7072,14755 Z"/>
        </g>
       </g>
       <g class="com.sun.star.drawing.ClosedBezierShape">
        <g id="id9">
         <rect class="BoundingBox" stroke="none" fill="none" x="7871" y="13927" width="247" height="1392"/>
         <path fill="rgb(0,0,0)" stroke="none" d="M 7871,15287 C 7991,15171 8050,14950 8050,14623 8050,14301 7991,14080 7871,13959 L 7871,13928 C 7960,13999 8025,14105 8066,14245 8100,14355 8116,14481 8116,14623 8116,14952 8035,15183 7871,15317 L 7871,15287 Z"/>
        </g>
       </g>
       <g class="com.sun.star.drawing.ClosedBezierShape">
        <g id="id10">
         <rect class="BoundingBox" stroke="none" fill="none" x="8374" y="14018" width="63" height="1274"/>
         <path fill="rgb(0,0,0)" stroke="none" d="M 8375,15291 C 8375,14867 8375,14443 8375,14018 8395,14018 8415,14018 8435,14018 8435,14443 8435,14867 8435,15291 L 8375,15291 Z"/>
        </g>
       </g>
       <g class="com.sun.star.drawing.ClosedBezierShape">
        <g id="id11">
         <rect class="BoundingBox" stroke="none" fill="none" x="8537" y="13844" width="358" height="547"/>
         <path fill="rgb(0,0,0)" stroke="none" d="M 8893,14326 L 8893,14390 8538,14390 C 8537,14374 8540,14358 8545,14344 8554,14319 8569,14295 8589,14271 8609,14248 8638,14220 8675,14189 8734,14141 8773,14102 8794,14074 8814,14046 8824,14019 8824,13994 8824,13967 8815,13945 8796,13927 8778,13909 8753,13900 8723,13900 8692,13900 8666,13909 8647,13929 8628,13948 8618,13975 8618,14009 L 8550,14002 C 8555,13950 8572,13911 8603,13885 8633,13858 8674,13844 8725,13844 8776,13844 8817,13859 8847,13888 8877,13917 8892,13953 8892,13995 8892,14017 8888,14038 8879,14059 8870,14080 8856,14103 8835,14126 8815,14149 8781,14181 8734,14221 8694,14255 8669,14278 8657,14290 8646,14302 8637,14314 8629,14326 L 8893,14326 Z"/>
        </g>
       </g>
       <g class="com.sun.star.drawing.ClosedBezierShape">
        <g id="id12">
         <rect class="BoundingBox" stroke="none" fill="none" x="9136" y="14027" width="336" height="1254"/>
         <path fill="rgb(0,0,0)" stroke="none" d="M 9471,14653 C 9370,14862 9268,15071 9167,15280 9157,15275 9147,15269 9136,15264 9235,15061 9334,14857 9433,14653 9334,14450 9235,14246 9136,14042 9147,14037 9157,14032 9167,14027 L 9471,14653 Z"/>
        </g>
       </g>
       <g class="com.sun.star.drawing.ClosedBezierShape">
        <g id="id13">
         <rect class="BoundingBox" stroke="none" fill="none" x="9779" y="14435" width="777" height="520"/>
         <path fill="rgb(0,0,0)" stroke="none" d="M 10150,14606 C 10176,14550 10204,14508 10235,14483 10271,14452 10318,14436 10376,14436 10439,14436 10499,14458 10555,14501 L 10555,14538 C 10508,14501 10460,14483 10412,14483 10358,14483 10313,14513 10277,14572 10260,14600 10237,14653 10210,14732 10259,14846 10328,14903 10417,14903 10467,14903 10513,14886 10555,14852 L 10555,14887 C 10511,14931 10461,14954 10405,14954 10327,14954 10256,14894 10192,14775 10145,14872 10078,14920 9991,14920 9929,14920 9878,14898 9838,14853 9799,14808 9780,14754 9780,14692 9780,14632 9796,14580 9829,14536 9865,14489 9912,14465 9971,14465 10045,14465 10105,14512 10150,14606 Z M 10132,14655 C 10094,14566 10039,14522 9967,14522 9922,14522 9885,14538 9856,14572 9828,14605 9814,14645 9814,14692 9814,14737 9826,14778 9849,14813 9876,14852 9912,14872 9956,14872 10004,14872 10043,14846 10074,14795 10090,14771 10109,14724 10132,14655 Z"/>
        </g>
       </g>
       <g class="com.sun.star.drawing.ClosedBezierShape">
        <g id="id14">
         <rect class="BoundingBox" stroke="none" fill="none" x="13979" y="13393" width="336" height="912"/>
         <path fill="rgb(0,0,0)" stroke="none" d="M 14313,14303 L 14202,14303 14202,13595 C 14175,13620 14140,13646 14097,13671 14053,13697 14014,13716 13980,13729 L 13980,13621 C 14042,13592 14096,13556 14143,13515 14189,13473 14222,13433 14242,13394 L 14313,13394 14313,14303 Z"/>
        </g>
       </g>
       <g class="com.sun.star.drawing.ClosedBezierShape">
        <g id="id15">
         <rect class="BoundingBox" stroke="none" fill="none" x="10852" y="14638" width="6652" height="64"/>
         <path fill="rgb(0,0,0)" stroke="none" d="M 10852,14639 C 13069,14639 15286,14639 17503,14639 17503,14660 17503,14680 17503,14701 15286,14701 13069,14701 10852,14701 10852,14680 10852,14660 10852,14639 Z"/>
        </g>
       </g>
       <g class="com.sun.star.drawing.ClosedBezierShape">
        <g id="id16">
         <rect class="BoundingBox" stroke="none" fill="none" x="11057" y="15168" width="336" height="911"/>
         <path fill="rgb(0,0,0)" stroke="none" d="M 11391,16078 L 11280,16078 11280,15370 C 11253,15395 11218,15421 11175,15446 11131,15472 11092,15491 11058,15504 L 11058,15396 C 11120,15367 11174,15331 11221,15290 11267,15248 11300,15208 11320,15169 L 11391,15169 11391,16078 Z"/>
        </g>
       </g>
       <g class="com.sun.star.drawing.ClosedBezierShape">
        <g id="id17">
         <rect class="BoundingBox" stroke="none" fill="none" x="11844" y="15406" width="592" height="599"/>
         <path fill="rgb(0,0,0)" stroke="none" d="M 12087,16004 C 12087,15921 12087,15839 12087,15756 12006,15756 11925,15756 11844,15756 11844,15722 11844,15687 11844,15653 11925,15653 12006,15653 12087,15653 12087,15570 12087,15488 12087,15406 12122,15406 12156,15406 12191,15406 12191,15488 12191,15570 12191,15653 12272,15653 12354,15653 12435,15653 12435,15687 12435,15722 12435,15756 12354,15756 12272,15756 12191,15756 12191,15839 12191,15921 12191,16004 L 12087,16004 Z"/>
        </g>
       </g>
       <g class="com.sun.star.drawing.ClosedBezierShape">
        <g id="id18">
         <rect class="BoundingBox" stroke="none" fill="none" x="12710" y="14983" width="247" height="1392"/>
         <path fill="rgb(0,0,0)" stroke="none" d="M 12955,16343 L 12955,16373 C 12792,16235 12710,16004 12710,15679 12710,15351 12792,15119 12955,14984 L 12955,15015 C 12836,15134 12777,15355 12777,15679 12777,16006 12836,16228 12955,16343 Z"/>
        </g>
       </g>
       <g class="com.sun.star.drawing.ClosedBezierShape">
        <g id="id19">
         <rect class="BoundingBox" stroke="none" fill="none" x="13209" y="15407" width="636" height="924"/>
         <path fill="rgb(0,0,0)" stroke="none" d="M 13611,16004 C 13547,16063 13486,16093 13427,16093 13366,16093 13315,16070 13273,16023 13231,15977 13210,15911 13210,15826 13210,15744 13226,15671 13258,15605 13290,15539 13330,15490 13380,15457 13430,15424 13481,15407 13534,15407 13573,15407 13610,15418 13643,15441 13675,15463 13702,15497 13722,15542 L 13747,15422 13844,15422 13655,16329 13543,16329 13611,16004 Z M 13320,15811 C 13320,15876 13334,15924 13361,15955 13387,15986 13421,16001 13461,16001 13494,16001 13528,15987 13563,15959 13597,15931 13625,15889 13647,15833 13670,15777 13681,15723 13681,15671 13681,15617 13667,15575 13639,15545 13612,15514 13578,15499 13538,15499 13499,15499 13465,15512 13435,15538 13397,15570 13367,15618 13345,15680 13329,15728 13320,15772 13320,15811 Z"/>
        </g>
       </g>
       <g class="com.sun.star.drawing.ClosedBezierShape">
        <g id="id20">
         <rect class="BoundingBox" stroke="none" fill="none" x="14044" y="15154" width="349" height="938"/>
         <path fill="rgb(0,0,0)" stroke="none" d="M 14044,16090 C 14131,15778 14218,15466 14304,15154 14334,15154 14363,15154 14392,15154 14305,15466 14219,15778 14133,16090 L 14044,16090 Z"/>
        </g>
       </g>
       <g class="com.sun.star.drawing.ClosedBezierShape">
        <g id="id21">
         <rect class="BoundingBox" stroke="none" fill="none" x="14602" y="15407" width="636" height="924"/>
         <path fill="rgb(0,0,0)" stroke="none" d="M 15004,16004 C 14940,16063 14879,16093 14820,16093 14759,16093 14708,16070 14666,16023 14624,15977 14603,15911 14603,15826 14603,15744 14619,15671 14651,15605 14683,15539 14723,15490 14773,15457 14823,15424 14874,15407 14927,15407 14966,15407 15003,15418 15036,15441 15068,15463 15095,15497 15115,15542 L 15140,15422 15237,15422 15048,16329 14936,16329 15004,16004 Z M 14713,15811 C 14713,15876 14727,15924 14754,15955 14780,15986 14814,16001 14854,16001 14887,16001 14921,15987 14956,15959 14990,15931 15018,15889 15040,15833 15063,15777 15074,15723 15074,15671 15074,15617 15060,15575 15032,15545 15005,15514 14971,15499 14931,15499 14892,15499 14858,15512 14828,15538 14790,15570 14760,15618 14738,15680 14722,15728 14713,15772 14713,15811 Z"/>
        </g>
       </g>
       <g class="com.sun.star.drawing.ClosedBezierShape">
        <g id="id22">
         <rect class="BoundingBox" stroke="none" fill="none" x="15360" y="15846" width="521" height="546"/>
         <path fill="rgb(0,0,0)" stroke="none" d="M 15361,16390 C 15399,16209 15436,16028 15474,15847 15550,15847 15626,15847 15702,15847 15747,15847 15781,15850 15805,15858 15828,15866 15846,15880 15859,15900 15872,15921 15879,15947 15879,15979 15879,16023 15865,16060 15836,16089 15807,16118 15760,16137 15696,16146 15715,16160 15730,16175 15740,16189 15763,16221 15781,16254 15795,16288 15809,16322 15823,16356 15837,16390 15810,16390 15783,16390 15756,16390 15743,16356 15730,16323 15717,16289 15703,16252 15687,16221 15669,16194 15656,16175 15644,16163 15631,16157 15618,16152 15597,16149 15568,16149 15540,16149 15512,16149 15484,16149 15467,16229 15450,16310 15433,16390 15409,16390 15385,16390 15361,16390 Z M 15496,16090 C 15529,16090 15563,16090 15596,16090 15643,16090 15673,16089 15687,16088 15715,16085 15737,16079 15755,16069 15772,16060 15786,16047 15795,16031 15805,16014 15810,15997 15810,15978 15810,15962 15806,15948 15799,15937 15792,15925 15782,15917 15771,15913 15759,15908 15739,15906 15712,15906 15652,15906 15593,15906 15534,15906 15522,15968 15509,16029 15496,16090 Z"/>
        </g>
       </g>
       <g class="com.sun.star.drawing.ClosedBezierShape">
        <g id="id23">
         <rect class="BoundingBox" stroke="none" fill="none" x="15940" y="15837" width="519" height="564"/>
         <path fill="rgb(0,0,0)" stroke="none" d="M 15940,16162 C 15940,16066 15968,15987 16024,15927 16080,15867 16148,15837 16228,15837 16296,15837 16351,15859 16393,15904 16436,15948 16457,16007 16457,16081 16457,16134 16447,16183 16425,16228 16409,16262 16389,16291 16364,16316 16340,16340 16314,16359 16286,16373 16249,16390 16209,16399 16168,16399 16124,16399 16085,16389 16049,16368 16013,16347 15986,16318 15968,16281 15950,16244 15940,16204 15940,16162 Z M 16012,16166 C 16012,16198 16018,16227 16032,16254 16045,16281 16065,16302 16091,16317 16117,16332 16145,16339 16173,16339 16201,16339 16228,16333 16253,16319 16278,16306 16301,16288 16321,16264 16341,16241 16356,16212 16368,16177 16379,16143 16385,16109 16385,16075 16385,16021 16370,15978 16340,15946 16309,15914 16272,15898 16228,15898 16171,15898 16121,15922 16077,15971 16034,16019 16012,16084 16012,16166 Z"/>
        </g>
       </g>
       <g class="com.sun.star.drawing.ClosedBezierShape">
        <g id="id24">
         <rect class="BoundingBox" stroke="none" fill="none" x="16681" y="14983" width="247" height="1392"/>
         <path fill="rgb(0,0,0)" stroke="none" d="M 16681,16343 C 16801,16227 16860,16006 16860,15679 16860,15357 16801,15136 16681,15015 L 16681,14984 C 16770,15055 16835,15161 16876,15301 16910,15411 16926,15537 16926,15679 16926,16008 16845,16239 16681,16373 L 16681,16343 Z"/>
        </g>
       </g>
       <g class="com.sun.star.drawing.ClosedBezierShape">
        <g id="id25">
         <rect class="BoundingBox" stroke="none" fill="none" x="17043" y="14902" width="374" height="545"/>
         <path fill="rgb(0,0,0)" stroke="none" d="M 17277,15446 C 17277,15403 17277,15359 17277,15316 17199,15316 17121,15316 17044,15316 17044,15296 17044,15275 17044,15255 17125,15137 17207,15020 17289,14903 17307,14903 17325,14903 17343,14903 17343,15020 17343,15137 17343,15255 17367,15255 17391,15255 17415,15255 17415,15275 17415,15296 17415,15316 17391,15316 17367,15316 17343,15316 17343,15359 17343,15403 17343,15446 L 17277,15446 Z M 17277,15255 C 17277,15173 17277,15091 17277,15010 17221,15091 17165,15173 17108,15255 L 17277,15255 Z"/>
        </g>
       </g>
      </g>
     </g>
    </g>
   </g>
  </g>
 </g>
</svg>